{
    "namespace": "CORE",
    "language": "ka",
    "locale": "GE",
    "localized": "ქართული (საქართველო)",
    "direction": "ltr",
    "resources": {
        "ABOUT": "შესახებ",
        "ACTIVATED_ELSEWHERE": "თქვენი კვლევის მონაცემების მოსაგროვებლად გააქტიურებულია სხვა მოწყობილობა. გთხოვთ, დაუკავშირდეთ კვლევის კოორდინატორს, თუ თქვენ ფიქრობთ, რომ ეს განხორციელდა შეცდომით.",
        "ACTIVATION_CODE": "დაყენების კოდი:",
        "AFFIDAVIT": "მონიშნეთ OK და \"შემდეგ\", რათა შეინახოთ თქვენი პასუხები.",
        "AFFIDAVIT_HELP": "გმადლობთ. თქვენ ყველა აუცილებელი პასუხი შეავსეთ. პასუხების შემოწმება და შეცვლა შეგიძლიათ \"უკან\" ღილაკის გამოყენებით.",
        "ANSWER_ATTEMPT_EXCEEDED": "თქვენ არასწორი პასუხი მრავალჯერ გაეცით ან დააწკაპუნეთ ბმულზე „დამავიწყდა უსაფრთხოების კითხვის პასუხი“.",
        "APPLICATION_HEADER": "{{{ appHeader }}}",
        "BACK": "უკან",
        "BACK_OUT_CONFIRM": "ნამდვილად გსურთ, გააუქმოთ? აღნიშნული ფორმის პასუხები დაიკარგება.",
        "CANCEL": "გაუქმება",
        "CANCEL_UPDATE": "განახლების გაუქმება",
        "CHANGE_PASSWORD": "პაროლის შეცვლა",
        "CHANGE_SECRET_QUESTION": "უსაფრთხოების შეკითხვის შეცვლა",
        "CODE_ENTRY_NO_SERVER": "სერვერი მიუწვდომელია",
        "CONNECTION_REQUIRED": "საჭიროა კავშირი ინტერნეტთან.",
        "CONNECTION_TIMEOUT": "კავშირის დრო ამოიწურა.",
        "CONFIRM_PASSWORD": "დაადასტურეთ პაროლი:",
        "CONTACT_STUDY_COORDINATOR": "დაუკავშირდით თქვენი კვლევის კოორდინატორს.",
        "CONTACT_UNLOCK_CODE": "გთხოვთ, დაუკავშირდეთ თქვენი კვლევის კოორდინატორს დღევანდელი განმბლოკავი კოდის მისაღებად:",
        "CORE_PRODUCT_VERSION_LABEL": "პროდუქტის ვერსია:",
        "CURRENT_DATE": "{{{ currentDate }}}",
        "CURRENT_PASSWORD": "ამჟამინდელი პაროლი:",
        "DATE_LBL": "თარიღი:",
        "DEACTIVATED_LABEL": "ERT-ის გამოყენება ამ კვლევისათვის დასრულდა. თუ ეს არასწორია, გთხოვთ, მიმართოთ თქვენი კვლევის კოორდინატორს.",
        "DEVICE_ACTIVATION": "დაყენება",
        "DEVICE_NOT_SUPPORTED": "აღნიშნული მოწყობილობა მხარდაჭერილი არ არის. გთხოვთ, დაუკავშირდეთ თქვენი კვლევის კოორდინატორს ამ კვლევაში მხარდაჭერილი მოწყობილობების შესახებ ინფორმაციისთვის.",
        "DEVICE_REACTIVATION": "მოწყობილობის დაყენება",
        "DIARY_TIMEOUT": "აღნიშნული ფორმის დრო ამოიწურა.",
        "DOWNLOAD_FAILED": "აპლიკაციის გადმოწერა შეწყდა. გთხოვთ, სცადოთ თავიდან ინტერნეტთან დაკავშირების შემდეგ ან დაუკავშირდეთ ERT მხარდაჭერის ცენტრს.",
        "DOWNLOAD_FAILURE": "გადმოწერა შეწყდა",
        "ENTER_NEW_PASSWORD": "ახალი პაროლი:",
        "ERROR": "შეცდომა.  დაუკავშირდით ERT მხარდაჭერის ცენტრს.",
        "ERROR_AFTER_ACTIVATION_SUCCESSFUL": "მოხდა შეცდომა. თქვენ დაგჭირდებათ დასაყენებელი კოდისა და პაროლის შეყვანა.",
        "ERROR_CODE": "შეცდომის კოდი",
        "ERROR_TITLE": "შეცდომა",
        "FORGOT_PASSWORD": "დაგავიწყდათ პაროლი?",
        "FORGOT_SECRET_ANSWER": "დაგავიწყდათ უსაფრთხოების კითხვის პასუხი?",
        "INCORRECT_ANSWER": "არასწორი პასუხი",
        "INCORRECT_UNLOCK_CODE": "განმბლოკავი კოდი არასწორია",
        "INSTALLING": "აპლიკაციის ინსტალაცია",
        "INVALID_CODE": "დასაყენებელი კოდი არასწორია",
        "LOCAL_STORAGE_FAILURE": "ადგილობრივი შენახვის შეცდომა",
        "LOG_IN": "შესვლა",
        "LOG_LEVEL": "ჟურნალის დონე:",
        "LOGOUT": "გამოსვლა",
        "LOGOUT_CONFIRM": "ნამდვილად გსურთ გასვლა?",
        "NEXT": "შემდეგი",
        "NEXT_ACTION": " ERT-ში შემდეგი აქტივობის დროა ",
        "NO_DIARIES_TITLE": "მოხსენება არ არის შესაყვანი",
        "OK": "კარგი",
        "PASSWORD": "პაროლი:",
        "PASSWORD_ATTEMPT_EXCEEDED": "თქვენ არასწორი პაროლი მრავალჯერ შეიყვანეთ ან დააწკაპუნეთ ბმულზე „დამავიწყდა პაროლი“.",
        "PASSWORD_CHANGE_FAILED": "თქვენი კვლევის მონაცემების მოსაგროვებლად გააქტიურებულია სხვა მოწყობილობა. გთხოვთ, შეცვალოთ პაროლი ამ მოწყობილობაზე.",
        "PASSWORD_CHANGE_SUCCESS": "თქვენ წარმატებით განაახლეთ პაროლი.",
        "PASSWORD_INVALID": "არასწორი პაროლი",
        "PLEASE_ANSWER_SQ": "გთხოვთ, პასუხი გასცეთ უსაფრთხოების შეკითხვას:",
        "PLEASE_CONFIRM": "გთხოვთ, დაადასტუროთ",
        "PLEASE_CONTACT": "დაუკავშირდით ERT მხარდაჭერის ცენტრს.",
        "PLEASE_TRY_OR_CONTACT_SUPPORT": "სცადეთ კიდევ ან დაუკავშირდით ERT მხარდაჭერის ცენტრს.",
        "PLEASE_WAIT": "გთხოვთ, დაელოდოთ...",
        "PORTRAIT_ONLY": "გთხოვთ, გამართულ მდგომარეობაში დაიჭიროთ თქვენი მოწყობილობა.",
        "PRIVATE_BROWSING_ON": "გთხოვთ, გამორთოთ პირად რეჟიმში მუშაობის ფუნქცია. თუ კვლავ გექნებათ პრობლემები, დაუკავშირდით კვლევის კოორდინატორს.",
        "PRIVACY_POLICY": "კონფიდენციალურობის წესები",
        "PRIVACY_POLICY_APPLICATION_UNAVAILABILITY": "ERT კონფიდენციალურობის წესები დროებით მიუწვდომელია.",
        "PRIVACY_POLICY_ACTIVATION_UNAVAILABILITY": "ERT კონფიდენციალურობის წესები დროებით მიუწვდომელია. ERT კონფიდენციალურობის წესები ხელმისაწვდომია პარამეტრების გვერდიდან გააქტიურების შემდეგ.",
        "PROTOCOL": "პროტოკოლი:",
        "REQUIRED_ANSWER": "გთხოვთ, გასცეთ პასუხი",
        "RETRY": "ხელახლა ცდა",
        "RESET_PASSWORD": "გადააყენეთ პაროლი",
        "RESET_SECRET_QUESTION": "უსაფრთხოების შეკითხვის შეცვლა",
        "SECRET_ANSWER": "უსაფრთხოების კითხვის პასუხი:",
        "SECRET_QUESTION": "უსაფრთხოების შეკითხვა:",
        "SECRET_QUESTION_CHANGE_FAILED": "თქვენი კვლევის მონაცემების მოსაგროვებლად გააქტიურებულია სხვა მოწყობილობა. გთხოვთ, შეცვალოთ უსაფრთხოების შეკითხვა ამ მოწყობილობაზე.",
        "SECRET_QUESTION_CHANGE_SUCCESS": "თქვენ წარმატებით განაახლეთ პაროლი და უსაფრთხოების შეკითხვა.",
        "SETTINGS": "პარამეტრები",
        "SITE": "ცენტრი:",
        "SKIP_QUESTION": "დარწმუნებული ხართ, რომ ამ ფანჯარაში პასუხების გამოტოვება გსურთ?",
        "SPONSOR": "სპონსორი:",
        "STORED_REPORTS": "შენახული ფორმები:",
        "STUDY_VERSION": "კვლევის ვერსია: ",
        "STUDY_URL": "კვლევის URL:",
        "SUBJECT_ID": "პაციენტის კოდი:",
        "TEMPORARY_UNLOCK_CODE": "შეიყვანეთ განმბლოკავი კოდი, რომელიც კვლევის კოორდინატორმა მოგცათ.",
        "TRANSMIT_REPORTS": "განახლება",
        "UPDATE_CACHED_DELETED": "ERT განახლება არ დასრულებულა. ERT-ის გამოსაყენებლად დაგჭირდებათ კავშირი ინტერნეტთან. დაუკავშირდით თქვენს ERT მხარდაჭერის ცენტრს.",
        "UPDATE_FAILED": "ERT განახლება არ დასრულებულა. გთხოვთ, დარწმუნდეთ, რომ მოწყობილობა კავშირშია ინტერნეტთან და სცადეთ ხელახლა.",
        "UPDATE_FAILURE": "განახლება არ დასრულებულა.",
        "UPDATE_SUCCESS": "განახლება წარმატებულია",
        "WELCOME": "მოგესალმებით",
        "ALARM_OFF_LBL": "გამორთული",
        "ALARM_TURN_OFF": "გამორთვა",
        "SET_ALARMS": "შეხსენებების დაყენება",
        "SCHED_NO_DIARIES_AVAILABLE": "შესასრ. მოხსენებები არ არსებობს",
        "TRAINER": "ვარჯიშის რეჟიმი",
        "TRAINER_EXIT": "ვარჯიშის რეჟიმიდან გასვლა",
        "TRAINER_EXIT_NOTIFICATION": "თქვენ გადიხართ ვარჯიშის რეჟიმიდან",
        "TRAINER_HEADER": "(მწვრთნელი)",
        "ELPU_FAILURE": "ამ ERT მოწყობილობის გამოყენება დასრულდა, თუმცა ფიქსირდება შეცდომა. სცადეთ ხელახლა.",
        "ELPU_ON_REPLACED_DEVICE": "ERT-ის გამოყენება ამ მოწყობილობაზე დასრულდა. გამოიყენეთ შემცვლელი მოწყობილობა.",
        "SECURITY_QUESTION_0": "დედათქვენის ქალიშვილობის გვარი",
        "SECURITY_QUESTION_1": "თქვენი დაბადების ქალაქი",
        "SECURITY_QUESTION_2": "თქვენი პირველი შინაური ცხოველის მეტსახელი",
        "SECURITY_QUESTION_3": "თქვენი საყვარელი სპორტის სახეობა",
        "SECURITY_QUESTION_4": "რომელ წელს დაასრულეთ სკოლა/უნივერსიტეტი?",
        "SECURITY_QUESTION_5": "თქვენი უფროსი შვილის სახელი?",
        "SECURITY_QUESTION_6": "თქვენი ბავშვობის საუკეთესო მეგობრის სახელი?",
        "SECURITY_QUESTION_7": "რა გვარი იყო მესამე კლასში თქვენი მასწავლებელი?",
        "SECURITY_QUESTION_8": "რომელ ქალაქში ან სოფელში დაიწყეთ პირველად მუშაობა?",
        "SELECT_SITE_USER": "შეარჩიეთ ცენტრის მომხმარებლის სახელი",
        "SITE_USER_NAME": "ცენტრის მომხმარებლის სახელი:",
        "ADD_SITE_USER": "დაამატეთ ცენტრის მომხმარებელი",
        "INVALID_ENTRY": "არასწორი ჩანაწერი",
        "HANDOFF_MESSAGE": "<strong>პაციენტმა უნდა შეავსოს ეკრანზე გამოსახული შემდეგი ველები ფორმაზე წვდომის კოდის მისაღებად.</strong>",
        "REVERSE_HANDOFF_CONFIRM": "თუ აირჩევთ OK, გააქტიურების პროცესი განახლდება. დარწმუნებული ხართ, რომ გსურთ გააქტიურების განახლება?",
        "SITE_GATEWAY_TITLE": "ცენტრის პუნქტი",
        "USER_ALREADY_EXISTS": "ცენტრის მომხმარებელი უკვე არსებობს",
        "SITE_SIGNATURE": "ხელმომწერი: ",
        "SITE_REPORT_AFF": "მე შევიყვანე, გადავამოწმე და ვადასტურებ ზემოთ აღნიშნულ მონაცემებს.<br /><br /><strong>ხელმოწერა:</strong> {{{ getActiveUserName }}}",
        "PATIENT_REPORT_AFF": "მე შევიყვანე, გადავამოწმე და ვადასტურებ ზემოთ აღნიშნულ მონაცემებს.<br /><br /><strong>ინიციალები:</strong> {{{ getActiveUserName }}}",
        "CLEAR_SIGNATURE": "ხელმოწერის წაშლა",
        "STUDY_ALIAS": "{{{ studyAlias }}}",
        "SITE_ACTIVATED_ELSEWHERE": "პაციენტის კვლევის მონაცემების მოსაგროვებლად გააქტიურებულია სხვა მოწყობილობა. გთხოვთ, დაუკავშირდეთ კვლევის კოორდინატორს თუ თქვენ ფიქრობთ რომ ეს განხორციელდა შეცდომით.",
        "SITE_DEACTIVATED_LABEL": "პაციენტის მიერ ამ კვლევისთვის ERT-ის გამოყენება დასრულდა. თუ ეს არასწორია, გთხოვთ, მიმართოთ კვლევის კოორდინატორს.",
        "SIGNATURE_DATA_LIMIT_EXCEEDED": "ხელმოწერის ველი ზუსტად ვერ ასახავს თქვენს ხელმოწერას. გთხოვთ, აღნიშნულის ნაცვლად დაწეროთ თქვენი ინიციალები.",
        "PAIRED": "დაწყვილებული",
        "BLUETOOTH_REG_TITLE": "eSense მოწყობილობის დაწყვილება",
        "BLUETOOTH_REG_REFRESH_BUTTON": "სიის განახ.",
        "BLUETOOTH_PAIR_DEVICE": "არჩეული მოწყობილობის დაწყვილება",
        "BLUETOOTH_PAIRING_FAILED": "არჩეული მოწყობილობის დაწყვილება წარუმატებელი იყო. ხელახლა სცადეთ.",
        "BLUETOOTH_PAIRING_SUCCESS": "არჩეული მოწყობილობის დაწყვილება წარმატებით განხორციელდა.",
        "BLUETOOTH_REG_NO_DEVICES_FOUND": "მოწყობილობები ვერ მოიძებნა. დარწმუნდით, რომ მოწყობილობა ERT-თან ახლოს იმყოფება და მასში ჩართულია გადაცემის რეჟიმი.",
        "SYNC_FAILED": "სერვერთან სინქრონიზაცია წარუმატებელია.",
        "DIARY_REQUIRES_E_SENSE_SUPPORT": "eSense მხარდაჭერილი არ არის. აღნიშნული ფორმა საჭიროებს eSense-ის მხარდაჭერას.",
        "ERROR_E_SENSE_ENABLE": "eSense ვერ ჩაირთო.",
        "E_SENSE_NOT_PAIRED": "eSense მოწყობილობა დაწყვილებული არ არის. აღნიშნული ფორმა საჭიროებს eSense-ის დაწყვილებულ მოწყობილობას.",
        "BLUETOOTH_SYNC_FAILURE_TOP": "ERT ვერ დაუკავშირდა {{{ eSenseDeviceName }}} მოწყობილობას.",
        "BLUETOOTH_SYNC_FAILURE_MIDDLE": "დარწმუნდით, რომ {{{ eSenseDeviceName }}} მოწყობილობა ნომერი: {{{ eSenseSerialNumber }}} ERT-თან ახლოს იმყოფება და მასში ჩართულია გადაცემის რეჟიმი.",
        "PLUGIN_MISSING": "ვერ ჩაირთო საჭირო დანამატი.",
        "WRAPPER_VERSION": "Wrapper ვერსია:",
        "SUPPORT": "მომხმარებელთა მხარდაჭერა",
        "SUPPORT_MESSAGE": "შეერთებულ შტატებში მყოფ მომხმარებლებს შეუძლიათ დაუკავშირდნენ ERT ტექნიკური მხარდაჭერის სამსახურს ნომერზე 800-748-5669. საერთაშორისო მომხმარებლებს გთხოვთ, აირჩიოთ უახლოესი ქვეყანა:",
        "SUPPORT_DROPDOWN": "აირჩიეთ ქვეყანა",
        "SUPPORT_NAME_ARGENTINA": "არგენტინა",
        "SUPPORT_NUMBER_ARGENTINA": "<bdi>0800 444 0962</bdi>",
        "SUPPORT_NAME_ARMENIA": "სომხეთი",
        "SUPPORT_NUMBER_ARMENIA": "<bdi>+1 617 681 6306</bdi>",
        "SUPPORT_NAME_AUSTRALIA": "ავსტრალია",
        "SUPPORT_NUMBER_AUSTRALIA": "<bdi>1 800 800 051</bdi>",
        "SUPPORT_NAME_AUSTRIA": "ავსტრია",
        "SUPPORT_NUMBER_AUSTRIA": "<bdi>0800 100 405</bdi>",
        "SUPPORT_NAME_BELARUS": "ბელარუსი",
        "SUPPORT_NUMBER_BELARUS": "<bdi>8 820 0321 0036</bdi>",
        "SUPPORT_NAME_BELGIUM": "ბელგია",
        "SUPPORT_NUMBER_BELGIUM_1": "(ინგლისური): <bdi>0800 58 016</bdi>",
        "SUPPORT_NUMBER_BELGIUM_2": "(ფრანგული): <bdi>0800 71 076</bdi>",
        "SUPPORT_NUMBER_BELGIUM_3": "(გერმანული): <bdi>0800 71 113</bdi>",
        "SUPPORT_NAME_BRAZIL": "ბრაზილია",
        "SUPPORT_NUMBER_BRAZIL": "<bdi>0800 891 5909</bdi>",
        "SUPPORT_NAME_BOSNIA": "ბოსნია",
        "SUPPORT_NUMBER_BOSNIA": "<bdi>+1 617 681 6306</bdi>",
        "SUPPORT_NAME_BULGARIA": "ბულგარეთი",
        "SUPPORT_NUMBER_BULGARIA": "<bdi>00800 0010</bdi>, შემდეგ <bdi>866 245 4931</bdi>",
        "SUPPORT_NAME_CANADA": "კანადა",
        "SUPPORT_NUMBER_CANADA": "<bdi>1 800 748 5669</bdi>",
        "SUPPORT_NAME_CHILE": "ჩილე",
        "SUPPORT_NUMBER_CHILE": "<bdi>123 0020 3408</bdi>",
        "SUPPORT_NAME_CHINA": "ჩინეთი",
        "SUPPORT_NUMBER_CHINA_1": "NetCom (ჩრდილოეთი): <bdi>1 0800 74 40 164</bdi>",
        "SUPPORT_NUMBER_CHINA_2": "Telecom (სამხრეთი): <bdi>1 0800 44 00 158</bdi>",
        "SUPPORT_NAME_COLOMBIA": "კოლუმბია",
        "SUPPORT_NUMBER_COLOMBIA": "<bdi>01 800 911 0010</bdi>, შემდეგ <bdi>866 310 3707</bdi>",
        "SUPPORT_NAME_COSTA_RICA": "კოსტა რიკა",
        "SUPPORT_NUMBER_COSTA_RICA": "<bdi>0800 013 1210</bdi>",
        "SUPPORT_NAME_CROATIA": "ხორვატია",
        "SUPPORT_NUMBER_CROATIA": "<bdi>0800 222 953</bdi>",
        "SUPPORT_NAME_CZECH_REPUBLIC": "ჩეხეთის რესპუბლიკა",
        "SUPPORT_NUMBER_CZECH_REPUBLIC": "<bdi>800 142 150</bdi>",
        "SUPPORT_NAME_DENMARK": "დანია",
        "SUPPORT_NUMBER_DENMARK": "<bdi>80 60 00 09</bdi>",
        "SUPPORT_NAME_EGYPT": "ეგვიპტე",
        "SUPPORT_NUMBER_EGYPT": "<bdi>02 510 0200</bdi>, შემდეგ <bdi>866 310 3707</bdi>",
        "SUPPORT_NAME_EL_SALVADOR": "ელ სალვადორი",
        "SUPPORT_NUMBER_EL_SALVADOR": "<bdi>+1 617 681 6306</bdi>",
        "SUPPORT_NAME_ESTONIA": "ესტონეთი",
        "SUPPORT_NUMBER_ESTONIA": "<bdi>800 00 44 154</bdi>",
        "SUPPORT_NAME_FINLAND": "ფინეთი",
        "SUPPORT_NUMBER_FINLAND": "<bdi>0800 11 6366</bdi>",
        "SUPPORT_NAME_FRANCE": "საფრანგეთი",
        "SUPPORT_NUMBER_FRANCE": "<bdi>0800 10 19 79</bdi>",
        "SUPPORT_NAME_GERMANY": "გერმანია",
        "SUPPORT_NUMBER_GERMANY": "<bdi>0800 101 28 21</bdi>",
        "SUPPORT_NAME_GREECE": "საბერძნეთი",
        "SUPPORT_NUMBER_GREECE": "<bdi>00 800 1311</bdi>, შემდეგ <bdi>866 310 3707</bdi>",
        "SUPPORT_NAME_GUATEMALA": "გვატემალა",
        "SUPPORT_NUMBER_GUATEMALA": "<bdi>1 800 624 0079</bdi>",
        "SUPPORT_NAME_HONG_KONG": "ჰონგ კონგი",
        "SUPPORT_NUMBER_HONG_KONG": "<bdi>3002 1665</bdi>",
        "SUPPORT_NAME_HUNGARY": "უნგრეთი",
        "SUPPORT_NUMBER_HUNGARY": "<bdi>06 800 14 571</bdi>",
        "SUPPORT_NAME_ICELAND": "ისლანდია",
        "SUPPORT_NUMBER_ICELAND": "<bdi>800 8544</bdi>",
        "SUPPORT_NAME_INDIA": "ინდოეთი",
        "SUPPORT_NUMBER_INDIA": "<bdi>000 800 440 1125</bdi>",
        "SUPPORT_NAME_INDONESIA": "ინდონეზია",
        "SUPPORT_NUMBER_INDONESIA": "<bdi>008 800 330 334</bdi>",
        "SUPPORT_NAME_IRELAND": "ირლანდია",
        "SUPPORT_NUMBER_IRELAND": "<bdi>1 800 946 700</bdi>",
        "SUPPORT_NAME_ISRAEL": "ისრაელი",
        "SUPPORT_NUMBER_ISRAEL": "<bdi>1 809 470 062</bdi>",
        "SUPPORT_NAME_ITALY": "იტალია",
        "SUPPORT_NUMBER_ITALY": "<bdi>800 90 56 37</bdi>",
        "SUPPORT_NAME_JAPAN": "იაპონია",
        "SUPPORT_NUMBER_JAPAN": "გთხოვთ, მიმართოთ თქვენს ePRO კვლევის საინფორმაციო გზამკვლევს, თქვენი კვლევის უფასო ნომრის გასაგებად",
        "SUPPORT_NAME_LATVIA": "ლატვია",
        "SUPPORT_NUMBER_LATVIA": "<bdi>8000 2151</bdi>",
        "SUPPORT_NAME_LEBANON": "ლიბანი",
        "SUPPORT_NUMBER_LEBANON": "<bdi>01-426-801</bdi>, შემდეგ <bdi>866 310 3707</bdi>",
        "SUPPORT_NAME_LITHUANIA": "ლიტვა",
        "SUPPORT_NUMBER_LITHUANIA": "<bdi>8800 30207</bdi>",
        "SUPPORT_NAME_MALAYSIA": "მალაიზია",
        "SUPPORT_NUMBER_MALAYSIA": "<bdi>1800 80 59 71</bdi>",
        "SUPPORT_NAME_MEXICO": "მექსიკა",
        "SUPPORT_NUMBER_MEXICO_1": "(ინგლისური): <bdi>001 800 748 5669</bdi> ",
        "SUPPORT_NUMBER_MEXICO_2": "(ესპანური): <bdi>001 855 631 6952</bdi>",
        "SUPPORT_NAME_MOLDOVA": "მოლდავეთი",
        "SUPPORT_NUMBER_MOLDOVA": "<bdi>617 681 6306</bdi>",
        "SUPPORT_NAME_NETHERLANDS": "ჰოლანდია",
        "SUPPORT_NUMBER_NETHERLANDS": "<bdi>0800 023 1389</bdi>",
        "SUPPORT_NAME_NEW_ZEALAND": "ახალი ზელანდია",
        "SUPPORT_NUMBER_NEW_ZEALAND": "<bdi>0800 110 178</bdi>",
        "SUPPORT_NAME_NORWAY": "ნორვეგია",
        "SUPPORT_NUMBER_NORWAY": "<bdi>800 62 051</bdi>",
        "SUPPORT_NAME_PAKISTAN": "პაკისტანი",
        "SUPPORT_NUMBER_PAKISTAN": "<bdi>00 800 0100</bdi>, შემდეგ <bdi>866 237 9767</bdi>",
        "SUPPORT_NAME_PANAMA": "პანამა",
        "SUPPORT_NUMBER_PANAMA": "<bdi>001 800 201 3095</bdi>",
        "SUPPORT_NAME_PERU": "პერუ",
        "SUPPORT_NUMBER_PERU": "<bdi>0800 5 0974</bdi>",
        "SUPPORT_NAME_PHILIPPINES": "ფილიპინები",
        "SUPPORT_NUMBER_PHILIPPINES": "<bdi>1 800 1116 0651</bdi>",
        "SUPPORT_NAME_POLAND": "პოლონეთი",
        "SUPPORT_NUMBER_POLAND": "<bdi>00800 331 1262</bdi>",
        "SUPPORT_NAME_PORTUGAL": "პორტუგალია",
        "SUPPORT_NUMBER_PORTUGAL": "<bdi>800 206 172</bdi>",
        "SUPPORT_NAME_PUERTO_RICO": "პუერტო რიკო (აშშ ტერიტორია)",
        "SUPPORT_NUMBER_PUERTO_RICO": "<bdi>1 800 748 5669</bdi>",
        "SUPPORT_NAME_ROMANIA": "რუმინეთი",
        "SUPPORT_NUMBER_ROMANIA": "<bdi>0800 894492</bdi>",
        "SUPPORT_NAME_RUSSIA": "რუსეთი",
        "SUPPORT_NUMBER_RUSSIA_1": "(პირველი - ზარი უფასოა): <bdi>8 10 800 249 13011</bdi>",
        "SUPPORT_NUMBER_RUSSIA_2": "(მოსკოვის ფარგლებში): <bdi>363-2400</bdi> <br> შემდეგ <bdi>866 310 3707</bdi>",
        "SUPPORT_NUMBER_RUSSIA_3": "(მოსკოვის გარეთ): <bdi>8^(495) 363-2400</bdi> <br> შემდეგ <bdi>866 310 3707</bdi>",
        "SUPPORT_NUMBER_RUSSIA_4": "(სანქტ პეტერბურგის ფარგლებში): <bdi>363-2400</bdi> <br> შემდეგ <bdi>866 310 3707</bdi>",
        "SUPPORT_NUMBER_RUSSIA_5": "(სანქტ პეტერბურგის გარეთ): <bdi>8^(495) 363-2400</bdi> <br> შემდეგ <bdi>866 310 3707</bdi>",
        "SUPPORT_NAME_SAUDI_ARABIA": "საუდის არაბეთი",
        "SUPPORT_NUMBER_SAUDI_ARABIA": "<bdi>+1 617 681 6306</bdi>",
        "SUPPORT_NAME_SERBIA": "სერბია",
        "SUPPORT_NUMBER_SERBIA": "<bdi>+1 617 973 1739</bdi>",
        "SUPPORT_NAME_SINGAPORE": "სინგაპური",
        "SUPPORT_NUMBER_SINGAPORE": "<bdi>800 616 30 03</bdi>",
        "SUPPORT_NAME_SLOVAKIA": "სლოვაკეთი",
        "SUPPORT_NUMBER_SLOVAKIA": "<bdi>0800 0044 65</bdi>",
        "SUPPORT_NAME_SLOVENIA": "სლოვენია",
        "SUPPORT_NUMBER_SLOVENIA": "<bdi>+1 617 681 6306</bdi>",
        "SUPPORT_NAME_SOUTH_AFRICA": "სამხრეთ აფრიკა",
        "SUPPORT_NUMBER_SOUTH_AFRICA": "<bdi>0800 99 5853</bdi>",
        "SUPPORT_NAME_SOUTH_KOREA": "სამხრეთ კორეა",
        "SUPPORT_NUMBER_SOUTH_KOREA": "<bdi>00308 33 00 08</bdi>",
        "SUPPORT_NAME_SPAIN": "ესპანეთი",
        "SUPPORT_NUMBER_SPAIN": "<bdi>900 90 2541</bdi>",
        "SUPPORT_NAME_SWEDEN": "შვედეთი",
        "SUPPORT_NUMBER_SWEDEN": "<bdi>020 120 99 69</bdi>",
        "SUPPORT_NAME_SWITZERLAND": "შვეიცარია",
        "SUPPORT_NUMBER_SWITZERLAND_1": "(ინგლისური): <bdi>0800 199 325</bdi>",
        "SUPPORT_NUMBER_SWITZERLAND_2": "(ფრანგული): <bdi>0800 891 183</bdi>",
        "SUPPORT_NUMBER_SWITZERLAND_3": "(გერმანული): <bdi>0800 891 025</bdi>",
        "SUPPORT_NAME_TAIWAN": "ტაივანი",
        "SUPPORT_NUMBER_TAIWAN": "<bdi>00801 33 33 42</bdi>",
        "SUPPORT_NAME_THAILAND": "ტაილანდი",
        "SUPPORT_NUMBER_THAILAND": "<bdi>1 800 33 140 353</bdi>",
        "SUPPORT_NAME_TUNISIA": "ტუნისი",
        "SUPPORT_NUMBER_TUNISIA": "<bdi>+1 617 681 6306</bdi>",
        "SUPPORT_NAME_TURKEY": "თურქეთი",
        "SUPPORT_NUMBER_TURKEY": "<bdi>00 800 151 1335</bdi>",
        "SUPPORT_NAME_UKRAINE": "უკრაინა",
        "SUPPORT_NUMBER_UKRAINE": "<bdi>0^00 11</bdi>, შემდეგ <bdi>866 245 4931</bdi>",
        "SUPPORT_NAME_UAE": "არაბეთის გაერთიანებული საამიროები",
        "SUPPORT_NUMBER_UAE": "<bdi>8000-021</bdi>, შემდეგ <bdi>866 310 3707</bdi>",
        "SUPPORT_NAME_UK": "გაერთიანებული სამეფო",
        "SUPPORT_NUMBER_UK": "<bdi>0800 015 0408</bdi>",
        "SUPPORT_NAME_US": "შეერთებული შტატები",
        "SUPPORT_NUMBER_US_1": "(მთავარი): <bdi>1 800 748 5669</bdi>",
        "SUPPORT_NUMBER_US_2": "(სათადარიგო): <bdi>1 877 748 5669</bdi>",
        "SUPPORT_NAME_VENEZUELA": "ვენესუელა",
        "SUPPORT_NUMBER_VENEZUELA_1": "(ინგლისური): <bdi>0 800 552 6288</bdi> <br> შემდეგ <bdi>866 310 3707</bdi> ",
        "SUPPORT_NUMBER_VENEZUELA_2": "(ესპანური): <bdi>0 800 100 3063</bdi> ",
        "USER_NAME": "მომხმარებლის სახელი:",
        "SUBJECT_ROLE": "პაციენტის კოდი: {{{ getParticipantCode }}}",
        "SITE_ROLE": "ცენტრის მომხმარებელი",
        "TEMPORARY_PASSWORD_MESSAGE": "გთხოვთ, მისცეთ დროებითი პაროლი ახალ მომხმარებელს. ავტორიზაციის შემდეგ მათ მოეთხოვებათ ახალი პაროლის შექმნა.",
        "SHARED_PASSWORD_MESSAGE": "პაროლი ახალი მომხმარებლისთვის აღდგენილ უნდა იქნეს Study Works-დან.",
        "TEMP_PASSWORD": "დროებითი პაროლი: ",
        "ROLES": "როლი:",
        "LANGUAGE": "ენა:",
        "FULL_NAME": "სრული სახელი:",
        "CONFIRM_TEMP_PASS": "დაადასტურეთ დროებითი პაროლი:",
        "PASSWORD_MISMATCH": "პაროლის დადასტურება არ ემთხვევა პაროლს",
        "PASSWORD_INVALID_CHARACTERS": "გთხოვთ, გამოიყენოთ მხოლოდ ციფრები",
        "USER_NAME_INVALID_CHARACTERS": "გთხოვთ, არ გამოიყენოთ სპეციალური სიმბოლოები",
        "USER_NAME_MORE_THAN_25": "გთხოვთ, გამოიყენოთ 25 სიმბოლო ან ნაკლები",
        "PRIVACY_POLICY_VERSION_LABEL": "ვერსია: ",
        "PRIVACY_POLICY_VERSION": "1.6.0",
        "PRIVACY_POLICY_LAST_UPDATED_LABEL": "ბოლო განახლება: ",
        "PRIVACY_POLICY_LAST_UPDATED": "21 იანვარი 2014",
        "PRIVACY_POLICY_TEXT_LABEL": "კონფიდენციალურობის შესახებ: ",
        "PRIVACY_POLICY_TEXT": "ERT გვთავაზობს პროგრამას, რომელსაც ახლა აინსტალირებთ. ERT თანამშრომლობს თქვენი კლინიკური კვლევის ცენტრთან, რათა უზრუნველყოს, რომ თქვენი პიროვნება არ გასაჯაროვდეს კვლევის ცენტრის ნებართვის გარეშე. თქვენ გაქვთ უფლება, იხილოთ ჩანაწერები თქვენ შესახებ კვლევის ცენტრის დახმარებით.",
        "SUBJECT_REPORT_AFF": "ვადასტურებ, რომ შეძლებისდაგვარად ვუპასუხე ყველა კითხვას.",
        "SUBJECT_INITIALS_LABEL": "პაციენტის ინიციალები:",
        "SUBJECT": "პაციენტი",
        "SET_TIMEZONE": "დროის სარტყლის დაყენება",
        "SET_TIMEZONE_MESSAGE": "დროის სარტყელის არჩევა",
        "SET_TIMEZONE_BUTTON": "დაყენება",
        "TIME_ZONE_CONFIRM_HEADER": "დროის სარტყლის ცვლილების დადასტურება",
        "TIME_ZONE_CONFIRM": "დარწმუნებული ხართ, რომ გსურთ დროის სარტყლის შეცვლა? აპლიკაცია გადაიტვირთება, რათა მოხდეს ცვლილების ასახვა.",
        "TIME_ZONE_EUROPE_KALININGRAD": "ევროპა/კალინინგრადი",
        "TIME_ZONE_EUROPE_MOSCOW": "ევროპა/მოსკოვი",
        "TIME_ZONE_ASIA_KARACHI": "აზია/კარაჩი",
        "TIME_ZONE_ASIA_YEKATERINBURG": "აზია/ეკატერინბურგი",
        "TIME_ZONE_ASIA_NOVOSIBIRSK": "აზია/ნოვოსიბირსკი",
        "TIME_ZONE_ASIA_KRASNOYARSK": "აზია/კრასნოიარსკი",
        "TIME_ZONE_ASIA_IRKUTSK": "აზია/ირკუტსკი",
        "TIME_ZONE_ASIA_YAKUTSK": "აზია/იაკუტსკი",
        "TIME_ZONE_ASIA_VLADIVOSTOK": "აზია/ვლადივოსტოკი",
        "TIME_ZONE_ASIA_KAMCHATKA": "აზია/კამჩატკა",
        "AF-ZA": "აფრიკაანსი",
        "AR-EG": "არაბული",
        "BE-BY": "ბელარუსული",
        "BG-BG": "ბულგარული",
        "BN-IN": "ბენგალური",
        "BS-BA": "ბოსნიური",
        "CA-ES": "კატალანური",
        "CS-CZ": "ჩეხური",
        "DA-DK": "დანიური",
        "DE-DE": "გერმანული (გერმანია)",
        "DE-AT": "გერმანული (ავსტრია)",
        "EL-GR": "ბერძნული",
        "EN-GB": "ინგლისური (გაერთიანებული სამეფო)",
        "EN-US": "ინგლისური (შეერთებული შტატები)",
        "ES-ES": "ესპანური (ესპანეთი)",
        "ES-US": "ესპანური (შეერთებული შტატები):",
        "ES-PY": "ესპანური (უნივერსალი)",
        "ET-EE": "ესტონური",
        "FI-FI": "ფინური",
        "FR-CA": "ფრანგული (კანადა)",
        "FR-FR": "ფრანგული (საფრანგეთი)",
        "GD-IE": "გალიური",
        "GU-IN": "გუჯარათი",
        "HE-IL": "ებრაული",
        "HI-IN": "ჰინდი",
        "HR-HR": "ხორვატიული",
        "HU-HU": "უნგრული",
        "IT-IT": "იტალიური",
        "JA-JP": "იაპონური",
        "KA-GE": "ქართული",
        "KN-IN": "კანადა (ენა)",
        "KO-KR": "კორეული",
        "LV-LV": "ლატვიური",
        "LT-LT": "ლიტვური",
        "ML-IN": "მალაიალამური",
        "MR-IN": "მარათი",
        "MS-MY": "მალაი",
        "NB-NO": "ნორვეგიური",
        "NL-BE": "ჰოლანდიური (ბელგია)",
        "NL-NL": "ჰოლანდიური (ნიდერლანდები)",
        "PA-IN": "პენჯაბური",
        "PL-PL": "პოლონური",
        "PT-BR": "პორტუგალიური (ბრაზილია)",
        "PT-PT": "პორტუგალიური (პორტუგალია)",
        "RO-RO": "რუმინული",
        "RU-RU": "რუსული",
        "SL-SL": "სლოვენიური",
        "SK-SK": "სლოვაკური",
        "SR-RS": "სერბული (ლათინური)",
        "SR-SP": "სერბული (კირილიცა)",
        "ST-ZA": "სოტო",
        "SV-SE": "შვედური",
        "TA-IN": "ტამილი",
        "TE-IN": "ტელუგუ",
        "TH-TH": "ტაი",
        "TL-PH": "ტაგალოგი",
        "TN-ZA": "ცვანა",
        "TR-TR": "თურქული",
        "UK-UA": "უკრაინული",
        "UR-IN": "ურდუ",
        "VI-VN": "ვიეტნამური",
        "XH-ZA": "ქსოზა",
        "ZH-CN": "ჩინური (ჩინეთი)",
        "ZH-TW": "ჩინური (ტაივანი)",
        "ZU-ZU": "ზულუ",
        "NO_RESULTS_FOUND": "შედეგი არ მოიძებნა.",
        "USER": "მომხმარებელი",
        "SYNC": "სინქრონიზაცია",
        "TIME_LBL": "დრო",
        "SET_TIME": "დროის დაყენება",
		"NEW_USER": "ახალი მომხმარებლის დღიურის დამატება",
        "NEW_USER_CREATED": "შეიქმნა ახალი მომხმარებელი.",
        "TIME_ZONE_SET_CONFIRM": "დარწმუნებული ხართ, რომ გსურთ დროის სარტყლის შეცვლა: <bdi>{{{ selectedTimeZone }}}</bdi>? <br/> აპლიკაცია შეიძლება გადაიტვირთოს, რათა მოხდეს ცვლილების ასახვა.",
        "TIME_ZONE_SET_CONFIRM_NOCHANGE": "დარწმუნებული ხართ, რომ გსურთ დროის სარტყლის შეცვლა: <bdi>{{{ selectedTimeZone }}}</bdi>?",
        "TIME_ZONE_SET_HEADER": "დროის სარტყლის დაყენების დადასტურება",
        "TIME_ZONE_ERROR_HEADER": "დროის სარტყლის შეცდომა",
        "TIME_ZONE_ERROR_MSG": "დროის სარტყლების ჩამონათვალის ძიებისას მოხდა შეცდომა. დამატებითი დახმარების მისაღებად დაუკავშირდით ERT ტექნიკური მხარდაჭერის სამსახურს.",
        "TIME_ZONE_SET_ERROR_MSG": "დროის სარტყლის დაყენებისას მოხდა შეცდომა. დამატებითი დახმარების მისაღებად დაუკავშირდით ERT ტექნიკური მხარდაჭერის სამსახურს.",
        "TIME_CONFIRMATION_INSTRUCTIONS": "მოწყობილობისთვის აუცილებელია ადგილობრივი დროის დადასტურება. მიუთითეთ თარიღი და დრო სანდო წყაროდან.",
        "LOW_BATTERY": "გაფრთხილება: აკუმულატორის მუხტი დაბალია. გთხოვთ, შეართოთ მოწყობილობა დასატენად.",
        "CRITICAL_BATTERY": "გაფრთხილება: აკუმულატორის მუხტი კრიტიკულად დაბალია. გთხოვთ, შეაერთოთ მოწყობილობა დასატენად, წინააღმდეგ შემთხვევაში იგი გამოირთვება.",
        "SITE_ADMINISTRATOR": "კვლევის ცენტრის ადმინისტრატორი",
        "TIME_CONFIRMATION_HEADER": "დაადასტურეთ თარიღი/დრო",
        "TIMESLIP_ERROR": "თქვენს მოწყობილობაზე დრო ან თარიღი არასწორია. გთხოვთ, გადახვიდეთ მდებარეობაზე, სადაც არის ინტერნეტთან კავშირი და სცადოთ ხელახლა. თუ პრობლემები კვლავ წარმოიქმნება, დაუკავშირდით ERT კლიენტთა მხარდაჭერის ცენტრს.",
        "P_AFFIDAVIT_HEADER": "<div><strong>ცენტრი: {{{ getSiteCodeForSubject }}}</strong><br /><strong>პაციენტის ID: {{{ getParticipantCodeForSubject }}}</strong></div>",
        "RESTART_NOTIFICATION_HEADER": "საჭიროა გადატვირთვა",
        "RESTART_NOTIFICATION_MSG": "დროის სარტყელი შეიცვალა. აპლიკაცია გადაიტვირთება {{{ timeZoneChangeRestartCountdown }}}.",
        "RESTART_NOW": "გადატვირთვა",
        "SECONDS": "წამში",
        "MINUTES": "წუთში",
        "SELECT_LANGUAGE": "გთხოვთ, აირჩიოთ სუბიექტისთვის უპირატესი ენა.",
        "ACCEPT": "თანახმა ვარ",
        "DECLINE": "უარზე ვარ",
        "EULA": "საბოლოო მომხმარებლის ლიცენზია",
        "EULA_TEXT": "<p><strong><span class=\"text-underline\">მნიშვნელოვანია</span>:  არ დააწკაპუნოთ თანხმობის ღილაკზე, ვიდრე არ წაიკითხავთ მოცემულ შეთანხმებას.  თანხმობის ღილაკზე დაწკაპუნებით, თქვენ ეთანხმებით მოცემული შეთანხმების ყველა პირობას.  თუ თქვენ არ ეთანხმებით მოცემული შეთანხების ყველა პირობას (1) არ დააწკაპუნოთ \"თანახმა ვარ\" ღილაკზე, (2) შეწყვიტეთ ინსტალაცია და ლიცენზირების პროცესი \"უარზე ვარ\" ღილაკზე დაწკაპუნებით.</strong></p><p>eResearchTechnology, Inc. (\"ლიცენზიანტი\") განიჭებთ თქვენ eResearchTechnology, Inc.-ის პროგრამული უზრუნველყოფის არა ექსკლუზიური, არაკომერციული გამოყენების უფლებას, რომელიც თან ახლავს ამ მოწყობილობას (\"პროგრამული უზრუნველყოფა\") და რომელიც კავშირშია ამ კლინიკური კვლევის შეთანხმებაში თქვენს მონაწილეობასთან: <strong>{{{ clinicalTrial }}}</strong>.  EResearchTechnology, Inc პროგრამული უზრუნველყოფა დაცულია გაცემული და გაცემის რეჟიმში მყოფი პატენტებით.  წინამდებარე შეთანხმება არ განიჭებთ თქვენ ნებისმიერი პროგრამული უზრუნველყოფის რაიმე საკუთრების უფლებას (ან მისი ასლების შესაბამისად), არამედ წარმოადგენს მხოლოდ ლიცენზიას, რომ პროგრამული უზრუნველყოფა გამოყენებული იქნეს ამ შეთანხმების ყველა პირობების შესაბამისად.  პროგრამული უზრუნველყოფის დასახელება და შესაბამისად მისი სხვა შემადგენელი ნაწილები და ყველა საკუთრების და ინტელექტუალური უფლებები, რომელსაც ის მოიცვას, რჩება ლიცენზიის მფლობელის განკარგულებაში მუდმივად.</p><p>თქვენ ეთანხმებით, რომ პირდაპირ და ირიბად არ (i) შეცვლით პროგრამული უზრუნველყოფის ინჟინერიას, დაშლით ან დააკომპილირებთ მას; (Ii) დააკოპირებთ, გაავრცელებთ, აწარმოებთ, გაუკეთებთ ადაპტირებას, შეასრულებთ დერივაციებს, თარგმნით, გააკეთებთ ლოკალიზაციას, დააპორტირებთ ან სხვაგვარად შეცვლით პროგრამულ უზრუნველყოფას; ან (iii) წაშლით ან შეცვლით ნებისმიერ საავტორო, სავაჭრო საიდუმლოებას ან სხვა იურიდიულ შენიშვნებს, რომელიც მოიცავს ან ჩადებულია პროგრამული უზრუნველყოფაში.  თქვენ აღიარებთ და ეთანხმებით, რომ პროგრამული უზრუნველყოფა შეიძლება მოიცავდეს, კოდს, რომელიც ხელს უშლის პროგრამული უზრუნველყოფის უნებართვოდ გამოყენებას.</p><br><p>თუ თქვენ ეთანხმებით აღნიშნულს, გთხოვთ, აირჩიოთ – <strong>თანახმა ვარ</strong> –დაწკაპუნება ღილაკზე \"თანახმა ვარ\" აღნიშნავს, რომ თქვენ ეთანხმებით ლიცენზიის პირობებს.</p><p>თუ თქვენ არ ეთანხმებით აღნიშნულს, ან არ ხართ უფლებამოსილი დაეთანხმოთ მას, აირჩიეთ – <strong>უარზე ვარ</strong> – ამ შემთხვევაში, პროგრამულ უზრუნველყოფაზე შემდგომი წვდომა დაბლოკილი იქნება.  უფლებამოსილების შემთხვევაში, თქვენ შეგიძლიათ დაეთანხმოთ მას სხვა დროს.</p>",
        "HAND_DEVICE_SITE_TITLE": "მოწყობილობის გადაცემა ცენტრის მომხმარებლისთვის",
        "HAND_DEVICE_SITE_BODY": "გთხოვთ, გადასცეთ მოწყობილობა ცენტრის მომხმარებელს.",
        "SQ-AL": "ალბანური",
        "IMAGE_FOLDER": "{{{ imageFolder }}}",
        "MODAL_OK_TEXT": "კარგი",
        "BROWSER_LOAD_ERROR": "გვერდი არ მოიძებნა. გთხოვთ, შეამოწმეთ თქვენი ინტერნეტ კავშირი და კიდევ სცადეთ.",
		"NONEXISTENT_USER" : "მომხმარებელი არ მოიძებნა.",
		"NO_USER_OF_ROLE" : "მომხმარებელი ამ როლით არ მოიძებნა.",
		"START_VISIT_OUTSIDE_WINDOW_MSG": "შეიყვანეთ {{{ getVisitName }}} კონფიგურირებული დროის ფანჯრის გარეთ: {{{ startDate }}} - {{{ endDate }}}",
		"START_VISIT_HARD_STOP_MSG" : "თქვენ არ შეგიძლიათ შეიყვანოთ {{{ getVisitName }}} კონფიგურირებული დროის ფანჯრის გარეთ: {{{ startDate }}} - {{{ endDate }}}",
		"YES" : "დიახ",
		"NO" : "არა"
    },
    "dates": {
        "setDateButtonLabel": "კარგი",
        "setTimeButtonLabel": "კარგი",
        "setDurationButtonLabel": "დააყენეთ ხანგრძლივობა.",
        "calTodayButtonLabel": "დღევანდელ დღეზე გადასვლა",
        "titleDateDialogLabel": "დააყენეთ თარიღი",
        "titleTimeDialogLabel": "დააყენეთ დრო",
        "daysOfWeek": [
            "კვირა",
            "ორშაბათი",
            "სამშაბათი",
            "ოთხშაბათი",
            "ხუთშაბათი",
            "პარასკევი",
            "შაბათი"
        ],
        "daysOfWeekShort": [
            "კვ",
            "ორშ",
            "სამ",
            "ოთხ",
            "ხუთ",
            "პარ",
            "შაბ"
        ],
        "monthsOfYear": [
            "იანვარი",
            "თებერვალი",
            "მარტი",
            "აპრილი",
            "მაისი",
            "ივნისი",
            "ივლისი",
            "აგვისტო",
            "სექტემბერი",
            "ოქტომბერი",
            "ნოემბერი",
            "დეკემბერი"
        ],
        "monthsOfYearShort": [
            "იან",
            "თებ",
            "მარ",
            "აპრ",
            "მაი",
            "ივნ",
            "ივლ",
            "აგვ",
            "სექ",
            "ოქტ",
            "ნოე",
            "დეკ"
        ],
        "durationLabel": [
            "დღეები",
            "საათები",
            "წუთები",
            "წამში"
        ],
        "durationDays": [
            "დღე",
            "დღეები"
        ],
        "tooltip": "გახსენით თარიღის ამორჩევა",
        "nextMonth": "შემდეგი თვე",
        "prevMonth": "წინა თვე",
        "clearButton": "წაშლა",
        "meridiem": [
            "დილის (AM)",
            "საღამოს (PM)"
        ]
    }
}
