{
    "namespace": "CORE",
    "language": "vi",
    "locale": "VN",
    "localized": "Tiếng Việt",
    "direction": "ltr",
    "resources": {
        "ACTIVE": "Hoạt động",
        "ACTIVATE_USER": "Kích hoạt người dùng",
        "ACTIVATE_USER_CANCEL_CONFIRM": "Hủy kích hoạt?",
        "ACTIVATE_USER_CANCEL_BODY": "Nếu bạn hủy bây giờ, người dùng tại trung tâm sẽ không được kích hoạt. Bạn có chắc chắn muốn hủy không?",
        "ACTIVATE_USER_AFF": "Bằng cách ký bên dưới, tôi cam đoan là tôi được phép kích hoạt người dùng tại trung tâm này.",
        "ACTIVATE_USER_CONFIRM_INFORMATION": "Vui lòng xác nhận rằng thông tin dưới đây thuộc về người dùng tại trung tâm mà bạn muốn kích hoạt.",
        "ADD_PATIENT": "Thêm bệnh nhân mới",
        "ADD_USER": "Thêm người dùng",
        "AFFIDAVIT": "Chọn OK rồi chọn Tiếp khi bạn sẵn sàng lưu câu trả lời của mình.",
        "AFFIDAVIT_HELP": "Xin cảm ơn. Bạn đã cung cấp tất cả câu trả lời được yêu cầu. Bạn có thể kiểm tra và thay đổi câu trả lời bằng cách chọn Quay lại.",
        "ALL_QUESTIONNAIRES_COMPLETED": "Đã hoàn tất tất cả biểu mẫu",
        "APP_NAME": "ERT",
        "APPLICATION_HEADER": "ERT",
        "APP_NAME_LBL": "Tên ứng dụng",
        "APP_VERSION": "Phiên bản ứng dụng",
        "ASSIGNED_TO": "Được gán cho",
        "AVAILABLE": "Có sẵn",
        "BACK": "Quay lại",
        "BACK_OUT_CONFIRM": "Bạn có chắc chắn muốn thoát không? Câu trả lời cho biểu mẫu này sẽ bị mất.",
        "BLUETOOTH_REG_REFRESH_BUTTON": "Làm mới danh sách",
        "CANCEL": "Hủy",
        "CHECK_FOR_UPDATES": "Kiểm tra bản cập nhật",
        "CHOOSE_A_SITE": "Gán thiết bị này cho một trung tâm cụ thể.",
        "COMPLETED": "Đã hoàn tất",
        "CONFIRM_PASSWORD": "Xác nhận mật khẩu:",
        "CONFIRM_TEMP_PASS": "Xác nhận mật khẩu tạm thời:",
        "CONTINUE": "Tiếp tục",
        "COUNTRY": "Quốc gia",
        "CUSTOM_ENVIRONMENT": "Môi trường khách hàng",
        "DEACTIVATE_PATIENT": "Vô hiệu hóa bệnh nhân",
        "DEACTIVATE_USER": "Vô hiệu hóa người dùng",
        "DEACTIVATED": "Đã vô hiệu hóa",
        "DEACTIVATE_USER_CANCEL_CONFIRM": "Hủy vô hiệu hóa?",
        "DEACTIVATE_USER_CANCEL_BODY": "Nếu bạn hủy bây giờ, người dùng tại trung tâm sẽ không bị vô hiệu hóa. Bạn có chắc chắn muốn hủy không?",
        "DEACTIVATE_USER_AFF": "Bằng cách ký bên dưới, tôi cam đoan là tôi được phép vô hiệu hóa người dùng tại trung tâm này.",
        "DEACTIVATE_USER_SIG": "<strong>Người dùng cần vô hiệu hóa:</strong> <br />{{{ getSelectedUsername }}}<p><strong>Chữ ký của:</strong> {{{ getActiveUserName }}}</p>",
        "DEACTIVATE_USER_CONFIRM_INFORMATION": "Vui lòng xác nhận rằng thông tin dưới đây thuộc về người dùng tại trung tâm mà bạn muốn vô hiệu hóa.",
        "DEVICE_ID": "ID thiết bị",
        "DEVICE_REGISTRATION_FAILURE": "Không đăng ký được thiết bị.",
        "DEVICE_UUIID": "UUID thiết bị",
        "BATTERY_LEVEL": "Mức pin",
        "DEVICE_INFO": "Thông tin thiết bị",
        "DIARY_TIMEOUT": "Biểu mẫu này đã hết thời gian chờ.",
        "EDIT_MY_INFO": "Chỉnh sửa thông tin của tôi",
        "EDIT_PATIENT": "Chỉnh sửa bệnh nhân",
        "EDIT_PATIENT_QUESTION_1_MAIN_TITLE": "<div class='question-title-large'>Nhận dạng bệnh nhân </div><div>Phạm vi ID cho trung tâm này:<br /><strong> {{{ patientIDRange }}}</strong></div><div class='edit-patient-id'>ID bệnh nhân:<br /><strong>{{{ getPatientIdNumber }}} ({{{getPatientInitials}}})</strong</div><br /><br />",
        "EDIT_PATIENT_QUESTION_1": "ID bệnh nhân:",
        "EDIT_PATIENT_QUESTION_1_EMPTY": "Vui lòng điền ID bệnh nhân.",
        "EDIT_PATIENT_QUESTION_1_EMPTY_HEADER": "ID bệnh nhân",
        "EDIT_PATIENT_QUESTION_1_RANGE": "ID bệnh nhân mà bạn đã nhập không thuộc phạm vi ID được phép: {{{ patientIDRange }}}.  Vui lòng nhập ID bệnh nhân hợp lệ.",
        "EDIT_PATIENT_QUESTION_1_RANGE_HEADER": "ID bệnh nhân nằm ngoài phạm vi",
        "EDIT_PATIENT_QUESTION_1_UNIQUE": "Bệnh nhân đã tồn tại.  Vui lòng nhập ID bệnh nhân khác.",
        "EDIT_PATIENT_QUESTION_1_UNIQUE_HEADER": "ID bệnh nhân bị trùng lặp",
        "EDIT_PATIENT_QUESTION_2": "Tên viết tắt của bệnh nhân:",
        "EDIT_PATIENT_QUESTION_2_EMPTY": "Vui lòng điền tên viết tắt của bệnh nhân bao gồm tối thiểu 2 ký tự.",
        "EDIT_PATIENT_QUESTION_2_EMPTY_HEADER": "Tên viết tắt của bệnh nhân",
        "EDIT_PATIENT_QUESTION_3_TITLE": "<div class='question-title-large'>Chọn ngôn ngữ</div><div>ID bệnh nhân:<br /><strong>{{{ getPatientIdNumber }}} ({{{getPatientInitials}}})</strong</div><br /><br />",
        "EDIT_PATIENT_QUESTION_3": "Chọn ngôn ngữ cho bệnh nhân",
        "EDIT_PATIENT_QUESTION_4_TITLE": "<div class='question-title-large'>Lý do chỉnh sửa</div><br /><br />",
        "EDIT_PATIENT_QUESTION_4": "Chọn lý do chỉnh sửa bệnh nhân",
        "EDIT_PATIENT_CANCEL_CONFIRM": "Hủy thay đổi đối với bệnh nhân?",
        "EDIT_PATIENT_CANCEL_BODY": "Nếu bạn hủy bây giờ, cài đặt bệnh nhân sẽ không được cập nhật.  Bạn có chắc chắn muốn hủy không?",
        "EDIT_PATIENT_NO_CHANGES_CONFIRM": "Không có thay đổi nào được thực hiện cho bệnh nhân",
        "EDIT_PATIENT_NO_CHANGES_BODY": "Không có thay đổi nào được thực hiện cho bệnh nhân này. Vẫn thoát?",
        "EDIT_PATIENT_REASON_0": "Sửa lỗi của bác sĩ lâm sàng",
        "EDIT_REASON": "Lý do chỉnh sửa:",
        "EDIT_SERVICE_URL": "Chỉnh sửa URL dịch vụ",
        "EDIT_SERVICE_URL_SUCCESS": "URL dịch vụ đã được cập nhật.",
        "EDIT_USER": "Chỉnh sửa người dùng",
        "EDIT_USER_AFF": "Bằng cách ký bên dưới, tôi cam đoan là tôi được phép chỉnh sửa người dùng tại trung tâm này. <p><strong>Chữ ký của: </strong>{{{ getActiveUserName }}}</p>",
        "EDIT_USER_CANCEL_CONFIRM": "Hủy chỉnh sửa người dùng?",
        "EDIT_USER_CANCEL_BODY": "Nếu bạn hủy bây giờ, thay đổi đối với người dùng tại trung tâm sẽ không được thực hiện. Bạn có chắc chắn muốn hủy không?",
        "EDIT_USER_NO_CHANGES_HEADER": "Không có thay đổi nào được thực hiện cho người dùng tại trung tâm",
        "EDIT_USER_NO_CHANGES_BODY": "Không có thay đổi nào được thực hiện cho người dùng tại trung tâm này. Vẫn thoát?",
        "EMAIL": "Địa chỉ email",
        "ENTER_PATIENT_INFO": "Nhập thông tin bệnh nhân",
        "ENTER_UNLOCK_CODE": "Vui lòng nhập Mã mở khóa",
        "ENTER_USER_INFO": "Nhập thông tin người dùng trung tâm mới",
        "ENVIRONMENT": "Môi trường",
        "ERROR_CODE": "Mã lỗi:",
        "ERROR_TITLE": "Lỗi",
        "FIRST_NAME": "Tên",
        "FORGOT_PASSWORD": "Quên mật khẩu?",
        "FORM": "Biểu mẫu",
        "FORM_GATEWAY": "Cổng biểu mẫu",
        "FORM_NAME": "Tên biểu mẫu",
        "FULL_NAME": "Tên đầy đủ:",
        "GO_TO_VISITS": "Lượt thăm bệnh nhân",
        "HAND_DEVICE_SITE_TITLE": "Cung cấp thiết bị cho người dùng tại trung tâm",
        "HAND_DEVICE_SITE_BODY": "Vui lòng cung cấp thiết bị cho người dùng tại trung tâm.",
        "HELP": "Trợ giúp",
        "HOME": "Trang chủ",
        "IN_PROGRESS": "Đang tiến hành",
        "INITIALS": "Tên viết tắt",
        "INVALID_URL": "Vui lòng nhập URL hợp lệ.",
        "INVALID_PERMISSION": "Quyền không hợp lệ.",
        "INVALID_PASSWORD": "Mật khẩu không hợp lệ.",
        "LANGUAGE": "Ngôn ngữ:",
        "LAST_LOGIN": "Lần đăng nhập cuối cùng",
        "LAST_NAME": "Họ",
        "LAST_REFRESH_TIME": "Lần làm mới cuối cùng",
        "LOCATION": "Vị trí",
        "LOGIN": "Đăng nhập",
        "LOGIN_SCREEN": "Đăng nhập",
        "LOGOUT": "Đăng xuất",
        "MANAGE_USERS": "Quản lý người dùng tại trung tâm",
        "MARK_AS_COMPLETED": "Đánh dấu là Đã hoàn tất",
        "SITE_SIGNATURE": "Chữ ký của: ",
        "SITE_REPORT_AFF": "Tôi đã nhập, kiểm tra lại và xác nhận dữ liệu trước.<p><strong>Chữ ký của: {{{ getActiveUserName }}}</strong></p>",
        "PATIENT_REPORT_AFF": "<hr />Tôi đã nhập, kiểm tra lại và xác nhận dữ liệu trước.<p class={{{ getPatientInitials }}}><strong>Tên viết tắt của: {{{ getActiveUserName }}}</strong></p>",
        "CLEAR_SIGNATURE": "Xóa chữ ký",
        "MENU": "Menu",
        "MODE": "Chế độ",
        "NAME": "Tên",
        "NEW_USER": "Thêm nhật ký người dùng mới",
        "FIRST_SITE_USER": "Thêm người dùng tại trung tâm đầu tiên",
        "NEW_USER_CREATED": "Người dùng tại trung tâm đã được tạo.",
        "NEW_PATIENT_QUESTION_1_MAIN_TITLE": "<div class='question-title-large'>Nhập thông tin nhận dạng bệnh nhân</div><div>Phạm vi ID cho trung tâm này:<br /><strong> {{{ patientIDRange }}}</strong></div><div><strong>Trung tâm: {{{ getSiteCode }}}</strong></div><div><strong>Người dùng: {{{ getUserName }}}</strong</div><br /><br />",
        "NEW_PATIENT_HELP_TEXT_1": "",
        "NEW_PATIENT_HELP_TEXT_2": "",
        "NEW_PATIENT_HELP_TEXT_3": "",
        "NEW_PATIENT_QUESTION_1_TITLE": "ID bệnh nhân",
        "NEW_PATIENT_QUESTION_1": "ID bệnh nhân:",
        "NEW_PATIENT_QUESTION_1_EMPTY": "Vui lòng điền ID bệnh nhân.",
        "NEW_PATIENT_QUESTION_1_EMPTY_HEADER": "ID bệnh nhân",
        "NEW_PATIENT_QUESTION_1_RANGE": "ID bệnh nhân mà bạn đã nhập không thuộc phạm vi ID được phép: {{{ patientIDRange }}}.  Vui lòng nhập ID bệnh nhân hợp lệ.",
        "NEW_PATIENT_QUESTION_1_RANGE_HEADER": "ID bệnh nhân nằm ngoài phạm vi",
        "NEW_PATIENT_QUESTION_1_UNIQUE": "Bệnh nhân đã tồn tại.  Vui lòng nhập ID bệnh nhân khác.",
        "NEW_PATIENT_QUESTION_1_UNIQUE_HEADER": "ID bệnh nhân bị trùng lặp",
        "NEW_PATIENT_QUESTION_2": "Tên viết tắt của bệnh nhân:",
        "NEW_PATIENT_QUESTION_2_EMPTY": "Vui lòng điền tên viết tắt của bệnh nhân bao gồm tối thiểu 2 ký tự.",
        "NEW_PATIENT_QUESTION_2_EMPTY_HEADER": "Tên viết tắt của bệnh nhân",
        "NEW_PATIENT_QUESTION_3_TITLE": "<div class='question-title-large'>Chọn ngôn ngữ</div><div><strong>Trung tâm: {{{ getSiteCode }}}</strong></div><div><strong>Người dùng: {{{ getUserName }}}</strong</div><div><strong>ID bệnh nhân: {{{ getPatientID }}}</strong></div><br /><br />",
        "NEW_PATIENT_QUESTION_3": "Chọn ngôn ngữ cho bệnh nhân",
        "NEW_PATIENT_CANCEL_CONFIRM": "Hủy thêm bệnh nhân?",
        "NEW_PATIENT_CANCEL_BODY": "Nếu bạn hủy bây giờ, bệnh nhân sẽ không được đăng ký.  Bạn có chắc chắn muốn hủy không?",
        "NEW_PATIENT_AFFIDAVIT_HEADER": "<div><strong>Trung tâm: {{{ getSiteCode }}}</strong><br /><strong>Người dùng: {{{ getUserName }}}</strong><br /><strong>ID bệnh nhân: {{{ getPatientID }}}</strong></div>",
        "NEXT": "Tiếp",
        "NO_RESULTS_FOUND": "Không tìm thấy kết quả nào.",
        "NOT_AVAILABLE": "Không có sẵn",
        "OK": "OK",
        "ORDER": "Thứ tự",
        "PASSWORD": "Mật khẩu:",
        "PATIENT": "Bệnh nhân",
        "PATIENT_ID": "ID bệnh nhân:",
        "PATIENT_INITIALS": "Tên viết tắt của bệnh nhân:",
        "PATIENT_DELETED": "Bệnh nhân không xác định",
        "PATIENT_DELETED_MSG": "Không thể tìm thấy bệnh nhân.",
        "PATIENT_DELETED_SUBJECT_MSG": "Không thể tìm thấy bệnh nhân. Vui lòng hoàn trả thiết bị cho nhân viên trung tâm thích hợp.",
        "PENDING_TRANSMISSIONS": "Truyền đang xử lý",
        "PLEASE_WAIT": "Vui lòng đợi",
        "PLEASE_CONFIRM": "Vui lòng xác nhận",
        "PLEASE_CONTACT": "Vui lòng liên hệ với Trung tâm hỗ trợ ERT.",
        "PLEASE_TRY_OR_CONTACT_SUPPORT": "Vui lòng thử lại hoặc liên hệ với Trung tâm hỗ trợ ERT.",
        "REASON": "Lý do:",
        "REPORTS_AND_FORMS": "Báo cáo và biểu mẫu",
        "REPORTS_COMPLETED_MESSAGE": "Bạn đã hoàn tất tất cả biểu mẫu của mình. Vui lòng hoàn trả thiết bị cho nhân viên trung tâm thích hợp.",
        "REQUIRED_ANSWER": "Vui lòng hoàn tất thông tin theo yêu cầu.",
        "RESET_PIN": "Đặt lại mã PIN bệnh nhân",
        "RESET_USER_PASSWORD": "Đặt lại mật khẩu người dùng",
        "ROLES": "Vai trò:",
        "SAVE": "Lưu",
        "SEARCH": "Tìm kiếm",
        "SECURITY_QUESTION_0": "Tên thời con gái của mẹ bạn là gì?",
        "SECURITY_QUESTION_1": "Bạn sinh ra ở thành phố nào?",
        "SECURITY_QUESTION_2": "Tên thú nuôi đầu tiên của bạn là gì?",
        "SECURITY_QUESTION_3": "Môn thể thao yêu thích của bạn là gì?",
        "SECURITY_QUESTION_4": "Bạn tốt nghiệp vào năm nào?",
        "SECURITY_QUESTION_5": "Tên đệm của đứa con đầu lòng của bạn là gì?",
        "SECURITY_QUESTION_6": "Tên của người bạn thân thiết thời thơ ấu của bạn là gì?",
        "SECURITY_QUESTION_7": "Họ của cô giáo lớp ba của bạn là gì?",
        "SECURITY_QUESTION_8": "Bạn làm công việc đầu tiên tại thành phố hoặc thị trấn nào?",
        "SECRET_ANSWER": "Câu trả lời bảo mật:",
        "SECRET_QUESTION": "Câu hỏi bảo mật:",
        "SECRET_QUESTION_HELP_TEXT": "Chọn câu hỏi bảo mật từ danh sách bên dưới. Câu trả lời được dùng để cho phép đăng nhập nếu bạn quên Mật khẩu của mình.",
        "SECRET_QUESTION_ANSWER": "Câu hỏi và câu trả lời bảo mật",
        "SELECT_LANGUAGE": "Vui lòng chọn một ngôn ngữ ưa thích cho trung tâm.",
        "SET_TIMEZONE_MESSAGE": "Chọn múi giờ của bạn:",
        "SELECT_SITE_NUMBER": "Vui lòng chọn số trung tâm",
        "SERVICE_URL": "URL dịch vụ",
        "SETTINGS": "Cài đặt",
        "SETUP_COMPLETE": "Hoàn tất thiết lập",
        "SETUP_COMPLETE_DESC": "Thiết bị hiện đã được thiết lập và sẵn sàng để giao.  Vui lòng nhấn OK rồi tắt thiết bị ở màn hình tiếp theo.",
        "SETUP_SITE_USER": "Thiết lập người dùng tại trung tâm",
        "SETUP_SITE_USER_LEGEND": "Vui lòng thiết lập người dùng tại trung tâm cho thiết bị này.",
        "SITE": "Trung tâm",
        "SITE_ASSESSMENTS": "Đánh giá trung tâm",
        "SIGNATURE_DATA_LIMIT_EXCEEDED": "Ô chữ ký không thể hiển thị chính xác chữ ký của bạn như đã viết. Vui lòng ký bằng tên viết tắt của bạn.",
        "SITE_NUMBER": "Số trung tâm",
        "SITE_ROLE": "Người dùng tại trung tâm",
        "SITE_SELECTION": "Lựa chọn tại trung tâm",
        "SKIP_FORM": "Bỏ qua biểu mẫu",
        "SKIP_QUESTION": "Bạn có chắc chắn muốn bỏ qua câu trả lời trên màn hình này không?",
        "SKIP_TO_VISIT": "Chuyển đến lượt thăm",
        "SKIP_VISIT": "Bỏ qua lượt thăm",
        "SKIP_VISITS": "Bỏ qua lượt thăm",
        "SKIP_VISITS_QUESTION_1": "<div class='question-title-large'><strong>Lý do</strong></div><br /><br /><div>Chọn một lý do để bỏ qua lượt thăm:</div>",
        "SKIP_VISITS_REASON_0": "Lượt thăm đã hết hạn",
        "SKIP_VISITS_REASON_1": "Lỗi quản trị trung tâm",
        "SKIP_VISITS_REASON_2": "Đối tượng bỏ lỡ cuộc hẹn khám lâm sàng.",
        "SKIP_VISITS_REASON_3": "Không áp dụng.",
        "SKIP_VISITS_REASON_4": "Lượt thăm là tùy chọn, chưa hoàn tất.",
        "SKIP_VISITS_CANCEL_CONFIRM": "Hủy bỏ qua lượt thăm?",
        "SKIP_VISITS_CANCEL_BODY": "Nếu bạn hủy bây giờ, lượt thăm sẽ không bị bỏ qua. Bạn có chắc chắn muốn hủy không?",
        "SKIPPED" : "Đã bỏ qua",
        "SKIPPED_VISITS": "{{{ skippedVisits }}}",
        "START_FORM": "Bắt đầu biểu mẫu",
        "START_VISIT": "Bắt đầu lượt thăm",
        "STATUS": "Trạng thái",
        "STATUS_DATE": "Ngày trạng thái",
        "STUDY": "Nghiên cứu",
        "STUDYWORKS_LOGIN": "Đăng nhập StudyWorks",
        "SUBJECT_ID": "ID bệnh nhân",
        "SUBJECT_ROLE": "Bệnh nhân",
        "SUBMIT": "Nộp",
        "SUPPORT_TOOLS": "Công cụ hỗ trợ",
        "SYNC": "Đồng bộ hóa",
        "SYNC_USERS": "Đồng bộ hóa người dùng",
        "SYNC_TO_DEVICE": "Đồng bộ hóa nghiên cứu với thiết bị",
        "TEMPORARY_PASSWORD_MESSAGE": "Vui lòng cung cấp mật khẩu tạm thời cho người dùng mới. Họ sẽ được yêu cầu tạo mật khẩu mới sau khi đăng nhập.",
        "TEMP_PASSWORD": "Mật khẩu tạm thời: ",
        "UNABLE_TO_GET_SITE_LIST": "Không thể nhận Danh sách trung tâm",
        "UNLOCK_CODE": "Mã mở khóa",
        "UNLOCK_CODE_HELP": "Có thể lấy Mã mở khóa cho Bảng ERT từ StudyWorks trong SmartReport 'ERT Unlock Codes'. Vui lòng liên hệ với Trung tâm hỗ trợ ERT để được trợ giúp thêm.",
        "USER": "Người dùng",
        "USER_ALREADY_EXISTS": "Người dùng đã tồn tại",
        "USER_EDITED": "Người dùng đã được cập nhật.",
        "USER_TO_ACTIVATE": "<strong>Người dùng cần kích hoạt:</strong> <br />{{{ getSelectedUsername }}}<p><strong>Chữ ký của:</strong> {{{ getActiveUserName }}}</p>",
        "SUBJECT_ALREADY_EXISTS": "Bệnh nhân có ID {{{ getPatientIDForDuplicate }}} đã tồn tại",
        "TIME_CONFIRMATION_INSTRUCTIONS": "Thiết bị này cần xác nhận giờ địa phương của bạn. Vui lòng nhập ngày và giờ của bạn từ nguồn đáng tin cậy.",
        "TIME_ZONE_ERROR_HEADER": "Lỗi múi giờ",
        "TIME_ZONE_ERROR_MSG": "Đã xảy ra lỗi trong khi nhận danh sách Múi giờ. Vui lòng liên hệ với Trung tâm Hỗ trợ ERT để được trợ giúp thêm.",
        "TIME_ZONE_SET_ERROR_MSG": "Đã xảy ra lỗi trong khi đặt Múi Giờ. Vui lòng liên hệ với Trung tâm hỗ trợ ERT để được trợ giúp thêm.",
        "TIME_ZONE_SET_CONFIRM": "Bạn có chắc chắn muốn đặt Múi giờ thành: <bdo dir='ltr'>{{{selectedTimeZone}}}</bdo>? <br/> Ứng dụng có thể khởi động lại để áp dụng thay đổi.",
        "TIME_ZONE_SET_CONFIRM_NOCHANGE": "Bạn có chắc chắn muốn đặt Múi giờ thành: <bdo dir='ltr'>{{{selectedTimeZone}}}</bdo>?",
        "TIME_ZONE_SET_HEADER": "Xác nhận đặt múi giờ",
        "TRAINER": "Chế độ đào tạo",
        "TRAINER_EXIT": "Thoát khỏi chế độ đào tạo",
        "TRAINER_EXIT_NOTIFICATION": "Bạn đang thoát khỏi Chế độ đào tạo",
        "TRAINER_HEADER": "(Người hướng dẫn)",
        "USER_ROLE": "Vai trò người dùng",
        "USERNAME": "Tên người dùng",
        "USER_NAME": "Tên người dùng:",
        "VISIT": "Lượt thăm",
        "VISIT_COMPLETED_MESSAGE": "Không có biểu mẫu nào khác cho lượt thăm này.  Lượt thăm này hiện đã hoàn tất.",
        "VISIT_INACTIVE_HEADER": "Lượt thăm không hoạt động.",
        "VISIT_INACTIVE_MESSAGE": "Lượt thăm này không còn hoạt động.",
        "VISIT_INACTIVE_MESSAGE_SUBJECT": "Lượt thăm này không còn hoạt động. Vui lòng hoàn trả thiết bị cho nhân viên trung tâm thích hợp.",
        "VISIT_EXPIRED_HEADER": "Lượt thăm đã hết hạn.",
        "VISIT_EXPIRED_MESSAGE": "Lượt thăm này không còn hoạt động vì đã hết hạn.",
        "VISIT_EXPIRED_MESSAGE_SUBJECT": "Lượt thăm này không còn hoạt động vì đã hết hạn. Vui lòng hoàn trả thiết bị cho nhân viên trung tâm thích hợp.",
        "VISITS": "Lượt thăm",
        "VISITS_SKIPPED": "Lượt thăm đã bỏ qua:",
        "VISIT_NAME": "Tên lượt thăm",
        "WELCOME": "Chào mừng",
        "AF-ZA": "Tiếng Hà Lan ở Nam Phi",
        "AR-EG": "Tiếng Ả Rập",
        "BE-BY": "Tiếng Belarus",
        "BG-BG": "Tiếng Bulgari",
        "BN-IN": "Tiếng Bengal",
        "BS-BA": "Tiếng Bosnia",
        "CA-ES": "Tiếng Catalan",
        "CS-CZ": "Tiếng Séc",
        "DA-DK": "Tiếng Đan Mạch",
        "DE-DE": "Tiếng Đức (Đức)",
        "DE-AT": "Tiếng Đức (Áo)",
        "EL-GR": "Tiếng Hy Lạp",
        "EN-GB": "Tiếng Anh (Anh)",
        "EN-US": "Tiếng Anh (Mỹ)",
        "ES-ES": "Tiếng Tây Ban Nha (Tây Ban Nha)",
        "ES-US": "Tiếng Tây Ban Nha (Mỹ)",
        "ES-PY": "Tiếng Tây Ban Nha (Toàn cầu)",
        "ET-EE": "Tiếng Estonia",
        "FI-FI": "Tiếng Phần Lan",
        "FR-CA": "Tiếng Pháp (Canada)",
        "FR-FR": "Tiếng Pháp (Pháp)",
        "GD-IE": "Tiếng Gael",
        "GU-IN": "Tiếng Gujarati",
        "HE-IL": "Tiếng Do Thái",
        "HI-IN": "Tiếng Hindi",
        "HR-HR": "Tiếng Croatia",
        "HU-HU": "Tiếng Hungary",
        "IT-IT": "Tiếng Ý",
        "JA-JP": "Tiếng Nhật",
        "KA-GE": "Tiếng Georgia",
        "KN-IN": "Tiếng Kannada",
        "KO-KR": "Tiếng Hàn",
        "LV-LV": "Tiếng Latvia",
        "LT-LT": "Tiếng Lithuania",
        "ML-IN": "Tiếng Malayalam",
        "MR-IN": "Tiếng Maratha",
        "MS-MY": "Tiếng Mã Lai",
        "NB-NO": "Tiếng Na Uy",
        "NL-BE": "Tiếng Hà Lan (Bỉ)",
        "NL-NL": "Tiếng Hà Lan (Hà Lan)",
        "PA-IN": "Tiếng Punjab",
        "PL-PL": "Tiếng Ba Lan",
        "PT-BR": "Tiếng Bồ Đào Nha (Braxin)",
        "PT-PT": "Tiếng Bồ Đào Nha (Bồ Đào Nha)",
        "RO-RO": "Tiếng Rumani",
        "RU-RU": "Tiếng Nga",
        "SL-SL": "Tiếng Slovenia",
        "SK-SK": "Tiếng Slovak",
        "SR-RS": "Tiếng Serbia (La tinh)",
        "SR-SP": "Tiếng Serbia (Chữ Kirin)",
        "ST-ZA": "Tiếng Sotho",
        "SV-SE": "Tiếng Thụy Điển",
        "TA-IN": "Tiếng Tamil",
        "TE-IN": "Tiếng Telugu",
        "TH-TH": "Tiếng Thái",
        "TL-PH": "Tiếng Tagalog",
        "TN-ZA": "Tiếng Tswana",
        "TR-TR": "Tiếng Thổ Nhĩ Kỳ",
        "UK-UA": "Tiếng Ukraina",
        "UR-IN": "Tiếng Urdu",
        "VI-VN": "Tiếng Việt",
        "XH-ZA": "Tiếng Xhosa",
        "ZH-CN": "Tiếng Trung (Trung Quốc)",
        "ZH-TW": "Tiếng Trung (Đài Loan)",
        "ZU-ZU": "Tiếng Zulu",
        "HAND_DEVICE_SUBJECT_BODY": "Biểu mẫu tiếp theo phải được {{{ patientOrRole }}} hoàn tất. Vui lòng đăng xuất rồi cung cấp thiết bị cho {{{ patientOrRole }}}.",
        "HAND_DEVICE_SUBJECT_TITLE": "Bắt đầu biểu mẫu {{{ formTitle }}}",
        "SKIP_VISIT_TITLE": "Bỏ qua lượt thăm?",
        "SKIP_VISIT_TEXT": "Nếu bạn tiếp tục, lượt thăm sau đây sẽ bị bỏ qua:<br/> {{{ skippedVisits }}} Tiếp tục và bỏ qua các lượt thăm này bây giờ?",
        "YES": "Có",
        "NO": "Không",
        "TIME_LBL": "Giờ:",
        "SET_TIME": "Đặt giờ",
        "DATE_LBL": "Ngày:",
        "CREATE_PERMANENT_PASSWORD_TITLE": "Tạo mật khẩu cố định",
        "USER_ID": "ID người dùng:",
        "PHASE": "Trạng thái",
        "LAST_VISIT": "Lượt thăm được hoàn tất cuối cùng",
        "CONNECTION_REQUIRED": "Cần có kết nối Internet.",
        "RETRY": "Thử lại",
        "UPDATE_FAILURE": "Cập nhật chưa hoàn tất",
        "UPDATE_SUCCESS": "Cập nhật thành công",
        "CANCEL_PERMANENT_PASSWORD_TITLE": "Hủy tạo mật khẩu cố định?",
        "CANCEL_PERMANENT_PASSWORD_TEXT": "Nếu bạn hủy bây giờ, mật khẩu cố định của bạn sẽ không được tạo. Bạn cần có mật khẩu cố định để bắt đầu sử dụng ERT. Bạn có chắc chắn muốn hủy không?",
        "ACCOUNT_CONFIGURED_TITLE": "Đã hoàn tất thiết lập tài khoản",
        "ACCOUNT_CONFIGURED_TEXT": "Bạn hiện đã hoàn tất thiết lập tài khoản, bây giờ bạn có thể tiếp tục sử dụng hệ thống eCOA.",
        "LOGGED_IN_AS": "Đăng nhập với tên",
        "EDIT_PATIENT_AFFIDAVIT_HEADER": "<p class='question-title-large'>Chữ ký</p><br />",
        "EDIT_PATIENT_AFF": "Bằng cách ký bên dưới, tôi cam đoan là tôi được phép chỉnh sửa bệnh nhân này.<br /><br />ID bệnh nhân: {{{ getPatientIdNumber }}}<br /><br />Chữ ký của: {{{ getActiveUserName }}}",
        "PASSWORD_MISMATCH": "Xác nhận mật khẩu không khớp với mật khẩu",
        "FIRST_USER_AFFIDAVIT": "Bằng cách ký bên dưới, tôi cam đoan rằng tôi là người nghiên cứu chính hoặc đại diện được ủy quyền để tạo tài khoản trên hệ thống này.<br /><br />Chữ ký của: {{{ getFirstUsername }}}",
        "INCOMPLETE": "Chưa hoàn tất",
        "INVALID_ENTRY": "Mục nhập không hợp lệ",
        "PLEASE_ANSWER_SQ": "Vui lòng trả lời câu hỏi bảo mật của bạn:",
        "FORGOT_SECRET_ANSWER": "Quên câu trả lời bảo mật?",
        "CONTACT_STUDY_COORDINATOR": "Liên hệ với Điều phối viên nghiên cứu",
        "ENTER_NEW_PASSWORD": "Mật khẩu mới:",
        "CONTACT_UNLOCK_CODE": "Vui lòng liên hệ với Điều phối viên nghiên cứu của bạn để biết Mã mở khóa cho hôm nay:",
        "CURRENT_DATE": "{{{ currentDate }}}",
        "TEMPORARY_UNLOCK_CODE": "Nhập Mã mở khóa do Điều phối viên nghiên cứu cung cấp.",
        "RESET_SECRET_QUESTION": "Đặt lại câu hỏi bảo mật",
        "SECRET_QUESTION_CHANGE_SUCCESS": "Bạn đã cập nhật thành công mật khẩu và câu hỏi bảo mật của mình.",
        "RESET_PASSWORD": "Đặt lại mật khẩu",
        "ANSWER_ATTEMPT_EXCEEDED": "Bạn đã nhập câu trả lời không chính xác quá nhiều lần hoặc đã nhấp vào liên kết quên câu trả lời bảo mật.",
        "PASSWORD_ATTEMPT_EXCEEDED": "Bạn đã nhập mật khẩu không chính xác quá nhiều lần hoặc đã nhấp vào liên kết quên mật khẩu.",
        "PASSWORD_CHANGE_SUCCESS": "Bạn đã cập nhật thành công mật khẩu của mình.",
        "CHANGE_PASSWORD": "Thay đổi mật khẩu",
        "CHANGE_SECRET_QUESTION": "Thay đổi câu hỏi bảo mật",
        "SYNC_COMPLETE": "Đồng bộ hóa hoàn tất",
        "INCORRECT_ANSWER": "Câu trả lời không chính xác",
        "INCORRECT_UNLOCK_CODE": "Mã mở khóa không chính xác",
        "PASSWORD_INVALID": "Mật khẩu không chính xác",
        "SUBJECT": "Bệnh nhân",
        "PATIENT_ADDED": "Đã thêm bệnh nhân",
        "SITE_ADMINISTRATOR": "Quản trị viên trung tâm",
        "LOW_BATTERY": "Cảnh báo: Mức pin thấp. Vui lòng sạc lại thiết bị.",
        "CRITICAL_BATTERY": "Cảnh báo: Mức pin cực thấp. Vui lòng sạc lại thiết bị nếu không thiết bị sẽ tắt.",
        "TIME_CONFIRMATION_HEADER": "Xác nhận ngày/giờ",
        "IMAGE_FOLDER": "{{{ imageFolder }}}",
        "TIMESLIP_ERROR": "Ngày hoặc giờ trên thiết bị của bạn không chính xác. Vui lòng di chuyển đến vị trí có kết nối Internet và thử lại. Nếu bạn tiếp tục gặp sự cố, vui lòng liên hệ với bộ phận Chăm sóc khách hàng của ERT.",
        "SUPPORT": "Hỗ trợ khách hàng",
        "SUPPORT_MESSAGE": "Người dùng tại Hoa Kỳ có thể liên hệ với Trung tâm hỗ trợ ERT theo số 800-748-5669. Đối với người dùng nước ngoài, vui lòng chọn quốc gia gần nhất bên dưới:",
        "SUPPORT_DROPDOWN": "Chọn quốc gia của bạn",
        "SUPPORT_NAME_ARGENTINA": "Argentina",
        "SUPPORT_NUMBER_ARGENTINA": "<bdo dir='ltr'>0800 444 0962</bdo>",
        "SUPPORT_NAME_ARMENIA": "Armenia",
        "SUPPORT_NUMBER_ARMENIA": "<bdo dir='ltr'>+1 617 681 6306</bdo>",
        "SUPPORT_NAME_AUSTRALIA": "Úc",
        "SUPPORT_NUMBER_AUSTRALIA": "<bdo dir='ltr'>1 800 800 051</bdo>",
        "SUPPORT_NAME_AUSTRIA": "Áo",
        "SUPPORT_NUMBER_AUSTRIA": "<bdo dir='ltr'>0800 100 405</bdo>",
        "SUPPORT_NAME_BELARUS": "Belarus",
        "SUPPORT_NUMBER_BELARUS": "<bdo dir='ltr'>8 820 0321 0036</bdo>",
        "SUPPORT_NAME_BELGIUM": "Bỉ",
        "SUPPORT_NUMBER_BELGIUM_1": "(Tiếng Anh): <bdo dir='ltr'>0800 58 016</bdo>",
        "SUPPORT_NUMBER_BELGIUM_2": "(Tiếng Pháp) : <bdo dir='ltr'>0800 71 076</bdo>",
        "SUPPORT_NUMBER_BELGIUM_3": "(Tiếng Đức): <bdo dir='ltr'>0800 71 113</bdo>",
        "SUPPORT_NAME_BRAZIL": "Braxin",
        "SUPPORT_NUMBER_BRAZIL": "<bdo dir='ltr'>0800 891 5909</bdo>",
        "SUPPORT_NAME_BOSNIA": "Bosnia",
        "SUPPORT_NUMBER_BOSNIA": "<bdo dir='ltr'>+1 617 681 6306</bdo>",
        "SUPPORT_NAME_BULGARIA": "Bulgari",
        "SUPPORT_NUMBER_BULGARIA": "<bdo dir='ltr'>00800 0010</bdo>, sau đó bấm <bdo dir='ltr'>866 245 4931</bdo>",
        "SUPPORT_NAME_CANADA": "Canada",
        "SUPPORT_NUMBER_CANADA": "<bdo dir='ltr'>1 800 748 5669</bdo>",
        "SUPPORT_NAME_CHILE": "Chile",
        "SUPPORT_NUMBER_CHILE": "<bdo dir='ltr'>123 0020 3408</bdo>",
        "SUPPORT_NAME_CHINA": "Trung Quốc",
        "SUPPORT_NUMBER_CHINA_1": "NetCom (Phía Bắc): <bdo dir='ltr'>1 0800 74 40 164</bdo>",
        "SUPPORT_NUMBER_CHINA_2": "Telecom (Phía Nam): <bdo dir='ltr'>1 0800 44 00 158</bdo>",
        "SUPPORT_NAME_COLOMBIA": "Colombia",
        "SUPPORT_NUMBER_COLOMBIA": "<bdo dir='ltr'>01 800 911 0010</bdo>, sau đó bấm <bdo dir='ltr'>866 310 3707</bdo>",
        "SUPPORT_NAME_COSTA_RICA": "Costa Rica",
        "SUPPORT_NUMBER_COSTA_RICA": "<bdo dir='ltr'>0800 013 1210</bdo>",
        "SUPPORT_NAME_CROATIA": "Croatia",
        "SUPPORT_NUMBER_CROATIA": "<bdo dir='ltr'>0800 222 953</bdo>",
        "SUPPORT_NAME_CZECH_REPUBLIC": "Cộng hòa Séc",
        "SUPPORT_NUMBER_CZECH_REPUBLIC": "<bdo dir='ltr'>800 142 150</bdo>",
        "SUPPORT_NAME_DENMARK": "Đan Mạch",
        "SUPPORT_NUMBER_DENMARK": "<bdo dir='ltr'>80 60 00 09</bdo>",
        "SUPPORT_NAME_EGYPT": "Ai Cập",
        "SUPPORT_NUMBER_EGYPT": "<bdo dir='ltr'>02 510 0200</bdo>, sau đó bấm <bdo dir='ltr'>866 310 3707</bdo>",
        "SUPPORT_NAME_EL_SALVADOR": "El Salvador",
        "SUPPORT_NUMBER_EL_SALVADOR": "<bdo dir='ltr'>+1 617 681 6306</bdo>",
        "SUPPORT_NAME_ESTONIA": "Estonia",
        "SUPPORT_NUMBER_ESTONIA": "<bdo dir='ltr'>800 00 44 154</bdo>",
        "SUPPORT_NAME_FINLAND": "Phần Lan",
        "SUPPORT_NUMBER_FINLAND": "<bdo dir='ltr'>0800 11 6366</bdo>",
        "SUPPORT_NAME_FRANCE": "Pháp",
        "SUPPORT_NUMBER_FRANCE": "<bdo dir='ltr'>0800 10 19 79</bdo>",
        "SUPPORT_NAME_GERMANY": "Đức",
        "SUPPORT_NUMBER_GERMANY": "<bdo dir='ltr'>0800 101 28 21</bdo>",
        "SUPPORT_NAME_GREECE": "Hy Lạp",
        "SUPPORT_NUMBER_GREECE": "<bdo dir='ltr'>00 800 1311</bdo>, sau đó bấm <bdo dir='ltr'>866 310 3707</bdo>",
        "SUPPORT_NAME_GUATEMALA": "Guatemala",
        "SUPPORT_NUMBER_GUATEMALA": "<bdo dir='ltr'>1 800 624 0079</bdo>",
        "SUPPORT_NAME_HONG_KONG": "Hồng Kông",
        "SUPPORT_NUMBER_HONG_KONG": "<bdo dir='ltr'>3002 1665</bdo>",
        "SUPPORT_NAME_HUNGARY": "Hungary",
        "SUPPORT_NUMBER_HUNGARY": "<bdo dir='ltr'>06 800 14 571</bdo>",
        "SUPPORT_NAME_ICELAND": "Iceland",
        "SUPPORT_NUMBER_ICELAND": "<bdo dir='ltr'>800 8544</bdo>",
        "SUPPORT_NAME_INDIA": "Ấn Độ",
        "SUPPORT_NUMBER_INDIA": "<bdo dir='ltr'>000 800 440 1125</bdo>",
        "SUPPORT_NAME_INDONESIA": "Indonesia",
        "SUPPORT_NUMBER_INDONESIA": "<bdo dir='ltr'>008 800 330 334</bdo>",
        "SUPPORT_NAME_IRELAND": "Ireland",
        "SUPPORT_NUMBER_IRELAND": "<bdo dir='ltr'>1 800 946 700</bdo>",
        "SUPPORT_NAME_ISRAEL": "Israel",
        "SUPPORT_NUMBER_ISRAEL": "<bdo dir='ltr'>1 809 470 062</bdo>",
        "SUPPORT_NAME_ITALY": "Ý",
        "SUPPORT_NUMBER_ITALY": "<bdo dir='ltr'>800 90 56 37</bdo>",
        "SUPPORT_NAME_JAPAN": "Nhật Bản",
        "SUPPORT_NUMBER_JAPAN": "Vui lòng tham khảo Hướng dẫn Thông tin Nghiên cứu ePRO của bạn để biết số điện thoại miễn phí cho nghiên cứu của bạn",
        "SUPPORT_NAME_LATVIA": "Latvia",
        "SUPPORT_NUMBER_LATVIA": "<bdo dir='ltr'>8000 2151</bdo>",
        "SUPPORT_NAME_LEBANON": "Li-băng",
        "SUPPORT_NUMBER_LEBANON": "<bdo dir='ltr'>01-426-801</bdo> sau đó bấm <bdo dir='ltr'>866 310 3707</bdo>",
        "SUPPORT_NAME_LITHUANIA": "Lithuania",
        "SUPPORT_NUMBER_LITHUANIA": "<bdo dir='ltr'>8800 30207</bdo>",
        "SUPPORT_NAME_MALAYSIA": "Malaysia",
        "SUPPORT_NUMBER_MALAYSIA": "<bdo dir='ltr'>1800 80 59 71</bdo>",
        "SUPPORT_NAME_MEXICO": "Mexico",
        "SUPPORT_NUMBER_MEXICO_1": "(Tiếng Anh): <bdo dir='ltr'>001 800 748 5669</bdo> ",
        "SUPPORT_NUMBER_MEXICO_2": "(Tiếng Tây Ban Nha): <bdo dir='ltr'>001 855 631 6952</bdo>",
        "SUPPORT_NAME_MOLDOVA": "Moldova",
        "SUPPORT_NUMBER_MOLDOVA": "<bdo dir='ltr'>617 681 6306</bdo>",
        "SUPPORT_NAME_NETHERLANDS": "Hà Lan",
        "SUPPORT_NUMBER_NETHERLANDS": "<bdo dir='ltr'>0800 023 1389</bdo>",
        "SUPPORT_NAME_NEW_ZEALAND": "New Zealand",
        "SUPPORT_NUMBER_NEW_ZEALAND": "<bdo dir='ltr'>0800 110 178</bdo>",
        "SUPPORT_NAME_NORWAY": "Na Uy",
        "SUPPORT_NUMBER_NORWAY": "<bdo dir='ltr'>800 62 051</bdo>",
        "SUPPORT_NAME_PAKISTAN": "Pakistan",
        "SUPPORT_NUMBER_PAKISTAN": "<bdo dir='ltr'>00 800 0100</bdo>, sau đó bấm <bdo dir='ltr'>866 237 9767</bdo>",
        "SUPPORT_NAME_PANAMA": "Panama",
        "SUPPORT_NUMBER_PANAMA": "<bdo dir='ltr'>001 800 201 3095</bdo>",
        "SUPPORT_NAME_PERU": "Peru",
        "SUPPORT_NUMBER_PERU": "<bdo dir='ltr'>0800 5 0974</bdo>",
        "SUPPORT_NAME_PHILIPPINES": "Philippin",
        "SUPPORT_NUMBER_PHILIPPINES": "<bdo dir='ltr'>1 800 1116 0651</bdo>",
        "SUPPORT_NAME_POLAND": "Ba Lan",
        "SUPPORT_NUMBER_POLAND": "<bdo dir='ltr'>00800 331 1262</bdo>",
        "SUPPORT_NAME_PORTUGAL": "Bồ Đào Nha",
        "SUPPORT_NUMBER_PORTUGAL": "<bdo dir='ltr'>800 206 172</bdo>",
        "SUPPORT_NAME_PUERTO_RICO": "Puerto Rico (Lãnh thổ Hoa Kỳ)",
        "SUPPORT_NUMBER_PUERTO_RICO": "<bdo dir='ltr'>1 800 748 5669</bdo>",
        "SUPPORT_NAME_ROMANIA": "Rumani",
        "SUPPORT_NUMBER_ROMANIA": "<bdo dir='ltr'>0800 894492</bdo>",
        "SUPPORT_NAME_RUSSIA": "Nga",
        "SUPPORT_NUMBER_RUSSIA_1": "(Chính – Số điện thoại Miễn phí): <bdo dir='ltr'>8 10 800 249 13011</bdo>",
        "SUPPORT_NUMBER_RUSSIA_2": "(Trong Mát-xcơ-va): <bdo dir='ltr'>363-2400</bdo> <br> sau đó bấm <bdo dir='ltr'>866 310 3707</bdo>",
        "SUPPORT_NUMBER_RUSSIA_3": "(Ngoài Mát-xcơ-va): <bdo dir='ltr'>8^(495) 363-2400</bdo> <br> sau đó bấm <bdo dir='ltr'>866 310 3707</bdo>",
        "SUPPORT_NUMBER_RUSSIA_4": "(Trong St. Petersburg): <bdo dir='ltr'>363-2400</bdo> <br> sau đó bấm <bdo dir='ltr'>866 310 3707</bdo>",
        "SUPPORT_NUMBER_RUSSIA_5": "(Ngoài St. Petersburg): <bdo dir='ltr'>8^(495) 363-2400</bdo> <br> sau đó bấm <bdo dir='ltr'>866 310 3707</bdo>",
        "SUPPORT_NAME_SAUDI_ARABIA": "Ả-Rập Xê-Út",
        "SUPPORT_NUMBER_SAUDI_ARABIA": "<bdo dir='ltr'>+1 617 681 6306</bdo>",
        "SUPPORT_NAME_SERBIA": "Serbia",
        "SUPPORT_NUMBER_SERBIA": "<bdo dir='ltr'>+1 617 973 1739</bdo>",
        "SUPPORT_NAME_SINGAPORE": "Singapore",
        "SUPPORT_NUMBER_SINGAPORE": "<bdo dir='ltr'>800 616 30 03</bdo>",
        "SUPPORT_NAME_SLOVAKIA": "Slovakia",
        "SUPPORT_NUMBER_SLOVAKIA": "<bdo dir='ltr'>0800 0044 65</bdo>",
        "SUPPORT_NAME_SLOVENIA": "Slovenia",
        "SUPPORT_NUMBER_SLOVENIA": "<bdo dir='ltr'>+1 617 681 6306</bdo>",
        "SUPPORT_NAME_SOUTH_AFRICA": "Nam Phi",
        "SUPPORT_NUMBER_SOUTH_AFRICA": "<bdo dir='ltr'>0800 99 5853</bdo>",
        "SUPPORT_NAME_SOUTH_KOREA": "Hàn Quốc",
        "SUPPORT_NUMBER_SOUTH_KOREA": "<bdo dir='ltr'>00308 33 00 08</bdo>",
        "SUPPORT_NAME_SPAIN": "Tây Ban Nha",
        "SUPPORT_NUMBER_SPAIN": "<bdo dir='ltr'>900 90 2541</bdo>",
        "SUPPORT_NAME_SWEDEN": "Thụy Điển",
        "SUPPORT_NUMBER_SWEDEN": "<bdo dir='ltr'>020 120 99 69</bdo>",
        "SUPPORT_NAME_SWITZERLAND": "Thụy Sĩ",
        "SUPPORT_NUMBER_SWITZERLAND_1": "(Tiếng Anh): <bdo dir='ltr'>0800 199 325</bdo>",
        "SUPPORT_NUMBER_SWITZERLAND_2": "(Tiếng Pháp) : <bdo dir='ltr'>0800 891 183</bdo>",
        "SUPPORT_NUMBER_SWITZERLAND_3": "(Tiếng Đức): <bdo dir='ltr'>0800 891 025</bdo>",
        "SUPPORT_NAME_TAIWAN": "Đài Loan",
        "SUPPORT_NUMBER_TAIWAN": "<bdo dir='ltr'>00801 33 33 42</bdo>",
        "SUPPORT_NAME_THAILAND": "Thái Lan",
        "SUPPORT_NUMBER_THAILAND": "<bdo dir='ltr'>1 800 33 140 353</bdo>",
        "SUPPORT_NAME_TUNISIA": "Tunisia",
        "SUPPORT_NUMBER_TUNISIA": "<bdo dir='ltr'>+1 617 681 6306</bdo>",
        "SUPPORT_NAME_TURKEY": "Thổ Nhĩ Kỳ",
        "SUPPORT_NUMBER_TURKEY": "<bdo dir='ltr'>00 800 151 1335</bdo>",
        "SUPPORT_NAME_UKRAINE": "Ukraina",
        "SUPPORT_NUMBER_UKRAINE": "<bdo dir='ltr'>0^00 11</bdo>, sau đó bấm <bdo dir='ltr'>866 245 4931</bdo>",
        "SUPPORT_NAME_UAE": "Các Tiểu Vương Quốc Ả Rập Thống nhất",
        "SUPPORT_NUMBER_UAE": "<bdo dir='ltr'>8000-021</bdo>, sau đó bấm <bdo dir='ltr'>866 310 3707</bdo>",
        "SUPPORT_NAME_UK": "Vương Quốc Anh",
        "SUPPORT_NUMBER_UK": "<bdo dir='ltr'>0800 015 0408</bdo>",
        "SUPPORT_NAME_US": "Hoa Kỳ",
        "SUPPORT_NUMBER_US_1": "(Chính): <bdo dir='ltr'>1 800 748 5669</bdo>",
        "SUPPORT_NUMBER_US_2": "(Hỗ trợ): <bdo dir='ltr'>1 877 748 5669</bdo>",
        "SUPPORT_NAME_VENEZUELA": "Venezuela",
        "SUPPORT_NUMBER_VENEZUELA_1": "(Tiếng Anh): <bdo dir='ltr'>0 800 552 6288</bdo> <br> sau đó bấm <bdo dir='ltr'>866 310 3707</bdo> ",
        "SUPPORT_NUMBER_VENEZUELA_2": "(Tiếng Tây Ban Nha): <bdo dir='ltr'>0 800 100 3063</bdo> ",
        "STUDY_VERSION": "Phiên bản <br>nghiên cứu:",
        "P_AFFIDAVIT_HEADER": "<div><strong>Trung tâm: {{{ getSiteCode }}}</strong><br /><strong>ID bệnh nhân: {{{ getPatientIdNumber }}}</strong></div>",
        "STUDY_URL": "URL nghiên cứu:",
        "DEVICE_SERIAL_NUMBER": "Số sê-ri thiết bị",
        "PROTOCOL": "Giao thức:",
        "SPONSOR": "Nhà tài trợ:",
        "STORED_REPORTS": "Biểu mẫu đã lưu trữ:",
        "CORE_PRODUCT_VERSION_LABEL": "Phiên bản sản phẩm:",
        "ABOUT": "Giới thiệu",
        "SET_TIMEZONE": "Đặt múi giờ",
        "NONEXISTENT_USER": "Đã cố cập nhật một người dùng không tồn tại.",
        "SCREENING" : "Sàng lọc",
        "TREATMENT" : "Điều trị",
        "RANDOMIZATION" : "Ngẫu nhiên hóa",
        "FOLLOWUP" : "Theo dõi",
        "TERMINATION" : "Chấm dứt",
        "ACCEPT": "Tôi chấp nhận",
        "DECLINE": "Tôi từ chối",
        "EULA": "GIẤY PHÉP NGƯỜI DÙNG CUỐI",
        "EULA_TEXT": "<p><strong><span class=\"text-underline\">QUAN TRỌNG</span>:  KHÔNG NHẤP VÀO NÚT CHẤP NHẬN CHO TỚI KHI BẠN ĐÃ ĐỌC THỎA THUẬN NÀY.  BẰNG VIỆC NHẤP VÀO NÚT CHẤP NHẬN, BẠN CHẤP NHẬN TẤT CẢ CÁC ĐIỀU KHOẢN CỦA THỎA THUẬN NÀY.  NẾU BẠN KHÔNG CHẤP NHẬN TẤT CẢ CÁC ĐIỀU KHOẢN CỦA THỎA THUẬN NÀY, THÌ (1) KHÔNG NHẤP VÀO NÚT \"TÔI CHẤP NHẬN\", (2) DỪNG QUÁ TRÌNH CÀI ĐẶT VÀ CẤP PHÉP BẰNG CÁCH NHẤP VÀO NÚT \"TÔI TỪ CHỐI\".</strong></p><p>eResearchTechnology, Inc. (\"Bên cấp phép\") cấp cho bạn quyền không độc quyền và không thể chuyển nhượng được để sử dụng phần mềm eResearchTechnology, Inc. xuất hiện trên thiết bị này (\"Phần mềm\") liên quan đến việc bạn tham gia thỏa thuận khám lâm sàng này: <strong>{{{ clinicalTrial }}}</strong>.  Phần mềm The eResearchTechnology, Inc. được bảo vệ theo các bằng sáng chế đã phát hành và các bằng sáng chế khác đang chờ xử lý.  Thỏa thuận này không chuyển cho bạn bất kỳ quyền sở hữu nào đối với Phần mềm bất kỳ (hoặc bất kỳ bản sao nào), mà chỉ cấu thành giấy phép sử dụng Phần mềm tuân theo tất cả các điều khoản của Thỏa thuận này.  Quyền sở hữu Phần mềm và tất cả các phần của phần mềm này cũng như tất cả quyền sở hữu và quyền sở hữu trí tuệ được thể hiện trong đó, sẽ vẫn được cấp cho Bên cấp phép mọi lúc.</p><p>Bạn đồng ý không, trực tiếp hoặc gián tiếp, (i) thiết kế đối chiếu, phân tách hoặc biên dịch lại Phần mềm; (ii) sao chép, phân phối, sản xuất, điều chỉnh, tạo ra các sản phẩm phái sinh, dịch, bản địa hóa, truy nhập hoặc thậm chí sửa đổi Phần mềm; hoặc (iii) xóa bỏ hoặc thay đổi bất kỳ bản quyền, bí mật thương mại hoặc các thông báo pháp lý nào khác có trong hoặc trên Phần mềm.  BẠN CÔNG NHẬN VÀ ĐỒNG Ý RẰNG PHẦN MỀM CÓ THỂ CHỨA MÃ NGĂN CHẶN VIỆC SỬ DỤNG TRÁI PHÉP PHẦN MỀM.</p><br><p>NẾU BẠN ĐỒNG Ý VỚI TẤT CẢ CÁC ĐIỀU NÓI TRÊN, vui lòng chọn – <strong>Tôi Chấp nhận</strong> – Việc nhấp vào \"Tôi Chấp nhận\" chỉ ra bạn chấp nhận các điều khoản giấy phép này.</p><p>NẾU BẠN KHÔNG ĐỒNG Ý VỚI TẤT CẢ CÁC ĐIỀU NÓI TRÊN hoặc không được ủy quyền đồng ý, hãy chọn – <strong>Tôi Từ chối</strong> – trong trường hợp đó, việc tiếp tục truy cập vào Phần mềm sẽ bị chặn.  Nếu được ủy quyền, bạn có thể chấp nhận vào một thời điểm khác.</p>",
        "SQ-AL": "Tiếng Albania",
        "MODAL_OK_TEXT": "OK",
        "BROWSER_LOAD_ERROR": "Không tìm thấy trang. Vui lòng kiểm tra kết nối Internet của bạn và thử lại.",
        "NO_USER_OF_ROLE" : "Không tìm thấy người dùng nào có vai trò đó.",
        "EDIT_PATIENT_REASON_1": "Sửa dữ liệu thuộc tính",
        "EDIT_PATIENT_REASON_2": "Thay đổi ID",
        "EDIT_PATIENT_REASON_3": "Ngôn ngữ đã chọn không chính xác",
        "START_VISIT_OUTSIDE_WINDOW_MSG" : "Nhập {{{ getVisitName }}} bên ngoài khoảng thời gian được định cấu hình: {{{ startDate }}} - {{{ endDate }}}",
        "START_VISIT_HARD_STOP_MSG" : "Bạn không thể nhập {{{ getVisitName }}} bên ngoài khoảng thời gian được định cấu hình: {{{ startDate }}} - {{{ endDate }}}",
        "USER_NAME_INVALID_CHARACTERS" : "Vui lòng không sử dụng các ký tự đặc biệt",
        "ERROR_PATIENT_SAVE" : "Đã xảy ra lỗi trong khi thêm bệnh nhân mới",
        "PASSWORD_CHANGE_FAILED" : "Một thiết bị khác đã được kích hoạt để thu thập dữ liệu nghiên cứu của bạn. Vui lòng thay đổi mật khẩu của bạn trên thiết bị đó.",
        "ERROR" : "Lỗi.  Vui lòng liên hệ với Trung tâm hỗ trợ ERT.",
        "ERROR_AFTER_ACTIVATION_SUCCESSFUL" : "Đã xảy ra lỗi. Bạn sẽ cần nhập mã thiết lập và mật khẩu của mình.",
        "CONNECTION_TIMEOUT" : "Kết nối hết thời gian chờ.",
        "UPDATE_FAILED" : "Quá trình cập nhật ERT chưa hoàn tất. Hãy đảm bảo thiết bị này được kết nối Internet và thử lại.",
        "QR_CODE_UNAVAILABLE": "Nhấp vào bệnh nhân để làm mới QR.",
        "QR_MODAL_TITLE": "Mã QR dành cho: ",
        "TRANSMIT_FAILED_403_14": "Một hoặc nhiều lần truyền không thành công do quá trình tạo bệnh nhân chưa hoàn tất. Vui lòng đợi và thử lại.",
        "CONSOLE_LOG": "Nhật ký bảng điều khiển",
        "USER_SELECT_ROLE_VALIDATION": "Cần chọn vai trò.",
        "USER_SELECT_LANGUAGE_VALIDATION": "Cần chọn ngôn ngữ."
    },
    "dates": {
        "setDateButtonLabel": "Đặt ngày",
        "setTimeButtonLabel": "OK",
        "setDurationButtonLabel": "Đặt khoảng thời gian",
        "calTodayButtonLabel": "Chuyển đến hôm nay",
        "titleDateDialogLabel": "Đặt ngày",
        "titleTimeDialogLabel": "Đặt giờ",
        "daysOfWeek": [
            "Chủ Nhật",
            "Thứ Hai",
            "Thứ Ba",
            "Thứ Tư",
            "Thứ Năm",
            "Thứ Sáu",
            "Thứ Bảy"
        ],
        "daysOfWeekShort": [
            "CN",
            "T2",
            "T3",
            "T4",
            "T5",
            "T6",
            "T7"
        ],
        "monthsOfYear": [
            "Tháng Một",
            "Tháng Hai",
            "Tháng Ba",
            "Tháng Tư",
            "Th. 5",
            "Tháng Sáu",
            "Tháng Bảy",
            "Tháng Tám",
            "Tháng Chín",
            "Tháng Mười",
            "Tháng Mười Một",
            "Tháng Mười Hai"
        ],
        "monthsOfYearShort": [
            "Th. 1",
            "Th. 2",
            "Th. 3",
            "Th. 4",
            "Th. 5",
            "Th. 6",
            "Th. 7",
            "Th. 8",
            "Th. 9",
            "Th. 10",
            "Th. 11",
            "Th. 12"
        ],
        "durationLabel": [
            "Ngày",
            "Giờ",
            "Phút",
            "Giây"
        ],
        "durationDays": [
            "Ngày",
            "Ngày"
        ],
        "tooltip": "Mở Bộ chọn Ngày",
        "nextMonth": "Tháng Sau",
        "prevMonth": "Tháng Trước",
        "clearButton": "Xóa",
        "meridiem": [
            "Sáng",
            "Chiều"
        ]
    }
}
