{
    "namespace": "CORE",
    "language": "tn",
    "locale": "ZA",
    "localized": "Setswana",
    "direction": "ltr",
    "resources": {
        "ACCEPT": "Ke a Amogela",
        "ACTIVE": "E matlhagatlhaga",
        "ACTIVATE_USER": "Modirisi yo o Dirisang",
        "ACTIVATE_USER_CANCEL_CONFIRM": "Khansela go Dirisa?",
        "ACTIVATE_USER_CANCEL_BODY": "Fa o khansela jaanong, modirisi wa saete a ka se e dirise. A o na le bonnete jwa gore o batla go khansela?",
        "ACTIVATE_USER_AFF": "Ka go saena fa tlase, ke bolela fa ke na le tetla go tsenya tirisong saete eno.",
        "ACTIVATE_USER_CONFIRM_INFORMATION": "Tsweetswee tlhomamisa gore tshedimosetso e e fa tlase ke ya modirisi wa saete e o batlang go e tsenya tirisong.",
        "ADD_PATIENT": "Molwetse yo Moswa",
        "ADD_USER": "Tsenya Modirisi",
        "AFFIDAVIT": "Tlhopha SIAME go tswa foo tlhopha Latela fa o siametse go boloka karabo tsa gago.",
        "AFFIDAVIT_HELP": "Re a leboga. O neelane ka dikarabo tsotlhe tse di tlhokegang tsa gago. O ka tlhola le go fetola dikarabo tsa gago ka go tlhopha Morago.",
        "P_AFFIDAVIT_HEADER": "<div><strong>Saete: {{{ getSiteCode }}}</strong><br /><strong>ID ya Molwetse: {{{ getPatientIdNumber }}}</strong></div>",
        "ALL_QUESTIONNAIRES_COMPLETED": "Diforomo Tsotlhe di Tladitswe",
        "APP_NAME": "ERT",
        "APPLICATION_HEADER": "{{{ appHeader }}}",
        "APP_NAME_LBL": "Leina la App",
        "APP_VERSION": "Mofuta wa App",
        "ASSIGNED_TO": "Reboletswe",
        "AVAILABLE": "E teng",
        "BACK": "Morago",
        "BACK_OUT_CONFIRM": "A o tlhomamisegile o batla go tswa? Dikarabo tsa foromo eno di tla latlhega.",
        "BLUETOOTH_REG_REFRESH_BUTTON": "Ntšhwafatsa Lenaane",
        "CANCEL": "Khansela",
        "CHECK_FOR_UPDATES": "Tlhola Dinšhafatso",
        "CHOOSE_A_SITE": "Tlhophela sedirisiwa seno saete e e totobetseng.",
        "COMPLETED": "E Konetswe",
        "CONFIRM_PASSWORD": "Tlhomamisa Lefoko la go Tsena:",
        "CONFIRM_TEMP_PASS": "Tlhomamisa Lefoko la go Tsena la Nakwana:",
        "CONSOLE_LOG": "Sedirisiwa sa Eleketeroniki",
        "CONTINUE": "Tswelela",
        "COUNTRY": "Naga",
        "CUSTOM_ENVIRONMENT": "Tlwaelo ya Tikologo",
        "DEACTIVATE_PATIENT": "Thibela Tiriso ya Molwetse",
        "DEACTIVATE_USER": "Thibela Tiriso ya Modirisi",
        "DEACTIVATED": "Thibela Tiriso",
        "DEACTIVATE_USER_CANCEL_CONFIRM": "Khansela Thibelo Tiriso?",
        "DEACTIVATE_USER_CANCEL_BODY": "Fa o khansela jaanong, modirisi wa saete a ka se thibelwe go e dirisa. A o na le bonnete jwa gore o batla go khansela?",
        "DEACTIVATE_USER_AFF": "Ka go saena fa tlase, ke bolela fa ke na le tetla go thibela saete eno go dirisiwa.",
        "DEACTIVATE_USER_SIG": "<strong>Modirisi go thibela tiriso:</strong> <br />{{{ getSelectedUsername }}}<br /><br /><strong>Tshaeno ya:</strong> {{{ getActiveUserName }}}",
        "DEACTIVATE_USER_CONFIRM_INFORMATION": "Tsweetswee tlhomamisa gore tshedimosetso e e fa tlase ke ya modirisi wa saete e o batlang go e thibela go dirisiwa.",
        "DECLINE": "Ke a Gana",
        "DEVICE_ID": "ID ya Sediriswa",
        "DEVICE_REGISTRATION_FAILURE": "Reteletswe go kwadisa sedirisiwa.",
        "DEVICE_UUIID": "UUID ya Sedirisiwa",
        "BATTERY_LEVEL": "Selekanyo sa bateri",
        "DEVICE_INFO": "Tshedimosetso ya Sedirisiwa",
        "DIARY_TIMEOUT": "Foromo eno e feletswe ke nako.",
        "EDIT_MY_INFO": "Tlhatlhoba Tshedimosetso ya Me",
        "EDIT_PATIENT": "Tlhatlhoba Molwetse",
        "EDIT_PATIENT_QUESTION_1_MAIN_TITLE": "<div class='question-title-large'>Boitshupo jwa Molwetse </div><div>Tlhatlhamano ya ID mo saeteng eno:<br /><strong> {{{ patientIDRange }}}</strong></div><div class='edit-patient-id'>ID ya Molwetse:<br /><strong>{{{ getPatientIdNumber }}} ({{{getPatientInitials}}})</strong</div><br /><br />",
        "EDIT_PATIENT_QUESTION_1": "ID ya Molwetsi:",
        "EDIT_PATIENT_QUESTION_1_EMPTY": "Tsweetswee tlatsa ID ya molwetse.",
        "EDIT_PATIENT_QUESTION_1_EMPTY_HEADER": "ID ya Molwetsi",
        "EDIT_PATIENT_QUESTION_1_RANGE": "ID e o e tsentseng ya molwetse ga e tsamaelane le tlhatlhamano e e letleletsweng ya di-ID: {{{ patientIDRange }}}.  Tsweetswee tsenya ID ya molwetse e e nepagetseng.",
        "EDIT_PATIENT_QUESTION_1_RANGE_HEADER": "ID ya Molwetse ga e mo tlhatlhamanong",
        "EDIT_PATIENT_QUESTION_1_UNIQUE": "Modirisi o Setse a le Teng.  Tsweetswee tsenya ID ya molwetse e nngwe gape.",
        "EDIT_PATIENT_QUESTION_1_UNIQUE_HEADER": "ID ya molwetse e a ipoeletsa",
        "EDIT_PATIENT_QUESTION_2": "Ditlhakaina tsa Molwetsi:",
        "EDIT_PATIENT_QUESTION_2_EMPTY": "Tsweetswee kwala ditlhakaina tsa molwetse, bobotlana ditlhaka tse 2.",
        "EDIT_PATIENT_QUESTION_2_EMPTY_HEADER": "Ditlhakaina tsa Molwetsi",
        "EDIT_PATIENT_QUESTION_3_TITLE": "<div class='question-title-large'>Tlhopha Puo</div><div>ID ya Molwetse:<br /><strong>{{{ getPatientIdNumber }}} ({{{getPatientInitials}}})</strong</div><br /><br />",
        "EDIT_PATIENT_QUESTION_3": "Tlhopha puo ya molwetse",
        "EDIT_PATIENT_QUESTION_4_TITLE": "<div class='question-title-large'>Lebaka la go Baakanya</div><br /><br />",
        "EDIT_PATIENT_QUESTION_4": "Tlhopha lebaka la go tlhatlhoba molwetse",
        "EDIT_PATIENT_CANCEL_CONFIRM": "Khansela diphetogo mo Molwetseng?",
        "EDIT_PATIENT_CANCEL_BODY": "Fa o khansela jaanong, diseting tsa molwetse di ka se ntshafadiwe.  A o na le bonnete jwa gore o batla go khansela?",
        "EDIT_PATIENT_NO_CHANGES_CONFIRM": "Ga go na Diphetogo tse di dirilweng mo molwetseng",
        "EDIT_PATIENT_NO_CHANGES_BODY": "Ga go diphetogo tse di dirilweng mo molwetseng ono. Tswaya?",
        "EDIT_PATIENT_REASON_0": "Go baakanya phoso ke ngaka ya tliliniki",
        "EDIT_PATIENT_REASON_1": "Go bona paakanyo ya tshedimosetso",
        "EDIT_PATIENT_REASON_2": "Phetolo ya ID",
        "EDIT_PATIENT_REASON_3": "Go Tlhophilwe Puo e e Phoso",
        "EDIT_REASON": "Lebaka la go Baakanya:",
        "EDIT_SERVICE_URL": "Baakanya Tirelo ya URL",
        "EDIT_SERVICE_URL_SUCCESS": "Tirelo ya URL e ntshwafaditswe.",
        "EDIT_USER": "Baakanya Modirisi",
        "EDIT_USER_AFF": "Ka go saena fa tlase, ke bolela fa ke na le tetla go baakanya modirisi wa saete eno. <br /><br /><strong>Tshaeno ya:</strong> {{{ getActiveUserName }}}",
        "EDIT_USER_CANCEL_CONFIRM": "A o Khansela go Baakanya Modirisi?",
        "EDIT_USER_CANCEL_BODY": "Fa o khansela jaanong, diphetogo tsa modirisi wa saete di ka se dirwe. A o na le bonnete jwa gore o batla go khansela?",
        "EDIT_USER_NO_CHANGES_HEADER": "Ga go Diphetogo Tse di Dirilweng mo Modirising wa Saete",
        "EDIT_USER_NO_CHANGES_BODY": "Ga go diphetogo tse di dirilweng mo molwetseng ono. Tswaya?",
        "EMAIL": "Aterese ya Emeile",
        "ENTER_PATIENT_INFO": "Tsenya tshedimosetso ya molwetsi",
        "ENTER_UNLOCK_CODE": "Tsweetswee tsenya Khouto ya go Lotlolola",
        "ENTER_USER_INFO": "Tsenya tshedimosetso ya modirisi yo moswa wa saete",
        "ENVIRONMENT": "Tikologo",
        "ERROR_CODE": "Khouto e e Phoso:",
        "ERROR_TITLE": "Phoso",
        "EULA": "LAESENSE YA GO FELA GA TIRISO",
        "EULA_TEXT": "<p><strong><span class=\"text-underline\">BOTLHOKWA</span>:  O SEKA WA TOBETSA KONOPO YA AMOGELA PELE O BALA TUMELANO.  KA GO TOBETSA KONOPO YA AMOGELA, O AMOGELA MELAWANA YOTLHE YA TUMELANO ENO.  FA O SA AMOGELE MELAWANA YOTLHE YA TUMELANO ENO (1) O SEKA WA TOBETSA GO \"KONOPO YA\" \"KE A AMOGELA\", (2) KGAOTSA GO TSENYA MMOGO LE THULAGANYO YA GO DIRA LAESENSE KA GO TOBETSA GO \"KONOPO YA \" \"KE A GANA\".</strong></p><p>eResearchTechnology, Inc. (\"Licensor\") e go naya tshwanelo e e seng ya botlhe, e e sa feteleng go ba bangwe ya go dirisa software ya eResearchTechnology, Inc. e e mo sedirisiweng seno (\"Software\") ka ntlha ya go tsaya karolo ga gago mo tumelanong ya tekeletso ya kalafi: <strong>{{{ clinicalTrial }}}</strong>.  Software ya eResearchTechnology, Inc. e duelwa ke batlami ba ba e dirileng le batlhami ba bangwe ba ba letileng.  Tumelano eno ga e go bolelele ka gope o na le ditshwanelo dipe mo Software (kgotsa dikhopi dipe tsa yone), mme e dira fela laesense ya go dirisa Software go dumalana le melawana yotlhe ya tumelano eno.  Thaetlele ya Software le dikarolo tsotlhe tsa yone, le ditshwanelo tsa beng le ditshwanelo tsa dithoto tse di mo go yone, di tla nna kafa molaong go mong wa laesense ka dinako tsotlhe.</p><p>O dumela go se, ka tlhamalalo kgotsa e se ka tlhamalalo, (i) busetsa morago boenjeniri, go tlhatlhamolola kgotsa go kopanya gape Software; (ii) kopolola, anamisa, dira, fetola, tlhama ditiro tse di theilweng tsa, thanolo, go e dira ya lefelo, tshwaraganya kgotsa go fetola Software; kgotsa (iii) go ntsha kgotsa go fetola ka tsela epe mong, rekisa mo sephiring kgotsa ditlhagiso tsa semolao tse di mo kgotsa mo teng ga Software.  O ITSE LE GO DUMELA GORE SOFTWARE E KA NNA LE KHOUTO E E THIBELANG TIRISO E E SENG KAFA MOLAONG YA SOFTWARE.</p><br><p>FA O DUMALANA LE DILO TSENO TSOTLHE TSE DI FETILENG, tsweetswee tlhopha – <strong>Ke Amogela</strong> –Tobetsa\"Ke Amogela\" go bontsha go amogela ga gago melawana ya laesense.</p><p>FA O SA DUMALANE LE DILO TSOTLHE TSE DI FETILENG, kgotsa o sena tetla ya go dumela, tlhopha – <strong>Ke a Gana</strong> – mme go tswelela o tsena mo Software go tla thibelwang.  Fa o neilwe tetla, o ka amogela ka nako nngwe le nngwe.</p>",
        "FIRST_NAME": "Leina la Ntlha",
        "FORGOT_PASSWORD": "O Lebetse Lefoko la go Tsena?",
        "FORM": "Foromo",
        "FORM_GATEWAY": "Foromo ya Kgolaganyo ya Mafaratlhatlha",
        "FORM_NAME": "Leina la Foromo",
        "FULL_NAME": "Leina le le Tletseng:",
        "GO_TO_VISITS": "Maeto a Molwetse",
        "HAND_DEVICE_SITE_TITLE": "Naya Modirisi wa Lefelo Sedirisiwa",
        "HAND_DEVICE_SITE_BODY": "Tsweetswee naya modirisi wa lefelo sedirisiwa.",
        "HELP": "Thuso",
        "HOME": "Kwa Gae",
        "IN_PROGRESS": "Tsweletse",
        "INITIALS": "Ditlhakaina",
        "INVALID_URL": "Tsweetswee tsenya URL e e nepagetseng.",
        "INVALID_PERMISSION": "Tetlelelo ga e Dire.",
        "INVALID_PASSWORD": "Leina la go tsena le le phoso.",
        "LANGUAGE": "Puo:",
        "LAST_LOGIN": "Labofela fa o Tsena",
        "LAST_NAME": "Sefane",
        "LAST_REFRESH_TIME": "Nako ya Bofelo go Ntshwafatsa",
        "LOCATION": "Lefelo",
        "LOGIN": "Tsena",
        "LOGIN_SCREEN": "Tsena",
        "LOGOUT": "Tswaa",
        "MANAGE_USERS": "Laola Badirisi ba Saete",
        "MARK_AS_COMPLETED": "Tshwaya Weditswe",
        "SITE_SIGNATURE": "Tshaeno ya: ",
        "SITE_REPORT_AFF": "Ke tsentse, tlhatlhoba ka botlalo, mme fano ke tlhomamisa tshedimosetso e e fetileng.<br /><br /><strong>Tshaeno ya:</strong> {{{ getActiveUserName }}}",
        "PATIENT_REPORT_AFF": "Ke tsentse, tlhatlhoba ka botlalo, mme fano ke tlhomamisa tshedimosetso e e fetileng.<br /><br /><strong>Ditlhakaina tsa:</strong> {{{ getActiveUserName }}}",
        "CLEAR_SIGNATURE": "Phimola Mosaeno",
        "MENU": "Lenaneokhomphutara",
        "MODE": "Mofuta",
        "NAME": "Leina",
        "NEW_USER": "Tsenya Tayari ya Modirisi yo Mosha",
        "FIRST_SITE_USER": "Tsenya Modirisi wa Ntlha wa Lefelo la Inthanete",
        "NEW_USER_CREATED": "Go tlhamilwe modirisi wa saete.",
        "NEW_PATIENT_QUESTION_1_MAIN_TITLE": "<div class='question-title-large'>Tsenya Boitshupo jwa Molwetse</div><div>Tlhatlhamano ya ID mo saeteng eno:<br /><strong> {{{ patientIDRange }}}</strong></div><div><strong>Saete: {{{ getSiteCode }}}</strong></div><div><strong>Modirisi: {{{ getUserName }}}</strong</div><br /><br />",
        "NEW_PATIENT_HELP_TEXT_1": "",
        "NEW_PATIENT_HELP_TEXT_2": "",
        "NEW_PATIENT_HELP_TEXT_3": "",
        "NEW_PATIENT_QUESTION_1_TITLE": "ID ya Molwetsi",
        "NEW_PATIENT_QUESTION_1": "ID ya Molwetsi:",
        "NEW_PATIENT_QUESTION_1_EMPTY": "Tsweetswee tlatsa ID ya molwetse.",
        "NEW_PATIENT_QUESTION_1_EMPTY_HEADER": "ID ya Molwetsi",
        "NEW_PATIENT_QUESTION_1_RANGE": "ID e o e tsentseng ya molwetse ga e tsamaelane le tlhatlhamano e e letleletsweng ya di-ID: {{{ patientIDRange }}}.  Tsweetswee tsenya ID ya molwetse e e nepagetseng.",
        "NEW_PATIENT_QUESTION_1_RANGE_HEADER": "ID ya Molwetse ga e mo tlhatlhamanong",
        "NEW_PATIENT_QUESTION_1_UNIQUE": "Modirisi o Setse a le Teng.  Tsweetswee tsenya ID ya molwetse e nngwe gape.",
        "NEW_PATIENT_QUESTION_1_UNIQUE_HEADER": "ID ya molwetse e a ipoeletsa",
        "NEW_PATIENT_QUESTION_2": "Ditlhakaina tsa Molwetsi:",
        "NEW_PATIENT_QUESTION_2_EMPTY": "Tsweetswee kwala ditlhakaina tsa molwetse, bobotlana ditlhaka tse 2.",
        "NEW_PATIENT_QUESTION_2_EMPTY_HEADER": "Ditlhakaina tsa Molwetsi",
        "NEW_PATIENT_QUESTION_3_TITLE": "<div class='question-title-large'>Tlhopha Puo</div><div><strong>Saete: {{{ getSiteCode }}}</strong></div><div><strong>Modirisi: {{{ getUserName }}}</strong</div><div><strong>ID ya Molwetse: {{{ getPatientID }}}</strong></div><br /><br />",
        "NEW_PATIENT_QUESTION_3": "Tlhopha puo ya molwetse",
        "NEW_PATIENT_CANCEL_CONFIRM": "Khansela go Tsenya Molwetse?",
        "NEW_PATIENT_CANCEL_BODY": "Fa o khansela, molwetse a ka se kwadisiwe.  A o na le bonnete jwa gore o batla go khansela?",
        "NEW_PATIENT_AFFIDAVIT_HEADER": "<div><strong>Saete: {{{ getSiteCode }}}</strong><br /><strong>Modirisi: {{{ getUserName }}}</strong><br /><strong>ID ya Molwetse: {{{ getPatientID }}}</strong></div>",
        "NEXT": "E e latelang",
        "NO_RESULTS_FOUND": "Ga go a bonwa Dipholo.",
        "NOT_AVAILABLE": "Ga e yo",
        "OK": "GO SIAME",
        "ORDER": "Thulaganyo",
        "PASSWORD": "Lefoko la go Tsena:",
        "PATIENT": "Molwetsi",
        "PATIENT_ID": "ID ya Molwetsi:",
        "PATIENT_INITIALS": "Ditlhakaina tsa Molwetsi:",
        "PATIENT_DELETED": "Molwetse ga a Itsiwe",
        "PATIENT_DELETED_MSG": "Molwetse ga a bonwe.",
        "PATIENT_DELETED_SUBJECT_MSG": "Molwetse ga a bonwe. Tsweetswee busetsa sedirisiwa go modiredi yo o maleba wa saete.",
        "PENDING_TRANSMISSIONS": "Thomelo e e Santseng e Eme",
        "PLEASE_WAIT": "Tsweetswee leta",
        "PLEASE_CONFIRM": "Tsweetswee tlhomamisa",
        "PLEASE_CONTACT": "Tsweetswee ikgolaganye le Lefelo la go Thusa la ERT.",
        "PLEASE_TRY_OR_CONTACT_SUPPORT": "Tsweetswee leka gape kgotsa ikgolaganye le Lefelo la go Thusa la ERT.",
        "QR_CODE_UNAVAILABLE": "Tobetsa go molwetse go ntshwafatsa QR.",
        "QR_MODAL_TITLE": "Khouto ya QR ya: ",
        "REASON": "Lebaka:",
        "REPORTS_AND_FORMS": "Dipegelo le Diforomo",
        "REPORTS_COMPLETED_MESSAGE": "O tladitse diforomo tsotlhe tsa gago. Tsweetswee busetsa sedirisiwa go modiredi yo o maleba wa saete.",
        "REQUIRED_ANSWER": "Tsweetswee tlatsa tshedimosetso e e kopiwang.",
        "RESET_PIN": "Dira Sešwa PIN ya Molwetse",
        "RESET_USER_PASSWORD": "Dira Gape Lefoko la go Tsena la Modirisi",
        "ROLES": "Seabe:",
        "SAVE": "Boloka",
        "SEARCH": "Go batla sengwe",
        "SECURITY_QUESTION_0": "Leina la ga Mme wa gago pele a nyalwa ke mang?",
        "SECURITY_QUESTION_1": "O belegetswe mo toropokgolo efe?",
        "SECURITY_QUESTION_2": "Ke mang leina la seotlwana sa gago sa ntlha?",
        "SECURITY_QUESTION_3": "Motshameko wa gago wa mmamoratwa ke ofe?",
        "SECURITY_QUESTION_4": "A alogile ngwaga mang?",
        "SECURITY_QUESTION_5": "Leina la bobedi la ngwana wa gago yo mogolo ke mang?",
        "SECURITY_QUESTION_6": "Leina la tsala ya gago e o neng o e rata thata fa o le ngwana ke mang?",
        "SECURITY_QUESTION_7": "Sefane sa morutabana wa gago wa mophato wa boraro ke mang?",
        "SECURITY_QUESTION_8": "Tiro ya gago ya ntlha e ne e le kwa toropokgolong kgotsa toropo efe?",
        "SECRET_ANSWER": "Karabo ya Tshireletso:",
        "SECRET_QUESTION": "Potso ya Tshireletso:",
        "SECRET_QUESTION_HELP_TEXT": "Tlhopha potso ya tshireletso mo lenaaneng fa tlase. Karabo e dirisiwa go go letla go tsena fa o lebetse Lefoko la go tsena.",
        "SECRET_QUESTION_ANSWER": "Potso ya Tshireletso le Karabo",
        "SELECT_LANGUAGE": "Tsweetswee tlhopha puo e o e batlang mo saeteng eno.",
        "SET_TIMEZONE_MESSAGE": "Tlhopha Nako ya Kgaolo ya Gago:",
        "SELECT_SITE_NUMBER": "Tsweetswee tlhopha nommoro ya saete",
        "SERVICE_URL": "Tirelo ya URL",
        "SETTINGS": "Diseting",
        "SETUP_COMPLETE": "Ntshwafatso e Weditswe",
        "SETUP_COMPLETE_DESC": "Sedirisiwa se dirilwe se siametse go romelwa.  Tsweetswee tobetsa SIAME mme o time sedirisiwa mo sekerining se se latelang.",
        "SETUP_SITE_USER": "Simolola Modirisi wa Saete",
        "SETUP_SITE_USER_LEGEND": "Tsweetswee simolola modirisi wa saete mo sedirisiweng seno.",
        "SITE": "Saete",
        "SITE_ASSESSMENTS": "Tshekatsheko ya Saete",
        "SIGNATURE_DATA_LIMIT_EXCEEDED": "Lebokoso la Tshaeno ga le a emela tshaeno ya gago ka nepo jaaka go thadilwe. Go na le moo tsweetswee saena ka ditlhakaina tsa gago.",
        "SITE_NUMBER": "Nommoro ya Saete",
        "SITE_ROLE": "Modirisi wa Saete",
        "SITE_SELECTION": "Tlhopho ya Saete",
        "SKIP_FORM": "Tlola Foromo",
        "SKIP_QUESTION": "A o tlhomamisegile gore o batla go tlola dikarabo mo sekerining seno?",
        "SKIP_TO_VISIT": "Tlola go Etela",
        "SKIP_VISIT": "Tlola go Etela",
        "SKIP_VISITS": "Tlola go Etela",
        "SKIP_VISITS_QUESTION_1": "<div class='question-title-large'><strong>Lebaka</strong></div><br /><br /><div>Tlhopha lebaka la go tlola maeto:</div>",
        "SKIP_VISITS_CANCEL_CONFIRM": "Khansela go Tlola Maeto?",
        "SKIP_VISITS_CANCEL_BODY": "Fa o khansela jaanong, maeto a ka se tlolwe. A o na le bonnete jwa gore o batla go khansela?",
        "SKIPPED": "Tlotswe",
        "SKIPPED_VISITS": "{{{ skippedVisits }}}",
        "START_FORM": "Simolola Foromo",
        "START_VISIT": "Simolola Loeto",
        "STATUS": "Maemo",
        "STATUS_DATE": "Maemo a Letlha",
        "STUDY": "Patlisiso",
        "STUDYWORKS_LOGIN": "Go Tsena go DitiroTsaPatlisiso",
        "SUBJECT_ID": "ID ya Molwetsi",
        "SUBJECT_ROLE": "Molwetsi",
        "SUBMIT": "Romela",
        "SUPPORT_TOOLS": "Didiriswa tsa Tshegetso",
        "SYNC": "Tsamaisana",
        "SYNC_USERS": "Tsamaisano ya Badirisi",
        "SYNC_TO_DEVICE": "Tsamaisano ya Didirisiwa tsa Patlisiso",
        "TEMPORARY_PASSWORD_MESSAGE": "Tsweetswee naya lefoko la go tsena la nakwana go modirisi yo mosha. Ba tla kopiwa go tlhama lefoko la go tsena le lentšhwa fa ba sena go tsena.",
        "TEMP_PASSWORD": "Lefoko la go Tsena la Nakwana: ",
        "UNABLE_TO_GET_SITE_LIST": "Ga go kgonege go bona Lenaane la Saete",
        "UNLOCK_CODE": "Khouto e e Lotlololang",
        "UNLOCK_CODE_HELP": "Khouto ya go Lotlolola Tablet ya ERT e ka bonwa go DitiroTsaPatlisiso go 'ERT Unlock Codes' SmartReport. Tsweetswee ikgolaganye le Lefelo la go Thusa la ERT go bona thuso e e oketsegileng.",
        "USER": "Modirisi",
        "USER_ALREADY_EXISTS": "Modirisi o Setse a le Teng",
        "USER_EDITED": "Modirisi o ntshwafaditswe.",
        "USER_TO_ACTIVATE": "<strong>Modirisi go tsenya tirisong:</strong> <br />{{{ getSelectedUsername }}}<br /><br /><strong>Tshaeno ya:</strong> {{{ getActiveUserName }}}",
        "SUBJECT_ALREADY_EXISTS": "Molwetse le ID {{{ getPatientIDForDuplicate }}} di setse di le gone",
        "TIME_CONFIRMATION_INSTRUCTIONS": "Sedirisiwa se tlhoka go tlhomamisa nako ya lefelo la lona. Tsweetswee tsenya letlha la gago le nako go tswa mo motsweding o o ikanyegang.",
        "TIME_ZONE_ERROR_HEADER": "Phoso ya Nako ya Kgaolo",
        "TIME_ZONE_ERROR_MSG": "Go nnile le phoso fa o batla lenaane le Nako ya Kgaolo. Tsweetswee ikgolaganye le Lefelo la go Thusa la ERT go bona thuso e e oketsegileng.",
        "TIME_ZONE_SET_ERROR_MSG": "Go nnile le phoso fa o tlhoma lenaane le Nako ya Kgaolo. Tsweetswee ikgolaganye le Lefelo la go Thusa la ERT go bona thuso e e oketsegileng.",
        "TIME_ZONE_SET_CONFIRM": "A o tlhomamisegile gore o batla go tlhoma Nako ya Kgaolo go: <bdo dir='ltr'>{{{selectedTimeZone}}}</bdo>? <br/> Kopo e ka simolola sesha go tsenya tirisong phetolo.",
        "TIME_ZONE_SET_CONFIRM_NOCHANGE": "A o tlhomamisegile gore o batla go tlhoma Nako ya Kgaolo go: <bdo dir='ltr'>{{{selectedTimeZone}}}</bdo>?",
        "TIME_ZONE_SET_HEADER": "Tlhomamisa go Tlhoma Nako ya Kgaolo",
        "TRAINER": "Mokgwa wa Mokatisi",
        "TRAINER_EXIT": "Tswaya go Mokgwa wa Mokatisi",
        "TRAINER_EXIT_NOTIFICATION": "O tswa go Mokgwa wa Mokatisi",
        "TRAINER_HEADER": "(Mokatisi)",
        "USER_ROLE": "Seabe sa Modirisi",
        "USERNAME": "Leina la modirisi",
        "USER_NAME": "Leina la modirisi:",
        "VISIT": "Go Etela",
        "VISIT_COMPLETED_MESSAGE": "Ga go na diforomo tse dingwe tsa leeto leno.  Leeto jaanong le weditswe.",
        "VISIT_INACTIVE_HEADER": "Thibela leeto.",
        "VISIT_INACTIVE_MESSAGE": "Leeto leno ga le tlhole le le gone.",
        "VISIT_INACTIVE_MESSAGE_SUBJECT": "Leeto leno ga le tlhole le le gone. Tsweetswee busetsa sedirisiwa go modiredi yo o maleba wa saete.",
        "VISIT_EXPIRED_HEADER": "Leeto le feletswe ke nako.",
        "VISIT_EXPIRED_MESSAGE": "Leeto leno ga le tlhole le le gone ka gonne le feletswe ke nako.",
        "VISIT_EXPIRED_MESSAGE_SUBJECT": "Leeto leno ga le tlhole le le gone ka gonne le feletswe ke nako. Tsweetswee busetsa sedirisiwa go modiredi yo o maleba wa saete.",
        "VISITS": "Diketelo",
        "VISITS_SKIPPED": "Maeto a a Tlotsweng:",
        "VISIT_NAME": "Leina la Leeto",
        "WELCOME": "Re a lo amogela",
        "AF-ZA": "Afrikaans",
        "SQ-AL": "Albanian",
        "AR-EG": "Arabic",
		"AS-IN": "Se-Assamese",
        "BE-BY": "Belarusian",
        "BG-BG": "Bulgarian",
        "BN-IN": "Bengali",
        "BS-BA": "Bosnian",
        "CA-ES": "Catalan",
		"CE-PH": "Se-Cebu",
        "CS-CZ": "Czech",
		"CY-GB": "Se-Wales",
        "DA-DK": "Danish",
        "DE-DE": "German (Germany)",
        "DE-AT": "German (Austria)",
		"DH-KE": "Se-Doluo",
        "EL-GR": "Greek",
        "EN-GB": "English (UK)",
        "EN-US": "English (US)",
        "ES-ES": "Spanish (Spain)",
        "ES-US": "Spanish (US)",
        "ES-PY": "Spanish (Lefatshe lotlhe)",
        "ET-EE": "Estonian",
        "FI-FI": "Finnish",
        "FR-CA": "French (Canada)",
        "FR-FR": "French (France)",
        "GD-IE": "Gaelic",
        "GU-IN": "Gujarati",
        "HE-IL": "Hebrew",
        "HI-IN": "Hindi",
        "HR-HR": "Croatian",
        "HU-HU": "Hungarian",
        "IT-IT": "Italian",
        "JA-JP": "Japanese",
        "KA-GE": "Georgian",
        "KN-IN": "Kannada",
        "KO-KR": "Korean",
		"LG-UG": "Se-Luganda",
        "LV-LV": "Latvian",
        "LT-LT": "Lithuanian",
		"MK-MK": "Semakedonai",
        "ML-IN": "Malayalam",
        "MR-IN": "Marathi",
        "MS-MY": "Malay",
        "NB-NO": "Norwegian",
        "NL-BE": "Dutch (Belgium)",
        "NL-NL": "Dutch (Netherlands)",
        "PA-IN": "Punjabi",
        "PL-PL": "Polish",
        "PT-BR": "Portuguese (Brazil)",
        "PT-PT": "Portuguese (Portugal)",
        "RO-RO": "Romanian",
        "RU-RU": "Russian",
        "SL-SL": "Slovenian",
        "SK-SK": "Slovak",
        "SR-RS": "Serbian (Latin)",
        "SR-SP": "Serbian (Cyrillic)",
        "ST-ZA": "Sesotho",
        "SV-SE": "Swedish",
		"SW-KE": "Seswahili",
        "TA-IN": "Tamil",
        "TE-IN": "Telugu",
        "TH-TH": "Thai",
        "TL-PH": "Tagalog",
        "TN-ZA": "Setswana",
        "TR-TR": "Turkish",
		"TW-GH": "Se-Twi",
        "UK-UA": "Ukrainian",
        "UR-IN": "Urdu",
        "VI-VN": "Vietnamese",
        "XH-ZA": "Sexhosa",
        "ZH-CN": "Chinese (China)",
        "ZH-TW": "Chinese (Taiwan)",
        "ZU-ZU": "Sezulu",
        "HAND_DEVICE_SUBJECT_BODY": "Foromo e e latelang e tshwanetse go tladiwa ke {{{ patientOrRole }}}. Tsweetswee tswa, mme sedirisiwa o se neye {{{ patientOrRole }}}.",
        "HAND_DEVICE_SUBJECT_TITLE": "Starting Form {{{ formTitle }}}",
        "SKIP_VISIT_TITLE": "Tlola go Etela?",
        "SKIP_VISIT_TEXT": "Fa o tswelela, maeto a a latelang a tla tlolwa:<br/> {{{ skippedVisits }}} Tswelela mme o tlole maeto ano jaanong?",
        "YES": "Ee",
        "NO": "Nnyaa",
        "TIME_LBL": "Nako:",
        "SET_TIME": "Tlhoma Nako",
        "DATE_LBL": "Letlha:",
        "CREATE_PERMANENT_PASSWORD_TITLE": "Tlhama Leina la go Tsena la Leruri",
        "USER_ID": "ID ya Modirisi:",
        "PHASE": "Kgato",
        "LAST_VISIT": "Leeto la Bofelo le le Weditsweng",
        "CONNECTION_REQUIRED": "Go tlhokega kgolagano ya Inthanete.",
        "RETRY": "Leka gape",
        "UPDATE_FAILURE": "Go ntšhafatsa ga go a wediwa",
        "UPDATE_SUCCESS": "Go Ntšhafatsa go Atlegile",
        "CANCEL_PERMANENT_PASSWORD_TITLE": "Khansela go Tlhama Leina la go Tsena la Leruri?",
        "CANCEL_PERMANENT_PASSWORD_TEXT": "Fa o khansela jaanong, leina la go tsena la gago la leruri le ka se tlhamiwe. O tla tlhoka leina la go tsena la leruri go simolola go dirisa ERT. A o na le bonnete jwa gore o batla go khansela?",
        "ACCOUNT_CONFIGURED_TITLE": "Go tlhomiwa ga akhaonto go weditswe",
        "ACCOUNT_CONFIGURED_TEXT": "Jaanong o weditse go tlhoma akhaonto ya gago, jaanong o ka tswelela go dirisa thulaganyo ya eCOA.",
        "LOGGED_IN_AS": "O tsene o le",
        "EDIT_PATIENT_AFFIDAVIT_HEADER": "<p class='question-title-large'>Mosaeno</p><br />",
        "EDIT_PATIENT_AFF": "Ka go saena fa tlase, ke bolela fa ke na le tetla ya go sekaseka molwetse yono.<br /><br />ID ya Molwetse: {{{ getPatientIdNumber }}} ({{{getPatientInitials}}})<br /><br /><strong>Mosaeno wa:</strong> {{{ getActiveUserName }}}",
        "PASSWORD_MISMATCH": "Tlhomamiso ya lefoko la go tsena ga e nyalane",
        "FIRST_USER_AFFIDAVIT": "Ka go saena fa tlase, ke bolela fano gore ke mmatlisisi mogolo kgotsa moemedi yo o nang le tetla ya go tlhama diakhaonto mo thulaganyong eno.<br /><br /><strong>Mosaeno wa:</strong> {{{ getFirstUsername }}}",
        "INCOMPLETE": "Ga e a fediwa",
        "INVALID_ENTRY": "Tsenyo e e sa Direng",
        "PLEASE_ANSWER_SQ": "Tsweetswee araba potso ya gago ya tshireletso:",
        "FORGOT_SECRET_ANSWER": "O lebetse karabo ya tshireletso?",
        "CONTACT_STUDY_COORDINATOR": "Ikgolaganye le Motsamaisi wa Patlisiso",
        "ENTER_NEW_PASSWORD": "Lefoko la go Tsena le Lentšha:",
        "CONTACT_UNLOCK_CODE": "Tsweetswee ikgolaganye le Motsamaisi wa Patlisiso mabapi le Khouto ya go Lotlolola gompieno:",
        "CURRENT_DATE": "{{{ currentDate }}}",
        "TEMPORARY_UNLOCK_CODE": "Tsenya Khouto ya go Lotlolola e e Ntshitsweng ke Motsamaisi wa Thutopatlisiso.",
        "RESET_SECRET_QUESTION": "Dira Gape Potso ya Tshireletso",
        "SECRET_QUESTION_CHANGE_SUCCESS": "O atlegile go ntšhafatsa lefoko la gago la go tsena le potso ya tshireletso.",
        "RESET_PASSWORD": "Dira Gape Lefoko la go Tsena",
        "ANSWER_ATTEMPT_EXCEEDED": "O tsentse karabo e e fosagetseng makgetlo a le mantsi thata kgotsa o tobeditse linki ya lebetse karabo ya tshireletso.",
        "PASSWORD_ATTEMPT_EXCEEDED": "O tsentse lefoko la go tsena le le fosagetseng makgetlo a le mantsi thata kgotsa o tobeditse linki ya lebetse lefoko la go tsena.",
        "PASSWORD_CHANGE_SUCCESS": "O atlegile go ntšhafatsa lefoko la gago la go tsena.",
        "CHANGE_PASSWORD": "Fetola Lefoko la go Tsena",
        "CHANGE_SECRET_QUESTION": "Fetola Potso ya Tshireletso",
        "SYNC_COMPLETE": "Tsamaisano e Weditswe",
        "INCORRECT_ANSWER": "Karabo e e fosagetseng",
        "INCORRECT_UNLOCK_CODE": "Khouto e e Fosagetseng ya go Lotlolola",
        "PASSWORD_INVALID": "Lefoko la go Tsena le le Fosagetseng",
        "SUBJECT": "Molwetsi",
        "PATIENT_ADDED": "Molwetse o Tsentswe",
        "SITE_ADMINISTRATOR": "Motsamaisi wa Saete",
        "LOW_BATTERY": "Tlhagiso: Selekanyo sa beteri se kwa tlase. Tsweetswee polaka sedirisiwa go se tlatsa.",
        "CRITICAL_BATTERY": "Tlhagiso: Selekanyo sa beteri se kwa tlase fela thata. Tsweetswee polaka sedirisiwa go se tlatsa, kgotsa se tla tima.",
        "TIME_CONFIRMATION_HEADER": "Tlhomamisa Letlha/Nako",
        "IMAGE_FOLDER": "{{{ imageFolder }}}",
        "TIMESLIP_ERROR": "Nako kgotsa letlha mo sedirisweng sa gago e fosagetse. Tsweetswee fudugela kwa lefelong le le nang le kgokagano ya inthanete mme o leke gape. Fa o tswelela o na le mathata, ikgolaganye le Tlhokomelo ya Badirisi ya ERT.",
        "SUPPORT": "Lefelo la go Thusa",
        "SUPPORT_MESSAGE": "Badirisi kwa United States ba fitlhelela Lefelo la go Thusa la ERT go 800-748-5669. Badirisi ba boditšhabatšhaba, tsweetswee tlhopha naga e e gaufi thata le wena fa tlase:",
        "SUPPORT_DROPDOWN": "Tlhopha naga ya gago",
        "SUPPORT_NAME_ARGENTINA": "Argentina",
        "SUPPORT_NUMBER_ARGENTINA": "<bdo dir='ltr'>0800 444 0962</bdo>",
        "SUPPORT_NAME_ARMENIA": "Armenia",
        "SUPPORT_NUMBER_ARMENIA": "<bdo dir='ltr'>+1 617 681 6306</bdo>",
        "SUPPORT_NAME_AUSTRALIA": "Australia",
        "SUPPORT_NUMBER_AUSTRALIA": "<bdo dir='ltr'>1 800 800 051</bdo>",
        "SUPPORT_NAME_AUSTRIA": "Austria",
        "SUPPORT_NUMBER_AUSTRIA": "<bdo dir='ltr'>0800 100 405</bdo>",
        "SUPPORT_NAME_BELARUS": "Belarus",
        "SUPPORT_NUMBER_BELARUS": "<bdo dir='ltr'>8 820 0321 0036</bdo>",
        "SUPPORT_NAME_BELGIUM": "Belgium",
        "SUPPORT_NUMBER_BELGIUM_1": "(English) : <bdo dir='ltr'>0800 58 016</bdo>",
        "SUPPORT_NUMBER_BELGIUM_2": "(French) : <bdo dir='ltr'>0800 71 076</bdo>",
        "SUPPORT_NUMBER_BELGIUM_3": "(German) : <bdo dir='ltr'>0800 71 113</bdo>",
        "SUPPORT_NAME_BRAZIL": "Brazil",
        "SUPPORT_NUMBER_BRAZIL": "<bdo dir='ltr'>0800 891 5909</bdo>",
        "SUPPORT_NAME_BOSNIA": "Bosnia",
        "SUPPORT_NUMBER_BOSNIA": "<bdo dir='ltr'>+1 617 681 6306</bdo>",
        "SUPPORT_NAME_BULGARIA": "Bulgaria",
        "SUPPORT_NUMBER_BULGARIA": "<bdo dir='ltr'>00800 0010</bdo>, go tswa foo <bdo dir='ltr'>866 245 4931</bdo>",
        "SUPPORT_NAME_CANADA": "Canada",
        "SUPPORT_NUMBER_CANADA": "<bdo dir='ltr'>1 800 748 5669</bdo>",
        "SUPPORT_NAME_CHILE": "Chile",
        "SUPPORT_NUMBER_CHILE": "<bdo dir='ltr'>123 0020 3408</bdo>",
        "SUPPORT_NAME_CHINA": "China",
        "SUPPORT_NUMBER_CHINA_1": "NetCom (North) : <bdo dir='ltr'>1 0800 74 40 164</bdo>",
        "SUPPORT_NUMBER_CHINA_2": "Telecom (South) : <bdo dir='ltr'>1 0800 44 00 158</bdo>",
        "SUPPORT_NAME_COLOMBIA": "Colombia",
        "SUPPORT_NUMBER_COLOMBIA": "<bdo dir='ltr'>01 800 911 0010</bdo>, go tswa foo <bdo dir='ltr'>866 310 3707</bdo>",
        "SUPPORT_NAME_COSTA_RICA": "Costa Rica",
        "SUPPORT_NUMBER_COSTA_RICA": "<bdo dir='ltr'>0800 013 1210</bdo>",
        "SUPPORT_NAME_CROATIA": "Croatia",
        "SUPPORT_NUMBER_CROATIA": "<bdo dir='ltr'>0800 222 953</bdo>",
        "SUPPORT_NAME_CZECH_REPUBLIC": "Czech Republic",
        "SUPPORT_NUMBER_CZECH_REPUBLIC": "<bdo dir='ltr'>800 142 150</bdo>",
        "SUPPORT_NAME_DENMARK": "Denmark",
        "SUPPORT_NUMBER_DENMARK": "<bdo dir='ltr'>80 60 00 09</bdo>",
        "SUPPORT_NAME_EGYPT": "Egepeto",
        "SUPPORT_NUMBER_EGYPT": "<bdo dir='ltr'>02 510 0200</bdo>, go tswa foo <bdo dir='ltr'>866 310 3707</bdo>",
        "SUPPORT_NAME_EL_SALVADOR": "El Salvador",
        "SUPPORT_NUMBER_EL_SALVADOR": "<bdo dir='ltr'>+1 617 681 6306</bdo>",
        "SUPPORT_NAME_ESTONIA": "Estonia",
        "SUPPORT_NUMBER_ESTONIA": "<bdo dir='ltr'>800 00 44 154</bdo>",
        "SUPPORT_NAME_FINLAND": "Finland",
        "SUPPORT_NUMBER_FINLAND": "<bdo dir='ltr'>0800 11 6366</bdo>",
        "SUPPORT_NAME_FRANCE": "France",
        "SUPPORT_NUMBER_FRANCE": "<bdo dir='ltr'>0800 10 19 79</bdo>",
        "SUPPORT_NAME_GERMANY": "Germany",
        "SUPPORT_NUMBER_GERMANY": "<bdo dir='ltr'>0800 101 28 21</bdo>",
        "SUPPORT_NAME_GREECE": "Greece",
        "SUPPORT_NUMBER_GREECE": "<bdo dir='ltr'>00 800 1311</bdo>, go tswa foo <bdo dir='ltr'>866 310 3707</bdo>",
        "SUPPORT_NAME_GUATEMALA": "Guatemala",
        "SUPPORT_NUMBER_GUATEMALA": "<bdo dir='ltr'>1 800 624 0079</bdo>",
        "SUPPORT_NAME_HONG_KONG": "Hong Kong",
        "SUPPORT_NUMBER_HONG_KONG": "<bdo dir='ltr'>3002 1665</bdo>",
        "SUPPORT_NAME_HUNGARY": "Hungary",
        "SUPPORT_NUMBER_HUNGARY": "<bdo dir='ltr'>06 800 14 571</bdo>",
        "SUPPORT_NAME_ICELAND": "Iceland",
        "SUPPORT_NUMBER_ICELAND": "<bdo dir='ltr'>800 8544</bdo>",
        "SUPPORT_NAME_INDIA": "India",
        "SUPPORT_NUMBER_INDIA": "<bdo dir='ltr'>000 800 440 1125</bdo>",
        "SUPPORT_NAME_INDONESIA": "Indonesia",
        "SUPPORT_NUMBER_INDONESIA": "<bdo dir='ltr'>008 800 330 334</bdo>",
        "SUPPORT_NAME_IRELAND": "Ireland",
        "SUPPORT_NUMBER_IRELAND": "<bdo dir='ltr'>1 800 946 700</bdo>",
        "SUPPORT_NAME_ISRAEL": "Israel",
        "SUPPORT_NUMBER_ISRAEL": "<bdo dir='ltr'>1 809 470 062</bdo>",
        "SUPPORT_NAME_ITALY": "Italy",
        "SUPPORT_NUMBER_ITALY": "<bdo dir='ltr'>800 90 56 37</bdo>",
        "SUPPORT_NAME_JAPAN": "Japan",
        "SUPPORT_NUMBER_JAPAN": "Tsweetswee leba ePRO Kaedi ya Tshedimosetso ya Patlisiso go bona dinommoro tsa gago tsa mogala wa mahala wa patlisiso",
        "SUPPORT_NAME_LATVIA": "Latvia",
        "SUPPORT_NUMBER_LATVIA": "<bdo dir='ltr'>8000 2151</bdo>",
        "SUPPORT_NAME_LEBANON": "Lebanon",
        "SUPPORT_NUMBER_LEBANON": "<bdo dir='ltr'>01-426-801</bdo> go tswa foo <bdo dir='ltr'>866 310 3707</bdo>",
        "SUPPORT_NAME_LITHUANIA": "Lithuania",
        "SUPPORT_NUMBER_LITHUANIA": "<bdo dir='ltr'>8800 30207</bdo>",
        "SUPPORT_NAME_MALAYSIA": "Malaysia",
        "SUPPORT_NUMBER_MALAYSIA": "<bdo dir='ltr'>1800 80 59 71</bdo>",
        "SUPPORT_NAME_MEXICO": "Mexico",
        "SUPPORT_NUMBER_MEXICO_1": "(English) : <bdo dir='ltr'>001 800 748 5669</bdo> ",
        "SUPPORT_NUMBER_MEXICO_2": "(Spanish) : <bdo dir='ltr'>001 855 631 6952</bdo>",
        "SUPPORT_NAME_MOLDOVA": "Moldova",
        "SUPPORT_NUMBER_MOLDOVA": "<bdo dir='ltr'>617 681 6306</bdo>",
        "SUPPORT_NAME_NETHERLANDS": "Netherlands",
        "SUPPORT_NUMBER_NETHERLANDS": "<bdo dir='ltr'>0800 023 1389</bdo>",
        "SUPPORT_NAME_NEW_ZEALAND": "New Zealand",
        "SUPPORT_NUMBER_NEW_ZEALAND": "<bdo dir='ltr'>0800 110 178</bdo>",
        "SUPPORT_NAME_NORWAY": "Norway",
        "SUPPORT_NUMBER_NORWAY": "<bdo dir='ltr'>800 62 051</bdo>",
        "SUPPORT_NAME_PAKISTAN": "Pakistan",
        "SUPPORT_NUMBER_PAKISTAN": "<bdo dir='ltr'>00 800 0100</bdo>, go tswa foo <bdo dir='ltr'>866 237 9767</bdo>",
        "SUPPORT_NAME_PANAMA": "Panama",
        "SUPPORT_NUMBER_PANAMA": "<bdo dir='ltr'>001 800 201 3095</bdo>",
        "SUPPORT_NAME_PERU": "Peru",
        "SUPPORT_NUMBER_PERU": "<bdo dir='ltr'>0800 5 0974</bdo>",
        "SUPPORT_NAME_PHILIPPINES": "Philippines",
        "SUPPORT_NUMBER_PHILIPPINES": "<bdo dir='ltr'>1 800 1116 0651</bdo>",
        "SUPPORT_NAME_POLAND": "Poland",
        "SUPPORT_NUMBER_POLAND": "<bdo dir='ltr'>00800 331 1262</bdo>",
        "SUPPORT_NAME_PORTUGAL": "Portugal",
        "SUPPORT_NUMBER_PORTUGAL": "<bdo dir='ltr'>800 206 172</bdo>",
        "SUPPORT_NAME_PUERTO_RICO": "Puerto Rico (Molelwane wa US)",
        "SUPPORT_NUMBER_PUERTO_RICO": "<bdo dir='ltr'>1 800 748 5669</bdo>",
        "SUPPORT_NAME_ROMANIA": "Romania",
        "SUPPORT_NUMBER_ROMANIA": "<bdo dir='ltr'>0800 894492</bdo>",
        "SUPPORT_NAME_RUSSIA": "Russia",
        "SUPPORT_NUMBER_RUSSIA_1": "(Mogala wa Mahala- Wa Konokono) : <bdo dir='ltr'>8 10 800 249 13011</bdo>",
        "SUPPORT_NUMBER_RUSSIA_2": "(Mo teng ga Moscow) : <bdo dir='ltr'>363-2400</bdo> <br> go tswa foo <bdo dir='ltr'>866 310 3707</bdo>",
        "SUPPORT_NUMBER_RUSSIA_3": "(Kwa ntle ga Moscow) : <bdo dir='ltr'>8^(495) 363-2400</bdo> <br> go tswa foo <bdo dir='ltr'>866 310 3707</bdo>",
        "SUPPORT_NUMBER_RUSSIA_4": "(Mo teng ga St. Petersburg) : <bdo dir='ltr'>363-2400{</bdo> <br> go tswa foo <bdo dir='ltr'>866 310 3707</bdo>",
        "SUPPORT_NUMBER_RUSSIA_5": "(Kwa ntle ga St. Petersburg) : <bdo dir='ltr'>8^(495) 363-2400</bdo> <br> go tswa foo <bdo dir='ltr'>866 310 3707</bdo>",
        "SUPPORT_NAME_SAUDI_ARABIA": "Saudi Arabia",
        "SUPPORT_NUMBER_SAUDI_ARABIA": "<bdo dir='ltr'>+1 617 681 6306</bdo>",
        "SUPPORT_NAME_SERBIA": "Serbia",
        "SUPPORT_NUMBER_SERBIA": "<bdo dir='ltr'>+1 617 973 1739</bdo>",
        "SUPPORT_NAME_SINGAPORE": "Singapore",
        "SUPPORT_NUMBER_SINGAPORE": "<bdo dir='ltr'>800 616 30 03</bdo>",
        "SUPPORT_NAME_SLOVAKIA": "Slovakia",
        "SUPPORT_NUMBER_SLOVAKIA": "<bdo dir='ltr'>0800 0044 65</bdo>",
        "SUPPORT_NAME_SLOVENIA": "Slovenia",
        "SUPPORT_NUMBER_SLOVENIA": "<bdo dir='ltr'>+1 617 681 6306</bdo>",
        "SUPPORT_NAME_SOUTH_AFRICA": "Aforika Borwa",
        "SUPPORT_NUMBER_SOUTH_AFRICA": "<bdo dir='ltr'>0800 99 5853</bdo>",
        "SUPPORT_NAME_SOUTH_KOREA": "South Korea",
        "SUPPORT_NUMBER_SOUTH_KOREA": "<bdo dir='ltr'>00308 33 00 08</bdo>",
        "SUPPORT_NAME_SPAIN": "Spain",
        "SUPPORT_NUMBER_SPAIN": "<bdo dir='ltr'>900 90 2541</bdo>",
        "SUPPORT_NAME_SWEDEN": "Sweden",
        "SUPPORT_NUMBER_SWEDEN": "<bdo dir='ltr'>020 120 99 69</bdo>",
        "SUPPORT_NAME_SWITZERLAND": "Switzerland",
        "SUPPORT_NUMBER_SWITZERLAND_1": "(English) : <bdo dir='ltr'>0800 199 325</bdo>",
        "SUPPORT_NUMBER_SWITZERLAND_2": "(French) : <bdo dir='ltr'>0800 891 183</bdo>",
        "SUPPORT_NUMBER_SWITZERLAND_3": "(German) : <bdo dir='ltr'>0800 891 025</bdo>",
        "SUPPORT_NAME_TAIWAN": "Taiwan",
        "SUPPORT_NUMBER_TAIWAN": "<bdo dir='ltr'>00801 33 33 42</bdo>",
        "SUPPORT_NAME_THAILAND": "Thailand",
        "SUPPORT_NUMBER_THAILAND": "<bdo dir='ltr'>1 800 33 140 353</bdo>",
        "SUPPORT_NAME_TUNISIA": "Tunisia",
        "SUPPORT_NUMBER_TUNISIA": "<bdo dir='ltr'>+1 617 681 6306</bdo>",
        "SUPPORT_NAME_TURKEY": "Turkey",
        "SUPPORT_NUMBER_TURKEY": "<bdo dir='ltr'>00 800 151 1335</bdo>",
        "SUPPORT_NAME_UKRAINE": "Ukraine",
        "SUPPORT_NUMBER_UKRAINE": "<bdo dir='ltr'>0^00 11</bdo>, go tswa foo <bdo dir='ltr'>866 245 4931</bdo>",
        "SUPPORT_NAME_UAE": "United Arab Emirates",
        "SUPPORT_NUMBER_UAE": "<bdo dir='ltr'>8000-021</bdo>, go tswa foo <bdo dir='ltr'>866 310 3707</bdo>",
        "SUPPORT_NAME_UK": "United Kingdom",
        "SUPPORT_NUMBER_UK": "<bdo dir='ltr'>0800 015 0408</bdo>",
        "SUPPORT_NAME_US": "United States",
        "SUPPORT_NUMBER_US_1": "(Konokono) : <bdo dir='ltr'>1 800 748 5669</bdo>",
        "SUPPORT_NUMBER_US_2": "(Bolokela tshedimosetso) : <bdo dir='ltr'>1 877 748 5669</bdo>",
        "SUPPORT_NAME_VENEZUELA": "Venezuela",
        "SUPPORT_NUMBER_VENEZUELA_1": "(English) : <bdo dir='ltr'>0 800 552 6288</bdo> <br> go tswa foo <bdo dir='ltr'>866 310 3707</bdo> ",
        "SUPPORT_NUMBER_VENEZUELA_2": "(Spanish) : <bdo dir='ltr'>0 800 100 3063</bdo> ",
        "STUDY_VERSION": "Mofuta wa Thutopatlisiso:",
        "STUDY_URL": "URL ya Thutopatlisiso:",
        "DEVICE_SERIAL_NUMBER": "Nomoroitshupo ya Sedirisiwa",
        "PROTOCOL": "Porothokholo:",
        "SPONSOR": "Moetleetsi:",
        "STORED_REPORTS": "Diforomo Tse di Bolokilweng:",
        "CORE_PRODUCT_VERSION_LABEL": "Mofuta wa Sedirisiwa:",
        "ABOUT": "Ka ga",
        "SET_TIMEZONE": "Tlhoma Nako ya Kgaolo",
        "NONEXISTENT_USER": "Lekile go tlhabolola modirisi yo a seng gone.",
        "SCREENING": "Tlhatlhobo",
        "TREATMENT": "Kalafi",
        "RANDOMIZATION": "Go tlhopha ka go fopholetsa",
        "FOLLOWUP": "Go Latedisa",
        "TERMINATION": "Go Kgaodiwa",
        "MODAL_OK_TEXT": "GO SIAME",
        "BROWSER_LOAD_ERROR": "Tsebe ga e a bonwa. Tsweetswee leba kgolagano ya gago ya Inthanete mme o leke gape.",
        "NO_USER_OF_ROLE": "Ga go modirisi wa seabe seo yo o bonweng.",
        "START_VISIT_OUTSIDE_WINDOW_MSG": "Tsenya {{{ getVisitName }}} kwantle ga nako e e rulagantsweng: {{{ startDate }}} - {{{ endDate }}}",
		"START_VISIT_HARD_STOP_MSG" : "Ga o kgone go tsenya {{{ getVisitName }}} kwantle ga nako e e rulagantsweng window: {{{ startDate }}} - {{{ endDate }}}",
		"USER_NAME_INVALID_CHARACTERS" : "Tsweetswee o seka wa dirisa ditlhaka tse di kgethegileng",
		"ERROR_PATIENT_SAVE" : "Go nnile le phoso fa go tsenngwa molwetse yo moswa",
		"PASSWORD_CHANGE_FAILED" : "Go tsentswe sedirisiwa se sengwe go kgobokanya tshedimosetso ya gago ya go ithuta. Tsweetswee fetola lefoko la gago la go tsena mo sedirisiweng seo.",
		"ERROR" : "Phoso.  Tsweetswee ikgolaganye le Lefelo la go Thusa la ERT.",
		"ERROR_AFTER_ACTIVATION_SUCCESSFUL" : "Go nnile le phoso. O tla tlhoka go tsenya khouto ya gago ya go simolola le lefoko la go tsena.",
		"CONNECTION_TIMEOUT" : "Nako ya Kgolaganyo e Fedile.",
		"UPDATE_FAILED" : "Go ntšhafatsa ERT ga go a wediwa. Tsweetswee tlhomamisa gore sedirisiwa seno se golagane le Inthanete o bo o leka gape.",
        "TRANSMIT_FAILED_403_14": "Kgolagano e le nngwe kgotsa go feta e retetse ka gonne molwetse ga a wetsa go tlhama. Tsweetswee ema mme o leke gape.",
        "USER_SELECT_ROLE_VALIDATION": "Tlhopho ya seabe e a tlhokega.",
        "USER_SELECT_LANGUAGE_VALIDATION": "Go tlhopha puo go a tlhokega.",
        "TRY_AGAIN_ADD_USER": "Leka gape kgotsa tlhopha khansela go tswelela o tsenya modirisi o se mo Inthaneteng.",
        "NO_INTERNET_CONNECTION": "Ga go na kgolagano ya Inthanete",
        "TRANSMIT_FAILED_404": "Ka ntlha ya mathata a kgolagano ya Inthanete go tsamaisana ga go a wediwa. Tsweetswee leba kgolagano ya gago ya Inthanete mme o leke gape.",
        "SKIP_VISITS_REASON_0": "Leeto le feletswe ke nako.",
        "SKIP_VISITS_REASON_1": "Saete e dirile phoso ya tsamaiso.",
        "SKIP_VISITS_REASON_2": "Go fositswe peelano ya leeto la kalafi.",
        "SKIP_VISITS_REASON_3": "Leeto leno ga le tirisong.",
        "SKIP_VISITS_REASON_4": "Leeto leno e ne e le la boitlhophelo mme ga le a dirwa."
    },
    "dates": {
        "setDateButtonLabel": "Tlhoma Letlha",
        "setTimeButtonLabel": "GO SIAME",
        "setDurationButtonLabel": "Tlhoma Lobaka",
        "calTodayButtonLabel": "Tlolela go Gompieno",
        "titleDateDialogLabel": "Tlhoma Letlha",
        "titleTimeDialogLabel": "Tlhoma Nako",
        "daysOfWeek": [
            "Sontaga",
            "Mantaga",
            "Labobedi",
            "Laboraro",
            "Labone",
            "Labotlhano",
            "Matlhatso"
        ],
        "daysOfWeekShort": [
            "So",
            "Ma",
            "Labob",
            "Labor",
            "Labon",
            "Labotl",
            "Matlh"
        ],
        "monthsOfYear": [
            "Firikgong",
            "Tlhakole",
            "Mopitlwe",
            "Moranang",
            "Motsheganong",
            "Seetebosigo",
            "Phukwi",
            "Phatwe",
            "Lwetse",
            "October",
            "Ngwanatsele",
            "Sedimonthole"
        ],
        "monthsOfYearShort": [
            "Fir",
            "Tlh",
            "Mop",
            "Mor",
            "Motsheganong",
            "See",
            "Phu",
            "Pha",
            "Lwe",
            "Dip",
            "Ngw",
            "Sed"
        ],
        "durationLabel": [
            "Malatsi",
            "Diura",
            "Metsotso",
            "Metsotswana"
        ],
        "durationDays": [
            "Letsatsi",
            "Malatsi"
        ],
        "tooltip": "Bula Sekgetha Letlha",
        "nextMonth": "Kgweding e e Latelang",
        "prevMonth": "Kgwedi e e Fetileng",
        "clearButton": "Phimola",
        "meridiem": [
            "AM",
            "PM"
        ]
    }
}
