{
    "namespace": "CORE",
    "language": "pa",
    "locale": "IN",
    "localized": "ਪੰਜਾਬੀ (ਭਾਰਤ)",
    "direction": "ltr",
    "resources": {
        "ABOUT": "ਬਾਰੇ",
        "ACTIVATED_ELSEWHERE": "ਤੁਹਾਡਾ ਅਧਿਐਨ ਡਾਟਾ ਇਕੱਤਰ ਕਰਨ ਲਈ ਇੱਕ ਵੱਖਰੇ ਡਿਵਾਈਸ ਨੂੰ ਕਿਰਿਆਸ਼ੀਲ ਕੀਤਾ ਗਿਆ ਹੈ। ਜੇਕਰ ਤੁਸੀਂ ਸੋਚਦੇ ਹੋ ਕਿ ਇਹ ਗਲਤੀ ਨਾਲ ਹੋ ਗਿਆ ਸੀ ਤਾਂ ਕਿਰਪਾ ਕਰਕੇ ਆਪਣੇ ਅਧਿਐਨ ਕੋਆਰਡੀਨੇਟਰ ਨਾਲ ਸੰਪਰਕ ਕਰੋ।",
        "ACTIVATION_CODE": "ਸੈੱਟਅਪ ਕੋਡ:",
        "AFFIDAVIT": "ਜਦੋਂ ਤੁਸੀਂ ਆਪਣੇ ਉੱਤਰਾਂ ਨੂੰ ਸੁਰੱਖਿਅਤ ਕਰਨ ਲਈ ਤਿਆਰ ਹੋ ਤਾਂ OK ਦਬਾ ਕੇ NEXT ਚੁਣੋ।",
        "AFFIDAVIT_HELP": "ਧੰਨਵਾਦ। ਤੁਸੀਂ ਸਾਰੇ ਲੋੜੀਂਦੇ ਉੱਤਰ ਪ੍ਰਦਾਨ ਕਰ ਦਿੱਤੇ ਹਨ। ਤੁਸੀਂ ਵਾਪਸ ਜਾਓ ਦੀ ਚੋਣ ਕਰਕੇ ਆਪਣੇ ਉੱਤਰਾਂ ਦੀ ਜਾਂਚ ਅਤੇ ਤਬਦੀਲ ਕਰ ਸਕਦੇ ਹੋ।",
        "ANSWER_ATTEMPT_EXCEEDED": "ਤੁਸੀਂ ਬਹੁਤ ਵਾਰ ਅਵੈਧ ਉੱਤਰ ਦਾਖਲ ਕਰ ਦਿੱਤਾ ਹੈ ਜਾਂ ਸੁਰੱਖਿਅਤ ਉੱਤਰ ਲਿੰਕ ਭੁੱਲ ਗਏ ਨੂੰ ਕਲਿੱਕ ਕੀਤਾ ਹੈ।",
        "APPLICATION_HEADER": "{{{ appHeader }}}",
        "BACK": "ਪਿੱਛੇ",
        "BACK_OUT_CONFIRM": "ਕੀ ਤੁਸੀਂ ਯਕੀਨੀ ਤੌਰ 'ਤੇ ਬਾਹਰ ਜਾਣਾ ਚਾਹੁੰਦੇ ਹੋ? ਇਸ ਫਾਰਮ ਲਈ ਪ੍ਰਤਿਕਿਰਿਆਵਾਂ ਖ਼ਤਮ ਹੋ ਜਾਣਗੀਆਂ।",
        "CANCEL": "ਰੱਦ ਕਰੋ",
        "CANCEL_UPDATE": "ਅੱਪਡੇਟ ਰੱਦ ਕਰੋ",
        "CHANGE_PASSWORD": "ਪਾਸਵਰਡ ਬਦਲੋ",
        "CHANGE_SECRET_QUESTION": "ਸੁਰੱਖਿਆ ਪ੍ਰਸ਼ਨ ਬਦਲੋ",
        "CODE_ENTRY_NO_SERVER": "ਸਰਵਰ ਅਣਉਪਲਬਧ",
        "CONNECTION_REQUIRED": "ਇੱਕ ਇੰਟਰਨੈੱਟ ਕਨੈਕਸ਼ਨ ਦੀ ਲੋੜ ਹੈ।",
        "CONNECTION_TIMEOUT": "ਕਨੈਕਸ਼ਨ ਸਮਾਂ ਸੀਮਾ ਸਮਾਪਤ।",
        "CONFIRM_PASSWORD": "ਪਾਸਵਰਡ ਦੀ ਪੁਸ਼ਟੀ ਕਰੋ:",
        "CONTACT_STUDY_COORDINATOR": "ਅਧਿਐਨ ਕੋਆਰਡੀਨੇਟਰ ਨਾਲ ਸੰਪਰਕ ਕਰੋ",
        "CONTACT_UNLOCK_CODE": "ਕਿਰਪਾ ਕਰਕੇ ਅੱਜ ਹੀ ਕੋਡ ਅਨਲਾਕ ਕਰਨ ਲਈ ਆਪਣੇ ਅਧਿਐਨ ਕੋਆਰਡੀਨੇਟਰ ਨਾਲ ਸੰਪਰਕ ਕਰੋ:",
        "CORE_PRODUCT_VERSION_LABEL": "ਉਤਪਾਦਨ ਸੰਸਕਰਣ:",
        "CURRENT_DATE": "{{{ currentDate }}}",
        "CURRENT_PASSWORD": "ਮੌਜੂਦਾ ਪਾਸਵਰਡ:",
        "DATE_LBL": "ਮਿਤੀ:",
        "DEACTIVATED_LABEL": "ਤੁਹਾਡੀ ਇਸ ਅਧਿਐਨ ਲਈ ERT ਦੀ ਵਰਤੋਂ ਸਮਾਪਤ ਹੋ ਗਈ ਹੈ। ਕਿਰਪਾ ਕਰਕੇ ਆਪਣੇ ਅਧਿਐਨ ਕੋਆਰਡੀਨੇਟਰ ਨਾਲ ਸੰਪਰਕ ਕਰੋ ਜੇਕਰ ਇਹ ਅਵੈਧ ਹੈ।",
        "DEVICE_ACTIVATION": "ਸੈੱਟਅਪ",
        "DEVICE_NOT_SUPPORTED": "ਇਸ ਡਿਵਾਈਸ ਨੂੰ ਸਮਰਥਨ ਨਹੀਂ ਕਰਦਾ। ਕਿਰਪਾ ਕਰਕੇ ਇਸ ਅਧਿਐਨ ਵਿੱਚ ਵਰਤੋਂ ਲਈ ਮਨਜ਼ੂਰ ਡਿਵਾਈਸਿਸ 'ਤੇ ਜਾਣਕਾਰੀ ਲਈ ਆਪਣੇ ਅਧਿਐਨ ਕੋਆਰਡੀਨੇਟਰ ਨਾਲ ਸੰਪਰਕ ਕਰੋ।",
        "DEVICE_REACTIVATION": "ਡਿਵਾਈਸ ਸੈੱਟਅਪ",
        "DIARY_TIMEOUT": "ਇਹ ਫਾਰਮ ਸਮਾਪਤ ਹੋ ਗਿਆ ਹੈ।",
        "DOWNLOAD_FAILED": "ਐਪ ਡਾਊਨਲੋਡ ਵਿੱਚ ਰੁਕਾਵਟ ਆਈ ਸੀ| ਕਿਰਪਾ ਕਰਕੇ ਦੁਬਾਰਾ ਕੋਸ਼ਿਸ਼ ਕਰੋ ਜਦੋਂ ਤੁਹਾਡੇ ਕੋਲ ਇੱਕ ਇੰਟਰਨੈੱਟ ਕਨੈਕਸ਼ਨ ਹੋਇਆ ਜਾਂ ERT ਸਮਰਥਨ ਕੇਂਦਰ ਨਾਲ ਸੰਪਰਕ ਕਰੋ।",
        "DOWNLOAD_FAILURE": "ਡਾਊਨਲੋਡ ਰੁਕਾਵਟ",
        "ENTER_NEW_PASSWORD": "ਨਵਾਂ ਪਾਸਵਰਡ:",
        "ERROR": "ਤਰੁਟੀ।  ਕਿਰਪਾ ਕਰਕੇ ERT ਸਮਰਥਨ ਕੇਂਦਰ ਨਾਲ ਸੰਪਰਕ ਕਰੋ।",
        "ERROR_AFTER_ACTIVATION_SUCCESSFUL": "ਇੱਕ ਤਰੁਟੀ ਵਾਪਰੀ ਹੈ। ਤੁਹਾਨੂੰ ਆਪਣਾ ਸੈੱਟਅਪ ਕੋਡ ਅਤੇ ਪਾਸਵਰਡ ਦਾਖਲ ਕਰਨ ਦੀ ਲੋੜ ਪਏਗੀ।",
        "ERROR_CODE": "ਤਰੁਟੀ ਕੋਡ:",
        "ERROR_TITLE": "ਤਰੁਟੀ",
        "FORGOT_PASSWORD": "ਪਾਸਵਰਡ ਭੁੱਲ ਗਏ ਹੋ?",
        "FORGOT_SECRET_ANSWER": "ਸੁਰੱਖਿਆ ਉੱਤਰ ਭੁੱਲ ਗਏ ਹੋ?",
        "INCORRECT_ANSWER": "ਅਵੈਧ ਉੱਤਰ",
        "INCORRECT_UNLOCK_CODE": "ਅਵੈਧ ਅਨਲਾਕ ਕੋਡ",
        "INSTALLING": "ਐਪ ਇੰਸਟਾਲ ਹੋ ਰਹੀ ਹੈ",
        "INVALID_CODE": "ਅਵੈਧ ਸੈੱਟਅਪ ਕੋਡ",
        "LOCAL_STORAGE_FAILURE": "ਸਥਾਨਕ ਸਟੋਰੇਜ ਅਸਫਲਤਾ",
        "LOG_IN": "ਲਾਗ ਇੰਨ",
        "LOG_LEVEL": "ਲੌਗ ਪੱਧਰ:",
        "LOGOUT": "ਲੌਗ ਆਊਟ",
        "LOGOUT_CONFIRM": "ਕੀ ਤੁਸੀਂ ਯਕੀਨੀ ਤੌਰ 'ਤੇ ਲਾਗ ਆਊਟ ਕਰਨਾ ਚਾਹੁੰਦੇ ਹੋ",
        "NEXT": "ਅਗਲਾ",
        "NEXT_ACTION": " ਇਹ ਸਮਾਂ ERT ਵਿੱਚ ਤੁਹਾਡੀ ਅਗਲੀ ਕਾਰਵਾਈ ਲਈ ਹੈ ",
        "NO_DIARIES_TITLE": "ਦਰਜ ਕਰਨ ਲਈ ਕੋਈ ਰਿਪੋਰਟ ਨਹੀਂ",
        "OK": "ਠੀਕ",
        "PASSWORD": "ਪਾਸਵਰਡ:",
        "PASSWORD_ATTEMPT_EXCEEDED": "ਤੁਸੀਂ ਬਹੁਤ ਵਾਰ ਅਵੈਧ ਪਾਸਵਰਡ ਦਾਖਲ ਕੀਤਾ ਹੈ ਜਾਂ ਪਾਸਵਰਡ ਲਿੰਕ ਭੁੱਲ ਗਏ 'ਤੇ ਕਲਿੱਕ ਕੀਤਾ ਹੈ।",
        "PASSWORD_CHANGE_FAILED": "ਤੁਹਾਡਾ ਅਧਿਐਨ ਡਾਟਾ ਇਕੱਤਰ ਕਰਨ ਲਈ ਇੱਕ ਵੱਖਰੇ ਡਿਵਾਈਸ ਨੂੰ ਕਿਰਿਆਸ਼ੀਲ ਕੀਤਾ ਗਿਆ ਹੈ। ਕਿਰਪਾ ਕਰਕੇ ਇਸ ਡਿਵਾਈਸ 'ਤੇ ਆਪਣਾ ਪਾਸਵਰਡ ਬਦਲੋ।",
        "PASSWORD_CHANGE_SUCCESS": "ਤੁਸੀਂ ਸਫਲਤਾਪੂਰਵਕ ਆਪਣਾ ਪਾਸਵਰਡ ਅੱਪਡੇਟ ਕਰ ਦਿੱਤਾ ਹੈ।",
        "PASSWORD_INVALID": "ਅਵੈਧ ਪਾਸਵਰਡ",
        "PLEASE_ANSWER_SQ": "ਕਿਰਪਾ ਕਰਕੇ ਆਪਣੇ ਸੁਰੱਖਿਆ ਪ੍ਰਸ਼ਨ ਦਾ ਉੱਤਰ ਦਿਓ:",
        "PLEASE_CONFIRM": "ਕਿਰਪਾ ਕਰਕੇ ਪੁਸ਼ਟੀ ਕਰੋ",
        "PLEASE_CONTACT": "ਕਿਰਪਾ ਕਰਕੇ ERT ਸਮਰਥਨ ਕੇਂਦਰ ਨਾਲ ਸੰਪਰਕ ਕਰੋ।",
        "PLEASE_TRY_OR_CONTACT_SUPPORT": "ਕਿਰਪਾ ਕਰਕੇ ਮੁੜ ਯਤਨ ਕਰੋ ਜਾਂ ERT ਸਮਰਥਨ ਕੇਂਦਰ ਨਾਲ ਸੰਪਰਕ ਕਰੋ।",
        "PLEASE_WAIT": "ਕਿਰਪਾ ਕਰਕੇ ਠਹਿਰੋ...",
        "PORTRAIT_ONLY": "ਕਿਰਪਾ ਕਰਕੇ ਆਪਣੇ ਡਿਵਾਈਸ ਨੂੰ ਸਿੱਧਾ ਖੜ੍ਹਾ ਰੱਖੋ।",
        "PRIVATE_BROWSING_ON": "ਕਿਰਪਾ ਕਰਕੇ ਨਿੱਜੀ ਬ੍ਰਾਊਜ਼ਿੰਗ ਨੂੰ ਬੰਦ ਕਰੋ। ਜੇਕਰ ਤੁਹਾਨੂੰ ਲਗਾਤਾਰ ਸਮੱਸਿਆਵਾਂ ਆ ਰਹੀਆਂ ਹਨ, ਤਾਂ ਕਿਰਪਾ ਕਰਕੇ ਆਪਣੇ ਅਧਿਐਨ ਕੋਆਰਡੀਨੇਟਰ ਨਾਲ ਸੰਪਰਕ ਕਰੋ।",
        "PRIVACY_POLICY": "ਨਿੱਜੀ ਪਾਲਿਸੀ",
        "PRIVACY_POLICY_APPLICATION_UNAVAILABILITY": "ERT ਨਿੱਜੀ ਪਾਲਿਸੀ ਅਸਥਾਈ ਰੂਪ 'ਤੇ ਉਪਲਬਧ ਨਹੀਂ ਹੈ।",
        "PRIVACY_POLICY_ACTIVATION_UNAVAILABILITY": "ERT ਨਿੱਜੀ ਪਾਲਿਸੀ ਅਸਥਾਈ ਰੂਪ 'ਤੇ ਉਪਲਬਧ ਨਹੀਂ ਹੈ। ERT ਨਿੱਜੀ ਪਾਲਿਸੀ ਕਿਰਿਆਸ਼ੀਲ ਕਰਨ ਤੋਂ ਬਾਅਦ ਸੈਟਿੰਗਸ ਪੰਨੇ ਤੋਂ ਉਪਲਬਧ ਹੈ।",
        "PROTOCOL": "ਪ੍ਰੋਟੋਕਾਲ:",
        "REQUIRED_ANSWER": "ਕਿਰਪਾ ਕਰਕੇ ਪ੍ਰਤੀਕਿਰਿਆ ਦਿਓ",
        "RETRY": "ਮੁੜ ਯਤਨ ਕਰੋ",
        "RESET_PASSWORD": "ਪਾਸਵਰਡ ਰੀਸੈੱਟ ਕਰੋ",
        "RESET_SECRET_QUESTION": "ਸੁਰੱਖਿਆ ਉੱਤਰ ਰੀਸੈੱਟ ਕਰੋ",
        "SECRET_ANSWER": "ਸੁਰੱਖਿਆ ਉੱਤਰ:",
        "SECRET_QUESTION": "ਸੁਰੱਖਿਆ ਪ੍ਰਸ਼ਨ:",
        "SECRET_QUESTION_CHANGE_FAILED": "ਤੁਹਾਡਾ ਅਧਿਐਨ ਡਾਟਾ ਇਕੱਤਰ ਕਰਨ ਲਈ ਇੱਕ ਵੱਖਰੇ ਡਿਵਾਈਸ ਨੂੰ ਕਿਰਿਆਸ਼ੀਲ ਕੀਤਾ ਗਿਆ ਹੈ। ਕਿਰਪਾ ਕਰਕੇ ਉਸ ਡਿਵਾਈਸ 'ਤੇ ਆਪਣਾ ਸੁਰੱਖਿਆ ਪ੍ਰਸ਼ਨ ਬਦਲੋ।",
        "SECRET_QUESTION_CHANGE_SUCCESS": "ਤੁਸੀਂ ਸਫਲਤਾਪੂਰਵਕ ਆਪਣਾ ਪਾਸਵਰਡ ਅਤੇ ਸੁਰੱਖਿਆ ਪ੍ਰਸ਼ਨ ਅੱਪਡੇਟ ਕਰ ਦਿੱਤਾ ਹੈ।",
        "SETTINGS": "ਸੈਟਿੰਗਸ",
        "SITE": "ਸਾਈਟ:",
        "SKIP_QUESTION": "ਕੀ ਤੁਸੀਂ ਯਕੀਨੀ ਤੌਰ 'ਤੇ ਇਸ ਸਕਰੀਨ 'ਤੇ ਉੱਤਰਾਂ ਨੂੰ ਛੱਡਣਾ ਚਾਹੁੰਦੇ ਹੋ?",
        "SPONSOR": "ਪੇਸ਼ਕਾਰ:",
        "STORED_REPORTS": "ਸਟੋਰ ਕੀਤੇ ਗਏ ਫਾਰਮ:",
        "STUDY_VERSION": "ਅਧਿਐਨ ਸੰਸਕਰਨ: ",
        "STUDY_URL": "ਅਧਿਐਨ URL:",
        "SUBJECT_ID": "ਮਰੀਜ਼ ਕੋਡ:",
        "TEMPORARY_UNLOCK_CODE": "ਅਧਿਐਨ ਕੋਆਰਡੀਨੇਟਰ ਦੁਆਰਾ ਦਿੱਤੇ ਗਏ ਅਨਲਾਕ ਕੋਡ ਦਾਖਲ ਕਰੋ।",
        "TRANSMIT_REPORTS": "ਅੱਪਡੇਟ ਕਰੋ",
        "UPDATE_CACHED_DELETED": "ERT ਅੱਪਡੇਟ ਮੁਕੰਮਲ ਨਹੀਂ ਹੋਇਆ। ERT ਦੀ ਵਰਤੋਂ ਕਰਨ ਲਈ ਤੁਹਾਨੂੰ ਇੱਕ ਇੰਟਰਨੈੱਟ ਕਨੈਕਸ਼ਨ ਦੀ ਲੋੜ ਹੈ| ਕਿਰਪਾ ਕਰਕੇ ਤੁਹਾਡੇ ERT ਸਪੋਰਟ ਸੈਂਟਰ ਨਾਲ ਸੰਪਰਕ ਕਰੋ।",
        "UPDATE_FAILED": "ERT ਅੱਪਡੇਟ ਮੁਕੰਮਲ ਨਹੀਂ ਹੋਇਆ। ਕਿਰਪਾ ਕਰਕੇ ਸੁਨਿਸ਼ਚਿਤ ਕਰੋ ਕਿ ਇਹ ਡਿਵਾਈਸ ਇੰਟਰਨੈੱਟ ਨਾਲ ਕਨੈਕਟ ਹੈ ਅਤੇ ਦੁਬਾਰਾ ਕੋਸ਼ਿਸ਼ ਕਰੋ",
        "UPDATE_FAILURE": "ਅੱਪਡੇਟ ਮੁਕੰਮਲ ਨਹੀਂ ਹੋਇਆ",
        "UPDATE_SUCCESS": "ਅੱਪਡੇਟ ਸਫਲ",
        "WELCOME": "ਸਵਾਗਤ",
        "ALARM_OFF_LBL": "ਬੰਦ",
        "ALARM_TURN_OFF": "ਅਸਮਰੱਥ ਕਰੋ",
        "SET_ALARMS": "ਅਲਾਰਮ ਸੈੱਟ ਕਰੋ",
        "SCHED_NO_DIARIES_AVAILABLE": "ਇਸ ਸਮੇਂ ਕੋਈ ਵੀ ਸੂਚਨਾਵਾਂ ਬਾਕੀ ਨਹੀਂ ਹਨ",
        "TRAINER": "ਟ੍ਰੇਨਰ ਮੋਡ",
        "TRAINER_EXIT": "ਟ੍ਰੇਨਰ ਮੋਡ ਤੋਂ ਬਾਹਰ ਨਿਕਲੋ",
        "TRAINER_EXIT_NOTIFICATION": "ਤੁਸੀਂ ਟ੍ਰੇਨਰ ਮੋਡ ਤੋਂ ਬਾਹਰ ਨਿਕਲ ਰਹੇ ਹੋ",
        "TRAINER_HEADER": "(ਟ੍ਰੇਨਰ)",
        "ELPU_FAILURE": "ਤੁਹਾਡੀ ਇਸ ERT ਡਿਵਾਈਸ ਦੀ ਵਰਤੋਂ ਸਮਾਪਤ ਹੋ ਗਈ ਹੈ, ਮਗਰ ਇੱਕ ਤਰੁੱਟੀ ਆਈ ਹੈ । ਕਿਰਪਾ ਕਰਕੇ ਮੁੜ ਯਤਨ ਕਰੋ। ਕਿਰਪਾ ਮੁੜ-ਕੋਸ਼ਿਸ਼ ਕਰੋ।",
        "ELPU_ON_REPLACED_DEVICE": "ਤੁਹਾਡੀ ਇਸ ERT ਡਿਵਾਈਸ ਦੀ ਵਰਤੋਂ ਸਮਾਪਤ ਹੋ ਗਈ ਹੈ। ਕਿਰਪਾ ਕਰਕੇ ਆਪਣਾ ਵਟਾਂਦਰਾ ਡਿਵਾਈਸ ਦੀ ਵਰਤੋਂ ਕਰੋ।",
        "SECURITY_QUESTION_0": "ਤੁਹਾਡੀ ਮਾਂ ਦਾ ਪਹਿਲਾ ਨਾਮ ਕੀ ਹੈ?",
        "SECURITY_QUESTION_1": "ਤੁਹਾਡਾ ਜਨਮ ਕਿਸ ਸ਼ਹਿਰ ਵਿੱਚ ਹੋਇਆ ਸੀ?",
        "SECURITY_QUESTION_2": "ਤੁਹਾਡੇ ਪਹਿਲੇ ਪਾਲਤੂ ਜਾਨਵਰ ਦਾ ਕੀ ਨਾਂ ਸੀ?",
        "SECURITY_QUESTION_3": "ਤੁਹਾਡੀ ਮਨਪਸੰਦ ਖੇਡ ਕਿਹੜੀ ਹੈ?",
        "SECURITY_QUESTION_4": "ਤੁਸੀਂ ਕਿਹੜੇ ਸਾਲ ਵਿੱਚ ਗਰੈਜੂਏਟ ਹੋਏ?",
        "SECURITY_QUESTION_5": "ਤੁਹਾਡੇ ਵੱਡੇ ਬੱਚੇ ਦਾ ਵਿਚਕਾਰਲਾ ਨਾਮ ਕੀ ਹੈ?",
        "SECURITY_QUESTION_6": "ਤੁਹਾਡੇ ਪਸੰਦੀਦਾ ਬਚਪਨ ਦੇ ਦੋਸਤ ਦਾ ਨਾਮ ਕੀ ਹੈ?",
        "SECURITY_QUESTION_7": "ਤੁਹਾਡੇ ਤੀਸਰੇ ਗ੍ਰੇਡ ਦੇ ਅਧਿਆਪਕ ਦਾ ਪਿਛਲਾ ਨਾਮ ਕੀ ਸੀ?",
        "SECURITY_QUESTION_8": "ਤੁਹਾਡੀ ਪਹਿਲੀ ਨੌਕਰੀ ਕਿਹੜੇ ਸ਼ਹਿਰ ਜਾਂ ਕਸਬੇ ਵਿੱਚ ਸੀ?",
        "SELECT_SITE_USER": "ਸਾਈਟ ਉਪਭੋਗਤਾ ਦੇ ਨਾਮ ਦੀ ਚੋਣ ਕਰੋ",
        "SITE_USER_NAME": "ਸਾਈਟ ਉਪਭੋਗਤਾ ਦਾ ਨਾਮ:",
        "ADD_SITE_USER": "ਇੱਕ ਸਾਈਟ ਉਪਭੋਗਤਾ ਨੂੰ ਜੋੜੋ",
        "INVALID_ENTRY": "ਅਵੈਧ ਐਂਟਰੀ",
        "HANDOFF_MESSAGE": "<strong>ਮਰੀਜ਼ ਨੂੰ ਆਪਣੇ ਫਾਰਮ ਤਕ ਪਹੁੰਚ ਕੋਡ ਸੈੱਟ ਕਰਨ ਲਈ ਸਕ੍ਰੀਨ ਦੇ ਅਗਲੇ ਸੈੱਟ ਨੂੰ ਸੰਪੂਰਨ ਪੂਰਾ ਕਰਨਾ ਚਾਹੀਦਾ ਹੈ।</strong>",
        "REVERSE_HANDOFF_CONFIRM": "ਜੇਕਰ ਤੁਸੀਂ ਓ.ਕੇ. ਦੀ ਚੋਣ ਕਰਦੇ ਹੋ, ਤਾਂ ਐਕਟੀਵੇਸ਼ਨ ਪ੍ਰਕਿਰਿਆ ਮੁੜ ਸ਼ੁਰੂ ਹੋ ਜਾਏਗੀ। ਕੀ ਤੁਹਾਨੂੰ ਯਕੀਨ ਹੈ ਕਿ ਤੁਸੀਂ ਐਕਟੀਵੇਸ਼ਨ ਪ੍ਰਕਿਰਿਆ ਨੂੰ ਮੁੜ ਸ਼ੁਰੂ ਕਰਨਾ ਚਾਹੁੰਦੇ ਹੋ?",
        "SITE_GATEWAY_TITLE": "ਸਾਈਟ ਗੇਟਵੇਅ",
        "USER_ALREADY_EXISTS": "ਯੂਜ਼ਰ ਪਹਿਲਾਂ ਹੀ ਮੌਜੂਦ ਹੈ",
        "SITE_SIGNATURE": "ਦੇ ਹਸਤਾਖਰ: ",
        "SITE_REPORT_AFF": "ਮੈਂ ਦਰਜ ਕੀਤਾ, ਮੁੜ ਜਾਂਚ ਕੀਤੀ ਅਤੇ ਇਸ ਨਾਲ ਪਿਛਲੇ ਡਾਟਾ ਦੀ ਪੁਸ਼ਟੀ ਕਰਦਾ/ ਕਰਦੀ ਹਾਂ<br /><br /><strong>ਦੇ ਹਸਤਾਖਰ:</strong> {{{ getActiveUserName }}}",
        "PATIENT_REPORT_AFF": "ਮੈਂ ਦਰਜ ਕੀਤਾ, ਮੁੜ ਜਾਂਚ ਕੀਤੀ ਅਤੇ ਇਸ ਨਾਲ ਪਿਛਲੇ ਡਾਟਾ ਦੀ ਪੁਸ਼ਟੀ ਕਰਦਾ/ ਕਰਦੀ ਹਾਂ<br /><br /><strong>ਇਨ੍ਹਾਂ ਦੇ ਦਸਤਖਤ:</strong> {{{ getActiveUserName }}}",
        "CLEAR_SIGNATURE": "ਦਸਤਖਤ ਸਾਫ਼ ਕਰੋ",
        "STUDY_ALIAS": "{{{ studyAlias }}}",
        "SITE_ACTIVATED_ELSEWHERE": "ਇੱਕ ਵੱਖਰੀ ਡਿਵਾਈਸ ਨੂੰ ਮਰੀਜ਼ ਦੇ ਅਧਿਐਨ ਡਾਟਾ ਨੂੰ ਇਕੱਠਾ ਕਰਨ ਲਈ ਕਿਰਿਆਸ਼ੀਲ ਕੀਤਾ ਗਿਆ ਹੈ। ਕਿਰਪਾ ਕਰਕੇ ਆਪਣੇ ਅਧਿਐਨ ਕੋਆਰਡੀਨੇਟਰ ਨਾਲ ਸੰਪਰਕ ਕਰੋ ਜੇਕਰ ਤੁਸੀਂ ਸਮਝਦੇ ਹੋ ਕਿ ਇਹ ਗਲਤੀ ਨਾਲ ਕੀਤਾ ਗਿਆ ਸੀ।",
        "SITE_DEACTIVATED_LABEL": "ਇਸ ਅਧਿਐਨ ਲਈ ਮਰੀਜ਼ ਦੇ ਵਰਤਣ ਦੀ ERT ਖ਼ਤਮ ਹੋ ਗਈ ਹੈ। ਜੇਕਰ ਇਹ ਅਵੈਧ ਹੈ ਤਾਂ ਕਿਰਪਾ ਕਰਕੇ ਅਧਿਐਨ ਕੋਆਰਡੀਨੇਟਰ ਨਾਲ ਸੰਪਰਕ ਕਰੋ।",
        "SIGNATURE_DATA_LIMIT_EXCEEDED": "ਦਸਤਖ਼ਤ ਬਕਸਾ ਤੁਹਾਡੇ ਦਸਤਖ਼ਤ ਨੂੰ ਇੰਨਬਿੰਨ ਨਹੀਂ ਦਰਸਾ ਸਕਿਆ। ਇਸ ਦੀ ਬਜਾਏ ਆਪਣੇ ਦਸਤਖ਼ਤਾਂ ਨਾਲ ਸਾਈਨ ਕਰੋ।",
        "PAIRED": "ਜੋੜੀ ਬਣਿਆ ਹੋਇਆ",
        "BLUETOOTH_REG_TITLE": "eSense ਉਪਕਰਨ ਜੁੜ ਰਿਹਾ ਹੈ",
        "BLUETOOTH_REG_REFRESH_BUTTON": "ਸੂਚੀ ਨੂੰ ਰਿਫਰੈਸ਼ ਕਰੋ",
        "BLUETOOTH_PAIR_DEVICE": "ਚੋਣਵੇਂ ਡਿਵਾਈਸ ਨੂੰ ਜੋੜੀ ਬਣਾਓ",
        "BLUETOOTH_PAIRING_FAILED": "ਚੋਣਵੇਂ ਡਿਵਾਈਸ ਨੂੰ ਜੋੜੀ ਬਣਾਉਣਾ ਅਸਫਲ ਸੀ। ਕਿਰਪਾ ਕਰਕੇ ਮੁੜ ਯਤਨ ਕਰੋ।",
        "BLUETOOTH_PAIRING_SUCCESS": "ਚੋਣਵੇਂ ਡਿਵਾਈਸ ਨੂੰ ਜੋੜੀ ਬਣਾਉਣਾ ਸਫਲ ਸੀ।",
        "BLUETOOTH_REG_NO_DEVICES_FOUND": "ਕੋਈ ਉਪਕਰਨ ਨਹੀਂ ਲੱਭੇ ਸੀ। ਕਿਰਪਾ ਕਰਕੇ ਯਕੀਨੀ ਬਣਾਓ ਕਿ ਉਪਕਰਨ ERT ਦੇ ਕੋਲ ਹੈ ਅਤੇ ਇਸਦੀ ਸੰਚਾਰਨ ਵਿਧੀ ਵਿੱਚ ਹੈ।",
        "SYNC_FAILED": "ਸਰਵਰ ਨਾਲ ਸਮਕਾਲੀ ਕਰਨਾ ਅਸਫਲ।",
        "DIARY_REQUIRES_E_SENSE_SUPPORT": "eSense ਸਮਰਥਨ ਨਹੀਂ ਕਰਦਾ। ਇਸ ਫਾਰਮ ਨੂੰ eSense ਸਮਰਥਨ ਦੀ ਲੋੜ ਹੈ।",
        "ERROR_E_SENSE_ENABLE": "eSense ਨੂੰ ਯੋਗ ਨਹੀਂ ਕੀਤਾ ਜਾ ਸਕਿਆ।",
        "E_SENSE_NOT_PAIRED": "ਕੋਈ ਵੀ eSense ਡਿਵਾਈਸ ਦੀ ਜੋੜੀ ਨਹੀਂ ਬਣਾਈ ਗਈ। ਇਸ ਫਾਰਮ ਨੂੰ ਇੱਕ ਅਧਾਰਿਤ eSense ਡਿਵਾਈਸ ਦੀ ਲੋੜ ਹੈ।",
        "BLUETOOTH_SYNC_FAILURE_TOP": "ERT ਉਪਕਰਨ {{{ eSenseDeviceName }}} ਨਾਲ ਸੰਚਾਰ ਕਰਨ ਵਿੱਚ ਅਸਮਰੱਥ ਸੀ।",
        "BLUETOOTH_SYNC_FAILURE_MIDDLE": "ਕਿਰਪਾ ਕਰਕੇ ਯਕੀਨੀ ਬਣਾਓ ਕਿ ਸੰਖਿਆ {{{ eSenseSerialNumber }}} ਵਾਲਾ ਉਪਕਰਨ {{{ eSenseDeviceName }}} ERT ਦੇ ਕੋਲ ਹੈ ਅਤੇ ਇਸਦੀ ਸੰਚਾਰਨ ਵਿਧੀ ਵਿੱਚ ਹੈ।",
        "PLUGIN_MISSING": "ਲੋੜੀਂਦਾ ਪਲੱਗ-ਇੰਨ ਲੋਡ ਨਹੀਂ ਕੀਤਾ ਜਾ ਸਕਿਆ।",
        "WRAPPER_VERSION": "ਰੈਪਰ ਸੰਸਕਰਣ:",
        "SUPPORT": "ਗ੍ਰਾਹਕ ਸਹਾਇਤਾ",
        "SUPPORT_MESSAGE": "ਅਮਰੀਕਾ ਵਿੱਚ ਉਪਭੋਗਤਾ ERT ਸਹਾਇਤਾ ਕੇਂਦਰ ਤੇ 800-748-5669 ਤੇ ਪਹੁੰਚ ਕਰ ਸਕਦੇ ਹਨ। ਅੰਤਰਰਾਸ਼ਟਰੀ ਉਪਭੋਗਤਾ, ਕਿਰਪਾ ਕਰਕੇ ਹੇਠਾਂ ਦਿੱਤੇ ਗਏ ਸਭ ਤੋਂ ਨੇੜਲੇ ਦੇਸ਼ ਦੀ ਚੋਣ ਕਰੋ:",
        "SUPPORT_DROPDOWN": "ਆਪਣੇ ਦੇਸ਼ ਦੀ ਚੋਣ ਕਰੋ",
        "SUPPORT_NAME_ARGENTINA": "ਅਰਜਨਟੀਨਾ",
        "SUPPORT_NUMBER_ARGENTINA": "<bdi>0800 444 0962</bdi>",
        "SUPPORT_NAME_ARMENIA": "ਆਰਮੇਨੀਆ",
        "SUPPORT_NUMBER_ARMENIA": "<bdi>+1 617 681 6306</bdi>",
        "SUPPORT_NAME_AUSTRALIA": "ਆਸਟ੍ਰੇਲੀਆ",
        "SUPPORT_NUMBER_AUSTRALIA": "<bdi>1 800 800 051</bdi>",
        "SUPPORT_NAME_AUSTRIA": "ਆਸਟਰੀਆ",
        "SUPPORT_NUMBER_AUSTRIA": "<bdi>0800 100 405</bdi>",
        "SUPPORT_NAME_BELARUS": "ਬੇਲਾਰੱਸ",
        "SUPPORT_NUMBER_BELARUS": "<bdi>8 820 0321 0036</bdi>",
        "SUPPORT_NAME_BELGIUM": "ਬੈਲਜੀਅਮ",
        "SUPPORT_NUMBER_BELGIUM_1": "(ਅੰਗਰੇਜੀ): <bdi>0800 58 016</bdi>",
        "SUPPORT_NUMBER_BELGIUM_2": "(ਫਰੈਂਚ): <bdi>0800 71 076</bdi>",
        "SUPPORT_NUMBER_BELGIUM_3": "(ਜ਼ਰਮਨ): <bdi>0800 71 113</bdi>",
        "SUPPORT_NAME_BRAZIL": "ਬ੍ਰਾਜੀਲ",
        "SUPPORT_NUMBER_BRAZIL": "<bdi>0800 891 5909</bdi>",
        "SUPPORT_NAME_BOSNIA": "ਬੌਸਨੀਆ",
        "SUPPORT_NUMBER_BOSNIA": "<bdi>+1 617 681 6306</bdi>",
        "SUPPORT_NAME_BULGARIA": "ਬਲਗਾੜੀਆ",
        "SUPPORT_NUMBER_BULGARIA": "<bdi>00800 0010</bdi>, ਫਿਰ <bdi>866 245 4931</bdi>",
        "SUPPORT_NAME_CANADA": "ਕੈਨੇਡਾ",
        "SUPPORT_NUMBER_CANADA": "<bdi>1 800 748 5669</bdi>",
        "SUPPORT_NAME_CHILE": "ਚਿਲੇ",
        "SUPPORT_NUMBER_CHILE": "<bdi>123 0020 3408</bdi>",
        "SUPPORT_NAME_CHINA": "ਚੀਨ",
        "SUPPORT_NUMBER_CHINA_1": "ਨੈਟਕੌਮ (ਨੌਰਥ): <bdi>1 0800 74 40 164</bdi>",
        "SUPPORT_NUMBER_CHINA_2": "ਟੈਲੀਕੌਮ (ਸਾਊਥ): <bdi>1 0800 44 00 158</bdi>",
        "SUPPORT_NAME_COLOMBIA": "ਕੋਲੰਬੀਆ",
        "SUPPORT_NUMBER_COLOMBIA": "<bdi>01 800 911 0010</bdi>, ਫਿਰ <bdi>866 310 3707</bdi>",
        "SUPPORT_NAME_COSTA_RICA": "ਕੌਸਟਾ ਰਿਕਾ",
        "SUPPORT_NUMBER_COSTA_RICA": "<bdi>0800 013 1210</bdi>",
        "SUPPORT_NAME_CROATIA": "ਕ੍ਰੋਸ਼ੀਆ",
        "SUPPORT_NUMBER_CROATIA": "<bdi>0800 222 953</bdi>",
        "SUPPORT_NAME_CZECH_REPUBLIC": "ਚੇਕ ਰਿਪਬਲਿੱਕ",
        "SUPPORT_NUMBER_CZECH_REPUBLIC": "<bdi>800 142 150</bdi>",
        "SUPPORT_NAME_DENMARK": "ਡੈਨਮਾਰਕ",
        "SUPPORT_NUMBER_DENMARK": "<bdi>80 60 00 09</bdi>",
        "SUPPORT_NAME_EGYPT": "ਅਜਿਪਟ",
        "SUPPORT_NUMBER_EGYPT": "<bdi>02 510 0200</bdi>, ਫਿਰ <bdi>866 310 3707</bdi>",
        "SUPPORT_NAME_EL_SALVADOR": "ਅਲ ਸਾਲਵਾਡੋਰ",
        "SUPPORT_NUMBER_EL_SALVADOR": "<bdi>+1 617 681 6306</bdi>",
        "SUPPORT_NAME_ESTONIA": "ਐਸਟੋਨੀਆ",
        "SUPPORT_NUMBER_ESTONIA": "<bdi>800 00 44 154</bdi>",
        "SUPPORT_NAME_FINLAND": "ਫਿਨਲੈਂਡ",
        "SUPPORT_NUMBER_FINLAND": "<bdi>0800 11 6366</bdi>",
        "SUPPORT_NAME_FRANCE": "ਫਰਾਂਸ",
        "SUPPORT_NUMBER_FRANCE": "<bdi>0800 10 19 79</bdi>",
        "SUPPORT_NAME_GERMANY": "ਜਰਮਨੀ",
        "SUPPORT_NUMBER_GERMANY": "<bdi>0800 101 28 21</bdi>",
        "SUPPORT_NAME_GREECE": "ਗਰੀਸ",
        "SUPPORT_NUMBER_GREECE": "<bdi>00 800 1311</bdi>, ਫਿਰ <bdi>866 310 3707</bdi>",
        "SUPPORT_NAME_GUATEMALA": "ਗੁਆਟੇਮਾਲਾ",
        "SUPPORT_NUMBER_GUATEMALA": "<bdi>1 800 624 0079</bdi>",
        "SUPPORT_NAME_HONG_KONG": "ਹਾਂਗਕਾਂਗ",
        "SUPPORT_NUMBER_HONG_KONG": "<bdi>3002 1665</bdi>",
        "SUPPORT_NAME_HUNGARY": "ਹੰਗਰੀ",
        "SUPPORT_NUMBER_HUNGARY": "<bdi>06 800 14 571</bdi>",
        "SUPPORT_NAME_ICELAND": "ਆਈਸਲੈਂਡ",
        "SUPPORT_NUMBER_ICELAND": "<bdi>800 8544</bdi>",
        "SUPPORT_NAME_INDIA": "ਭਾਰਤ",
        "SUPPORT_NUMBER_INDIA": "<bdi>000 800 440 1125</bdi>",
        "SUPPORT_NAME_INDONESIA": "ਇੰਡੋਨੇਸ਼ੀਆ",
        "SUPPORT_NUMBER_INDONESIA": "<bdi>008 800 330 334</bdi>",
        "SUPPORT_NAME_IRELAND": "ਆਇਰਲੈਂਡ",
        "SUPPORT_NUMBER_IRELAND": "<bdi>1 800 946 700</bdi>",
        "SUPPORT_NAME_ISRAEL": "ਇਜ਼ਰਾਈਲ",
        "SUPPORT_NUMBER_ISRAEL": "<bdi>1 809 470 062</bdi>",
        "SUPPORT_NAME_ITALY": "ਇਟਲੀ",
        "SUPPORT_NUMBER_ITALY": "<bdi>800 90 56 37</bdi>",
        "SUPPORT_NAME_JAPAN": "ਜਪਾਨ",
        "SUPPORT_NUMBER_JAPAN": "ਕਿਰਪਾ ਕਰਕੇ ਆਪਣੇ ਅਧਿਐਨ ਦੇ ਟੋਲ-ਫਰੀ ਨੰਬਰ ਲਈ ਆਪਣੀ ePRO ਅਧਿਐਨ ਜਾਣਕਾਰੀ ਗਾਈਡ ਵੇਖੋ।",
        "SUPPORT_NAME_LATVIA": "ਲਾਟਵੀਆ",
        "SUPPORT_NUMBER_LATVIA": "<bdi>8000 2151</bdi>",
        "SUPPORT_NAME_LEBANON": "ਲੈਬਨਾਨ",
        "SUPPORT_NUMBER_LEBANON": "<bdi>01-426-801</bdi>, ਫਿਰ <bdi>866 310 3707</bdi>",
        "SUPPORT_NAME_LITHUANIA": "ਲਿਥੁਆਨੀਆ",
        "SUPPORT_NUMBER_LITHUANIA": "<bdi>8800 30207</bdi>",
        "SUPPORT_NAME_MALAYSIA": "ਮਲੇਸ਼ੀਆ",
        "SUPPORT_NUMBER_MALAYSIA": "<bdi>1800 80 59 71</bdi>",
        "SUPPORT_NAME_MEXICO": "ਮੈਕਸੀਕੋ",
        "SUPPORT_NUMBER_MEXICO_1": "(ਅੰਗਰੇਜੀ): <bdi>001 800 748 5669</bdi> ",
        "SUPPORT_NUMBER_MEXICO_2": "(ਸਪੈਨਿਸ਼): <bdi>001 855 631 6952</bdi>",
        "SUPPORT_NAME_MOLDOVA": "ਮਾਲਡੋਵਾ",
        "SUPPORT_NUMBER_MOLDOVA": "<bdi>617 681 6306</bdi>",
        "SUPPORT_NAME_NETHERLANDS": "ਨੀਦਰਲੈਂਡਜ਼",
        "SUPPORT_NUMBER_NETHERLANDS": "<bdi>0800 023 1389</bdi>",
        "SUPPORT_NAME_NEW_ZEALAND": "ਨਿਊਜੀਲੈਂਡ",
        "SUPPORT_NUMBER_NEW_ZEALAND": "<bdi>0800 110 178</bdi>",
        "SUPPORT_NAME_NORWAY": "ਨੌਰਵੇ",
        "SUPPORT_NUMBER_NORWAY": "<bdi>800 62 051</bdi>",
        "SUPPORT_NAME_PAKISTAN": "ਪਾਕਿਸਤਾਨ",
        "SUPPORT_NUMBER_PAKISTAN": "<bdi>00 800 0100</bdi>, ਫਿਰ <bdi>866 237 9767</bdi>",
        "SUPPORT_NAME_PANAMA": "ਪਨਾਮਾ",
        "SUPPORT_NUMBER_PANAMA": "<bdi>001 800 201 3095</bdi>",
        "SUPPORT_NAME_PERU": "ਪੇਰੂ",
        "SUPPORT_NUMBER_PERU": "<bdi>0800 5 0974</bdi>",
        "SUPPORT_NAME_PHILIPPINES": "ਫਿਲੀਪੀਨਜ਼",
        "SUPPORT_NUMBER_PHILIPPINES": "<bdi>1 800 1116 0651</bdi>",
        "SUPPORT_NAME_POLAND": "ਪੋਲੈਂਡ",
        "SUPPORT_NUMBER_POLAND": "<bdi>00800 331 1262</bdi>",
        "SUPPORT_NAME_PORTUGAL": "ਪੁਰਤਗਾਲ",
        "SUPPORT_NUMBER_PORTUGAL": "<bdi>800 206 172</bdi>",
        "SUPPORT_NAME_PUERTO_RICO": "ਪਿਉਰਟੋ ਰਿਕੋ (ਯੂਐਸ ਟੈਰੀਟਰੀ)",
        "SUPPORT_NUMBER_PUERTO_RICO": "<bdi>1 800 748 5669</bdi>",
        "SUPPORT_NAME_ROMANIA": "ਰੋਮਾਨੀਆ",
        "SUPPORT_NUMBER_ROMANIA": "<bdi>0800 894492</bdi>",
        "SUPPORT_NAME_RUSSIA": "ਰੂਸ",
        "SUPPORT_NUMBER_RUSSIA_1": "(ਪ੍ਰਾਇਮਰੀ – ਟੌਲ ਫਰੀ): <bdi>8 10 800 249 13011</bdi>",
        "SUPPORT_NUMBER_RUSSIA_2": "(ਮਾਸਕੋ ਅੰਦਰ): <bdi>363-2400</bdi> <br> ਫਿਰ <bdi>866 310 3707</bdi>",
        "SUPPORT_NUMBER_RUSSIA_3": "(ਮਾਸਕੋ ਤੋਂ ਬਾਹਰ): <bdi>8^(495) 363-2400</bdi> <br> ਫਿਰ <bdi>866 310 3707</bdi>",
        "SUPPORT_NUMBER_RUSSIA_4": "(ਸੈਂਟ ਪੀਟਰਸਬਰਗ ਅੰਦਰ): <bdi>363-2400</bdi> <br> ਫਿਰ <bdi>866 310 3707</bdi>",
        "SUPPORT_NUMBER_RUSSIA_5": "(ਸੈਂਟ ਪੀਟਰਸਬਰਗ ਤੋਂ ਬਾਹਰ): <bdi>8^(495) 363-2400</bdi> <br> ਫਿਰ <bdi>866 310 3707</bdi>",
        "SUPPORT_NAME_SAUDI_ARABIA": "ਸਾਉਦੀ ਅਰਬ",
        "SUPPORT_NUMBER_SAUDI_ARABIA": "<bdi>+1 617 681 6306</bdi>",
        "SUPPORT_NAME_SERBIA": "ਸਰਬੀਆ",
        "SUPPORT_NUMBER_SERBIA": "<bdi>+1 617 973 1739</bdi>",
        "SUPPORT_NAME_SINGAPORE": "ਸਿੰਗਾਪੁਰ",
        "SUPPORT_NUMBER_SINGAPORE": "<bdi>800 616 30 03</bdi>",
        "SUPPORT_NAME_SLOVAKIA": "ਸਲੋਵਾਕੀਆ",
        "SUPPORT_NUMBER_SLOVAKIA": "<bdi>0800 0044 65</bdi>",
        "SUPPORT_NAME_SLOVENIA": "ਸਲੋਵੈਨੀਆ",
        "SUPPORT_NUMBER_SLOVENIA": "<bdi>+1 617 681 6306</bdi>",
        "SUPPORT_NAME_SOUTH_AFRICA": "ਦੱਖਣੀ ਅਫਰੀਕਾ",
        "SUPPORT_NUMBER_SOUTH_AFRICA": "<bdi>0800 99 5853</bdi>",
        "SUPPORT_NAME_SOUTH_KOREA": "ਦੱਖਣੀ ਕੋਰੀਆ",
        "SUPPORT_NUMBER_SOUTH_KOREA": "<bdi>00308 33 00 08</bdi>",
        "SUPPORT_NAME_SPAIN": "ਸਪੇਨ",
        "SUPPORT_NUMBER_SPAIN": "<bdi>900 90 2541</bdi>",
        "SUPPORT_NAME_SWEDEN": "ਸਵੀਡਨ",
        "SUPPORT_NUMBER_SWEDEN": "<bdi>020 120 99 69</bdi>",
        "SUPPORT_NAME_SWITZERLAND": "ਸਵਿਟਜ਼ਰਲੈਂਡ",
        "SUPPORT_NUMBER_SWITZERLAND_1": "(ਅੰਗਰੇਜੀ): <bdi>0800 199 325</bdi>",
        "SUPPORT_NUMBER_SWITZERLAND_2": "(ਫਰੈਂਚ): <bdi>0800 891 183</bdi>",
        "SUPPORT_NUMBER_SWITZERLAND_3": "(ਜ਼ਰਮਨ): <bdi>0800 891 025</bdi>",
        "SUPPORT_NAME_TAIWAN": "ਤਾਈਵਾਨ",
        "SUPPORT_NUMBER_TAIWAN": "<bdi>00801 33 33 42</bdi>",
        "SUPPORT_NAME_THAILAND": "ਥਾਈਲੈਂਡ",
        "SUPPORT_NUMBER_THAILAND": "<bdi>1 800 33 140 353</bdi>",
        "SUPPORT_NAME_TUNISIA": "ਟਿਊਨੀਸ਼ੀਆ",
        "SUPPORT_NUMBER_TUNISIA": "<bdi>+1 617 681 6306</bdi>",
        "SUPPORT_NAME_TURKEY": "ਤੁਰਕੀ",
        "SUPPORT_NUMBER_TURKEY": "<bdi>00 800 151 1335</bdi>",
        "SUPPORT_NAME_UKRAINE": "ਯੁਕਰੇਨ",
        "SUPPORT_NUMBER_UKRAINE": "<bdi>0^00 11</bdi>, ਫਿਰ <bdi>866 245 4931</bdi>",
        "SUPPORT_NAME_UAE": "ਸੰਯੁਕਤ ਅਰਬ ਅਮੀਰਾਤ",
        "SUPPORT_NUMBER_UAE": "<bdi>8000-021</bdi>, ਫਿਰ <bdi>866 310 3707</bdi>",
        "SUPPORT_NAME_UK": "ਯੂਨਾਈਟਿਡ ਕਿੰਗਡਮ",
        "SUPPORT_NUMBER_UK": "<bdi>0800 015 0408</bdi>",
        "SUPPORT_NAME_US": "ਯੂਨਾਈਟਿਡ ਸਟੇਟਜ਼",
        "SUPPORT_NUMBER_US_1": "(ਮੁੱਖ): <bdi>1 800 748 5669</bdi>",
        "SUPPORT_NUMBER_US_2": "(ਬੈਕਅੱਪ): <bdi>1 877 748 5669</bdi>",
        "SUPPORT_NAME_VENEZUELA": "ਵੈਂਜੁਏਲਾ",
        "SUPPORT_NUMBER_VENEZUELA_1": "(ਅੰਗਰੇਜੀ): <bdi>0 800 552 6288</bdi> <br> ਫਿਰ <bdi>866 310 3707</bdi> ",
        "SUPPORT_NUMBER_VENEZUELA_2": "(ਸਪੈਨਿਸ਼): <bdi>0 800 100 3063</bdi> ",
        "USER_NAME": "ਯੂਜ਼ਰ ਦਾ ਨਾਮ:",
        "SUBJECT_ROLE": "ਮਰੀਜ਼ ਕੋਡ: {{{ getParticipantCode }}}",
        "SITE_ROLE": "ਸਾਈਟ ਉਪਭੋਗਤਾ",
        "TEMPORARY_PASSWORD_MESSAGE": "ਕਿਰਪਾ ਕਰਕੇ ਨਵੇਂ ਉਪਭੋਗਤਾ ਨੂੰ ਅਸਥਾਈ ਪਾਸਵਰਡ ਦਿਓ। ਉਨ੍ਹਾਂ ਦੇ ਲੌਗ ਇਨ ਕਰਨ ਤੋਂ ਬਾਅਦ ਇੱਕ ਨਵੇਂ ਪਾਸਵਰਡ ਤਿਆਰ ਕਰਨ ਲਈ ਉਨ੍ਹਾਂ ਨੂੰ ਪੁੱਛਿਆ ਜਾਏਗਾ।",
        "SHARED_PASSWORD_MESSAGE": "ਨਵੇਂ ਯੂਜ਼ਰ ਲਈ ਪਾਸਵਰਡ ਨੂੰ StudyWorks ਤੋਂ ਪ੍ਰਾਪਤ ਕਰਨਾ ਚਾਹੀਦਾ ਹੈ।",
        "TEMP_PASSWORD": "ਅਸਥਾਈ ਪਾਸਵਰਡ: ",
        "ROLES": "ਭੂਮਿਕਾ:",
        "LANGUAGE": "ਭਾਸ਼ਾ:",
        "FULL_NAME": "ਪੂਰਾ ਨਾਮ:",
        "CONFIRM_TEMP_PASS": "ਅਸਥਾਈ ਪਾਸਵਰਡ ਦੀ ਪੁਸ਼ਟੀ ਕਰੋ:",
        "PASSWORD_MISMATCH": "ਪਾਸਵਰਡ ਪੁਸ਼ਟੀ ਪਾਸਵਰਡ ਨਾਲ ਮੈਚ ਨਹੀਂ ਕਰਦੀ",
        "PASSWORD_INVALID_CHARACTERS": "ਕਿਰਪਾ ਕਰਕੇ ਕੇਵਲ ਅੰਕਾਂ ਦੀ ਹੀ ਵਰਤੋਂ ਕਰੋ",
        "USER_NAME_INVALID_CHARACTERS": "ਕਿਰਪਾ ਕਰਕੇ ਵਿਸੇਸ਼ ਅੱਖਰਾਂ ਦੀ ਵਰਤੋਂ ਨਾ ਕਰੋ",
        "USER_NAME_MORE_THAN_25": "ਕਿਰਪਾ ਕਰਕੇ 25 ਅੱਖਰਾਂ ਦੀ ਜਾਂ ਇਸ ਤੋਂ ਘੱਟ ਅੱਖਰਾਂ ਦੀ ਵਰਤੋਂ ਕਰੋ",
        "PRIVACY_POLICY_VERSION_LABEL": "ਸੰਸਕਰਨ: ",
        "PRIVACY_POLICY_VERSION": "1.6.0",
        "PRIVACY_POLICY_LAST_UPDATED_LABEL": "ਪਿਛਲੀ ਵਾਰ ਅੱਪਡੇਟ ਕੀਤਾ: ",
        "PRIVACY_POLICY_LAST_UPDATED": "21 ਜਨ 2014",
        "PRIVACY_POLICY_TEXT_LABEL": "ਗੁਪਤਤਾ ਬਾਰੇ: ",
        "PRIVACY_POLICY_TEXT": "ERT ਤੁਹਾਡੇ ਦੁਆਰਾ ਇੰਸਟਾਲ ਕੀਤੇ ਜਾਣ ਵਾਲੇ ਸਾਫਟਵੇਅਰ ਪ੍ਰਦਾਨ ਕਰਦਾ ਹੈ। ERT ਤੁਹਾਡੇ ਕਲੀਨਿਕਲ ਟਰਾਇਲ ਨਾਲ ਮਿਲਕੇ ਇਹ ਸੁਨਿਸ਼ਚਿਤ ਕਰਨ ਲਈ ਕੰਮ ਕਰਦਾ ਹੈ ਕਿ ਤੁਹਾਡੀ ਸਾਈਟ ਦੀ ਆਗਿਆ ਦੇ ਬਿਨਾਂ ਕੋਈ ਵੀ ਨਹੀਂ ਸਿੱਖੇਗਾ। ਤੁਹਾਡੇ ਕੋਲ ਆਪਣੀ ਸਾਈਟ ਦੁਆਰਾ ਸਮੀਖਿਆ ਲਈ ਪ੍ਰਬੰਧ ਕਰਨ ਨਾਲ ਆਪਣੇ ਰਿਕਾਰਡਾਂ ਨੂੰ ਦੇਖਣ ਦਾ ਹੱਕ ਹੈ।",
        "SUBJECT_REPORT_AFF": "ਮੈਂ ਬਿਆਨ ਕਰਦਾ ਹਾਂ ਕਿ ਮੈਂ ਸਾਰੇ ਪ੍ਰਸ਼ਨਾਂ ਦੇ ਉੱਤਰ ਆਪਣੀ ਪੂਰੀ ਸਮਰੱਥਾ ਨਾਲ ਦਿੱਤੇ ਹਨ।",
        "SUBJECT_INITIALS_LABEL": "ਮਰੀਜ਼ ਦੇ ਦਸਤਖਤ:",
        "SUBJECT": "ਮਰੀਜ਼:",
        "SET_TIMEZONE": "ਸਮਾਂ ਜ਼ੋਨ ਦਾ ਸੈੱਟ ਕਰੋ",
        "SET_TIMEZONE_MESSAGE": "ਆਪਣੇ ਸਮਾਂ ਜ਼ੋਨ ਚੁਣੋ:",
        "SET_TIMEZONE_BUTTON": "ਸੈੱਟ",
        "TIME_ZONE_CONFIRM_HEADER": "ਸਮਾਂ -ਖੇਤਰ ਤਬਦੀਲੀ ਪੁਸ਼ਟੀ",
        "TIME_ZONE_CONFIRM": "ਕੀ ਤੁਸੀਂ ਯਕੀਨੀ ਤੌਰ 'ਤੇ ਤੁਸੀਂ ਸਮਾਂ-ਖੇਤਰ ਤਬਦੀਲ ਕਰਨਾ ਚਾਹੁੰਦੇ ਹੋ? ਤਬਦੀਲੀ ਨੂੰ ਲਾਗੂ ਕਰਨ ਲਈ ਐਪਲੀਕੇਸ਼ਨ ਮੁੜ ਚਾਲੂ ਹੋ ਜਾਵੇਗਾ।",
        "TIME_ZONE_EUROPE_KALININGRAD": "ਯੂਰੋਪ/ਕਲਿਨਿੰਗ੍ਰੇਡ",
        "TIME_ZONE_EUROPE_MOSCOW": "ਯੂਰੋਪ/ਮਾਸਕੋ",
        "TIME_ZONE_ASIA_KARACHI": "ਏਸ਼ੀਆ/ਕਰਾਚੀ",
        "TIME_ZONE_ASIA_YEKATERINBURG": "ਏਸ਼ੀਆ/ਯੈਕਟੈਰਿਨਬਰਗ",
        "TIME_ZONE_ASIA_NOVOSIBIRSK": "ਏਸ਼ੀਆ/ਨੋਵੋਸਿਬਿਰਸਕ",
        "TIME_ZONE_ASIA_KRASNOYARSK": "ਏਸ਼ੀਆ/ਕ੍ਰਾਸਨੋਯਾਰਸਕ",
        "TIME_ZONE_ASIA_IRKUTSK": "ਏਸ਼ੀਆ/ਇਰਕੁਤਸਕ",
        "TIME_ZONE_ASIA_YAKUTSK": "ਏਸ਼ੀਆ/ਯਾਕੁਤਸਕ",
        "TIME_ZONE_ASIA_VLADIVOSTOK": "ਏਸ਼ੀਆ/ਵਲੈਡਿਵੋਸਤੋਕ",
        "TIME_ZONE_ASIA_KAMCHATKA": "ਏਸ਼ੀਆ/ਕਾਮਚਟਕਾ",
        "AF-ZA": "ਅਫਰੀਕੀ",
        "AR-EG": "ਅਰਬੀ",
        "BE-BY": "ਬੈਲਾਰੂਸੀ",
        "BG-BG": "ਬੁਲਗਾਰੀ",
        "BN-IN": "ਬੰਗਾਲੀ",
        "BS-BA": "ਬੋਸਨੀਅਨ",
        "CA-ES": "ਕੈਟਲੇਨ",
        "CS-CZ": "ਚੈੱਕ",
        "DA-DK": "ਡੈੱਨਮਾਰਕੀ",
        "DE-DE": "ਜਰਮਨ (ਜਰਮਨੀ)",
        "DE-AT": "ਜਰਮਨ (ਅਸਟ੍ਰੀਆ)",
        "EL-GR": "ਗ੍ਰੀਕ",
        "EN-GB": "ਅੰਗ੍ਰੇਜੀ (ਯੂ.ਕੇ.)",
        "EN-US": "ਅੰਗ੍ਰੇਜੀ (ਅਮਰੀਕੀ)",
        "ES-ES": "ਸਪੇਨੀ (ਸਪੇਨ)",
        "ES-US": "ਸਪੇਨੀ (ਅਮਰੀਕਾ)",
        "ES-PY": "ਸਪੇਨੀ (ਯੂਨੀਵਰਸਲ)",
        "ET-EE": "ਇਸਟੋਨੀਆਈ",
        "FI-FI": "ਫਿੰਨਿਸ",
        "FR-CA": "ਫ੍ਰੇਂਚ (ਕਨੇਡਾ)",
        "FR-FR": "ਫ੍ਰੇਂਚ (ਫ੍ਰਾਂਸ)",
        "GD-IE": "ਗੇਲੀਕ",
        "GU-IN": "ਗੁਜਰਾਤੀ",
        "HE-IL": "ਹਿਬਰੂ",
        "HI-IN": "ਹਿੰਦੀ",
        "HR-HR": "ਕ੍ਰੋਏਸ਼ੀ",
        "HU-HU": "ਹੰਗਰੀਆਈ",
        "IT-IT": "ਇਤਾਵਲੀ",
        "JA-JP": "ਜਪਾਨੀ",
        "KA-GE": "ਜੋਰਜੀ",
        "KN-IN": "ਕੰਨੜ",
        "KO-KR": "ਕੋਰੀਆਈ",
        "LV-LV": "ਲਤਾਲਵੀ",
        "LT-LT": "ਲਿਥੁਆਨੀ",
        "ML-IN": "ਮਲਿਆਲਮ",
        "MR-IN": "ਮਰਾਠੀ",
        "MS-MY": "ਮਲੈ",
        "NB-NO": "ਨਾਰਵੇਈ",
        "NL-BE": "ਡੱਚ (ਬੈਲਜੀਅਮ)",
        "NL-NL": "ਡੱਚ (ਨੀਦਰਲੈਂਡਸ)",
        "PA-IN": "ਪੰਜਾਬੀ",
        "PL-PL": "ਪੋਲਿਸ਼",
        "PT-BR": "ਪੁਰਤਗਾਲੀ (ਬ੍ਰਾਜ਼ੀਲ)",
        "PT-PT": "ਪੁਰਤਗਾਲੀ (ਪੁਰਤਗਾਲ)",
        "RO-RO": "ਰੋਮਾਨੀ",
        "RU-RU": "ਰੂਸੀ",
        "SL-SL": "ਸਲੋਵੇਨੀ",
        "SK-SK": "ਸਲੋਵਾਕ",
        "SR-RS": "ਸਰਵਿਆਈ (ਲੈਟਿਨ)",
        "SR-SP": "ਸਰਵਿਆਈ (ਸਿਰਿਲਿਕ)",
        "ST-ZA": "ਸੋਥੋ",
        "SV-SE": "ਸਵੀਡਿਸ਼",
        "TA-IN": "ਤਾਮਿਲ",
        "TE-IN": "ਤਾਲਗੂ",
        "TH-TH": "ਥਾਈ",
        "TL-PH": "ਟਾਗਾਲੋਗ",
        "TN-ZA": "ਸਵਾਨਾ",
        "TR-TR": "ਤੁਰਕਿਸ਼",
        "UK-UA": "ਯੁਕ੍ਰੇਨੀ",
        "UR-IN": "ਉਰਦੂ",
        "VI-VN": "ਵੀਅਤਨਾਮੀ",
        "XH-ZA": "ਕੋਸਾ",
        "ZH-CN": "ਚੀਨੀ (ਚੀਨ)",
        "ZH-TW": "ਚੀਨੀ (ਤਾਈਵਾਨ)",
        "ZU-ZU": "ਜ਼ੁਲੂ",
        "NO_RESULTS_FOUND": "ਕੋਈ ਨਤੀਜਾ ਨਹੀ ਮਿਲਿਆ।",
        "USER": "ਉਪਭੋਗਤਾ",
        "SYNC": "ਸਿੰਕ",
        "TIME_LBL": "ਸਮਾਂ:",
        "SET_TIME": "ਸਮਾਂ ਸੈੱਟ ਕਰੋ",
        "NEW_USER": "ਨਵੀਂ ਉਪਭੋਗਤਾ ਡਾਇਰੀ ਸ਼ਾਮਲ ਕਰੋ",
        "NEW_USER_CREATED": "ਨਵਾਂ ਉਪਭੋਗਤਾ ਬਣਾਇਆ ਗਿਆ ਹੈ।",
        "TIME_ZONE_SET_CONFIRM": "ਕੀ ਤੁਸੀਂ ਯਕੀਨੀ ਤੌਰ 'ਤੇ ਸਮਾਂ-ਖੇਤਰ ਨੂੰ ਇਸ 'ਤੇ ਸੈੱਟ ਕਰਨਾ ਚਾਹੁੰਦੇ ਹੋ: <bdi>{{{ selectedTimeZone }}}</bdi>? <br/> ਤਬਦੀਲੀ ਨੂੰ ਲਾਗੂ ਕਰਨ ਲਈ ਐਪਲੀਕੇਸ਼ਨ ਮੁੜ ਚਾਲੂ ਹੋ ਸਕਦੀ ਹੈ।",
        "TIME_ZONE_SET_CONFIRM_NOCHANGE": "ਕੀ ਤੁਸੀਂ ਯਕੀਨੀ ਤੌਰ 'ਤੇ ਸਮਾਂ-ਖੇਤਰ ਨੂੰ ਇਸ 'ਤੇ ਸੈੱਟ ਕਰਨਾ ਚਾਹੁੰਦੇ ਹੋ: <bdi>{{{ selectedTimeZone }}}</bdi>?",
        "TIME_ZONE_SET_HEADER": "ਸਮਾਂ-ਖੇਤਰ ਸੈੱਟ ਕਰਨ ਦੀ ਪੁਸ਼ਟੀ",
        "TIME_ZONE_ERROR_HEADER": "ਸਮਾਂ-ਖੇਤਰ ਗੜਬੜੀ",
        "TIME_ZONE_ERROR_MSG": "ਸਮਾਂ-ਖੇਤਰ ਸੂਚੀ ਪ੍ਰਾਪਤ ਕਰਨ ਸਮੇਂ ਗੜਬੜੀ ਆਈ। ਕਿਰਪਾ ਕਰਕੇ ਵਧੀਕ ਸਹਾਇਤਾ ਲਈ ERT ਸਮਰਥਨ ਕੇਂਦਰ ਨਾਲ ਸੰਪਰਕ ਕਰੋ।",
        "TIME_ZONE_SET_ERROR_MSG": "ਸਮਾਂ-ਖੇਤਰ ਸੈਟਿੰਗ ਸਮੇਂ ਗੜਬੜੀ ਆਈ। ਕਿਰਪਾ ਕਰਕੇ ਵਧੀਕ ਸਹਾਇਤਾ ਲਈ ERT ਸਮਰਥਨ ਕੇਂਦਰ ਨਾਲ ਸੰਪਰਕ ਕਰੋ।",
        "TIME_CONFIRMATION_INSTRUCTIONS": "ਡਿਵਾਈਸ ਨੂੰ ਤੁਹਾਡੇ ਸਥਾਨਕ ਸਮੇਂ ਦੀ ਪੁਸ਼ਟੀ ਕਰਨ ਦੀ ਲੋੜ ਹੈ। ਕਿਰਪਾ ਕਰਕੇ ਕਿਸੇ ਵਿਸ਼ਵਾਸਯੋਗ ਸਾਧਨ ਤੋਂ ਆਪਣੀ ਮਿਤੀ ਅਤੇ ਸਮਾਂ ਦਰਜ ਕਰੋ।",
        "LOW_BATTERY": "ਚਿਤਾਵਨੀ: ਬੈਟਰੀ ਦਾ ਪੱਧਰ ਨੀਵਾਂ ਹੈ। ਕਿਰਪਾ ਕਰਕੇ ਰੀਚਾਰਜ ਕਰਨ ਲਈ ਡਿਵਾਈਸ ਦਾ ਪਲੱਗ ਲਗਾਓ।",
        "CRITICAL_BATTERY": "ਚਿਤਾਵਨੀ: ਬੈਟਰੀ ਦਾ ਪੱਧਰ ਬਹੁਤ ਜ਼ਿਆਦਾ ਨੀਵਾਂ ਹੈ। ਤਾਂ ਕਿਰਪਾ ਕਰਕੇ ਡਿਵਾਈਸ ਨੂੰ ਰੀਚਾਰਜ ਕਰਨ ਲਈ ਪਲੱਗ ਕਰੋ, ਨਹੀਂ ਤਾਂ ਇਹ ਬੰਦ ਹੋ ਜਾਵੇਗਾ।",
        "SITE_ADMINISTRATOR": "ਸਾਈਟ ਪ੍ਰਬੰਧਕ",
        "TIME_CONFIRMATION_HEADER": "ਮਿਤੀ/ਸਮੇਂ ਦੀ ਪੁਸ਼ਟੀ ਕਰੋ",
        "TIMESLIP_ERROR": "ਤੁਹਾਡੇ ਡਿਵਾਈਸ 'ਤੇ ਸਮਾਂ ਜਾਂ ਮਿਤੀ ਅਵੈਧ ਹੈ। ਕਿਰਪਾ ਕਰਕੇ ਕਿਸੇ ਇੰਟਰਨੈਟ ਕਨੈਕਟਿਵਿਟੀ ਵਾਲੇ ਸਥਾਨ 'ਤੇ ਲਿਜਾਓ ਅਤੇ ਦੁਬਾਰਾ ਕੋਸ਼ਿਸ਼ ਕਰੋ। ਜੇਕਰ ਤੁਹਾਨੂੰ ਕਠਨਾਈ ਆਉਣੀ ਜਾਰੀ ਰਹਿੰਦੀ ਹੈ, ਤਾਂ ERT ਗਾਹਕ ਦੇਖਭਾਲ ਨਾਲ ਸੰਪਰਕ ਕਰੋ।",
        "P_AFFIDAVIT_HEADER": "<div><strong>ਸਾਈਟ: {{{ getSiteCodeForSubject }}}</strong><br /><strong>ਮਰੀਜ਼ ID: {{{ getParticipantCodeForSubject }}}</strong></div>",
        "RESTART_NOTIFICATION_HEADER": "ਮੁੜ-ਚਾਲੂ ਕਰਨ ਦੀ ਲੋੜ ਹੈ",
        "RESTART_NOTIFICATION_MSG": "ਸਮਾਂ-ਖੇਤਰ ਬਦਲ ਦਿਤਾ ਗਿਆ ਹੈ। ਐਪਲੀਕੇਸ਼ਨ {{{ timeZoneChangeRestartCountdown }}} ਵਿੱਚ ਮੁੜ ਚਾਲੂ ਹੋਵੇਗੀ।",
        "RESTART_NOW": "ਮੁੜ ਸ਼ੁਰੂ ਕਰੋ",
        "SECONDS": "ਸੈਕੰਡ",
        "MINUTES": "ਮਿਨਟ",
        "SELECT_LANGUAGE": "ਕਿਰਪਾ ਕਰਕੇ ਭਾਗੀਦਾਰੀ ਲਈ ਇੱਕ ਤਰਜੀਹੀ ਭਾਸ਼ਾ ਚੁਣੋ।",
        "ACCEPT": "ਮਨਜ਼ੂਰ ਹੈ",
        "DECLINE": "ਮਨਜ਼ੂਰ ਨਹੀਂ",
        "EULA": "ਅੰਤਿਮ ਵਰਤੋਂਕਾਰ ਲਾਈਸੈਂਸ",
        "EULA_TEXT": "<p><strong><span class=\"text-underline\">ਜ਼ਰੂਰੀ</span>:  ਇਸ ਅਗ਼੍ਰੀਮੈਂਟ ਨੂੰ ਪੜ੍ਹੇ ਬਗ਼ੈਰ ਮਨਜ਼ੂਰ ਬਟਨ ਤੇ ਕਲਿਕ ਨਾ ਕਰਿਓ।  ਮਨਜ਼ੂਰ ਬਟਨ ਤੇ ਕਲਿਕ ਕਰਨ ਨਾਲ, ਤੁਸੀਂ ਇਸ ਅਗਰੀਮੈਂਟ ਦੀ ਸਾਰੀਆਂ ਸ਼ਰਤਾਂ ਲਈ ਮਨਜ਼ੂਰੀ ਜਤਾਉਂਦੇ ਹੋ।  ਜੇਕਰ ਇਸ ਅਗ੍ਰੀਮੈਂਟ ਦੀਆਂ ਸਾਰੀਆਂ ਸ਼ਰਤਾਂ ਤੁਸੀ ਮਨਜ਼ੂਰ ਨਹੀਂ ਕਰਦੇ (1) ਤੇ \"ਮਨਜ਼ੂਰ ਹੈ\" ਬਟਨ ਤੇ ਕਲਿਕ ਨਾ ਕਰਨਾ, (2) \"ਮਨਜ਼ੂਰ ਨਹੀਂ\" ਬਟਨ ਤੇ ਕਲਿਕ ਕਰਕੇ ਇੰਸਟਾੱਲੇਸ਼ਨ ਅਤੇ ਲਾਈਸੈਂਸਿੰਗ ਕ੍ਰਿਆ ਨੂੰ ਰਦ ਕਰੋ।</strong></p><p>eResearchTechnology, Inc. (\"ਲਾਈਸੈਂਸਰ\") ਤੁਹਾਨੂੰ eResearchTechnology, Inc. ਸਾੱਫਟਵੇਅਰ ਨੂੰ ਇਸਤੇਮਾਲ ਕਰਨ ਦਾ ਇਕ ਗ਼ੈਰ ਵਿਸ਼ੇਸ਼, ਗ਼ੈਰ ਤਬਾਦਲਾਯੋਗ ਹੱਕ ਦਿੰਦੀ ਹੈ ਜੋ ਇਸ ਡਿਵਾਈਸ (\"ਸਾੱਫਟਵੇਅਰ\") ਤੇ ਮੌਜੂਦ ਹੈ ਅਤੇ ਜੋ ਕਲੀਨਿਕਲ ਪਰੀਖਿਆ ਅਗ੍ਰੀਮੈਂਟ ਵਿਚ ਤੁਹਾਡੀ ਭਾਗੀਦਾਰੀ ਨਾਲ ਸੰਬੰਧਤ ਹੈ: <strong>{{{ clinicalTrial }}}</strong>.  eResearchTechnology, Inc. ਸਾੱਫਟਵੇਅਰ ਜਾਰੀ ਕੀਤੇ ਗਏ ਪੇਟੈਂਟ ਅਤੇ ਰਹਿੰਦੇ ਪੇਟੈਂਟ ਨਾਲ ਕਵਰਡ ਨੇ।  ਇਹ ਅਗ੍ਰੀਮੈਂਟ ਕਿਸੀ ਵੀ ਸਾੱਫਟਵੇਅਰ (ਜਾਂ ਉਸ ਦੀ ਹੋਰ ਨਕਲਾਂ) ਵਿੱਚ ਤੁਹਾਡੇ ਮਾਲਿਕ ਹੋਣ ਦੇ ਕਿਸੀ ਵੀ ਪ੍ਰਕਾਰ ਦਾ ਹੱਕ ਜ਼ਾਹਰ ਨਹੀਂ ਕਰਦੀ, ਪਰ ਇਹ ਤੁਹਾਨੂੰ ਅਗ੍ਰੀਮੈਂਟ ਦੀਆਂ ਸ਼ਰਤਾਂ ਦੇ ਤਹਿਤ ਇਸ ਸਾੱਫਟਵੇਅਰ ਨੂੰ ਇਸਤੇਮਾਲ ਕਰਨ ਦਾ ਲਾਈਸੈਂਸ ਦਿੰਦੀ ਹੈ।  ਸਾੱਫਟਵੇਅਰ ਦਾ ਟਾਈਟਲ ਅਤੇ ਉਸ ਦੇ ਸਾਰੇ ਭਾਗ, ਅਤੇ ਸਾਰੀਆਂ ਮਲਕੀਅਤ ਅਤੇ ਬੌਧਿਕ ਹੱਕ, ਹਰ ਸਮੇ ਲਾਈਸੈਂਸਰ ਦੇ ਹੱਕ ਵਿੱਚ ਰਹਿਣੇ ਚਾਹੀਦੇ ਹਨ।</p><p>ਤੁਸੀਂ ਸਿੱਧੇ ਯਾ ਹੋਰ ਤਰੀਕੇ ਨਾਲ ਇਹ ਸਭ ਨਾ ਕਰਨ ਵਿੱਚ ਰਜ਼ਾਮੰਦੀ ਦਿੰਦੇ ਹੋ, (i) ਸਾੱਫਟਵੇਅਰ ਨੂੰ ਰਿਵਰਸ ਇੰਜੀਨਿਅਰ, ਤੋੜਨਾ ਯਾ ਡੀਕੰਪਾਈਲ ਕਰਨਾ; (ii) ਸਾੱਫਟਵੇਅਰ ਦੀ ਨਕਲ ਕਰਨਾ, ਵੰਡਣਾ, ਬਣਾਉਣਾ, ਬਦਲੀ ਕਰਨਾ, ਉਸ ਦੇ ਅਦਾਰ ਤੇ ਹੋਰ ਚੀਜ਼ਾ ਬਣਾਉਣੀਆਂ, ਅਨੁਵਾਦ ਕਰਨਾ, ਸਥਾਨਿਤ ਕਰਨਾ, ਪੋਰਟ ਕਰਨਾ, ਯਾ ਉਸਦੇ ਵਿੱਚ ਸੋਧ ਕਰਨਾ; ਯਾ (iii) ਕਿਸੀ ਵੀ ਕਾੱਪੀਰਾਈਟ ਨੂੰ ਹਟਾਉਣਾ ਯਾ ਤਬਦੀਲ ਕਰਨਾ,ਸਾੱਫਟਵੇਅਰ ਦੇ ਵਿੱਚ ਯਾ ਉਸ ਦੇ ਉਪਰ ਮੌਜੂਦ ਗੁਪਤ ਯਾ ਕਿਸੀ ਹੋਰ ਕਾਨੂੰਨੀ ਨੋਟਿਸ ਦਾ ਸੌਦਾ ਕਰਨਾ।  ਤੁਸੀਂ ਇਹ ਕਬੂਲ ਕਰਦੇ ਹੋ ਕਿ ਸਾੱਫਟਵੇਅਰ ਵਿੱਚ ਇਕ ਇਹੋ ਜਿਹਾ ਕੋਡ ਪਾਇਆ ਹੋਇਆ ਹੈ ਜਿਸ ਨਾਲ ਸਾੱਫਟਵੇਅਰ ਦੇ ਅਣਅਧਿਕਾਰਤ ਇਸਤੇਮਾਲ ਨੂੰ ਰੋਕਿਆ ਜਾ ਸਕਦਾ ਹੈ।</p><br><p>ਜੇ ਤੁਸੀਂ ਇਹ ਸਭ ਮੰਜ਼ੂਰ ਕਰਦੇ ਹੋ ਤਾਂ, ਕਿਰਪਾ ਕਰਕੇ ਚੁਣੋ - <strong>ਮੰਜ਼ੂਰ ਹੈ</strong> - \"ਮੰਜ਼ੂਰ ਹੈ\" ਤੇ ਕਲਿਕ ਕਰਨ ਨਾਲ ਤੁਹਾਡੀ ਲਾਈਸੈਂਸ ਦੀਆਂ ਸ਼ਰਤਾਂ ਲਈ ਰਜ਼ਾਮੰਦੀ ਦਾ ਪਤਾ ਲਗਦਾ ਹੈ।</p><p>ਜੇਕਰ ਤੁਹਾਨੂੰ ਇਹ ਸਭ ਮੰਜ਼ੂਰ ਨਹੀਂ ਹੈ, ਜਾਂ ਤੁਹਾਨੂੰ ਮੰਜ਼ੂਰੀ ਦੇਣ ਦਾ ਅਧਿਕਾਰ ਨਹੀਂ ਹੈ, ਤੇ ਚੁਣੋ - <strong>ਮੰਜ਼ੂਰ ਨਹੀਂ</strong> - ਜਿਸਦੇ ਨਾਲ, ਸਾੱਫਟਵੇਅਰ ਨਾਲ ਸੰਪਰਕ ਰੋਕ ਦਿਤਾ ਜਾਏਗਾ।  ਜੇਕਰ ਤੁਹਾਨੂੰ ਅਧਿਕਾਰ ਹੋਵੇ, ਤਾਂ ਤੁਸੀਂ ਕੀ ਹੋਰ ਵੇਲੇ ਮੰਜ਼ੂਰੀ ਦੇ ਸਕਦੇ ਹੋ।</p>",
        "HAND_DEVICE_SITE_TITLE": "ਸਾਈਟ ਵਰਤੋਂਕਾਰ ਨੂੰ ਡਿਵਾਈਸ ਦਿਓ",
        "HAND_DEVICE_SITE_BODY": "ਕਿਰਪਾ ਕਰਕੇ ਸਾਈਟ ਵਰਤੋਂਕਾਰ ਨੂੰ ਡਿਵਾਈਸ ਦਿਓ।",
        "SQ-AL": "ਐਲਬੇਨਿਆਈ",
        "IMAGE_FOLDER": "{{{ imageFolder }}}",
        "MODAL_OK_TEXT": "ਠੀਕ",
        "BROWSER_LOAD_ERROR": "ਸਫਾ ਨਹੀਂ ਮਿਲਿਆ। ਕਿਰਪਾ ਕਰਕੇ ਆਪਣੀ ਇੰਟਰਨੈਟ ਕਨੈਕਸ਼ਨ ਦੀ ਜਾਂਚ ਕਰਕੇ ਦੁਬਾਰਾ ਕੋਸ਼ਿਸ਼ ਕਰੋ।",
		"NONEXISTENT_USER" : "ਵਰਤੋਂਕਾਰ ਉਪਲਬਧ ਨਹੀਂ ਹੈ।",
		"NO_USER_OF_ROLE" : "ਇਸ ਕਿਰਦਾਰ ਵਾਲਾ ਕੋਈ ਵੀ ਵਰਤੋਂਕਾਰ ਨਹੀਂ ਮਿਲਿਆ l",
		"START_VISIT_OUTSIDE_WINDOW_MSG": "{{{ getVisitName }}} ਨੂੰ ਬਣਾਏ ਗਏ ਸਮੇ ਸੀਮਾ ਦੇ ਬਾਹਰ ਦਰਜ ਕਰੋ: {{{ startDate }}} - {{{ endDate }}}",
		"START_VISIT_HARD_STOP_MSG" : "ਤੁਸੀਂ {{{ getVisitName }}} ਨੂੰ ਬਣਾਏ ਗਏ ਸਮੇ ਸੀਮਾ ਦੇ ਬਾਹਰ ਨਹੀਂ ਦਰਜ ਕਰ ਸਕਦੇ: {{{ startDate }}} - {{{ endDate }}}",
		"YES" : "ਹਾਂ",
		"NO" : "ਨਹੀਂ"
    },
    "dates": {
        "setDateButtonLabel": "ਠੀਕ",
        "setTimeButtonLabel": "ਠੀਕ",
        "setDurationButtonLabel": "ਮਿਆਦ ਸੈੱਟ ਕਰੋ",
        "calTodayButtonLabel": "ਅੱਜ 'ਤੇ ਜਾਓ",
        "titleDateDialogLabel": "ਮਿਤੀ ਸੈੱਟ ਕਰੋ",
        "titleTimeDialogLabel": "ਸਮਾਂ ਸੈੱਟ ਕਰੋ",
        "daysOfWeek": [
            "ਐਤਵਾਰ",
            "ਸੋਮਵਾਰ",
            "ਮੰਗਲਵਾਰ",
            "ਬੁੱਧਵਾਰ",
            "ਵੀਰਵਾਰ",
            "ਸ਼ੁੱਕਰਵਾਰ",
            "ਸ਼ਨੀਵਾਰ"
        ],
        "daysOfWeekShort": [
            "ਐਤ",
            "ਸੋਮ",
            "ਮੰਗਲ",
            "ਬੁੱਧ",
            "ਵੀਰ",
            "ਸ਼ੁਕਰ",
            "ਸ਼ਨੀ"
        ],
        "monthsOfYear": [
            "ਜਨਵਰੀ",
            "ਫਰਵਰੀ",
            "ਮਾਰਚ",
            "ਅਪ੍ਰੈਲ",
            "ਮਈ",
            "ਜੂਨ",
            "ਜੁਲਾਈ",
            "ਅਗਸਤ",
            "ਸਤੰਬਰ",
            "ਅਕਤੂਬਰ",
            "ਨਵੰਬਰ",
            "ਦਸੰਬਰ"
        ],
        "monthsOfYearShort": [
            "ਜਨ",
            "ਫਰ",
            "ਮਾਰ",
            "ਅਪ੍ਰੈ",
            "ਮਈ",
            "ਜੂਨ",
            "ਜੁਲਾ",
            "ਅਗ",
            "ਸਤੰ",
            "ਅਕ",
            "ਨਵੰ",
            "ਦਸੰ"
        ],
        "durationLabel": [
            "ਦਿਨ",
            "ਘੰਟੇ",
            "ਮਿਨਟ \"ਸੈਕੰਡ"
        ],
        "durationDays": [
            "ਦਿਨ",
            "ਦਿਨ"
        ],
        "tooltip": "ਖੁੱਲ੍ਹੀ ਮਿਤੀ ਪਿੱਕਰ",
        "nextMonth": "ਅਗਲਾ ਮਹੀਨਾ",
        "prevMonth": "ਪਿਛਲਾ ਮਹੀਨਾ",
        "clearButton": "ਸਾਫ਼ ਕਰੋ",
        "meridiem": [
            "ਸਵੇਰ",
            "ਸ਼ਾਮ"
        ]
    }
}
