{
    "namespace": "CORE",
    "language": "nl",
    "locale": "BE",
    "localized": "Nederlands (België)",
    "direction": "ltr",
    "resources": {
        "ABOUT": "Info",
        "ACTIVATED_ELSEWHERE": "Een ander apparaat werd geactiveerd voor het verzamelen van uw onderzoeksgegevens. Neem contact op met uw onderzoekscoördinator als u denkt dat dit fout is.",
        "ACTIVATION_CODE": "Installatiecode:",
        "AFFIDAVIT": "Selecteer OK en dan Volgende als u klaar bent om uw antwoorden op te slaan.",
        "AFFIDAVIT_HELP": "Hartelijk dank. U hebt alle vereiste antwoorden gegeven. Selecteer Terug om uw antwoorden te controleren en te wijzigen.",
        "ANSWER_ATTEMPT_EXCEEDED": "U hebt te vaak een onjuist antwoord ingevoerd of de snelkoppeling 'Beveiligingsantwoord vergeten' aangeklikt.",
        "APPLICATION_HEADER": "{{{ appHeader }}}",
        "BACK": "Terug",
        "BACK_OUT_CONFIRM": "Weet u zeker dat u wilt afsluiten? De antwoorden voor dit formulier gaan verloren.",
        "CANCEL": "Annuleren",
        "CANCEL_UPDATE": "Update annuleren",
        "CHANGE_PASSWORD": "Wachtwoord wijzigen",
        "CHANGE_SECRET_QUESTION": "Beveiligingsvraag wijzigen",
        "CODE_ENTRY_NO_SERVER": "Server niet beschikbaar",
        "CONNECTION_REQUIRED": "Er is een internetverbinding vereist.",
        "CONNECTION_TIMEOUT": "Time-out verbinding.",
        "CONFIRM_PASSWORD": "Wachtwoord bevestigen:",
        "CONTACT_STUDY_COORDINATOR": "Contact opnemen met de onderzoekscoördinator",
        "CONTACT_UNLOCK_CODE": "Neem contact op met uw onderzoekscoördinator voor de ontgrendelingscode van vandaag:",
        "CORE_PRODUCT_VERSION_LABEL": "Productversie:",
        "CURRENT_DATE": "{{{ currentDate }}}",
        "CURRENT_PASSWORD": "Huidig wachtwoord:",
        "DATE_LBL": "Datum:",
        "DEACTIVATED_LABEL": "Uw gebruik van ERT voor dit onderzoek is beëindigd. Neem contact op met uw onderzoekscoördinator als dit onjuist is.",
        "DEVICE_ACTIVATION": "Installatie",
        "DEVICE_NOT_SUPPORTED": "Dit apparaat wordt niet ondersteund. Neem contact op met uw onderzoekscoördinator voor informatie over apparaten die zijn goedgekeurd voor gebruik in dit onderzoek.",
        "DEVICE_REACTIVATION": "Apparaatinstelling",
        "DIARY_TIMEOUT": "Er is een time-out opgetreden in dit formulier.",
        "DOWNLOAD_FAILED": "Het downloaden van de app is onderbroken. Probeer het opnieuw wanneer u verbonden bent met internet of neem contact op met het ondersteuningscentrum van ERT.",
        "DOWNLOAD_FAILURE": "Download onderbroken",
        "ENTER_NEW_PASSWORD": "Nieuw wachtwoord:",
        "ERROR": "Fout.  Neem contact op met het ondersteuningscentrum van ERT.",
        "ERROR_AFTER_ACTIVATION_SUCCESSFUL": "Er is een fout opgetreden. U moet uw instellingscode en wachtwoord invoeren.",
        "ERROR_CODE": "Foutcode:",
        "ERROR_TITLE": "Fout",
        "FORGOT_PASSWORD": "Wachtwoord vergeten?",
        "FORGOT_SECRET_ANSWER": "Beveiligingsantwoord vergeten?",
        "INCORRECT_ANSWER": "Antwoord onjuist",
        "INCORRECT_UNLOCK_CODE": "Onjuiste ontgrendelingscode",
        "INSTALLING": "App wordt geïnstalleerd",
        "INVALID_CODE": "Ongeldige instellingscode",
        "LOCAL_STORAGE_FAILURE": "Fout lokale opslag",
        "LOG_IN": "Aanmelden",
        "LOG_LEVEL": "Niveau logboekregistratie:",
        "LOGOUT": "Afmelden",
        "LOGOUT_CONFIRM": "Bent u zeker dat u wilt afmelden?",
        "NEXT": "Volgende",
        "NEXT_ACTION": " Het is tijd voor uw volgende actie in ERT ",
        "NO_DIARIES_TITLE": "Geen in te voeren verslagen",
        "OK": "OK",
        "PASSWORD": "Wachtwoord:",
        "PASSWORD_ATTEMPT_EXCEEDED": "U hebt te vaak een onjuist wachtwoord ingevoerd of de snelkoppeling 'wachtwoord vergeten' aangeklikt.",
        "PASSWORD_CHANGE_FAILED": "Een ander apparaat werd geactiveerd voor het verzamelen van uw onderzoeksgegevens. Wijzig uw wachtwoord voor dat apparaat.",
        "PASSWORD_CHANGE_SUCCESS": "Uw wachtwoord is bijgewerkt.",
        "PASSWORD_INVALID": "Wachtwoord onjuist",
        "PLEASE_ANSWER_SQ": "Beantwoord uw beveiligingsvraag:",
        "PLEASE_CONFIRM": "Bevestigen, a.u.b.",
        "PLEASE_CONTACT": "Neem contact op met het ondersteuningscentrum van ERT.",
        "PLEASE_TRY_OR_CONTACT_SUPPORT": "Probeer het opnieuw of neem contact op met het ondersteuningscentrum van ERT.",
        "PLEASE_WAIT": "Een ogenblik geduld...",
        "PORTRAIT_ONLY": "Houd uw apparaat rechtop.",
        "PRIVATE_BROWSING_ON": "Schakel privé bladeren uit. Neem contact op met uw onderzoekscoördinator als de problemen zich blijven voordoen.",
        "PRIVACY_POLICY": "Privacybeleid",
        "PRIVACY_POLICY_APPLICATION_UNAVAILABILITY": "Het privacybeleid van ERT is tijdelijk niet beschikbaar.",
        "PRIVACY_POLICY_ACTIVATION_UNAVAILABILITY": "Het privacybeleid van ERT is tijdelijk niet beschikbaar. Het privacybeleid van ERT is na activering beschikbaar via de instellingenpagina.",
        "PROTOCOL": "Protocol:",
        "REQUIRED_ANSWER": "Antwoorden",
        "RETRY": "Probeer het opnieuw",
        "RESET_PASSWORD": "Wachtwoord opnieuw instellen",
        "RESET_SECRET_QUESTION": "Beveiligingsvraag opnieuw instellen",
        "SECRET_ANSWER": "Beveiligingsantwoord:",
        "SECRET_QUESTION": "Beveiligingsvraag:",
        "SECRET_QUESTION_CHANGE_FAILED": "Een ander apparaat werd geactiveerd voor het verzamelen van uw onderzoeksgegevens. Wijzig uw beveiligingsvraag voor dat apparaat.",
        "SECRET_QUESTION_CHANGE_SUCCESS": "Uw wachtwoord en uw beveiligingsvraag zijn bijgewerkt.",
        "SETTINGS": "Instellingen",
        "SITE": "Centrum:",
        "SKIP_QUESTION": "Weet u zeker dat u de antwoorden op dit scherm wilt overslaan?",
        "SPONSOR": "Sponsor:",
        "STORED_REPORTS": "Opgeslagen formulieren:",
        "STUDY_VERSION": "Onderzoeksversie: ",
        "STUDY_URL": "Onderzoeks-URL:",
        "SUBJECT_ID": "Code patiënt:",
        "TEMPORARY_UNLOCK_CODE": "Voer de van de onderzoekscoördinator ontvangen ontgrendelingscode in.",
        "TRANSMIT_REPORTS": "Bijwerken",
        "UPDATE_CACHED_DELETED": "De ERT-update is niet voltooid. U hebt een internetverbinding nodig voor het gebruik van de ERT. Neem contact op met het ondersteuningscentrum van ERT.",
        "UPDATE_FAILED": "De ERT-update is niet voltooid. Controleer of het apparaat verbonden is met internet en probeer het opnieuw.",
        "UPDATE_FAILURE": "Update niet geslaagd",
        "UPDATE_SUCCESS": "Update geslaagd",
        "WELCOME": "Welkom",
        "ALARM_OFF_LBL": "Uit",
        "ALARM_TURN_OFF": "Uitschakelen",
        "SET_ALARMS": "Alarmen instellen",
        "SCHED_NO_DIARIES_AVAILABLE": "Op dit moment worden geen verslagen verwacht",
        "TRAINER": "Trainermodus",
        "TRAINER_EXIT": "Trainermodus afsluiten",
        "TRAINER_EXIT_NOTIFICATION": "U verlaat nu de Trainermodus",
        "TRAINER_HEADER": "(Trainer)",
        "ELPU_FAILURE": "Uw gebruik van dit ERT apparaat is beëindigd. Er is echter een fout opgetreden. Probeer opnieuw.",
        "ELPU_ON_REPLACED_DEVICE": "Uw gebruik van dit ERT apparaat is beëindigd. Gebruik in plaats daarvan uw vervangingsapparaat.",
        "SECURITY_QUESTION_0": "Wat is de meisjesnaam van uw moeder?",
        "SECURITY_QUESTION_1": "In welke plaats bent u geboren?",
        "SECURITY_QUESTION_2": "Wat is de naam van uw eerste huisdier?",
        "SECURITY_QUESTION_3": "Wat is uw favoriete sport?",
        "SECURITY_QUESTION_4": "In welk jaar bent u afgestudeerd?",
        "SECURITY_QUESTION_5": "Wat is de tweede naam van uw oudste kind?",
        "SECURITY_QUESTION_6": "Wat is de naam van uw beste vriend(in) uit uw kindertijd?",
        "SECURITY_QUESTION_7": "Wat was de achternaam van uw leraar in het derde jaar?",
        "SECURITY_QUESTION_8": "In welke stad hebt u voor het eerst gewerkt?",
        "SELECT_SITE_USER": "Selecteer gebruikersnaam centrum",
        "SITE_USER_NAME": "Gebruikersnaam centrum:",
        "ADD_SITE_USER": "Voeg een centrumgebruiker toe",
        "INVALID_ENTRY": "Ongeldige invoer",
        "HANDOFF_MESSAGE": "<strong>De patiënt moet de volgende reeks schermen invullen om zijn/haar toegangscode voor het formulier in te stellen.</strong>",
        "REVERSE_HANDOFF_CONFIRM": "Als u OK selecteert, wordt het activeringsproces opnieuw gestart. Weet u zeker dat u de activering opnieuw wilt starten?",
        "SITE_GATEWAY_TITLE": "Gateway centrum",
        "USER_ALREADY_EXISTS": "Gebruiker bestaat al",
        "SITE_SIGNATURE": "Handtekening van: ",
        "SITE_REPORT_AFF": "Voorgaande gegevens zijn ingevoerd, gecontroleerd en hierbij bevestigd.<br /><br /><strong>Handtekening van:</strong> {{{ getActiveUserName }}}",
        "PATIENT_REPORT_AFF": "Voorgaande gegevens zijn ingevoerd, gecontroleerd en hierbij bevestigd.<br /><br /><strong>Initialen van:</strong> {{{ getActiveUserName }}}",
        "CLEAR_SIGNATURE": "Handtekening wissen",
        "STUDY_ALIAS": "{{{ studyAlias }}}",
        "SITE_ACTIVATED_ELSEWHERE": "Er is een ander apparaat geactiveerd voor het verzamelen van de onderzoeksgegevens van de patiënt. Neem contact op met de onderzoekscoördinator als u denkt dat dit een fout is.",
        "SITE_DEACTIVATED_LABEL": "Het gebruik van de ERT voor dit onderzoek is beëindigd. Neem contact op met de onderzoekscoördinator als dit onjuist is.",
        "SIGNATURE_DATA_LIMIT_EXCEEDED": "In het handtekeningvak kan uw handtekening niet precies worden weergegeven. Onderteken in plaats daarvan met uw initialen.",
        "PAIRED": "Gekoppeld",
        "BLUETOOTH_REG_TITLE": "eSense-apparaat koppelen",
        "BLUETOOTH_REG_REFRESH_BUTTON": "Lijst vernieuwen",
        "BLUETOOTH_PAIR_DEVICE": "Geselecteerd apparaat koppelen",
        "BLUETOOTH_PAIRING_FAILED": "Het koppelen met het geselecteerde apparaat is mislukt. Probeer nogmaals.",
        "BLUETOOTH_PAIRING_SUCCESS": "Het koppelen met het geselecteerde apparaat is gelukt.",
        "BLUETOOTH_REG_NO_DEVICES_FOUND": "Geen apparaten gevonden. Controleer of het apparaat dicht bij de ERT is en in verzendmodus is.",
        "SYNC_FAILED": "Synchronisatie met de server is mislukt.",
        "DIARY_REQUIRES_E_SENSE_SUPPORT": "eSense wordt niet ondersteund. Dit formulier vereist eSense-ondersteuning.",
        "ERROR_E_SENSE_ENABLE": "eSense kan niet worden ingeschakeld.",
        "E_SENSE_NOT_PAIRED": "Er is geen eSense-apparaat gekoppeld. Dit formulier vereist een gekoppeld eSense-apparaat.",
        "BLUETOOTH_SYNC_FAILURE_TOP": "De ERT kan niet communiceren met het {{{ eSenseDeviceName }}}-apparaat.",
        "BLUETOOTH_SYNC_FAILURE_MIDDLE": "Controleer of het {{{ eSenseDeviceName }}}-apparaat met nummer {{{ eSenseSerialNumber }}} dicht bij de ERT is en in verzendmodus is.",
        "PLUGIN_MISSING": "De vereiste invoegtoepassing kan niet worden geladen.",
        "WRAPPER_VERSION": "Wrapper-versie:",
        "SUPPORT": "Klantondersteuning",
        "SUPPORT_MESSAGE": "Gebruikers in de Verenigde Staten kunnen het ondersteuningscentrum van ERT bereiken op 800-748-5669. Internationale gebruikers worden verzocht het dichtstbijgelegen land te selecteren:",
        "SUPPORT_DROPDOWN": "Selecteer uw land",
        "SUPPORT_NAME_ARGENTINA": "Argentinië",
        "SUPPORT_NUMBER_ARGENTINA": "<bdi>0800 444 0962</bdi>",
        "SUPPORT_NAME_ARMENIA": "Armenië",
        "SUPPORT_NUMBER_ARMENIA": "<bdi>+1 617 681 6306</bdi>",
        "SUPPORT_NAME_AUSTRALIA": "Australië",
        "SUPPORT_NUMBER_AUSTRALIA": "<bdi>1 800 800 051</bdi>",
        "SUPPORT_NAME_AUSTRIA": "Oostenrijk",
        "SUPPORT_NUMBER_AUSTRIA": "<bdi>0800 100 405</bdi>",
        "SUPPORT_NAME_BELARUS": "Wit-Rusland",
        "SUPPORT_NUMBER_BELARUS": "<bdi>8 820 0321 0036</bdi>",
        "SUPPORT_NAME_BELGIUM": "België",
        "SUPPORT_NUMBER_BELGIUM_1": "(Engels): <bdi>0800 58 016</bdi>",
        "SUPPORT_NUMBER_BELGIUM_2": "(Frans): <bdi>0800 71 076</bdi>",
        "SUPPORT_NUMBER_BELGIUM_3": "(Duits): <bdi>0800 71 113</bdi>",
        "SUPPORT_NAME_BRAZIL": "Brazilië",
        "SUPPORT_NUMBER_BRAZIL": "<bdi>0800 891 5909</bdi>",
        "SUPPORT_NAME_BOSNIA": "Bosnië",
        "SUPPORT_NUMBER_BOSNIA": "<bdi>+1 617 681 6306</bdi>",
        "SUPPORT_NAME_BULGARIA": "Bulgarije",
        "SUPPORT_NUMBER_BULGARIA": "<bdi>00800 0010</bdi>, dan <bdi>866 245 4931</bdi>",
        "SUPPORT_NAME_CANADA": "Canada",
        "SUPPORT_NUMBER_CANADA": "<bdi>1 800 748 5669</bdi>",
        "SUPPORT_NAME_CHILE": "Chili",
        "SUPPORT_NUMBER_CHILE": "<bdi>123 0020 3408</bdi>",
        "SUPPORT_NAME_CHINA": "China",
        "SUPPORT_NUMBER_CHINA_1": "NetCom (Noorden): <bdi>1 0800 74 40 164</bdi>",
        "SUPPORT_NUMBER_CHINA_2": "Telecom (Zuiden): <bdi>1 0800 44 00 158</bdi>",
        "SUPPORT_NAME_COLOMBIA": "Colombia",
        "SUPPORT_NUMBER_COLOMBIA": "<bdi>01 800 911 0010</bdi>, dan <bdi>866 310 3707</bdi>",
        "SUPPORT_NAME_COSTA_RICA": "Costa Rica",
        "SUPPORT_NUMBER_COSTA_RICA": "<bdi>0800 013 1210</bdi>",
        "SUPPORT_NAME_CROATIA": "Kroatië",
        "SUPPORT_NUMBER_CROATIA": "<bdi>0800 222 953</bdi>",
        "SUPPORT_NAME_CZECH_REPUBLIC": "Tsjechische Republiek",
        "SUPPORT_NUMBER_CZECH_REPUBLIC": "<bdi>800 142 150</bdi>",
        "SUPPORT_NAME_DENMARK": "Denemarken",
        "SUPPORT_NUMBER_DENMARK": "<bdi>80 60 00 09</bdi>",
        "SUPPORT_NAME_EGYPT": "Egypte",
        "SUPPORT_NUMBER_EGYPT": "<bdi>02 510 0200</bdi>, dan <bdi>866 310 3707</bdi>",
        "SUPPORT_NAME_EL_SALVADOR": "El Salvador",
        "SUPPORT_NUMBER_EL_SALVADOR": "<bdi>+1 617 681 6306</bdi>",
        "SUPPORT_NAME_ESTONIA": "Estland",
        "SUPPORT_NUMBER_ESTONIA": "<bdi>800 00 44 154</bdi>",
        "SUPPORT_NAME_FINLAND": "Finland",
        "SUPPORT_NUMBER_FINLAND": "<bdi>0800 11 6366</bdi>",
        "SUPPORT_NAME_FRANCE": "Frankrijk",
        "SUPPORT_NUMBER_FRANCE": "<bdi>0800 10 19 79</bdi>",
        "SUPPORT_NAME_GERMANY": "Duitsland",
        "SUPPORT_NUMBER_GERMANY": "<bdi>0800 101 28 21</bdi>",
        "SUPPORT_NAME_GREECE": "Griekenland",
        "SUPPORT_NUMBER_GREECE": "<bdi>00 800 1311</bdi>, dan <bdi>866 310 3707</bdi>",
        "SUPPORT_NAME_GUATEMALA": "Guatemala",
        "SUPPORT_NUMBER_GUATEMALA": "<bdi>1 800 624 0079</bdi>",
        "SUPPORT_NAME_HONG_KONG": "Hongkong",
        "SUPPORT_NUMBER_HONG_KONG": "<bdi>3002 1665</bdi>",
        "SUPPORT_NAME_HUNGARY": "Hongarije",
        "SUPPORT_NUMBER_HUNGARY": "<bdi>06 800 14 571</bdi>",
        "SUPPORT_NAME_ICELAND": "IJsland",
        "SUPPORT_NUMBER_ICELAND": "<bdi>800 8544</bdi>",
        "SUPPORT_NAME_INDIA": "India",
        "SUPPORT_NUMBER_INDIA": "<bdi>000 800 440 1125</bdi>",
        "SUPPORT_NAME_INDONESIA": "Indonesië",
        "SUPPORT_NUMBER_INDONESIA": "<bdi>008 800 330 334</bdi>",
        "SUPPORT_NAME_IRELAND": "Ierland",
        "SUPPORT_NUMBER_IRELAND": "<bdi>1 800 946 700</bdi>",
        "SUPPORT_NAME_ISRAEL": "Israël",
        "SUPPORT_NUMBER_ISRAEL": "<bdi>1 809 470 062</bdi>",
        "SUPPORT_NAME_ITALY": "Italië",
        "SUPPORT_NUMBER_ITALY": "<bdi>800 90 56 37</bdi>",
        "SUPPORT_NAME_JAPAN": "Japan",
        "SUPPORT_NUMBER_JAPAN": "Raadpleeg uw ePRO onderzoeksinformatiehandleiding voor het gratis nummer voor uw onderzoek",
        "SUPPORT_NAME_LATVIA": "Letland",
        "SUPPORT_NUMBER_LATVIA": "<bdi>8000 2151</bdi>",
        "SUPPORT_NAME_LEBANON": "Libanon",
        "SUPPORT_NUMBER_LEBANON": "<bdi>01-426-801</bdi> dan <bdi>866 310 3707</bdi>",
        "SUPPORT_NAME_LITHUANIA": "Litouwen",
        "SUPPORT_NUMBER_LITHUANIA": "<bdi>8800 30207</bdi>",
        "SUPPORT_NAME_MALAYSIA": "Maleisië",
        "SUPPORT_NUMBER_MALAYSIA": "<bdi>1800 80 59 71</bdi>",
        "SUPPORT_NAME_MEXICO": "Mexico",
        "SUPPORT_NUMBER_MEXICO_1": "(Engels): <bdi>001 800 748 5669</bdi> ",
        "SUPPORT_NUMBER_MEXICO_2": "(Spaans): <bdi>001 855 631 6952</bdi>",
        "SUPPORT_NAME_MOLDOVA": "Moldavië",
        "SUPPORT_NUMBER_MOLDOVA": "<bdi>617 681 6306</bdi>",
        "SUPPORT_NAME_NETHERLANDS": "Nederland",
        "SUPPORT_NUMBER_NETHERLANDS": "<bdi>0800 023 1389</bdi>",
        "SUPPORT_NAME_NEW_ZEALAND": "Nieuw-Zeeland",
        "SUPPORT_NUMBER_NEW_ZEALAND": "<bdi>0800 110 178</bdi>",
        "SUPPORT_NAME_NORWAY": "Noorwegen",
        "SUPPORT_NUMBER_NORWAY": "<bdi>800 62 051</bdi>",
        "SUPPORT_NAME_PAKISTAN": "Pakistan",
        "SUPPORT_NUMBER_PAKISTAN": "<bdi>00 800 0100</bdi>, dan <bdi>866 237 9767</bdi>",
        "SUPPORT_NAME_PANAMA": "Panama",
        "SUPPORT_NUMBER_PANAMA": "<bdi>001 800 201 3095</bdi>",
        "SUPPORT_NAME_PERU": "Peru",
        "SUPPORT_NUMBER_PERU": "<bdi>0800 5 0974</bdi>",
        "SUPPORT_NAME_PHILIPPINES": "Filippijnen",
        "SUPPORT_NUMBER_PHILIPPINES": "<bdi>1 800 1116 0651</bdi>",
        "SUPPORT_NAME_POLAND": "Polen",
        "SUPPORT_NUMBER_POLAND": "<bdi>00800 331 1262</bdi>",
        "SUPPORT_NAME_PORTUGAL": "Portugal",
        "SUPPORT_NUMBER_PORTUGAL": "<bdi>800 206 172</bdi>",
        "SUPPORT_NAME_PUERTO_RICO": "Puerto Rico (Amerikaanse territoria)",
        "SUPPORT_NUMBER_PUERTO_RICO": "<bdi>1 800 748 5669</bdi>",
        "SUPPORT_NAME_ROMANIA": "Roemenië",
        "SUPPORT_NUMBER_ROMANIA": "<bdi>0800 894492</bdi>",
        "SUPPORT_NAME_RUSSIA": "Rusland",
        "SUPPORT_NUMBER_RUSSIA_1": "(Primair - gratis): <bdi>8 10 800 249 13011</bdi>",
        "SUPPORT_NUMBER_RUSSIA_2": "(Binnen Moskou): <bdi>363-2400</bdi> <br> dan <bdi>866 310 3707</bdi>",
        "SUPPORT_NUMBER_RUSSIA_3": "(Buiten Moskou): <bdi>8^(495) 363-2400</bdi> <br> dan <bdi>866 310 3707</bdi>",
        "SUPPORT_NUMBER_RUSSIA_4": "(Binnen St. Petersburg): <bdi>363-2400</bdi> <br> dan <bdi>866 310 3707</bdi>",
        "SUPPORT_NUMBER_RUSSIA_5": "(Buiten St. Petersburg): <bdi>8^(495) 363-2400</bdi> <br> dan <bdi>866 310 3707</bdi>",
        "SUPPORT_NAME_SAUDI_ARABIA": "Saoedi-Arabië",
        "SUPPORT_NUMBER_SAUDI_ARABIA": "<bdi>+1 617 681 6306</bdi>",
        "SUPPORT_NAME_SERBIA": "Servië",
        "SUPPORT_NUMBER_SERBIA": "<bdi>+1 617 973 1739</bdi>",
        "SUPPORT_NAME_SINGAPORE": "Singapore",
        "SUPPORT_NUMBER_SINGAPORE": "<bdi>800 616 30 03</bdi>",
        "SUPPORT_NAME_SLOVAKIA": "Slowakije",
        "SUPPORT_NUMBER_SLOVAKIA": "<bdi>0800 0044 65</bdi>",
        "SUPPORT_NAME_SLOVENIA": "Slovenië",
        "SUPPORT_NUMBER_SLOVENIA": "<bdi>+1 617 681 6306</bdi>",
        "SUPPORT_NAME_SOUTH_AFRICA": "Zuid-Afrika",
        "SUPPORT_NUMBER_SOUTH_AFRICA": "<bdi>0800 99 5853</bdi>",
        "SUPPORT_NAME_SOUTH_KOREA": "Zuid-Korea",
        "SUPPORT_NUMBER_SOUTH_KOREA": "<bdi>00308 33 00 08</bdi>",
        "SUPPORT_NAME_SPAIN": "Spanje",
        "SUPPORT_NUMBER_SPAIN": "<bdi>900 90 2541</bdi>",
        "SUPPORT_NAME_SWEDEN": "Zweden",
        "SUPPORT_NUMBER_SWEDEN": "<bdi>020 120 99 69</bdi>",
        "SUPPORT_NAME_SWITZERLAND": "Zwitserland",
        "SUPPORT_NUMBER_SWITZERLAND_1": "(Engels): <bdi>0800 199 325</bdi>",
        "SUPPORT_NUMBER_SWITZERLAND_2": "(Frans): <bdi>0800 891 183</bdi>",
        "SUPPORT_NUMBER_SWITZERLAND_3": "(Duits): <bdi>0800 891 025</bdi>",
        "SUPPORT_NAME_TAIWAN": "Taiwan",
        "SUPPORT_NUMBER_TAIWAN": "<bdi>00801 33 33 42</bdi>",
        "SUPPORT_NAME_THAILAND": "Thailand",
        "SUPPORT_NUMBER_THAILAND": "<bdi>1 800 33 140 353</bdi>",
        "SUPPORT_NAME_TUNISIA": "Tunesië",
        "SUPPORT_NUMBER_TUNISIA": "<bdi>+1 617 681 6306</bdi>",
        "SUPPORT_NAME_TURKEY": "Turkije",
        "SUPPORT_NUMBER_TURKEY": "<bdi>00 800 151 1335</bdi>",
        "SUPPORT_NAME_UKRAINE": "Oekraïne",
        "SUPPORT_NUMBER_UKRAINE": "<bdi>0^00 11</bdi>, dan <bdi>866 245 4931</bdi>",
        "SUPPORT_NAME_UAE": "Verenigde Arabische Emiraten",
        "SUPPORT_NUMBER_UAE": "<bdi>8000-021</bdi>, dan <bdi>866 310 3707</bdi>",
        "SUPPORT_NAME_UK": "Verenigd Koninkrijk",
        "SUPPORT_NUMBER_UK": "<bdi>0800 015 0408</bdi>",
        "SUPPORT_NAME_US": "Verenigde Staten",
        "SUPPORT_NUMBER_US_1": "(Hoofd): <bdi>1 800 748 5669</bdi>",
        "SUPPORT_NUMBER_US_2": "(Backup): <bdi>1 877 748 5669</bdi>",
        "SUPPORT_NAME_VENEZUELA": "Venezuela",
        "SUPPORT_NUMBER_VENEZUELA_1": "(Engels): <bdi>0 800 552 6288</bdi> <br> dan <bdi>866 310 3707</bdi> ",
        "SUPPORT_NUMBER_VENEZUELA_2": "(Spaans): <bdi>0 800 100 3063</bdi> ",
        "USER_NAME": "Gebruikersnaam:",
        "SUBJECT_ROLE": "Code patiënt: {{{ getParticipantCode }}}",
        "SITE_ROLE": "Centrumgebruiker",
        "TEMPORARY_PASSWORD_MESSAGE": "Geef het tijdelijke wachtwoord door aan de nieuwe gebruiker. Deze wordt na het inloggen gevraagd een nieuw wachtwoord aan te maken.",
        "SHARED_PASSWORD_MESSAGE": "Het wachtwoord voor de nieuwe gebruiker moet worden opgehaald van StudyWorks.",
        "TEMP_PASSWORD": "Tijdelijk wachtwoord: ",
        "ROLES": "Rol:",
        "LANGUAGE": "Taal:",
        "FULL_NAME": "Volledige naam:",
        "CONFIRM_TEMP_PASS": "Tijdelijk wachtwoord bevestigen:",
        "PASSWORD_MISMATCH": "Het bevestigde wachtwoord komt niet overeen met het wachtwoord",
        "PASSWORD_INVALID_CHARACTERS": "Gebruik alleen cijfers",
        "USER_NAME_INVALID_CHARACTERS": "Gebruik geen speciale tekens",
        "USER_NAME_MORE_THAN_25": "Gebruik niet meer dan 25 tekens",
        "PRIVACY_POLICY_VERSION_LABEL": "Versie: ",
        "PRIVACY_POLICY_VERSION": "1.6.0",
        "PRIVACY_POLICY_LAST_UPDATED_LABEL": "Laatste keer bijgewerkt: ",
        "PRIVACY_POLICY_LAST_UPDATED": "21 januari 2014",
        "PRIVACY_POLICY_TEXT_LABEL": "Over privacy: ",
        "PRIVACY_POLICY_TEXT": "ERT Corporation levert de software die u nu gaat installeren. ERT werkt samen met uw onderzoekscentrum om ervoor te zorgen dat niemand weet wie u bent zonder dat uw centrum hiertoe de toestemming heeft gegeven. U hebt het recht om uw dossiers in te zien als u dit via uw centrum regelt.",
        "SUBJECT_REPORT_AFF": "Ik verklaar hierbij dat ik alle vragen zo goed mogelijk heb beantwoord.",
        "SUBJECT_INITIALS_LABEL": "Initialen patiënt:",
        "SUBJECT": "Patiënt:",
        "SET_TIMEZONE": "Tijdzone instellen",
        "SET_TIMEZONE_MESSAGE": "Selecteer uw tijdzone:",
        "SET_TIMEZONE_BUTTON": "Instellen",
        "TIME_ZONE_CONFIRM_HEADER": "Bevestigen Tijdzone wijzigen",
        "TIME_ZONE_CONFIRM": "Bent u zeker dat u de Tijdzone wilt wijzigen? De applicatie zal heropstarten om de wijziging door te voeren.",
        "TIME_ZONE_EUROPE_KALININGRAD": "Europa/Kaliningrad",
        "TIME_ZONE_EUROPE_MOSCOW": "Europa/Moskou",
        "TIME_ZONE_ASIA_KARACHI": "Azië/Karachi",
        "TIME_ZONE_ASIA_YEKATERINBURG": "Azië/Yekaterinburg",
        "TIME_ZONE_ASIA_NOVOSIBIRSK": "Azië/Novosibirsk",
        "TIME_ZONE_ASIA_KRASNOYARSK": "Azië/Krasnoyarsk",
        "TIME_ZONE_ASIA_IRKUTSK": "Azië/Irkutsk",
        "TIME_ZONE_ASIA_YAKUTSK": "Azië/Yakutsk",
        "TIME_ZONE_ASIA_VLADIVOSTOK": "Azië/Vladivostok",
        "TIME_ZONE_ASIA_KAMCHATKA": "Azië/Kamchatka",
        "AF-ZA": "Afrikaans",
        "AR-EG": "Arabisch",
        "BE-BY": "Wit-Russisch",
        "BG-BG": "Bulgaars",
        "BN-IN": "Bengaals",
        "BS-BA": "Bosnisch",
        "CA-ES": "Catalaans",
        "CS-CZ": "Tsjechisch",
        "DA-DK": "Deens",
        "DE-DE": "Duits (Duitsland)",
        "DE-AT": "Duits (Oostenrijk)",
        "EL-GR": "Grieks",
        "EN-GB": "Engels (VK)",
        "EN-US": "Engels (VS)",
        "ES-ES": "Spaans (Spanje)",
        "ES-US": "Spaans (VS)",
        "ES-PY": "Spaans (Internationaal)",
        "ET-EE": "Estisch",
        "FI-FI": "Fins",
        "FR-CA": "Frans (Canada)",
        "FR-FR": "Frans (Frankrijk)",
        "GD-IE": "Gaelisch",
        "GU-IN": "Gujarati",
        "HE-IL": "Hebreeuws",
        "HI-IN": "Hindi",
        "HR-HR": "Kroatisch",
        "HU-HU": "Hongaars",
        "IT-IT": "Italiaans",
        "JA-JP": "Japans",
        "KA-GE": "Georgisch",
        "KN-IN": "Kannada",
        "KO-KR": "Koreaans",
        "LV-LV": "Lets",
        "LT-LT": "Litouws",
        "ML-IN": "Malayalam",
        "MR-IN": "Marathi",
        "MS-MY": "Maleis",
        "NB-NO": "Noors",
        "NL-BE": "Nederlands (België)",
        "NL-NL": "Nederlands (Nederland)",
        "PA-IN": "Punjabi",
        "PL-PL": "Pools",
        "PT-BR": "Portugees (Brazilië)",
        "PT-PT": "Portugees (Portugal)",
        "RO-RO": "Roemeens",
        "RU-RU": "Russisch",
        "SL-SL": "Sloveens",
        "SK-SK": "Slowaaks",
        "SR-RS": "Servisch (Latijn)",
        "SR-SP": "Servisch (Cyrillisch)",
        "ST-ZA": "Sotho",
        "SV-SE": "Zweeds",
        "TA-IN": "Tamil",
        "TE-IN": "Telugu",
        "TH-TH": "Thais",
        "TL-PH": "Tagalog",
        "TN-ZA": "Tswana",
        "TR-TR": "Turks",
        "UK-UA": "Oekraïens",
        "UR-IN": "Urdu",
        "VI-VN": "Vietnamees",
        "XH-ZA": "Xhosa",
        "ZH-CN": "Chinees (China)",
        "ZH-TW": "Chinees (Taiwan)",
        "ZU-ZU": "Zulu",
        "NO_RESULTS_FOUND": "Geen resultaten gevonden.",
        "USER": "Gebruiker",
        "SYNC": "Sync",
        "TIME_LBL": "Tijd:",
        "SET_TIME": "Tijd instellen",
        "NEW_USER": "Nieuwe dagboekgebruiker toevoegen",
        "NEW_USER_CREATED": "De nieuwe gebruiker is aangemaakt.",
        "TIME_ZONE_SET_CONFIRM": "Bent u zeker dat u de tijdzone wilt instellen op {{{selectedTimeZone}}}? <br/> De applicatie zal mogelijk heropstarten om de wijziging door te voeren.",
        "TIME_ZONE_SET_CONFIRM_NOCHANGE": "Bent u zeker dat u de tijdzone wilt instellen op {{{selectedTimeZone}}}?",
        "TIME_ZONE_SET_HEADER": "Bevestigen instelling tijdzone",
        "TIME_ZONE_ERROR_HEADER": "Foutmelding tijdzone",
        "TIME_ZONE_ERROR_MSG": "Er is een fout opgetreden bij het ophalen van de lijst met tijdzones. Neem contact op met het ondersteuningscentrum van ERT voor meer hulp.",
        "TIME_ZONE_SET_ERROR_MSG": "Er is een fout opgetreden bij het instellen van de tijdzone. Neem contact op met het ondersteuningscentrum van ERT voor meer hulp.",
        "TIME_CONFIRMATION_INSTRUCTIONS": "Het apparaat moet uw plaatselijke tijd bevestigen. Voer uw datum en tijd in. Gebruik hiervoor een betrouwbare bron.",
        "LOW_BATTERY": "Waarschuwing: de batterij is bijna leeg. Sluit het apparaat aan om op te laden.",
        "CRITICAL_BATTERY": "Waarschuwing: de batterij is zo goed als leeg. Sluit het apparaat aan om het op te laden, anders wordt het uitgeschakeld.",
        "SITE_ADMINISTRATOR": "Sitebeheerder",
        "TIME_CONFIRMATION_HEADER": "Datum/tijd bevestigen",
        "TIMESLIP_ERROR": "De tijd of datum van uw apparaat is niet correct. Ga naar een locatie met internetverbinding en probeer het opnieuw. Als het probleem zich blijft voordoen, neemt u contact op met ERT Customer Care.",
        "P_AFFIDAVIT_HEADER": "<div><strong>Centrum: {{{ getSiteCodeForSubject }}}</strong><br /><strong>ID patiënt: {{{ getParticipantCodeForSubject }}}</strong></div>",
        "RESTART_NOTIFICATION_HEADER": "Heropstarten vereist",
        "RESTART_NOTIFICATION_MSG": "Tijdzone is gewijzigd. De applicatie zal heropstarten binnen {{{ timeZoneChangeRestartCountdown }}}.",
        "RESTART_NOW": "Nu heropstarten",
        "SECONDS": "seconden",
        "MINUTES": "minuten",
        "SELECT_LANGUAGE": "Selecteer een voorkeurstaal voor de proefpersoon.",
        "ACCEPT": "Ik aanvaard",
        "DECLINE": "Ik weiger",
        "EULA": "LICENTIEOVEREENKOMST VOOR DE EINDGEBRUIKER",
        "EULA_TEXT": "<p><strong><span class=\"text-underline\">BELANGRIJK</span>:  KLIK NIET OP DE KNOP IK AANVAARD VOORALEER U DEZE OVEREENKOMST HEBT GELEZEN.  DOOR OP DE KNOP IK AANVAARD TE KLIKKEN, AANVAARDT U ALLE VOORWAARDEN VAN DEZE OVEREENKOMST.  ALS U NIET ALLE VOORWAARDEN VAN DEZE OVEREENKOMST AANVAARDT (1) KLIK DAN NIET OP DE KNOP \"IK AANVAARD\" EN (2) BEËINDIG HET INSTALLERINGS- EN LICENTIEPROCES DOOR OP DE KNOP \"IK WEIGER\" TE KLIKKEN.</strong></p><p>eResearchTechnology, Inc. (\"licentiegever\") verleent u een niet-exclusief, niet-overdraagbaar recht om de eResearchTechnology, Inc. software op dit apparaat ingesloten (\"Software\") te gebruiken in verband met uw deelname aan de klinische proefovereenkomst: <strong>{{{ clinicalTrial }}}</strong>.  De eResearchTechnology, Inc. software is gedekt door uitgegeven patenten en andere aangevraagde patenten.  Deze Overeenkomst geeft u geen eigendomsrechten op Software (of eventuele exemplaren daarvan), maar is slechts een licentie om de Software te gebruiken in overeenstemming met alle voorwaarden van deze Overeenkomst.  Aanspraak op de Software en alle gedeelten daarvan en alle eigendomsrechten en intellectuele eigendomsrechten die daarin zijn opgenomen, blijven te allen tijde bij Licentieverlener.</p><p>U gaat ermee akkoord om, rechtstreeks of onrechtstreeks, (i) de Software niet na te bouwen, te ontmantelen of te decompileren; (ii) de software niet te kopiëren, distribueren, produceren, aan te passen, afgeleide werken ervan te maken, te vertalen, lokaliseren, porten of anderszins te wijzigen; of (iii) geen auteursrecht, handelsgeheim of andere wettelijke mededelingen op of in de Software te verwijderen of te wijzigen.  U ERKENT EN GAAT ERMEE AKKOORD DAT DE SOFTWARE EEN CODE KAN BEVATTEN DIE HET ONGEMACHTIGDE GEBRUIK VAN DE SOFTWARE VOORKOMT.</p><br><p>ALS U AKKOORD GAAT MET AL HET VOORGAANDE, selecteer - <strong>Ik aanvaard</strong> -door te klikken op \"Ik aanvaard\" geeft u aan dat u de licentievoorwaarden accepteert.</p><p>ALS U NIET AKKOORD GAAT MET AL HET VOORGAANDE, of als u niet gemachtigd ben om akkoord te geven, kies - <strong>Ik weiger</strong> - in dit geval wordt verdere toegang tot de Software geblokkeerd.  Indien geautoriseerd, kunt u op een ander tijdstip aanvaarden.</p>",
        "HAND_DEVICE_SITE_TITLE": "Geef apparaat aan centrumgebruiker",
        "HAND_DEVICE_SITE_BODY": "Geef het apparaat aan de centrumgebruiker.",
        "SQ-AL": "Albanees",
        "IMAGE_FOLDER": "{{{ imageFolder }}}",
        "MODAL_OK_TEXT": "OK",
        "BROWSER_LOAD_ERROR": "Pagina niet gevonden. Controleer uw internetverbinding en probeer het opnieuw.",
        "NONEXISTENT_USER" : "Gebruiker niet gevonden.",
        "NO_USER_OF_ROLE" : "Geen gebruiker met die functie gevonden.",
        "START_VISIT_OUTSIDE_WINDOW_MSG": "Voer {{{ getVisitName }}} in buiten het geconfigureerde tijdvenster: {{{ startDate }}} - {{{ endDate }}}",
        "START_VISIT_HARD_STOP_MSG" : "U kunt geen {{{ getVisitName }}} invoeren buiten het geconfigureerde tijdvenster: {{{ startDate }}} - {{{ endDate }}}",
        "YES" : "Ja",
        "NO" : "NEEN"
    },
    "dates": {
        "setDateButtonLabel": "OK",
        "setTimeButtonLabel": "OK",
        "setDurationButtonLabel": "Duur instellen",
        "calTodayButtonLabel": "Spring naar vandaag",
        "titleDateDialogLabel": "Datum instellen",
        "titleTimeDialogLabel": "Tijd instellen",
        "daysOfWeek": [
            "Zondag",
            "Maandag",
            "Dinsdag",
            "Woensdag",
            "Donderdag",
            "Vrijdag",
            "Zaterdag"
        ],
        "daysOfWeekShort": [
            "Zo",
            "Ma",
            "Di",
            "Wo",
            "Do",
            "Vr",
            "Za"
        ],
        "monthsOfYear": [
            "Januari",
            "Februari",
            "Maart",
            "April",
            "Mei",
            "Juni",
            "Juli",
            "Augustus",
            "September",
            "Oktober",
            "November",
            "December"
        ],
        "monthsOfYearShort": [
            "Jan",
            "Feb",
            "Mrt",
            "Apr",
            "Mei",
            "Jun",
            "Jul",
            "Aug",
            "Sep",
            "Okt",
            "Nov",
            "Dec"
        ],
        "durationLabel": [
            "Dagen",
            "Uren",
            "Minuten",
            "Seconden"
        ],
        "durationDays": [
            "Dag",
            "Dagen"
        ],
        "tooltip": "Datumkiezer openen",
        "nextMonth": "Volgende maand",
        "prevMonth": "Vorige maand",
        "clearButton": "Wissen",
        "meridiem": [
            "AM",
            "PM"
        ]
    }
}
