{
    "namespace": "CORE",
    "language": "xh",
    "locale": "ZA",
    "localized": "isiXhosa (ZA)",
    "direction": "ltr",
    "resources": {
        "ABOUT": "Malunga",
        "ACTIVATED_ELSEWHERE": "Isixhobo esahlukileyo siye savuselelwa ukuze kuqokelelwe inkcazelo yakho yophononongo. Ndicela uqhagamshelane noMququzeleli woPhononongo ukuba ucinga ukuba oku kwenziwe ngempazamo.",
        "ACTIVATION_CODE": "Ikhowudi Yokuseta:",
        "AFFIDAVIT": "Khetha ethi Kulungile uze ucofe u-Elandelayo xa ulungele ukuseyiva iimpendulo zakho.",
        "AFFIDAVIT_HELP": "Enkosi. Unikezele ngazo zonke iimpendulo ezifunekayo. Ungakhangela uze utshintshe iimpendulo zakho ngokukhetha uBuyela Umva.",
        "ANSWER_ATTEMPT_EXCEEDED": "Uye wafaka impendulo engachanekanga izihlandlo ezininzi kakhulu okanye ucofe ilinki yokukhusela impendulo oyilibeleyo.",
        "APPLICATION_HEADER": "U-ERT",
        "BACK": "Emva",
        "BACK_OUT_CONFIRM": "Ngaba uqinisekile ufuna ukuphuma? Iimpendulo zale fomu ziza kulahleka.",
        "CANCEL": "Rhoxisa",
        "CANCEL_UPDATE": "Rhoxisa Uhlaziyo",
        "CHANGE_PASSWORD": "Tshintsha iPasiwedi",
        "CHANGE_SECRET_QUESTION": "Tshintsha Umbuzo Wokhuseleko",
        "CODE_ENTRY_NO_SERVER": "Iseva Ayifumaneki",
        "CONNECTION_REQUIRED": "Kufuneka uqhagamshelo lwe-Intanethi.",
        "CONNECTION_TIMEOUT": "Uqhagamshelo Luphelelwe Lixesha.",
        "CONFIRM_PASSWORD": "Qinisekisa iPasiwedi:",
        "CONTACT_STUDY_COORDINATOR": "Qhagamshelana noMququzeleli woPhononongo",
        "CONTACT_UNLOCK_CODE": "Ndicela uqhagamshelane noMququzeleli woPhononongo ngeKhowudi yokuVula ukwenzela namhlanje:",
        "CORE_PRODUCT_VERSION_LABEL": "Uhlobo lweMveliso:",
        "CURRENT_DATE": "{{{ currentDate }}}",
        "CURRENT_PASSWORD": "Ipasiwedi Yangoku:",
        "DATE_LBL": "Umhla:",
        "DEACTIVATED_LABEL": "Ukusebenzisa kwakho i-ERT kolu phononongo kuphelile. Ndicela uqhagamshelane noMququzeleli woPhononongo ukuba ucinga ukuba oku akuchanekanga.",
        "DEVICE_ACTIVATION": "Useto",
        "DEVICE_NOT_SUPPORTED": "Esi sixhobo asixhaswa. Ndicela uqhagamshelane noMququzeleli woPhononongo ukuze ufumane inkcazelo ngezixhobo ekuvunyelwe ukuba zisetyenziswe kolu phononongo.",
        "DEVICE_REACTIVATION": "Ukuseta isiXhobo",
        "DIARY_TIMEOUT": "Le fomu iphelelwe lixesha.",
        "DOWNLOAD_FAILED": "Ukukhutshelwa kwale App kuye kwaphazanyiswa. Nceda uzame kwakhona xa unoqhagamshelwano lwe-Intanethi okanye qhagamshelana neZiko leNkxaso lika-ERT.",
        "DOWNLOAD_FAILURE": "Ukukhuphela Kuphazanyisiwe",
        "ENTER_NEW_PASSWORD": "Ipasiwedi Entsha:",
        "ERROR": "Impazamo.  Nceda uqhagamshelane neZiko leNkxaso lika-ERT.",
        "ERROR_AFTER_ACTIVATION_SUCCESSFUL": "Kwenzeke impazamo. Kuya kufuneka ufake ikhowudi yokuseta nepasiwedi.",
        "ERROR_CODE": "Impazamo yeKhowudi:",
        "ERROR_TITLE": "Impazamo",
        "FORGOT_PASSWORD": "Uyilibele Ipasiwedi?",
        "FORGOT_SECRET_ANSWER": "Ngaba uyilibele impendulo yokhuseleko?",
        "INCORRECT_ANSWER": "Impendulo engachanekanga",
        "INCORRECT_UNLOCK_CODE": "Ikhowudi yokuVula engachanekanga",
        "INSTALLING": "Ifaka iApp",
        "INVALID_CODE": "Ikhowudi Yokuseta Engagunyazwanga",
        "LOCAL_STORAGE_FAILURE": "Ukusilela Kovimba Lwalapha",
        "LOG_IN": "Loga ungene",
        "LOG_LEVEL": "Inqanaba le-Log:",
        "LOGOUT": "Loga uphume",
        "LOGOUT_CONFIRM": "Ngaba uqinisekile ufuna ukuloga uphume?",
        "NEXT": "Landelayo",
        "NEXT_ACTION": " Ngoku lixesha lesenzo sakho esilandelayo kwi-ERT ",
        "NO_DIARIES_TITLE": "Azikho iiNgxelo Zokufaka",
        "OK": "KULUNGILE",
        "PASSWORD": "Ipasiwedi:",
        "PASSWORD_ATTEMPT_EXCEEDED": "Uye wafaka ipasiwedi engachanekanga izihlandlo ezininzi kakhulu okanye ucofe ilinki yepasiwedi oyilibeleyo.",
        "PASSWORD_CHANGE_FAILED": "Isixhobo esahlukileyo siye savuselelwa ukuze kuqokelelwe inkcazelo yakho yophononongo. Sicela utshintshe ipasiwedi yakho kwesi sixhobo.",
        "PASSWORD_CHANGE_SUCCESS": "Uyihlaziye ngempumelelo ipasiwedi yakho.",
        "PASSWORD_INVALID": "Ipasiwedi Engachanekanga",
        "PLEASE_ANSWER_SQ": "Sicela uphendule umbuzo wakho wokhuseleko:",
        "PLEASE_CONFIRM": "Sicela Uqinisekise",
        "PLEASE_CONTACT": "Nceda uqhagamshelane neZiko leNkxaso lika-ERT.",
        "PLEASE_TRY_OR_CONTACT_SUPPORT": "Nceda uzame kwakhona okanye qhagamshelana neZiko leNkxaso lika-ERT.",
        "PLEASE_WAIT": "Nceda ulinde...",
        "PORTRAIT_ONLY": "Sicela usibambe sime nkqo isixhobo sakho.",
        "PRIVATE_BROWSING_ON": "Sicela ukucime ukubrawza kwabucala. Ukuba uyaqhubeka usiba neengxaki, ndicela uqhagamshelane noMququzeleli wakho woPhononongo.",
        "PRIVACY_POLICY": "IPolisi Yobumfihlo",
        "PRIVACY_POLICY_APPLICATION_UNAVAILABILITY": "Ipolisi yobumfihlo ka-ERT ayifumaneki okwexeshana.",
        "PRIVACY_POLICY_ACTIVATION_UNAVAILABILITY": "Ipolisi yobumfihlo ka-ERT ayifumaneki okwexeshana. Ipolisi yobumfihlo ka-ERT iyafumaneka kwiphepha leesethingi emva kokuvuselelwa.",
        "PROTOCOL": "Umgaqo:",
        "REQUIRED_ANSWER": "Sicela uphendule",
        "RETRY": "Zama Kwakhona",
        "RESET_PASSWORD": "Phinda Usete Ipasiwedi",
        "RESET_SECRET_QUESTION": "Phinda Usete Umbuzo Wokhuseleko",
        "SECRET_ANSWER": "Impendulo Yokhuseleko:",
        "SECRET_QUESTION": "Umbuzo Wokhuseleko:",
        "SECRET_QUESTION_CHANGE_FAILED": "Isixhobo esahlukileyo siye savuselelwa ukuze kuqokelelwe inkcazelo yakho yophononongo. Sicela utshintshe umbuzo wakho wokhuseleko kwesi sixhobo.",
        "SECRET_QUESTION_CHANGE_SUCCESS": "Uyihlaziye ngempumelelo ipasiwedi yakho nombuzo wokhuseleko.",
        "SETTINGS": "Useto",
        "SITE": "Isayithi:",
        "SKIP_QUESTION": "Ngaba uqinisekile ufuna ukuzitsiba iimpendulo ezikwesi skrini?",
        "SPONSOR": "Umxhasi:",
        "STORED_REPORTS": "Iifomu eziGciniweyo:",
        "STUDY_VERSION": "Inguqulelo yoPhononongo: ",
        "STUDY_URL": "I-URL Yophononongo:",
        "SUBJECT_ID": "Ikhowudi Yesigulane:",
        "TEMPORARY_UNLOCK_CODE": "Faka Ikhowudi Yokuvula enikezelwe nguMququzeleli Wophononongo.",
        "TRANSMIT_REPORTS": "Hlaziya",
        "UPDATE_CACHED_DELETED": "Uhlaziyo lwe-ERT alukhange lugqitywe. Uya kudinga uqhagamshelo lwe-Intanethi ukuze usebenzise i-ERT. Nceda uqhagamshelane neZiko lakho leNkxaso lika-ERT.",
        "UPDATE_FAILED": "Uhlaziyo lwe-ERT alukhange lugqitywe. Nceda uqiniseke ukuba esi sixhobo siqhagamshelwe kwi-Intanethi uze uphinde uzame.",
        "UPDATE_FAILURE": "Uhlaziyo Alukhange Lugqitywe",
        "UPDATE_SUCCESS": "Uhlaziyo Luphumelele",
        "WELCOME": "Wamkelekile",
        "ALARM_OFF_LBL": "Cimile",
        "ALARM_TURN_OFF": "Cima",
        "SET_ALARMS": "Seta Ii-alamu",
        "SCHED_NO_DIARIES_AVAILABLE": "Akukho zingxelo zifunekayo ngeli xesha",
        "TRAINER": "Imowudi Yomqeqeshi",
        "TRAINER_EXIT": "Phuma kwiMo Yomqeqeshi",
        "TRAINER_EXIT_NOTIFICATION": "Uyaphuma kwiMo Yomqeqeshi",
        "TRAINER_HEADER": "(Umqeqeshi)",
        "ELPU_FAILURE": "Ukusebenzisa kwakho isixhobo se-ERT kuye kwaphela, kanti kuye kwenzeka impazamo. Sicela uphinde uzame.",
        "ELPU_ON_REPLACED_DEVICE": "Ukusebenzisa kwakho isixhobo se-ERT kuphelile. Nceda usebenzise isixhobo sakho osibuyiselweyo.",
        "SECURITY_QUESTION_0": "Ngubani ifani yakulo mama wakho?",
        "SECURITY_QUESTION_1": "Wazalelwa kwesiphi isixeko?",
        "SECURITY_QUESTION_2": "Ngubani igama lesilo-qabane sokuqala sakho?",
        "SECURITY_QUESTION_3": "Ngowuphi owona mdlalo uwuthandayo?",
        "SECURITY_QUESTION_4": "Wafumana isidanga kowuphi unyaka?",
        "SECURITY_QUESTION_5": "Ngubani igama lesibini lomntwana wakho wokuqala?",
        "SECURITY_QUESTION_6": "Ngubani igama lowona mhlobo omthandayo owawukhula naye?",
        "SECURITY_QUESTION_7": "Yayingubani ifani katitshala wakho webakala lesithathu?",
        "SECURITY_QUESTION_8": "Waqala ukuphangela kwesiphi isixeko okanye idolophu?",
        "SELECT_SITE_USER": "Khetha iGama loMsebenzisi weSayithi",
        "SITE_USER_NAME": "Igama loMsebenzisi weSayithi:",
        "ADD_SITE_USER": "Faka uMsebenzisi weSayithi",
        "INVALID_ENTRY": "Ukufakwa kwento engeyiyo",
        "HANDOFF_MESSAGE": "<strong>Isigulane kumele sizalise ezi zikrini zilandelayo ukuze sisete ikhowudi yaso yofikelelo yefomu.</strong>",
        "REVERSE_HANDOFF_CONFIRM": "Ukuba ukhetha Kulungile, inkqubo yokuvuselela iza kuphinda iqale. Ngaba uqinisekile ufuna ukuphinda uqale uvuselelo?",
        "SITE_GATEWAY_TITLE": "Ijelo leSayithi",
        "USER_ALREADY_EXISTS": "Umsebenzisi Sele eKho",
        "SITE_SIGNATURE": "Utyikityo luka: ",
        "SITE_REPORT_AFF": "Ndifake, ndatshekisha le datha ingentla, ngoko ke ndiyayiqinisekisa.<br /><br /><strong>Utyikityo luka:</strong> {{{ getActiveUserName }}}",
        "PATIENT_REPORT_AFF": "Ndifake, ndatshekisha le datha ingentla, ngoko ke ndiyayiqinisekisa.<br /><br /><strong>Oonobumba Bokuqala Bamagama ka:</strong> {{{ getActiveUserName }}}",
        "CLEAR_SIGNATURE": "Cima uTyikityo",
        "STUDY_ALIAS": "{{{ studyAlias }}}",
        "SITE_ACTIVATED_ELSEWHERE": "Isixhobo esahlukileyo silayitiwe ukuze siqokelele iingcombolo zesigulane sophononongo. Nceda uqhagamshelane noMququzeleli woPhononongo ukuba oku kwenziwe ngempazamo.",
        "SITE_DEACTIVATED_LABEL": "Ukusetyenziswa kwe-ERT sisigulane kuphelile. Nceda uqhagamshelane noMququzeleli woPhononongo ukuba oku akuchanekanga.",
        "SIGNATURE_DATA_LIMIT_EXCEEDED": "Le bhokisi yotyikityo ayikwazanga ukumela utyikityo lwakho njengoko ulwenzile. Nceda usayine ngee-inishiyali zakho endaweni yoko.",
        "PAIRED": "Idityanisiwe",
        "BLUETOOTH_REG_TITLE": "Udibaniso lweSixhobo se-eSense",
        "BLUETOOTH_REG_REFRESH_BUTTON": "Hlaziya uLuhlu",
        "BLUETOOTH_PAIR_DEVICE": "Dibanisa isixhobo esikhethiweyo",
        "BLUETOOTH_PAIRING_FAILED": "Ukudibanisa nesixhobo esikhethiweyo akukhange kuphumelele. Nceda uzame kwakhona.",
        "BLUETOOTH_PAIRING_SUCCESS": "Ukudibanisa nesixhobo esikhethiweyo kuye kwaphumelela.",
        "BLUETOOTH_REG_NO_DEVICES_FOUND": "Akukho zixhobo zifunyenweyo. Nceda uqiniseke ukuba isixhobo sikufutshane kwi-ERT kwaye sikwimo yaso yogqithiso.",
        "SYNC_FAILED": "UNgqamaniso neseva lusilele.",
        "DIARY_REQUIRES_E_SENSE_SUPPORT": "I-eSense ayixhaswa. Le fomu ifuna inkxaso ye-eSense.",
        "ERROR_E_SENSE_ENABLE": "I-eSense ayinakwenziwa isebenze.",
        "E_SENSE_NOT_PAIRED": "Asikho isixhobo se-eSense esidityanisiweyo. Le fomu ifuna isixhobo se-eSense esidityanisiweyo.",
        "BLUETOOTH_SYNC_FAILURE_TOP": "I-ERT khange ikwazi ukunxulumana {{{ eSenseDeviceName }}} nesixhobo.",
        "BLUETOOTH_SYNC_FAILURE_MIDDLE": "Nceda uqiniseke ukuba i {{{ eSenseDeviceName }}} isixhobo esinenobolo {{{ eSenseSerialNumber }}} sikufutshane kwi-ERT kwaye sikwimo yaso yogqithiso.",
        "PLUGIN_MISSING": "Asikwazi kulowuda iplag-in efunekayo.",
        "WRAPPER_VERSION": "Uhlobo lweRepha:",
        "SUPPORT": "Inkxaso Yomthengi",
        "SUPPORT_MESSAGE": "Abasebenzisi baseMelika bangafikelela kwiZiko leNkxaso lika-ERT ku-800-748-5669. Basebenzisi bamazwe ngamazwe, ncedani nikhethe elona lizwe likufutshane ngezantsi:",
        "SUPPORT_DROPDOWN": "Khetha ilizwe lakho",
        "SUPPORT_NAME_ARGENTINA": "I-Argentina",
        "SUPPORT_NUMBER_ARGENTINA": "<bdi>0800 444 0962</bdi>",
        "SUPPORT_NAME_ARMENIA": "I-Armenia",
        "SUPPORT_NUMBER_ARMENIA": "<bdi>+1 617 681 6306</bdi>",
        "SUPPORT_NAME_AUSTRALIA": "I-Australia",
        "SUPPORT_NUMBER_AUSTRALIA": "<bdi>1 800 800 051</bdi>",
        "SUPPORT_NAME_AUSTRIA": "I-Austria",
        "SUPPORT_NUMBER_AUSTRIA": "<bdi>0800 100 405</bdi>",
        "SUPPORT_NAME_BELARUS": "I-Belarus",
        "SUPPORT_NUMBER_BELARUS": "<bdi>8 820 0321 0036</bdi>",
        "SUPPORT_NAME_BELGIUM": "I-Belgium",
        "SUPPORT_NUMBER_BELGIUM_1": "(IsiNgesi): <bdi>0800 58 016</bdi>",
        "SUPPORT_NUMBER_BELGIUM_2": "(IsiFrentshi): <bdi>0800 71 076</bdi>",
        "SUPPORT_NUMBER_BELGIUM_3": "(IsiJamani): <bdi>0800 71 113</bdi>",
        "SUPPORT_NAME_BRAZIL": "I-Brazil",
        "SUPPORT_NUMBER_BRAZIL": "<bdi>0800 891 5909</bdi>",
        "SUPPORT_NAME_BOSNIA": "I-Bosnia",
        "SUPPORT_NUMBER_BOSNIA": "<bdi>+1 617 681 6306</bdi>",
        "SUPPORT_NAME_BULGARIA": "I-Bulgaria",
        "SUPPORT_NUMBER_BULGARIA": "<bdi>00800 0010</bdi>, kuze <bdi>866 245 4931</bdi>",
        "SUPPORT_NAME_CANADA": "I-Canada",
        "SUPPORT_NUMBER_CANADA": "<bdi>1 800 748 5669</bdi>",
        "SUPPORT_NAME_CHILE": "I-Chile",
        "SUPPORT_NUMBER_CHILE": "<bdi>123 0020 3408</bdi>",
        "SUPPORT_NAME_CHINA": "ITshayina",
        "SUPPORT_NUMBER_CHINA_1": "I-NetCom (Esemntla): <bdi>1 0800 74 40 164</bdi>",
        "SUPPORT_NUMBER_CHINA_2": "I-Telecom (Esemzantsi): <bdi>1 0800 44 00 158</bdi>",
        "SUPPORT_NAME_COLOMBIA": "I-Colombia",
        "SUPPORT_NUMBER_COLOMBIA": "<bdi>01 800 911 0010</bdi>, kuze <bdi>866 310 3707</bdi>",
        "SUPPORT_NAME_COSTA_RICA": "I-Costa Rica",
        "SUPPORT_NUMBER_COSTA_RICA": "<bdi>0800 013 1210</bdi>",
        "SUPPORT_NAME_CROATIA": "I-Croatia",
        "SUPPORT_NUMBER_CROATIA": "<bdi>0800 222 953</bdi>",
        "SUPPORT_NAME_CZECH_REPUBLIC": "I-Czech Republic",
        "SUPPORT_NUMBER_CZECH_REPUBLIC": "<bdi>800 142 150</bdi>",
        "SUPPORT_NAME_DENMARK": "I-Denmark",
        "SUPPORT_NUMBER_DENMARK": "<bdi>80 60 00 09</bdi>",
        "SUPPORT_NAME_EGYPT": "I-Egypt",
        "SUPPORT_NUMBER_EGYPT": "<bdi>02 510 0200</bdi>, kuze <bdi>866 310 3707</bdi>",
        "SUPPORT_NAME_EL_SALVADOR": "I-El Salvador",
        "SUPPORT_NUMBER_EL_SALVADOR": "<bdi>+1 617 681 6306</bdi>",
        "SUPPORT_NAME_ESTONIA": "I-Estonia",
        "SUPPORT_NUMBER_ESTONIA": "<bdi>800 00 44 154</bdi>",
        "SUPPORT_NAME_FINLAND": "I-Finland",
        "SUPPORT_NUMBER_FINLAND": "<bdi>0800 11 6366</bdi>",
        "SUPPORT_NAME_FRANCE": "I-France",
        "SUPPORT_NUMBER_FRANCE": "<bdi>0800 10 19 79</bdi>",
        "SUPPORT_NAME_GERMANY": "IJamani",
        "SUPPORT_NUMBER_GERMANY": "<bdi>0800 101 28 21</bdi>",
        "SUPPORT_NAME_GREECE": "IGrisi",
        "SUPPORT_NUMBER_GREECE": "<bdi>00 800 1311</bdi>, kuze <bdi>866 310 3707</bdi>",
        "SUPPORT_NAME_GUATEMALA": "I-Guatemala",
        "SUPPORT_NUMBER_GUATEMALA": "<bdi>1 800 624 0079</bdi>",
        "SUPPORT_NAME_HONG_KONG": "I-Hong Kong",
        "SUPPORT_NUMBER_HONG_KONG": "<bdi>3002 1665</bdi>",
        "SUPPORT_NAME_HUNGARY": "I-Hungary",
        "SUPPORT_NUMBER_HUNGARY": "<bdi>06 800 14 571</bdi>",
        "SUPPORT_NAME_ICELAND": "I-Iceland",
        "SUPPORT_NUMBER_ICELAND": "<bdi>800 8544</bdi>",
        "SUPPORT_NAME_INDIA": "I-Indiya",
        "SUPPORT_NUMBER_INDIA": "<bdi>000 800 440 1125</bdi>",
        "SUPPORT_NAME_INDONESIA": "I-Indonesia",
        "SUPPORT_NUMBER_INDONESIA": "<bdi>008 800 330 334</bdi>",
        "SUPPORT_NAME_IRELAND": "I-Ireland",
        "SUPPORT_NUMBER_IRELAND": "<bdi>1 800 946 700</bdi>",
        "SUPPORT_NAME_ISRAEL": "USirayeli",
        "SUPPORT_NUMBER_ISRAEL": "<bdi>1 809 470 062</bdi>",
        "SUPPORT_NAME_ITALY": "I-Ithali",
        "SUPPORT_NUMBER_ITALY": "<bdi>800 90 56 37</bdi>",
        "SUPPORT_NAME_JAPAN": "I-Japan",
        "SUPPORT_NUMBER_JAPAN": "Nceda ujonge kuLwalathiso lweNkcazelo yoPhononongo lwe-ePRO ukuze ufumane inombolo yokufowuna simahla yophononongo lwakho",
        "SUPPORT_NAME_LATVIA": "I-Latvia",
        "SUPPORT_NUMBER_LATVIA": "<bdi>8000 2151</bdi>",
        "SUPPORT_NAME_LEBANON": "I-Lebanon",
        "SUPPORT_NUMBER_LEBANON": "<bdi>01-426-801</bdi> kuze <bdi>866 310 3707</bdi>",
        "SUPPORT_NAME_LITHUANIA": "I-Lithuania",
        "SUPPORT_NUMBER_LITHUANIA": "<bdi>8800 30207</bdi>",
        "SUPPORT_NAME_MALAYSIA": "I-Malaysia",
        "SUPPORT_NUMBER_MALAYSIA": "<bdi>1800 80 59 71</bdi>",
        "SUPPORT_NAME_MEXICO": "I-Mexico",
        "SUPPORT_NUMBER_MEXICO_1": "(IsiNgesi): <bdi>001 800 748 5669</bdi> ",
        "SUPPORT_NUMBER_MEXICO_2": "(ISipanishi): <bdi>001 855 631 6952</bdi>",
        "SUPPORT_NAME_MOLDOVA": "I-Moldova",
        "SUPPORT_NUMBER_MOLDOVA": "<bdi>617 681 6306</bdi>",
        "SUPPORT_NAME_NETHERLANDS": "I-Netherlands",
        "SUPPORT_NUMBER_NETHERLANDS": "<bdi>0800 023 1389</bdi>",
        "SUPPORT_NAME_NEW_ZEALAND": "I-New Zealand",
        "SUPPORT_NUMBER_NEW_ZEALAND": "<bdi>0800 110 178</bdi>",
        "SUPPORT_NAME_NORWAY": "I-Norway",
        "SUPPORT_NUMBER_NORWAY": "<bdi>800 62 051</bdi>",
        "SUPPORT_NAME_PAKISTAN": "I-Pakistan",
        "SUPPORT_NUMBER_PAKISTAN": "<bdi>00 800 0100</bdi>, kuze <bdi>866 237 9767</bdi>",
        "SUPPORT_NAME_PANAMA": "I-Panama",
        "SUPPORT_NUMBER_PANAMA": "<bdi>001 800 201 3095</bdi>",
        "SUPPORT_NAME_PERU": "I-Peru",
        "SUPPORT_NUMBER_PERU": "<bdi>0800 5 0974</bdi>",
        "SUPPORT_NAME_PHILIPPINES": "I-Philippines",
        "SUPPORT_NUMBER_PHILIPPINES": "<bdi>1 800 1116 0651</bdi>",
        "SUPPORT_NAME_POLAND": "I-Poland",
        "SUPPORT_NUMBER_POLAND": "<bdi>00800 331 1262</bdi>",
        "SUPPORT_NAME_PORTUGAL": "I-Portugal",
        "SUPPORT_NUMBER_PORTUGAL": "<bdi>800 206 172</bdi>",
        "SUPPORT_NAME_PUERTO_RICO": "I-Puerto Rico (Ekumhlaba wase-US)",
        "SUPPORT_NUMBER_PUERTO_RICO": "<bdi>1 800 748 5669</bdi>",
        "SUPPORT_NAME_ROMANIA": "I-Romania",
        "SUPPORT_NUMBER_ROMANIA": "<bdi>0800 894492</bdi>",
        "SUPPORT_NAME_RUSSIA": "IRashiya",
        "SUPPORT_NUMBER_RUSSIA_1": "(Ephambili – iSimahla): <bdi>8 10 800 249 13011</bdi>",
        "SUPPORT_NUMBER_RUSSIA_2": "(Ese-Moscow): <bdi>363-2400</bdi> <br> kuze <bdi>866 310 3707</bdi>",
        "SUPPORT_NUMBER_RUSSIA_3": "(Ngaphandle kwase-Moscow): <bdi>8^(495) 363-2400</bdi> <br> kuze <bdi>866 310 3707</bdi>",
        "SUPPORT_NUMBER_RUSSIA_4": "(Ese-St. Petersburg): <bdi>363-2400</bdi> <br> kuze <bdi>866 310 3707</bdi>",
        "SUPPORT_NUMBER_RUSSIA_5": "(Engaphandle kwase-St. Petersburg): <bdi>8^(495) 363-2400</bdi> <br> kuze <bdi>866 310 3707</bdi>",
        "SUPPORT_NAME_SAUDI_ARABIA": "I-Saudi Arabia",
        "SUPPORT_NUMBER_SAUDI_ARABIA": "<bdi>+1 617 681 6306</bdi>",
        "SUPPORT_NAME_SERBIA": "I-Serbia",
        "SUPPORT_NUMBER_SERBIA": "<bdi>+1 617 973 1739</bdi>",
        "SUPPORT_NAME_SINGAPORE": "I-Singapore",
        "SUPPORT_NUMBER_SINGAPORE": "<bdi>800 616 30 03</bdi>",
        "SUPPORT_NAME_SLOVAKIA": "I-Slovakia",
        "SUPPORT_NUMBER_SLOVAKIA": "<bdi>0800 0044 65</bdi>",
        "SUPPORT_NAME_SLOVENIA": "I-Slovenia",
        "SUPPORT_NUMBER_SLOVENIA": "<bdi>+1 617 681 6306</bdi>",
        "SUPPORT_NAME_SOUTH_AFRICA": "UMzantsi Afrika",
        "SUPPORT_NUMBER_SOUTH_AFRICA": "<bdi>0800 99 5853</bdi>",
        "SUPPORT_NAME_SOUTH_KOREA": "I-South Korea",
        "SUPPORT_NUMBER_SOUTH_KOREA": "<bdi>00308 33 00 08</bdi>",
        "SUPPORT_NAME_SPAIN": "ISpeyini",
        "SUPPORT_NUMBER_SPAIN": "<bdi>900 90 2541</bdi>",
        "SUPPORT_NAME_SWEDEN": "I-Sweden",
        "SUPPORT_NUMBER_SWEDEN": "<bdi>020 120 99 69</bdi>",
        "SUPPORT_NAME_SWITZERLAND": "I-Switzerland",
        "SUPPORT_NUMBER_SWITZERLAND_1": "(IsiNgesi): <bdi>0800 199 325</bdi>",
        "SUPPORT_NUMBER_SWITZERLAND_2": "(IsiFrentshi): <bdi>0800 891 183</bdi>",
        "SUPPORT_NUMBER_SWITZERLAND_3": "(IsiJamani): <bdi>0800 891 025</bdi>",
        "SUPPORT_NAME_TAIWAN": "I-Taiwan",
        "SUPPORT_NUMBER_TAIWAN": "<bdi>00801 33 33 42</bdi>",
        "SUPPORT_NAME_THAILAND": "I-Thailand",
        "SUPPORT_NUMBER_THAILAND": "<bdi>1 800 33 140 353</bdi>",
        "SUPPORT_NAME_TUNISIA": "I-Tunisia",
        "SUPPORT_NUMBER_TUNISIA": "<bdi>+1 617 681 6306</bdi>",
        "SUPPORT_NAME_TURKEY": "I-Turkey",
        "SUPPORT_NUMBER_TURKEY": "<bdi>00 800 151 1335</bdi>",
        "SUPPORT_NAME_UKRAINE": "I-Ukraine",
        "SUPPORT_NUMBER_UKRAINE": "<bdi>0^00 11</bdi>, kuze <bdi>866 245 4931</bdi>",
        "SUPPORT_NAME_UAE": "I-United Arab Emirates",
        "SUPPORT_NUMBER_UAE": "<bdi>8000-021</bdi>, kuze <bdi>866 310 3707</bdi>",
        "SUPPORT_NAME_UK": "I-United Kingdom",
        "SUPPORT_NUMBER_UK": "<bdi>0800 015 0408</bdi>",
        "SUPPORT_NAME_US": "IMelika",
        "SUPPORT_NUMBER_US_1": "(Undoqo): <bdi>1 800 748 5669</bdi>",
        "SUPPORT_NUMBER_US_2": "(Ibhekhaphu): <bdi>1 877 748 5669</bdi>",
        "SUPPORT_NAME_VENEZUELA": "I-Venezuela",
        "SUPPORT_NUMBER_VENEZUELA_1": "(IsiNgesi): <bdi>0 800 552 6288</bdi> <br> kuze <bdi>866 310 3707</bdi> ",
        "SUPPORT_NUMBER_VENEZUELA_2": "(ISipanishi): <bdi>0 800 100 3063</bdi> ",
        "USER_NAME": "Igama lomsebenzisi:",
        "SUBJECT_ROLE": "Ikhowudi Yesigulane: {{{ getParticipantCode }}}",
        "SITE_ROLE": "Umsebenzisi weSayithi",
        "TEMPORARY_PASSWORD_MESSAGE": "Nceda unikezele ngepaswedi yexeshana kumsebenzisi omtsha. Uza kucelwa ukuba enze ipaswedi entsha emva kokungena.",
        "SHARED_PASSWORD_MESSAGE": "Ipaswedi yomsebenzisi omtsha kumele itsalwe ku-StudyWorks.",
        "TEMP_PASSWORD": "Ipaswedi yeXeshana: ",
        "ROLES": "Indima:",
        "LANGUAGE": "Ulwimi:",
        "FULL_NAME": "Igama elipheleleyo:",
        "CONFIRM_TEMP_PASS": "Ngqinisisa iPaswedi yeXeshana:",
        "PASSWORD_MISMATCH": "Ungqinisiso lwepaswedi aluhambelani nepaswedi",
        "PASSWORD_INVALID_CHARACTERS": "Nceda usebenzise amanani kuphela",
        "USER_NAME_INVALID_CHARACTERS": "Nceda ungasebenzisi oonobumba abakhethekileyo",
        "USER_NAME_MORE_THAN_25": "Nceda usebenzise oonobumba abangama-25 okanye ngaphantsi",
        "PRIVACY_POLICY_VERSION_LABEL": "Inguqulelo: ",
        "PRIVACY_POLICY_VERSION": "1.6.0",
        "PRIVACY_POLICY_LAST_UPDATED_LABEL": "Igqibele Ukuhlaziywa: ",
        "PRIVACY_POLICY_LAST_UPDATED": "21 Jan 2014",
        "PRIVACY_POLICY_TEXT_LABEL": "Ngokuphathelele kubumfihlo: ",
        "PRIVACY_POLICY_TEXT": "I-ERT ibonelela ngale softwe uza kuyifaka ngoku. I-ERT isebenza nesiza sakho sophononongo lonyango ukuqinisekisa ukuba akukho mntu uya kwazi ukuba ungubani ngaphandle kwemvume yesiza sakho. Unelungelo lokubona iirekhodi zakho ngokulungiselela uhlolo nesiza sakho.",
        "SUBJECT_REPORT_AFF": "Ndivakalisa ukuba yonke imibuzo ndiyiphendule kangangoko ndinako.",
        "SUBJECT_INITIALS_LABEL": "Oonobumba Bokuqala Bamagama Esigulane:",
        "SUBJECT": "Isigulane",
        "SET_TIMEZONE": "Seta iZowuni yeXesha",
        "SET_TIMEZONE_MESSAGE": "Khetha iZowuni yakho yeXesha:",
        "SET_TIMEZONE_BUTTON": "Seta",
        "TIME_ZONE_CONFIRM_HEADER": "Uqinisekiso loTshintsho lweZowuni yeXesha",
        "TIME_ZONE_CONFIRM": "Ngaba uqinisekile ufuna ukutshintsha iZowuni yeXesha? I-aplikheshini iza kuphinda iqale ukuze yenze olu tshintsho.",
        "TIME_ZONE_EUROPE_KALININGRAD": "EYurophu/e-Kaliningrad",
        "TIME_ZONE_EUROPE_MOSCOW": "EYurophu/e-Moscow",
        "TIME_ZONE_ASIA_KARACHI": "E-Asia/e-Karachi",
        "TIME_ZONE_ASIA_YEKATERINBURG": "E-Asia/e-Yekaterinburg",
        "TIME_ZONE_ASIA_NOVOSIBIRSK": "E-Asia/e-Novosibirsk",
        "TIME_ZONE_ASIA_KRASNOYARSK": "E-Asia/e-Krasnoyarsk",
        "TIME_ZONE_ASIA_IRKUTSK": "E-Asia/e-Irkutsk",
        "TIME_ZONE_ASIA_YAKUTSK": "E-Asia/e-Yakutsk",
        "TIME_ZONE_ASIA_VLADIVOSTOK": "E-Asia/e-Vladivostok",
        "TIME_ZONE_ASIA_KAMCHATKA": "E-Asia/e-Kamchatka",
        "AF-ZA": "I-Afrikansi",
        "AR-EG": "Isi-arabhu",
        "BE-BY": "Isi-Belarus",
        "BG-BG": "Isi-Bulgaria",
        "BN-IN": "IsiBhengali",
        "BS-BA": "Isi-Bosnia",
        "CA-ES": "Isi-Catala",
        "CS-CZ": "Isi-Czech",
        "DA-DK": "IsiDanishi",
        "DE-DE": "IsiJamani (saseJamani)",
        "DE-AT": "IsiJamani (saseAustria)",
        "EL-GR": "IsiGrike",
        "EN-GB": "IsiNgesi (saseUK)",
        "EN-US": "IsiNgesi (saseUS)",
        "ES-ES": "IsiPanishi (saseSpain)",
        "ES-US": "IsiPanishi (saseUS)",
        "ES-PY": "IsiPanishi (seHlabathi)",
        "ET-EE": "Isi-Estonia",
        "FI-FI": "IsiFinishi",
        "FR-CA": "IsiFrentshi (saseCanada)",
        "FR-FR": "IsiFrentshi (saseFransi)",
        "GD-IE": "I-Gaelic",
        "GU-IN": "IsiGujarati",
        "HE-IL": "IsiHebhere",
        "HI-IN": "IsiHindi",
        "HR-HR": "Isi-Croatia",
        "HU-HU": "Isi-Hungary",
        "IT-IT": "IsiTaliyane",
        "JA-JP": "IsiJapani",
        "KA-GE": "IsiJojiya",
        "KN-IN": "Isi-Kannada",
        "KO-KR": "IsiKoriya",
        "LV-LV": "Isi-Latvia",
        "LT-LT": "Isi-Lithuania",
        "ML-IN": "Isi-Malayalam",
        "MR-IN": "IsiMarathi",
        "MS-MY": "Isi-Malaysia",
        "NB-NO": "IsiNowiji",
        "NL-BE": "IsiDatshi (saseBelgium)",
        "NL-NL": "IsiDatshi (saseNetherlands)",
        "PA-IN": "IsiPunjabi",
        "PL-PL": "IsiPolishi",
        "PT-BR": "IsiPhuthukezi (saseBrazil)",
        "PT-PT": "IsiPhuthukezi (sasePortugal)",
        "RO-RO": "Isi-Romania",
        "RU-RU": "IsiRashiya",
        "SL-SL": "Isi-Slovenia",
        "SK-SK": "Isi-Slovakia",
        "SR-RS": "IsiSebhiya (saseLatin)",
        "SR-SP": "IsiSebhiya (saseCyrillic)",
        "ST-ZA": "IsiSotho",
        "SV-SE": "IsiSwidishi",
        "TA-IN": "Isi-Tamil",
        "TE-IN": "IsiTelugu",
        "TH-TH": "Isi-Thai",
        "TL-PH": "Isi-Tagalog",
        "TN-ZA": "IsiTswana",
        "TR-TR": "IsiThekhi",
        "UK-UA": "Isi-Ukraine",
        "UR-IN": "Isi-Urdu",
        "VI-VN": "Isi-Vietnam",
        "XH-ZA": "IsiXhosa",
        "ZH-CN": "IsiTshayina (saseTshayina)",
        "ZH-TW": "IsiTshayina (sase-Taiwan)",
        "ZU-ZU": "IsiZulu",
        "NO_RESULTS_FOUND": "Akukho ziphumo zifunyenweyo.",
        "USER": "Umsebenzisi",
        "SYNC": "Ngqamanisa",
        "TIME_LBL": "Ixesha:",
        "SET_TIME": "Seta Ixesha",
        "NEW_USER": "Faka iDayari yoMsebenzisi omTsha",
        "NEW_USER_CREATED": "Kudalwe umsebenzisi omtsha.",
        "TIME_ZONE_SET_CONFIRM": "Ngaba uqinisekile ufuna ukuseta iZowuni yeXesha ibe: <bdi>{{{ selectedTimeZone }}}</bdi>? <br/> I-aplikheshini isenokuphinda iqale ukuze yenze olu tshintsho.",
        "TIME_ZONE_SET_CONFIRM_NOCHANGE": "Ngaba uqinisekile ufuna ukuseta iZowuni yeXesha ibe: <bdi>{{{ selectedTimeZone }}}</bdi>?",
        "TIME_ZONE_SET_HEADER": "Uqinisekiso loSeto lweZowuni yeXesha",
        "TIME_ZONE_ERROR_HEADER": "Impazamo yeZowuni yeXesha",
        "TIME_ZONE_ERROR_MSG": "Kwenzeke impazamo ngelixa ufumana uluhlu lweeZowuni zeXesha. Nceda uqhagamshelane neZiko leNkxaso le-ERT ngoncedo olongezelelekileyo.",
        "TIME_ZONE_SET_ERROR_MSG": "Kwenzeke impazamo ngelixa useta iiZowuni zeXesha. Nceda uqhagamshelane neZiko leNkxaso le-ERT ngoncedo olongezelelekileyo.",
        "TIME_CONFIRMATION_INSTRUCTIONS": "Isixhobo sifuna ukuqinisekisa ixesha lalapha. Nceda ufake umhla nexesha lakho uzithathe kwindawo ethembekileyo.",
        "LOW_BATTERY": "Isilumkiso: Umlinganiselo webhetri usezantsi. Nceda uplage isixhobo ukuze siphinde sitshaje.",
        "CRITICAL_BATTERY": "Isilumkiso: Umlinganiselo webhetri usezantsi kakhulu. Nceda uplage isixhobo ukuze siphinde sitshaje, okanye siza kucima.",
        "SITE_ADMINISTRATOR": "Umlawuli weSayithi",
        "TIME_CONFIRMATION_HEADER": "Qinisekisa uMhla/iXesha",
        "TIMESLIP_ERROR": "Ixesha okanye umhla okwisixhobo sakho awuchanekanga. Nceda uye kwindawo enonxibelelwano lwe-intanethi uze uphinde uzame. Ukuba uyaqhubeka nokusokola, qhagamshelana noNakekelo lwaBathengi lakwa-ERT.",
        "P_AFFIDAVIT_HEADER": "<div><strong>iSayithi: {{{ getSiteCodeForSubject }}}</strong><br /><strong>I-ID yesiGulane: {{{ getParticipantCodeForSubject }}}</strong></div>",
        "RESTART_NOTIFICATION_HEADER": "Ukuphinda uqale kuyafuneka",
        "RESTART_NOTIFICATION_MSG": "Izowuni yexesha iye yatshintshwa. I-Aplikheshini iya kuphinda iqale ngemizuzwana eli-{{{ timeZoneChangeRestartCountdown }}}.",
        "RESTART_NOW": "Phinda uqale ngoku",
        "SECONDS": "imizuzwana",
        "MINUTES": "imizuzu",
        "SELECT_LANGUAGE": "Nceda ukhethe olona lwimi lukhethwayo ngomphandwa.",
        "ACCEPT": "Ndiyayamkela",
        "DECLINE": "Ndiyala",
        "EULA": "ILAYISENSI YOMSEBENZISI WOKUGQIBELA",
        "EULA_TEXT": "<p><strong><span class=\"text-underline\">OKUBALULEKILEYO</span>:  MUSA UKUCOFA KWIQHOSHA ELITHI YAMKELA DE UBE USIFUNDILE ESI SIVUMELWANO.  NGOKUCOFA KWIQHOSHA ELITHI YAMKELA, WAMKELA YONKE IMIMISELO YESI SIVUMELWANO.  UKUBA AWUYAMKELI YONKE IMIMISELO YESI SIVUMELWANO (1) MUSA UKUCOFA KWIQHOSHA ELITHI \"NDIYAYAMKELA\", (2) YEKA UKU-INSTOLA NENKQUBO YELAYISENSI NGOKUCOFA KWIQHOSHA ELITHI \"NDIYALA\".</strong></p><p>U-eResearchTechnology, Inc. (\"Umboneleli welayisensi\") ukunika ilungelo elingelolakho wedwa, elingagqithiselwayo lokusebenzisa isoftwe ka-eResearchTechnology, Inc. equlathwe kwesi sixhobo (\"Software\") ngokunxulumene nokuthatha kwakho inxaxheba kwisivumelwano solingo lwezonyango: <strong>{{{ clinicalTrial }}}</strong>.  Isoftwe ka-eResearchTechnology, Inc. ikhuselwe ngeepheyithenti ezikhutshiweyo nangezinye iipheyithenti ezilindisiweyo.  Esi sivumelwano asikudluliseli nawaphi amalungelo obunini kuyo nayiphi iSoftwe (okanye naziphi iikopi zayo), kodwa senza kuphela ilayisensi yokusebenzisa iSoftwe ngokuhambelana nayo yonke imimiselo yesi Sivumelwano.  Ubunini beSoftwe nayo yonke inxalenye yayo, nawo onke amalungelo obunini nawobutyebi bengqondo aqulathwe kuyo, ziya kuhlala zifumbathiswe uMboneleli weLayisensi ngawo onke amaxesha.</p><p>Uyavuma ukuba, ngokuthe ngqo okanye ngokugwegwelezayo, awusayi, (i) kuyibuyisela emva ngobunjineli, uyiqhaqhe okanye uyicazulule le Softwe; (ii) kuyikopa, uyihambise, uyivelise, uyitshintshe, udale umsebenzi osuselwe kuyo, uyitolike, uyilungiselele ingingqi yakho, uyithwale okanye kungenjalo uyilungise le Softwe; okanye awusayi (iii) kususa okanye uguqule naliphi ilungelo lekopi, ihlebo lorhwebo okanye ezinye izaziso zezomthetho eziqulathwe ngaphezu okanye ngaphakathi kweSoftwe.  UYAMKELA KWAYE UYAVUMA UKUBA LE SOFTWE ISENOKUQULATHA IKHOWUDI ETHINTELA UKUSETYENZISWA NGOKUNGAGUNYAZISWANGA KWALE SOFTWE.</p><br><p>UKUBA UYAYIVUMA YONKE LE NTO INGAPHAMBILI, nceda ukhethe – <strong>Ndiyayamkela</strong> –Ukucofa \"u-Ndiyayamkela\" kubonisa ukwamkela kwakho imimiselo yale layisensi.</p><p>UKUBA AWUYIVUMI YONKE LE NTO ENGAPHAMBILI, awugunyaziswanga ukuba uvume, khetha – <strong>u-Ndiyala</strong> – xa kunjalo, uza kubhlokwa kufikelelo oludlulileyo koku kule Softwe.  Ukuba ugunyazisiwe, usenokuyamkela ngelinye ixesha.</p>",
        "HAND_DEVICE_SITE_TITLE": "Nikezela ngesiXhobo kuMsebenzisi weSayithi",
        "HAND_DEVICE_SITE_BODY": "Nceda unikezele ngesixhobo kumsebenzisi wesayithi.",
        "SQ-AL": "Isi-Albania",
        "IMAGE_FOLDER": "{{{ imageFolder }}}",
        "MODAL_OK_TEXT": "KULUNGILE",
        "BROWSER_LOAD_ERROR": "Ipheyiji ayifunyenwanga. Nceda ukhangele unxibelelwano lwe-Intanethi yakho ze uzame kwakhona.",
		"NONEXISTENT_USER" : "Umsebenzisi akafunyenwanga.",
		"NO_USER_OF_ROLE" : "Akukho msebenzisi unale ndima ufunyenweyo.",
		"START_VISIT_OUTSIDE_WINDOW_MSG": "Faka {{{ getVisitName }}} ngaphandle kweli thuba lexesha elakhelweyo: {{{ startDate }}} - {{{ endDate }}}",
		"START_VISIT_HARD_STOP_MSG" : "Awukwazi ukufaka {{{ getVisitName }}} ngaphandle kweli thuba lexesha lakhelweyo: {{{ startDate }}} - {{{ endDate }}}",
		"YES" : "Ewe",
		"NO" : "HAYI"
    },
    "dates": {
        "setDateButtonLabel": "KULUNGILE",
        "setTimeButtonLabel": "KULUNGILE",
        "setDurationButtonLabel": "Seta Umkhamo Wexesha",
        "calTodayButtonLabel": "Tsibela kuNamhlanje",
        "titleDateDialogLabel": "Seta Umhla",
        "titleTimeDialogLabel": "Seta Ixesha",
        "daysOfWeek": [
            "Icawa",
            "Mvulo",
            "Lwesibini",
            "Lwesithathu",
            "Lwesine",
            "Lwesihlanu",
            "Mgqibelo"
        ],
        "daysOfWeekShort": [
            "Su",
            "Mo",
            "Tu",
            "We",
            "Th",
            "Fr",
            "Sa"
        ],
        "monthsOfYear": [
            "Janyuwari",
            "Febhuwari",
            "Matshi",
            "Apreli",
            "Meyi",
            "Juni",
            "Julayi",
            "Agasti",
            "Septemba",
            "Okthobha",
            "Novemba",
            "Disemba"
        ],
        "monthsOfYearShort": [
            "Jan",
            "Feb",
            "Mat",
            "Apr",
            "Meyi",
            "Jun",
            "Jul",
            "Aga",
            "Sep",
            "Okt",
            "Nov",
            "Dis"
        ],
        "durationLabel": [
            "Iintsuku",
            "Iiyure",
            "imizuzu",
            "imizuzwana"
        ],
        "durationDays": [
            "Usuku",
            "Iintsuku"
        ],
        "tooltip": "Isikhethi soMhla oVulekileyo",
        "nextMonth": "Inyanga Elandelayo",
        "prevMonth": "Inyanga Edlulileyo",
        "clearButton": "Susa",
        "meridiem": [
            "KUSASA",
            "EMVA KWEMINI"
        ]
    }
}
