{
    "namespace": "CORE",
    "language": "zh",
    "locale": "TW",
    "localized": "繁體中文 (台灣)",
    "direction": "ltr",
    "resources": {
        "ABOUT": "關於",
        "ACTIVATED_ELSEWHERE": "已啟動其他裝置來收集您的試驗資料。如果您認為此做法有誤，請洽詢您的研究專員。",
        "ACTIVATION_CODE": "安裝碼：",
        "AFFIDAVIT": "要儲存您的回應時，請先選取「確定」，然後選取「下一步」。",
        "AFFIDAVIT_HELP": "感謝您。您已提供所有必要的回應。您可選取「返回」，檢查或變更您的回應。",
        "ANSWER_ATTEMPT_EXCEEDED": "您輸入了太多次錯誤的答案，您可以按一下忘記密碼防護答案的連結。",
        "APPLICATION_HEADER": "{{{ appHeader }}}",
        "BACK": "返回",
        "BACK_OUT_CONFIRM": "您確定要結束嗎？將會遺失有關此表單的回應。",
        "CANCEL": "取消",
        "CANCEL_UPDATE": "取消更新",
        "CHANGE_PASSWORD": "變更密碼",
        "CHANGE_SECRET_QUESTION": "變更密碼防護問題",
        "CODE_ENTRY_NO_SERVER": "伺服器無法使用",
        "CONNECTION_REQUIRED": "需要網際網路連線。",
        "CONNECTION_TIMEOUT": "連線逾時。",
        "CONFIRM_PASSWORD": "確認密碼：",
        "CONTACT_STUDY_COORDINATOR": "請連絡研究專員",
        "CONTACT_UNLOCK_CODE": "如需要今日的解鎖碼，請洽詢您的研究專員：",
        "CORE_PRODUCT_VERSION_LABEL": "產品版本：",
        "CURRENT_DATE": "{{{ currentDate }}}",
        "CURRENT_PASSWORD": "目前密碼：",
        "DATE_LBL": "日期：",
        "DEACTIVATED_LABEL": "您已結束使用本試驗的 ERT。如果您認為此部分有誤，請洽詢您的研究專員。",
        "DEVICE_ACTIVATION": "安裝",
        "DEVICE_NOT_SUPPORTED": "未支援此裝置。如需本試驗所使用裝置的核准相關資訊，請洽詢您的研究專員。",
        "DEVICE_REACTIVATION": "裝置安裝",
        "DIARY_TIMEOUT": "此表單已逾時。",
        "DOWNLOAD_FAILED": "應用程式下載已中斷。請在網際網路連線下重試一次，或者連絡 ERT 研究支援中心。",
        "DOWNLOAD_FAILURE": "下載已中斷",
        "ENTER_NEW_PASSWORD": "新密碼：",
        "ERROR": "錯誤。請連絡 ERT 研究支援中心。",
        "ERROR_AFTER_ACTIVATION_SUCCESSFUL": "發生錯誤。您將需要輸入您的設定碼與密碼。",
        "ERROR_CODE": "錯誤碼：",
        "ERROR_TITLE": "錯誤",
        "FORGOT_PASSWORD": "忘記密碼？",
        "FORGOT_SECRET_ANSWER": "忘記密碼防護答案？",
        "INCORRECT_ANSWER": "答案有誤",
        "INCORRECT_UNLOCK_CODE": "解鎖碼有誤",
        "INSTALLING": "安裝應用程式",
        "INVALID_CODE": "無效安裝碼",
        "LOCAL_STORAGE_FAILURE": "本機儲存失敗",
        "LOG_IN": "登入",
        "LOG_LEVEL": "記錄層級：",
        "LOGOUT": "登出",
        "LOGOUT_CONFIRM": "您確定要登出嗎？",
        "NEXT": "下一步",
        "NEXT_ACTION": " 該在 ERT 中執行下一個動作了",
        "NO_DIARIES_TITLE": "沒有需要輸入的報告",
        "OK": "確定",
        "PASSWORD": "密碼：",
        "PASSWORD_ATTEMPT_EXCEEDED": "您輸入了太多次錯誤的密碼，您可以按一下忘記密碼的連結。",
        "PASSWORD_CHANGE_FAILED": "已啟動其他裝置來收集您的試驗資料。請變更裝置上的密碼。",
        "PASSWORD_CHANGE_SUCCESS": "您已成功更新密碼。",
        "PASSWORD_INVALID": "密碼有誤",
        "PLEASE_ANSWER_SQ": "請回答密碼防護問題：",
        "PLEASE_CONFIRM": "請確認",
        "PLEASE_CONTACT": "請連絡 ERT 研究支援中心。",
        "PLEASE_TRY_OR_CONTACT_SUPPORT": "請再試一次，或者連絡 ERT 研究支援中心。",
        "PLEASE_WAIT": "請稍候...",
        "PORTRAIT_ONLY": "請保持裝置直立。",
        "PRIVATE_BROWSING_ON": "請關閉私密瀏覽功能。如果您持續遇到問題，請洽詢您的研究專員。",
        "PRIVACY_POLICY": "隱私權政策",
        "PRIVACY_POLICY_APPLICATION_UNAVAILABILITY": "暫不提供 ERT 隱私權政策。",
        "PRIVACY_POLICY_ACTIVATION_UNAVAILABILITY": "暫不提供 ERT 隱私權政策。啟動之後，可從設定頁面查閱 ERT 隱私權政策。",
        "PROTOCOL": "試驗計畫書：",
        "REQUIRED_ANSWER": "請回答",
        "RETRY": "再試一次",
        "RESET_PASSWORD": "重設密碼",
        "RESET_SECRET_QUESTION": "重設密碼防護問題",
        "SECRET_ANSWER": "密碼防護答案：",
        "SECRET_QUESTION": "密碼防護問題：",
        "SECRET_QUESTION_CHANGE_FAILED": "已啟動其他裝置來收集您的試驗資料。請變更裝置上的密碼防護問題。",
        "SECRET_QUESTION_CHANGE_SUCCESS": "您已成功更新密碼與密碼防護問題。",
        "SETTINGS": "設定",
        "SITE": "研究單位：",
        "SKIP_QUESTION": "您確定要略過螢幕上的回應嗎？",
        "SPONSOR": "委託者：",
        "STORED_REPORTS": "儲存的表單：",
        "STUDY_VERSION": "試驗版本：",
        "STUDY_URL": "試驗 URL：",
        "SUBJECT_ID": "病患編碼：",
        "TEMPORARY_UNLOCK_CODE": "請輸入由研究專員提供的解鎖碼。",
        "TRANSMIT_REPORTS": "更新",
        "UPDATE_CACHED_DELETED": "ERT 並未完成更新。您需要網際網路連線，才能使用 ERT。請連絡 ERT 研究支援中心。",
        "UPDATE_FAILED": "ERT 並未完成更新。請確定裝置已連線到網際網路，並再試一次。",
        "UPDATE_FAILURE": "未完成更新",
        "UPDATE_SUCCESS": "更新成功",
        "WELCOME": "歡迎",
        "ALARM_OFF_LBL": "關閉",
        "ALARM_TURN_OFF": "關閉",
        "SET_ALARMS": "設定警報",
        "SCHED_NO_DIARIES_AVAILABLE": "目前沒有到期的報告",
        "TRAINER": "訓練者模式",
        "TRAINER_EXIT": "結束訓練者模式",
        "TRAINER_EXIT_NOTIFICATION": "您正在結束訓練者模式",
        "TRAINER_HEADER": "(訓練者)",
        "ELPU_FAILURE": "您使用本 ERT 裝置的期限已結束，但是發生錯誤。請重試。",
        "ELPU_ON_REPLACED_DEVICE": "您使用本 ERT 裝置的期限已結束。請改用替代裝置。",
        "SECURITY_QUESTION_0": "你的母親姓什麼？",
        "SECURITY_QUESTION_1": "你在哪個城市出生？",
        "SECURITY_QUESTION_2": "你的第一隻寵物叫什麼名字？",
        "SECURITY_QUESTION_3": "你最喜歡哪種運動？",
        "SECURITY_QUESTION_4": "你哪一年最高學歷畢業？",
        "SECURITY_QUESTION_5": "你最大的孩子叫什麼名字？",
        "SECURITY_QUESTION_6": "你小時候最喜歡的朋友叫什麼名字？",
        "SECURITY_QUESTION_7": "你小學三年級的老師姓什麼？",
        "SECURITY_QUESTION_8": "你第一個工作在哪個城市或鄉鎮？",
        "SELECT_SITE_USER": "請選擇研究單位使用者姓名",
        "SITE_USER_NAME": "研究單位使用者姓名：",
        "ADD_SITE_USER": "新增研究單位使用者",
        "INVALID_ENTRY": "無效輸入",
        "HANDOFF_MESSAGE": "<strong>病患必須填寫下一組畫面以設定其表單密碼。</strong>",
        "REVERSE_HANDOFF_CONFIRM": "如果您選取「確定」，啟動流程就會重新開始。您確定要重新開始啟動嗎？",
        "SITE_GATEWAY_TITLE": "研究單位閘道",
        "USER_ALREADY_EXISTS": "使用者已存在",
        "SITE_SIGNATURE": "簽名者：",
        "SITE_REPORT_AFF": "我已經輸入、再三檢查，並確認前述資料無誤。<br /><br /><strong>簽名：</strong>{{{ getActiveUserName }}}",
        "PATIENT_REPORT_AFF": "我已經輸入、再三檢查，並確認前述資料無誤。<br /><br /><strong>使用姓名縮寫者：</strong>{{{ getActiveUserName }}}",
        "CLEAR_SIGNATURE": "清除簽名",
        "STUDY_ALIAS": "{{{ studyAlias }}}",
        "SITE_ACTIVATED_ELSEWHERE": "已啟動其他裝置來收集該病患的試驗資料。如果您認為此做法有誤，請洽詢研究專員。",
        "SITE_DEACTIVATED_LABEL": "該病患已結束使用本試驗的 ERT。如果您認為此部分有誤，請洽詢研究專員。",
        "SIGNATURE_DATA_LIMIT_EXCEEDED": "簽名欄位無法按照所簽方式精準呈現您的簽名。請改簽您的姓名縮寫。",
        "PAIRED": "配對",
        "BLUETOOTH_REG_TITLE": "eSense 裝置配對",
        "BLUETOOTH_REG_REFRESH_BUTTON": "更新清單",
        "BLUETOOTH_PAIR_DEVICE": "配對選取的裝置",
        "BLUETOOTH_PAIRING_FAILED": "配對選取的裝置失敗。請再試一次。",
        "BLUETOOTH_PAIRING_SUCCESS": "配對選取的裝置成功。",
        "BLUETOOTH_REG_NO_DEVICES_FOUND": "找不到任何裝置。請確定裝置靠近 ERT 並且處於傳輸模式。",
        "SYNC_FAILED": "與伺服器同步失敗。",
        "DIARY_REQUIRES_E_SENSE_SUPPORT": "未支援 eSense。此表單需要 eSense 支援。",
        "ERROR_E_SENSE_ENABLE": "無法啟用 eSense。",
        "E_SENSE_NOT_PAIRED": "沒有 eSense 裝置配對。此表單需要已配對的 eSense 裝置。",
        "BLUETOOTH_SYNC_FAILURE_TOP": "ERT 無法與 {{{ eSenseDeviceName }}} 裝置進行通訊。",
        "BLUETOOTH_SYNC_FAILURE_MIDDLE": "請確定號碼為 {{{ eSenseSerialNumber }}} 的 {{{ eSenseDeviceName }}} 裝置靠近 ERT 並且處於傳輸模式。",
        "PLUGIN_MISSING": "無法載入需要的外掛程式。",
        "WRAPPER_VERSION": "包裝程式版本：",
        "SUPPORT": "客戶支援",
        "SUPPORT_MESSAGE": "美國的使用者可以撥打 800-748-5669 與 ERT 支援中心聯繫。世界各國的使用者請選擇以下最近的國家：",
        "SUPPORT_DROPDOWN": "請選擇您的國家",
        "SUPPORT_NAME_ARGENTINA": "阿根廷",
        "SUPPORT_NUMBER_ARGENTINA": "<bdi>0800 444 0962</bdi>",
        "SUPPORT_NAME_ARMENIA": "亞美尼亞",
        "SUPPORT_NUMBER_ARMENIA": "<bdi>+1 617 681 6306</bdi>",
        "SUPPORT_NAME_AUSTRALIA": "澳洲",
        "SUPPORT_NUMBER_AUSTRALIA": "<bdi>1 800 800 051</bdi>",
        "SUPPORT_NAME_AUSTRIA": "奧地利",
        "SUPPORT_NUMBER_AUSTRIA": "<bdi>0800 100 405</bdi>",
        "SUPPORT_NAME_BELARUS": "白俄羅斯",
        "SUPPORT_NUMBER_BELARUS": "<bdi>8 820 0321 0036</bdi>",
        "SUPPORT_NAME_BELGIUM": "比利時",
        "SUPPORT_NUMBER_BELGIUM_1": "(英語)：<bdi>0800 58 016</bdi>",
        "SUPPORT_NUMBER_BELGIUM_2": "(法語)：<bdi>0800 71 076</bdi>",
        "SUPPORT_NUMBER_BELGIUM_3": "(德語)：<bdi>0800 71 113</bdi>",
        "SUPPORT_NAME_BRAZIL": "巴西",
        "SUPPORT_NUMBER_BRAZIL": "<bdi>0800 891 5909</bdi>",
        "SUPPORT_NAME_BOSNIA": "波士尼亞",
        "SUPPORT_NUMBER_BOSNIA": "<bdi>+1 617 681 6306</bdi>",
        "SUPPORT_NAME_BULGARIA": "保加利亞",
        "SUPPORT_NUMBER_BULGARIA": "<bdi>00800 0010</bdi>，接著撥 <bdi>866 245 4931</bdi>",
        "SUPPORT_NAME_CANADA": "加拿大",
        "SUPPORT_NUMBER_CANADA": "<bdi>1 800 748 5669</bdi>",
        "SUPPORT_NAME_CHILE": "智利",
        "SUPPORT_NUMBER_CHILE": "<bdi>123 0020 3408</bdi>",
        "SUPPORT_NAME_CHINA": "中國",
        "SUPPORT_NUMBER_CHINA_1": "NetCom (北方)：<bdi>1 0800 74 40 164</bdi>",
        "SUPPORT_NUMBER_CHINA_2": "Telecom (南方)：<bdi>1 0800 44 00 158</bdi>",
        "SUPPORT_NAME_COLOMBIA": "哥倫比亞",
        "SUPPORT_NUMBER_COLOMBIA": "<bdi>01 800 911 0010</bdi>，接著撥 <bdi>866 310 3707</bdi>",
        "SUPPORT_NAME_COSTA_RICA": "哥斯大黎加",
        "SUPPORT_NUMBER_COSTA_RICA": "<bdi>0800 013 1210</bdi>",
        "SUPPORT_NAME_CROATIA": "克羅埃西亞",
        "SUPPORT_NUMBER_CROATIA": "<bdi>0800 222 953</bdi>",
        "SUPPORT_NAME_CZECH_REPUBLIC": "捷克",
        "SUPPORT_NUMBER_CZECH_REPUBLIC": "<bdi>800 142 150</bdi>",
        "SUPPORT_NAME_DENMARK": "丹麥",
        "SUPPORT_NUMBER_DENMARK": "<bdi>80 60 00 09</bdi>",
        "SUPPORT_NAME_EGYPT": "埃及",
        "SUPPORT_NUMBER_EGYPT": "<bdi>02 510 0200</bdi>，接著撥 <bdi>866 310 3707</bdi>",
        "SUPPORT_NAME_EL_SALVADOR": "薩爾瓦多",
        "SUPPORT_NUMBER_EL_SALVADOR": "<bdi>+1 617 681 6306</bdi>",
        "SUPPORT_NAME_ESTONIA": "愛沙尼亞",
        "SUPPORT_NUMBER_ESTONIA": "<bdi>800 00 44 154</bdi>",
        "SUPPORT_NAME_FINLAND": "芬蘭",
        "SUPPORT_NUMBER_FINLAND": "<bdi>0800 11 6366</bdi>",
        "SUPPORT_NAME_FRANCE": "法國",
        "SUPPORT_NUMBER_FRANCE": "<bdi>0800 10 19 79</bdi>",
        "SUPPORT_NAME_GERMANY": "德國",
        "SUPPORT_NUMBER_GERMANY": "<bdi>0800 101 28 21</bdi>",
        "SUPPORT_NAME_GREECE": "希臘",
        "SUPPORT_NUMBER_GREECE": "<bdi>00 800 1311</bdi>，接著撥 <bdi>866 310 3707</bdi>",
        "SUPPORT_NAME_GUATEMALA": "瓜地馬拉",
        "SUPPORT_NUMBER_GUATEMALA": "<bdi>1 800 624 0079</bdi>",
        "SUPPORT_NAME_HONG_KONG": "香港",
        "SUPPORT_NUMBER_HONG_KONG": "<bdi>3002 1665</bdi>",
        "SUPPORT_NAME_HUNGARY": "匈牙利",
        "SUPPORT_NUMBER_HUNGARY": "<bdi>06 800 14 571</bdi>",
        "SUPPORT_NAME_ICELAND": "冰島",
        "SUPPORT_NUMBER_ICELAND": "<bdi>800 8544</bdi>",
        "SUPPORT_NAME_INDIA": "印度",
        "SUPPORT_NUMBER_INDIA": "<bdi>000 800 440 1125</bdi>",
        "SUPPORT_NAME_INDONESIA": "印尼",
        "SUPPORT_NUMBER_INDONESIA": "<bdi>008 800 330 334</bdi>",
        "SUPPORT_NAME_IRELAND": "愛爾蘭",
        "SUPPORT_NUMBER_IRELAND": "<bdi>1 800 946 700</bdi>",
        "SUPPORT_NAME_ISRAEL": "以色列",
        "SUPPORT_NUMBER_ISRAEL": "<bdi>1 809 470 062</bdi>",
        "SUPPORT_NAME_ITALY": "義大利",
        "SUPPORT_NUMBER_ITALY": "<bdi>800 90 56 37</bdi>",
        "SUPPORT_NAME_JAPAN": "日本",
        "SUPPORT_NUMBER_JAPAN": "如果要查詢您的試驗免費專線，請參閱您的 ePRO 試驗資訊指南。",
        "SUPPORT_NAME_LATVIA": "拉脫維亞",
        "SUPPORT_NUMBER_LATVIA": "<bdi>8000 2151</bdi>",
        "SUPPORT_NAME_LEBANON": "黎巴嫩",
        "SUPPORT_NUMBER_LEBANON": "<bdi>01-426-801</bdi> 接著撥 <bdi>866 310 3707</bdi>",
        "SUPPORT_NAME_LITHUANIA": "立陶宛",
        "SUPPORT_NUMBER_LITHUANIA": "<bdi>8800 30207</bdi>",
        "SUPPORT_NAME_MALAYSIA": "馬來西亞",
        "SUPPORT_NUMBER_MALAYSIA": "<bdi>1800 80 59 71</bdi>",
        "SUPPORT_NAME_MEXICO": "墨西哥",
        "SUPPORT_NUMBER_MEXICO_1": "(英語)：<bdi>001 800 748 5669</bdi>",
        "SUPPORT_NUMBER_MEXICO_2": "(西班牙語)：<bdi>001 855 631 6952</bdi>",
        "SUPPORT_NAME_MOLDOVA": "摩爾多瓦",
        "SUPPORT_NUMBER_MOLDOVA": "<bdi>617 681 6306</bdi>",
        "SUPPORT_NAME_NETHERLANDS": "荷蘭",
        "SUPPORT_NUMBER_NETHERLANDS": "<bdi>0800 023 1389</bdi>",
        "SUPPORT_NAME_NEW_ZEALAND": "紐西蘭",
        "SUPPORT_NUMBER_NEW_ZEALAND": "<bdi>0800 110 178</bdi>",
        "SUPPORT_NAME_NORWAY": "挪威",
        "SUPPORT_NUMBER_NORWAY": "<bdi>800 62 051</bdi>",
        "SUPPORT_NAME_PAKISTAN": "巴基斯坦",
        "SUPPORT_NUMBER_PAKISTAN": "<bdi>00 800 0100</bdi>，接著撥 <bdi>866 237 9767</bdi>",
        "SUPPORT_NAME_PANAMA": "巴拿馬",
        "SUPPORT_NUMBER_PANAMA": "<bdi>001 800 201 3095</bdi>",
        "SUPPORT_NAME_PERU": "秘魯",
        "SUPPORT_NUMBER_PERU": "<bdi>0800 5 0974</bdi>",
        "SUPPORT_NAME_PHILIPPINES": "菲律賓",
        "SUPPORT_NUMBER_PHILIPPINES": "<bdi>1 800 1116 0651</bdi>",
        "SUPPORT_NAME_POLAND": "波蘭",
        "SUPPORT_NUMBER_POLAND": "<bdi>00800 331 1262</bdi>",
        "SUPPORT_NAME_PORTUGAL": "葡萄牙",
        "SUPPORT_NUMBER_PORTUGAL": "<bdi>800 206 172</bdi>",
        "SUPPORT_NAME_PUERTO_RICO": "波多黎各 (美屬)",
        "SUPPORT_NUMBER_PUERTO_RICO": "<bdi>1 800 748 5669</bdi>",
        "SUPPORT_NAME_ROMANIA": "羅馬尼亞",
        "SUPPORT_NUMBER_ROMANIA": "<bdi>0800 894492</bdi>",
        "SUPPORT_NAME_RUSSIA": "俄羅斯",
        "SUPPORT_NUMBER_RUSSIA_1": "(主要 - 免費)：<bdi>8 10 800 249 13011</bdi>",
        "SUPPORT_NUMBER_RUSSIA_2": "(莫斯科內)：<bdi>363-2400</bdi><br> 接著撥 <bdi>866 310 3707</bdi>",
        "SUPPORT_NUMBER_RUSSIA_3": "(莫斯科外)：<bdi>8^(495) 363-2400</bdi><br> 接著撥 <bdi>866 310 3707</bdi>",
        "SUPPORT_NUMBER_RUSSIA_4": "(聖彼得堡內)：<bdi>363-2400</bdi><br> 接著撥 <bdi>866 310 3707</bdi>",
        "SUPPORT_NUMBER_RUSSIA_5": "(聖彼得堡外)：<bdi>8^(495) 363-2400</bdi><br> 接著撥 <bdi>866 310 3707</bdi>",
        "SUPPORT_NAME_SAUDI_ARABIA": "沙烏地阿拉伯",
        "SUPPORT_NUMBER_SAUDI_ARABIA": "<bdi>+1 617 681 6306</bdi>",
        "SUPPORT_NAME_SERBIA": "塞爾維亞",
        "SUPPORT_NUMBER_SERBIA": "<bdi>+1 617 973 1739</bdi>",
        "SUPPORT_NAME_SINGAPORE": "新加坡",
        "SUPPORT_NUMBER_SINGAPORE": "<bdi>800 616 30 03</bdi>",
        "SUPPORT_NAME_SLOVAKIA": "斯洛伐克",
        "SUPPORT_NUMBER_SLOVAKIA": "<bdi>0800 0044 65</bdi>",
        "SUPPORT_NAME_SLOVENIA": "斯洛維尼亞",
        "SUPPORT_NUMBER_SLOVENIA": "<bdi>+1 617 681 6306</bdi>",
        "SUPPORT_NAME_SOUTH_AFRICA": "南非",
        "SUPPORT_NUMBER_SOUTH_AFRICA": "<bdi>0800 99 5853</bdi>",
        "SUPPORT_NAME_SOUTH_KOREA": "南韓",
        "SUPPORT_NUMBER_SOUTH_KOREA": "<bdi>00308 33 00 08</bdi>",
        "SUPPORT_NAME_SPAIN": "西班牙",
        "SUPPORT_NUMBER_SPAIN": "<bdi>900 90 2541</bdi>",
        "SUPPORT_NAME_SWEDEN": "瑞典",
        "SUPPORT_NUMBER_SWEDEN": "<bdi>020 120 99 69</bdi>",
        "SUPPORT_NAME_SWITZERLAND": "瑞士",
        "SUPPORT_NUMBER_SWITZERLAND_1": "(英語)：<bdi>0800 199 325</bdi>",
        "SUPPORT_NUMBER_SWITZERLAND_2": "(法語)：<bdi>0800 891 183</bdi>",
        "SUPPORT_NUMBER_SWITZERLAND_3": "(德語)：<bdi>0800 891 025</bdi>",
        "SUPPORT_NAME_TAIWAN": "台灣",
        "SUPPORT_NUMBER_TAIWAN": "<bdi>00801 33 33 42</bdi>",
        "SUPPORT_NAME_THAILAND": "泰國",
        "SUPPORT_NUMBER_THAILAND": "<bdi>1 800 33 140 353</bdi>",
        "SUPPORT_NAME_TUNISIA": "突尼西亞",
        "SUPPORT_NUMBER_TUNISIA": "<bdi>+1 617 681 6306</bdi>",
        "SUPPORT_NAME_TURKEY": "土耳其",
        "SUPPORT_NUMBER_TURKEY": "<bdi>00 800 151 1335</bdi>",
        "SUPPORT_NAME_UKRAINE": "烏克蘭",
        "SUPPORT_NUMBER_UKRAINE": "<bdi>0^00 11</bdi>，接著撥 <bdi>866 245 4931</bdi>",
        "SUPPORT_NAME_UAE": "阿拉伯聯合大公國",
        "SUPPORT_NUMBER_UAE": "<bdi>8000-021</bdi>，接著撥 <bdi>866 310 3707</bdi>",
        "SUPPORT_NAME_UK": "英國",
        "SUPPORT_NUMBER_UK": "<bdi>0800 015 0408</bdi>",
        "SUPPORT_NAME_US": "美國",
        "SUPPORT_NUMBER_US_1": "(主要)：<bdi>1 800 748 5669</bdi>",
        "SUPPORT_NUMBER_US_2": "(備用)：<bdi>1 877 748 5669</bdi>",
        "SUPPORT_NAME_VENEZUELA": "委內瑞拉",
        "SUPPORT_NUMBER_VENEZUELA_1": "(英語)：<bdi>0 800 552 6288</bdi><br> 接著撥 <bdi>866 310 3707</bdi>",
        "SUPPORT_NUMBER_VENEZUELA_2": "(西班牙語)：<bdi>0 800 100 3063</bdi>",
        "USER_NAME": "使用者姓名：",
        "SUBJECT_ROLE": "病患編碼：{{{ getParticipantCode }}}",
        "SITE_ROLE": "研究單位",
        "TEMPORARY_PASSWORD_MESSAGE": "請提供新使用者暫時性密碼。新使用者在登入後將必須建立新密碼。",
        "SHARED_PASSWORD_MESSAGE": "新使用者的密碼必須由 StudyWorks 擷取。",
        "TEMP_PASSWORD": "暫時性密碼：",
        "ROLES": "角色：",
        "LANGUAGE": "語言：",
        "FULL_NAME": "全名：",
        "CONFIRM_TEMP_PASS": "確認暫時性密碼：",
        "PASSWORD_MISMATCH": "密碼確認的內容與密碼不符",
        "PASSWORD_INVALID_CHARACTERS": "僅可使用數字",
        "USER_NAME_INVALID_CHARACTERS": "請勿使用特殊字元",
        "USER_NAME_MORE_THAN_25": "請使用 25 個以下的字元",
        "PRIVACY_POLICY_VERSION_LABEL": "版本：",
        "PRIVACY_POLICY_VERSION": "1.6.0",
        "PRIVACY_POLICY_LAST_UPDATED_LABEL": "最後更新日期：",
        "PRIVACY_POLICY_LAST_UPDATED": "2014 年 1 月 21 日",
        "PRIVACY_POLICY_TEXT_LABEL": "關於隱私權：",
        "PRIVACY_POLICY_TEXT": "您即將進行安裝之軟體由 ERT Corporation 提供。ERT 和您的臨床試驗研究單位一同合作，確保在未經您的研究單位之允許下，無人能得知您的身分。您有權與研究單位安排檢閱時程，以查看自己的記錄。",
        "SUBJECT_REPORT_AFF": "我特此聲明已盡所能回答所有問題。",
        "SUBJECT_INITIALS_LABEL": "病患姓名縮寫：",
        "SUBJECT": "病患",
        "SET_TIMEZONE": "設定時區",
        "SET_TIMEZONE_MESSAGE": "選取您的時區：",
        "SET_TIMEZONE_BUTTON": "設定",
        "TIME_ZONE_CONFIRM_HEADER": "確認時區變更",
        "TIME_ZONE_CONFIRM": "您確定要變更時區嗎？本應用程式將重新啟動以套用本次變更。",
        "TIME_ZONE_EUROPE_KALININGRAD": "歐洲/加里寧格勒",
        "TIME_ZONE_EUROPE_MOSCOW": "歐洲/莫斯科",
        "TIME_ZONE_ASIA_KARACHI": "亞洲/喀拉蚩",
        "TIME_ZONE_ASIA_YEKATERINBURG": "亞洲/葉卡捷琳堡",
        "TIME_ZONE_ASIA_NOVOSIBIRSK": "亞洲/新西伯利亞",
        "TIME_ZONE_ASIA_KRASNOYARSK": "亞洲/克拉斯諾亞爾斯克",
        "TIME_ZONE_ASIA_IRKUTSK": "亞洲/伊爾庫茨克",
        "TIME_ZONE_ASIA_YAKUTSK": "亞洲/雅庫茨克",
        "TIME_ZONE_ASIA_VLADIVOSTOK": "亞洲/海參崴",
        "TIME_ZONE_ASIA_KAMCHATKA": "亞洲/堪察加",
        "AF-ZA": "南非荷蘭語",
        "AR-EG": "阿拉伯語",
        "BE-BY": "白俄羅斯語",
        "BG-BG": "保加利亞語",
        "BN-IN": "孟加拉語",
        "BS-BA": "波士尼亞語",
        "CA-ES": "加泰隆語",
        "CS-CZ": "捷克語",
        "DA-DK": "丹麥語",
        "DE-DE": "德語 (德國)",
        "DE-AT": "德語 (奧地利)",
        "EL-GR": "希臘語",
        "EN-GB": "英語 (英國)",
        "EN-US": "英語 (美國)",
        "ES-ES": "西班牙語 (西班牙)",
        "ES-US": "西班牙語 (美國)",
        "ES-PY": "西班牙語 (通用)",
        "ET-EE": "愛沙尼亞語",
        "FI-FI": "芬蘭語",
        "FR-CA": "法語 (加拿大)",
        "FR-FR": "法語 (法國)",
        "GD-IE": "蓋爾語",
        "GU-IN": "古吉拉特語",
        "HE-IL": "希伯來語",
        "HI-IN": "印度語",
        "HR-HR": "克羅埃西亞語",
        "HU-HU": "匈牙利語",
        "IT-IT": "義大利語",
        "JA-JP": "日語",
        "KA-GE": "喬治亞語",
        "KN-IN": "康納達語",
        "KO-KR": "韓語",
        "LV-LV": "拉脫維亞語",
        "LT-LT": "立陶宛語",
        "ML-IN": "馬拉亞拉姆語",
        "MR-IN": "馬拉提語",
        "MS-MY": "馬來語",
        "NB-NO": "挪威語",
        "NL-BE": "荷蘭語 (比利時)",
        "NL-NL": "荷蘭語 (荷蘭)",
        "PA-IN": "旁遮普語",
        "PL-PL": "波蘭語",
        "PT-BR": "葡萄牙語 (巴西)",
        "PT-PT": "葡萄牙語 (葡萄牙)",
        "RO-RO": "羅馬尼亞語",
        "RU-RU": "俄語",
        "SL-SL": "斯洛維尼亞語",
        "SK-SK": "斯洛伐克語",
        "SR-RS": "塞爾維亞語 (拉丁)",
        "SR-SP": "塞爾維亞語 (西里爾)",
        "ST-ZA": "梭蘇語",
        "SV-SE": "瑞典語",
        "TA-IN": "坦米爾語",
        "TE-IN": "德拉威語",
        "TH-TH": "泰語",
        "TL-PH": "塔加拉語",
        "TN-ZA": "茨瓦納語",
        "TR-TR": "土耳其語",
        "UK-UA": "烏克蘭語",
        "UR-IN": "烏爾都語",
        "VI-VN": "越南語",
        "XH-ZA": "科薩語",
        "ZH-CN": "中文 (簡體)",
        "ZH-TW": "中文 (繁體)",
        "ZU-ZU": "祖魯語",
        "NO_RESULTS_FOUND": "找不到結果。",
        "USER": "使用者",
        "SYNC": "同步",
        "TIME_LBL": "時間：",
        "SET_TIME": "設定時間",
        "NEW_USER":"新增新的使用者日記",
        "NEW_USER_CREATED":"新使用者已建立。",
        "TIME_ZONE_SET_CONFIRM":"您確定要設定時區為{{{selectedTimeZone}}}嗎？<br/>本應用程式可能會重新啟動以套用本次變更。",
        "TIME_ZONE_SET_CONFIRM_NOCHANGE":"您確定要設定時區為{{{selectedTimeZone}}}嗎？",
        "TIME_ZONE_SET_HEADER":"確認時區設定",
        "TIME_ZONE_ERROR_HEADER":"時區錯誤",
        "TIME_ZONE_ERROR_MSG":"取得時區清單時發生錯誤。如需更多幫助，請連絡 ERT 支援中心。",
        "TIME_ZONE_SET_ERROR_MSG":"設定時區時發生錯誤。如需更多幫助，請連絡 ERT 支援中心。",
        "TIME_CONFIRMATION_INSTRUCTIONS":"本裝置需要確認您的當地時間。請根據可靠的來源輸入日期和時間。",
        "LOW_BATTERY":"警告：電池處於低電力狀態。請將本裝置插入電源以重新充電。",
        "CRITICAL_BATTERY":"警告：電池處於嚴重低電力狀態。請將本裝置插入電源以重新充電，否則裝置將關機。",
        "SITE_ADMINISTRATOR":"研究單位管理員",
        "TIME_CONFIRMATION_HEADER":"確認日期/時間",
        "TIMESLIP_ERROR":"您裝置上的時間或日期有誤。請移動到有網際網路連線的位置，然後再試一次。如果您持續遇到問題，請洽詢 ERT 客戶服務。",
        "P_AFFIDAVIT_HEADER":"<div><strong>研究單位：{{{ getSiteCodeForSubject }}}</strong><br /><strong>病患識別碼：{{{ getParticipantCodeForSubject }}}</strong></div>",
        "RESTART_NOTIFICATION_HEADER":"必須重新啟動",
        "RESTART_NOTIFICATION_MSG":"時區已變更。應用程式將於 {{{ timeZoneChangeRestartCountdown }}}後重新啟動。",
        "RESTART_NOW":"立刻重新啟動",
        "SECONDS":"秒",
        "MINUTES":"分",
        "SELECT_LANGUAGE":"請選擇受試者偏好的語言。",
        "ACCEPT":"我同意",
        "DECLINE":"我拒絕",
        "EULA":"終端使用者授權",
        "EULA_TEXT":"<p><strong><span class=\"text-underline\">重要</span>：閱讀完此協議前，請勿按下同意按鈕。按下同意按鈕，表示您同意此協議的所有規定。若您不同意本協議的所有規定，(1) 請勿按下「我同意」按鈕，(2) 請按一下「我拒絕」按鈕中止安裝及授權程序。</strong></p><p>eResearchTechnology, Inc. (「授權人」) 授予您非專屬、不可移轉的權利，得就參加下列臨床試驗協議，使用此裝置內的 eResearchTechnology, Inc. 軟體 (「軟體」)：<strong>{{{ clinicalTrial }}}</strong>。eResearchTechnology, Inc. 軟體受已獲准之專利及其他申請中專利保護。本協議未授予您任何軟體 (或其任何副本) 的任何所有權，僅授權您依本協議所有規定使用本軟體。本軟體及其所有部分的所有權，以及其附帶的一切專有財產及智慧財產權，不論何時皆屬授權人所有。</p><p>您同意不直接或間接：(i) 對本軟體進行反向工程、拆解或解編譯；(ii) 對本軟體進行複製、散布、製造、改寫、創造衍生作品、翻譯、本地化、移植或以其他方式加以修改；(iii) 刪除或變更本軟體內的著作權聲明、商業機密聲明或其他法律聲明。您承認並同意，軟體內可能包含避免未授權使用的程式碼。</p><br><p>若您同意上述所有規定，請選取「<strong>我同意</strong>」。按一下「我同意」表示您同意授權條款。</p><p>若您不同意上述全部規定，或未獲授權可表示同意，請選取「<strong>我拒絕</strong>」，此情況下將無法進一步存取本軟體。獲得授權後，您可以重新表示同意。</p>",
        "HAND_DEVICE_SITE_TITLE":"將裝置交給研究單位使用者",
        "HAND_DEVICE_SITE_BODY":"請將裝置交給研究單位使用者。",
        "SQ-AL":"阿爾巴尼亞語",
        "IMAGE_FOLDER":"{{{ imageFolder }}}",
        "MODAL_OK_TEXT":"確定",
        "BROWSER_LOAD_ERROR":"找不到網頁。請檢查您的網路連線，然後再試一次。",
		"NONEXISTENT_USER" :"找不到使用者。",
		"NO_USER_OF_ROLE" :"找不到具備該角色的使用者。",
		"START_VISIT_OUTSIDE_WINDOW_MSG":"在下列設定時間範圍外進入{{{ getVisitName }}}：{{{ startDate }}} - {{{ endDate }}}",
		"START_VISIT_HARD_STOP_MSG" :"您無法在下列設定時間範圍外進入{{{ getVisitName }}}：{{{ startDate }}} - {{{ endDate }}}",
		"YES" :"是",
		"NO" :"否"
    },
    "dates": {
        "setDateButtonLabel": "確定",
        "setTimeButtonLabel": "確定",
        "setDurationButtonLabel": "設定期間",
        "calTodayButtonLabel": "跳到今日",
        "titleDateDialogLabel": "設定日期",
        "titleTimeDialogLabel": "設定時間",
        "daysOfWeek": [
			"週日",
			"週一",
			"週二",
			"週三",
			"週四",
			"週五",
			"週六"
        ],
        "daysOfWeekShort": [
			"週日",
			"週一",
			"週二",
			"週三",
			"週四",
			"週五",
			"週六"
        ],
        "monthsOfYear": [
			"1 月",
			"2 月",
			"3 月",
			"4 月",
			"5 月",
			"6 月",
			"7 月",
			"8 月",
			"9 月",
			"10 月",
			"11 月",
			"12 月"
        ],
        "monthsOfYearShort": [
			"1 月",
			"2 月",
			"3 月",
			"4 月",
			"5 月",
			"6 月",
			"7 月",
			"8 月",
			"9 月",
			"10 月",
			"11 月",
			"12 月"
        ],
        "durationLabel": [
			"日",
			"時",
			"分",
			"秒"
        ],
        "durationDays": [
			"日",
			"日"
        ],
        "tooltip": "開啟日期選擇器",
        "nextMonth": "下一月份",
        "prevMonth": "上一月份",
        "clearButton": "清除",
        "meridiem": [
            "AM",
            "PM"
        ]
    }
}
