{
    "namespace": "CORE",
    "language": "ta",
    "locale": "IN",
    "localized": "தமிழ் (இந்தியா)",
    "direction": "ltr",
    "resources": {
        "ACTIVE": "செயல்படுவது",
        "ACTIVATE_USER": "பயனரைச் செயற்படுத்து",
        "ACTIVATE_USER_CANCEL_CONFIRM": "செயற்படுத்தலை ரத்துசெய்யவா?",
        "ACTIVATE_USER_CANCEL_BODY": "இப்போது ரத்துசெய்தால், ஆய்விடப் பயனர் செயற்படுத்தப்பட மாட்டார். உறுதியாக நீக்க விரும்புகிறீர்களா?",
        "ACTIVATE_USER_AFF": "கீழே கையொப்பமிடுவதன் மூலம், இந்த ஆய்விடப் பயனரைச் செயற்படுத்துவதற்கு நான் அங்கீகரிக்கப்படுகிறேன் என்று இதன்மூலம் தெரிவிக்கிறேன்.",
        "ACTIVATE_USER_CONFIRM_INFORMATION": "கீழேயுள்ள தகவலானது நீங்கள் செயற்படுத்த விரும்பும் ஆய்விடப் பயனருக்குச் சொந்தமானது என்று உறுதிப்படுத்தவும்.",
        "ADD_PATIENT": "புதிய நோயாளியைச் சேர்",
        "ADD_USER": "பயனரைச் சேர்",
        "AFFIDAVIT": "உங்களின் பதில்களைச் சேமிக்கத் தயாராக இருக்கும் போது, சரி என்பதையும், பிறகு அடுத்தது என்பதையும் தேர்ந்தெடுக்கவும்.",
        "AFFIDAVIT_HELP": "நன்றி. நீங்கள் தேவையான அனைத்து பதில்களையும் வழங்கியுள்ளீர்கள். பின்செல் என்பதைத் தேர்ந்தெடுப்பதன் மூலம், உங்கள் பதில்களைச் சரிபார்த்து, மாற்றலாம்.",
        "ALL_QUESTIONNAIRES_COMPLETED": "எல்லா படிவங்கள் நிறைவுசெய்யப்பட்டுள்ளன",
        "APP_NAME": "ERT",
        "APPLICATION_HEADER": "{{{ appHeader }}}",
        "APP_NAME_LBL": "ஆப் பெயர்",
        "APP_VERSION": "ஆப் பதிப்பு",
        "ASSIGNED_TO": "இதற்கு ஒதுக்கீடு செய்யப்பட்டது",
        "AVAILABLE": "இருக்கிறது",
        "BACK": "பின்செல்",
        "BACK_OUT_CONFIRM": "உறுதியாக வெளியேற விரும்புகிறீர்களா? இந்த படிவத்திற்கான பதில்கள் இழக்கப்படும்.",
        "BLUETOOTH_REG_REFRESH_BUTTON": "பட்டியலை புதுப்பி",
        "CANCEL": "ரத்து செய்க",
        "CHECK_FOR_UPDATES": "புதுப்பிப்புகள் உள்ளனவா எனப் பார்",
        "CHOOSE_A_SITE": "குறிப்பிட்ட ஒரு ஆய்விடத்திற்கு இந்தச் சாதனத்தை ஒதுக்கீடு செய்யவும்.",
        "COMPLETED": "நிறைவடைந்தது",
        "CONFIRM_PASSWORD": "கடவுச்சொல்லை உறுதிசெய்க:",
        "CONFIRM_TEMP_PASS": "தற்காலிக கடவுச்சொல்லை உறுதிசெய்க:",
        "CONTINUE": "தொடர்ந்து",
        "COUNTRY": "நாட்டை",
        "CUSTOM_ENVIRONMENT": "தனிப்பயன் சூழல்",
        "DEACTIVATE_PATIENT": "நோயாளியைச் செயல்நீக்கு",
        "DEACTIVATE_USER": "பயனரைச் செயல்நீக்கு",
        "DEACTIVATED": "செயல்நீக்கப்பட்டது",
        "DEACTIVATE_USER_CANCEL_CONFIRM": "செயல்நீக்கலை ரத்துசெய்யவா?",
        "DEACTIVATE_USER_CANCEL_BODY": "இப்போது ரத்துசெய்தால், ஆய்விடப் பயனர் செயல்நீக்கப்பட மாட்டார். உறுதியாக நீக்க விரும்புகிறீர்களா?",
        "DEACTIVATE_USER_AFF": "கீழே கையொப்பமிடுவதன் மூலம், இந்த ஆய்விடப் பயனரைச் செயல்நீக்குவதற்கு நான் அங்கீகரிக்கப்படுகிறேன் என்று இதன்மூலம் தெரிவிக்கிறேன்.",
        "DEACTIVATE_USER_SIG": "<strong>செயல்நீக்க வேண்டிய பயனர்:</strong> <br />{{{ getSelectedUsername }}}<br /><br /><strong>இவரின் கையொப்பம்:</strong> {{{ getActiveUserName }}}",
        "DEACTIVATE_USER_CONFIRM_INFORMATION": "கீழேயுள்ள தகவலானது நீங்கள் செயல்நீக்க விரும்பும் ஆய்விடப் பயனருக்குச் சொந்தமானது என்று உறுதிப்படுத்தவும்.",
        "DEVICE_ID": "சாதன ஐடி",
        "DEVICE_REGISTRATION_FAILURE": "சாதனத்தைப் பதிவுசெய்வது தோல்வியுற்றது.",
        "DEVICE_UUIID": "சாதன UUID",
        "BATTERY_LEVEL": "பேட்டரி நிலை",
        "DEVICE_INFO": "சாதனத் தகவல்",
        "DIARY_TIMEOUT": "இந்த படிவத்திற்கான நேரம் முடிந்துவிட்டது.",
        "EDIT_MY_INFO": "எனது தகவலைத் திருத்து",
        "EDIT_PATIENT": "நோயாளியைத் திருத்து",
        "EDIT_PATIENT_QUESTION_1_MAIN_TITLE": "<div class='question-title-large'>இந்த ஆய்விடத்திற்கான </div><div>நோயாளி அடையாள எண் வரம்பு:<br /><strong> {{{ patientIDRange }}}</strong></div><div class='edit-patient-id'>நோயாளி அடையாள எண்:<br /><strong>{{{ getPatientIdNumber }}} ({{{getPatientInitials}}})</strong</div><br /><br />",
        "EDIT_PATIENT_QUESTION_1": "நோயாளி அடையாள எண்:",
        "EDIT_PATIENT_QUESTION_1_EMPTY": "தயவுசெய்து, நோயாளி அடையாள எண்ணை நிரப்பவும்.",
        "EDIT_PATIENT_QUESTION_1_EMPTY_HEADER": "நோயாளி அடையாள எண்:",
        "EDIT_PATIENT_QUESTION_1_RANGE": "நீங்கள் உள்ளிட்ட நோயாளி அடையாள எண்ணானது அனுமதிக்கப்பட்ட அடையாள எண்களின் வரம்பில் இல்லை: {{{ patientIDRange }}}.  தயவுசெய்து, செல்லுபடியாகும் நோயாளி அடையாள எண்ணை உள்ளிடவும்.",
        "EDIT_PATIENT_QUESTION_1_RANGE_HEADER": "நோயாளி அடையாள எண் அதன் வரம்புக்கு வெளியில் உள்ளது",
        "EDIT_PATIENT_QUESTION_1_UNIQUE": "நோயாளி ஏற்கனவே இருக்கிறார்.  தயவுசெய்து, மற்றொரு நோயாளி அடையாள எண்ணை உள்ளிடவும்.",
        "EDIT_PATIENT_QUESTION_1_UNIQUE_HEADER": "நோயாளி அடையாள எண்ணானது ஒரு நகலாகும்.",
        "EDIT_PATIENT_QUESTION_2": "நோயாளியின் சுருக்கொப்பம்:",
        "EDIT_PATIENT_QUESTION_2_EMPTY": "தயவுசெய்து, குறைந்தபட்சம் 2 எழுத்துக்குறிகளுள்ள, நோயாளியின் முதலெழுத்துகளை நிரப்பவும்.",
        "EDIT_PATIENT_QUESTION_2_EMPTY_HEADER": "நோயாளியின் சுருக்கொப்பம்:",
        "EDIT_PATIENT_QUESTION_3_TITLE": "<div class='question-title-large'>மொழிக்குரிய நோயாளி</div><div>அடையாள எண்ணைத் தேர்ந்தெடுக்கவும்:<br /><strong>{{{ getPatientIdNumber }}} ({{{getPatientInitials}}})</strong</div><br /><br />",
        "EDIT_PATIENT_QUESTION_3": "நோயாளிக்கான மொழியைத் தேர்ந்தெடுக்கவும்",
        "EDIT_PATIENT_QUESTION_4_TITLE": "<div class='question-title-large'>காரணத்தைத் திருத்து</div><br /><br />",
        "EDIT_PATIENT_QUESTION_4": "நோயாளியைத் திருத்துவதற்கான காரணத்தைத் தேர்ந்தெடுக்கவும்",
        "EDIT_PATIENT_CANCEL_CONFIRM": "நோயாளிக்கான மாற்றங்களை ரத்துசெய்யவா?",
        "EDIT_PATIENT_CANCEL_BODY": "இப்போது ரத்துசெய்தால், நோயாளி அமைப்புகள் புதுப்பிக்கப்படாது.  உறுதியாக நீக்க விரும்புகிறீர்களா?",
        "EDIT_PATIENT_NO_CHANGES_CONFIRM": "நோயாளிக்கு மாற்றங்கள் எதுவும் செய்யப்படவில்லை",
        "EDIT_PATIENT_NO_CHANGES_BODY": "இந்த நோயாளிக்கு மாற்றங்கள் எதுவும் செய்யப்படவில்லை. எப்படியென்றாலும் வெளியேறவா?",
        "EDIT_PATIENT_REASON_0": "சிகிச்சை மருத்துவர் மூலம் பிழையைத் திருத்துதல்",
        "EDIT_REASON": "காரணத்தைத் திருத்து:",
        "EDIT_SERVICE_URL": "சேவை URL-ஐத் திருத்து",
        "EDIT_SERVICE_URL_SUCCESS": "சேவை URL புதுப்பிக்கப்பட்டுள்ளது.",
        "EDIT_USER": "பயனரைத் திருத்து",
        "EDIT_USER_AFF": "கீழே கையொப்பமிடுவதன் மூலம், இந்த ஆய்விடப் பயனரைத் திருத்துவதற்கு நான் அங்கீகரிக்கப்படுகிறேன் என்று இதன்மூலம் தெரிவிக்கிறேன். <<br /><br /><strong>இவரின் கையொப்பம்:</strong> {{{ getActiveUserName }}}",
        "EDIT_USER_CANCEL_CONFIRM": "பயனரைத் திருத்துவதை ரத்துசெய்யவா?",
        "EDIT_USER_CANCEL_BODY": "இப்போது ரத்துசெய்தால், ஆய்விடப் பயனர் மாற்றங்கள் நிறைவேற்றப்படாது. உறுதியாக நீக்க விரும்புகிறீர்களா?",
        "EDIT_USER_NO_CHANGES_HEADER": "ஆய்விடப் பயனருக்கு மாற்றங்கள் எதுவும் செய்யப்படவில்லை",
        "EDIT_USER_NO_CHANGES_BODY": "இந்த ஆய்விடப் பயனருக்கு மாற்றங்கள் எதுவும் செய்யப்படவில்லை. எப்படியென்றாலும் வெளியேறவா?",
        "EMAIL": "மின்னஞ்சல் முகவரி",
        "ENTER_PATIENT_INFO": "நோயாளியின் தகவலை உள்ளிடவும்",
        "ENTER_UNLOCK_CODE": "தயவுசெய்து பூட்டுநீக்கக் குறியீட்டை உள்ளிடவும்",
        "ENTER_USER_INFO": "புதிய ஆய்விடப் பயனரின் தகவலை உள்ளிடவும்",
        "ENVIRONMENT": "சூழல்",
        "ERROR_CODE": "பிழைக் குறியீடு:",
        "ERROR_TITLE": "பிழை",
        "FIRST_NAME": "முதற் பெயர்",
        "FORGOT_PASSWORD": "கடவுச்சொல் மறந்துவிட்டதா?",
        "FORM": "படிவம்",
        "FORM_GATEWAY": "படிவ நுழைவாயில்",
        "FORM_NAME": "படிவத்தின் பெயர்",
        "FULL_NAME": "முழுப்பெயர்:",
        "GO_TO_VISITS": "நோயாளி வருகைகள்",
        "HAND_DEVICE_SITE_TITLE": "சாதனத்தை ஆய்விடப் பயனரிடம் வழங்கவும்",
        "HAND_DEVICE_SITE_BODY": "தயவுசெய்து சாதனத்தை ஆய்விடப் பயனரிடம் வழங்கவும்.",
        "HELP": "உதவி",
        "HOME": "முகப்பு",
        "IN_PROGRESS": "மேம்பாட்டிலுள்ளது",
        "INITIALS": "சுருக்கெழுத்துக்கள்",
        "INVALID_URL": "சரியான URL-ஐ உள்ளிடவும்.",
        "INVALID_PERMISSION": "தவறான அனுமதி.",
        "INVALID_PASSWORD": "தவறான கடவுச்சொல்.",
        "LANGUAGE": "மொழி:",
        "LAST_LOGIN": "கடைசி உள்நுழைவு",
        "LAST_NAME": "கடைசிப் பெயர்",
        "LAST_REFRESH_TIME": "கடைசிப் புதுப்பிப்பு நேரம்",
        "LOCATION": "இடம்",
        "LOGIN": "உள் நுழைக",
        "LOGIN_SCREEN": "உள்நுழைவு",
        "LOGOUT": "வெளியேறுக",
        "MANAGE_USERS": "ஆய்விடப் பயனர்களை நிர்வகிக்கவும்",
        "MARK_AS_COMPLETED": "முடிந்தது எனக் குறி",
        "SITE_SIGNATURE": "இவரின் கையொப்பம்: ",
        "SITE_REPORT_AFF": "நான் உள்ளிட்டு, சரிப்பார்த்து, முன்னுள்ள தரவை உறுதி செய்கிறேன்.<br /><br /><strong>இவரின் கையொப்பம்:</strong> {{{ getActiveUserName }}}",
        "PATIENT_REPORT_AFF": "நான் உள்ளிட்டு, சரிப்பார்த்து, முன்னுள்ள தரவை உறுதி செய்கிறேன்.இவரின் கையொப்பம்<br /><br /><strong>சுருக்கெழுத்துக்கள்:</strong> {{{ getActiveUserName }}}",
        "CLEAR_SIGNATURE": "கையொப்பத்தை அழி",
        "MENU": "மெனு",
        "MODE": "பயன்முறை",
        "NAME": "பெயர்",
        "NEW_USER": "புதிய பயனர் நாட்குறிப்பைச் சேர்",
        "FIRST_SITE_USER": "முதல் தளப் பயனரைச் சேர்",
        "NEW_USER_CREATED": "தளத்தை பயனர் உருவாக்கப்பட்டது",
        "NEW_PATIENT_QUESTION_1_MAIN_TITLE": "<div class='question-title-large'>நோயாளி அடையாளத் தகவலுக்குரிய ஆய்விடத்தை உள்ளிடவும்</div><div>நோயாளி அடையாள எண் வரம்பு:<br /><strong> {{{ patientIDRange }}}</strong></div><div><strong>தளம்: {{{ getSiteCode }}}</strong></div><div><strong>பயனர்: {{{ getUserName }}}</strong</div><br /><br />",
        "NEW_PATIENT_HELP_TEXT_1": "",
        "NEW_PATIENT_HELP_TEXT_2": "",
        "NEW_PATIENT_HELP_TEXT_3": "",
        "NEW_PATIENT_QUESTION_1_TITLE": "நோயாளி அடையாள எண்:",
        "NEW_PATIENT_QUESTION_1": "நோயாளி அடையாள எண்:",
        "NEW_PATIENT_QUESTION_1_EMPTY": "தயவுசெய்து, நோயாளி அடையாள எண்ணை நிரப்பவும்.",
        "NEW_PATIENT_QUESTION_1_EMPTY_HEADER": "நோயாளி அடையாள எண்:",
        "NEW_PATIENT_QUESTION_1_RANGE": "நீங்கள் உள்ளிட்ட நோயாளி அடையாள எண்ணானது அனுமதிக்கப்பட்ட அடையாள எண்களின் வரம்பில் இல்லை: {{{ patientIDRange }}}.  தயவுசெய்து, செல்லுபடியாகும் நோயாளி அடையாள எண்ணை உள்ளிடவும்.",
        "NEW_PATIENT_QUESTION_1_RANGE_HEADER": "நோயாளி அடையாள எண் அதன் வரம்புக்கு வெளியில் உள்ளது",
        "NEW_PATIENT_QUESTION_1_UNIQUE": "நோயாளி ஏற்கனவே இருக்கிறார்.  தயவுசெய்து, மற்றொரு நோயாளி அடையாள எண்ணை உள்ளிடவும்.",
        "NEW_PATIENT_QUESTION_1_UNIQUE_HEADER": "நோயாளி அடையாள எண்ணானது ஒரு நகலாகும்.",
        "NEW_PATIENT_QUESTION_2": "நோயாளியின் சுருக்கொப்பம்:",
        "NEW_PATIENT_QUESTION_2_EMPTY": "தயவுசெய்து, குறைந்தபட்சம் 2 எழுத்துக்குறிகளுள்ள, நோயாளியின் முதலெழுத்துகளை நிரப்பவும்.",
        "NEW_PATIENT_QUESTION_2_EMPTY_HEADER": "நோயாளியின் சுருக்கொப்பம்:",
        "NEW_PATIENT_QUESTION_3_TITLE": "<div class='question-title-large'>மொழிக்குரிய ஆய்விடத்தைத் தேர்ந்தெடுக்கவும்</div><div><strong>தளம்: {{{ getSiteCode }}}</strong></div><div><strong>பயனர்: {{{ getUserName }}}</strong</div><div><strong>நோயாளி அடையாள எண்: {{{ getPatientID }}}</strong></div><br /><br />",
        "NEW_PATIENT_QUESTION_3": "நோயாளிக்கான மொழியைத் தேர்ந்தெடுக்கவும்",
        "NEW_PATIENT_CANCEL_CONFIRM": "நோயாளியைச் சேர்ப்பதை ரத்துசெய்யவா?",
        "NEW_PATIENT_CANCEL_BODY": "நீங்கள் ரத்துசெய்தால், நோயாளி பதிவு செய்யப்பட மாட்டார்.  உறுதியாக நீக்க விரும்புகிறீர்களா?",
        "NEW_PATIENT_AFFIDAVIT_HEADER": "<div><strong>தளம்: {{{ getSiteCode }}}</strong><br /><strong>பயனர்: {{{ getUserName }}}</strong><br /><strong>நோயாளி அடையாள எண்: {{{ getPatientID }}}</strong></div>",
        "NEXT": "அடுத்தது",
        "NO_RESULTS_FOUND": "முடிவுகள் ஏதும் கிடைக்கப்பெறவில்லை.",
        "NOT_AVAILABLE": "இல்லை இருக்கிறது",
        "OK": "சரி",
        "ORDER": "வரிசை",
        "PASSWORD": "கடவுச்சொல்:",
        "PATIENT": "நோயாளி",
        "PATIENT_ID": "நோயாளி அடையாள எண்:",
        "PATIENT_INITIALS": "நோயாளியின் சுருக்கொப்பம்:",
        "PATIENT_DELETED": "அறியாத நோயாளி",
        "PATIENT_DELETED_MSG": "நோயாளியைக் கண்டுபிடிக்க முடியாது.",
        "PATIENT_DELETED_SUBJECT_MSG": "நோயாளியைக் கண்டுபிடிக்க முடியாது. தயவுசெய்து சாதனத்தைப் பொருத்தமான ஆய்விட அலுவலரிடம் திரும்ப அளிக்கவும்.",
        "PENDING_TRANSMISSIONS": "நிலுவையிலுள்ள நிலைமாற்றங்கள்",
        "PLEASE_WAIT": "காத்திருக்கவும்...",
        "PLEASE_CONFIRM": "தயவுசெய்து உறுதிசெய்க",
        "PLEASE_CONTACT": "தயவுசெய்து ERT ஆதரவு மையத்தை அணுகவும்.",
        "PLEASE_TRY_OR_CONTACT_SUPPORT": "தயவுசெய்து மீண்டும் முயற்சிக்கவும் அல்லது ERT ஆதரவு மையத்தை அணுகவும்.",
        "REASON": "காரணம்:",
        "REPORTS_AND_FORMS": "அறிக்கைகளும் படிவங்களும்",
        "REPORTS_COMPLETED_MESSAGE": "உங்கள் அனைத்துப் படிவங்களையும் பூர்த்தி செய்துவிட்டீர்கள். தயவுசெய்து சாதனத்தைப் பொருத்தமான ஆய்விட அலுவலரிடம் திரும்ப அளிக்கவும்.",
        "REQUIRED_ANSWER": "தயவுசெய்து, கோரப்பட்ட தகவலைப் பூர்த்தி செய்யவும்.",
        "RESET_PIN": "நோயாளியின் PIN-ஐ மீட்டமைக்கவும்",
        "RESET_USER_PASSWORD": "பயனர் கடவுச்சொல்லை மீட்டமைக்கவும்",
        "ROLES": "பங்கு:",
        "SAVE": "சேமி",
        "SEARCH": "தேடவும்",
        "SECURITY_QUESTION_0": "உங்கள் அம்மாவின் கன்னிப் பெயர் என்ன?",
        "SECURITY_QUESTION_1": "நீங்கள் பிறந்த நகரம் எது?",
        "SECURITY_QUESTION_2": "உங்களின் முதல் செல்லப்பிராணியின் பெயர் என்ன?",
        "SECURITY_QUESTION_3": "உங்களுக்கு பிடித்த விளையாட்டு எது?",
        "SECURITY_QUESTION_4": "எந்த ஆண்டில் பட்டம் பெற்றீர்கள்?",
        "SECURITY_QUESTION_5": "உங்கள் முதல் குழந்தையின் பெயரின் நடுப்பகுதி என்ன?",
        "SECURITY_QUESTION_6": "உங்களுக்குப் பிடித்த குழந்தைப் பருவ நண்பரின் பெயர் என்ன?",
        "SECURITY_QUESTION_7": "உங்கள் மூன்றாம் வகுப்பு ஆசிரியரின் பெயரின் கடைசிப் பகுதி என்ன?",
        "SECURITY_QUESTION_8": "நீங்கள் முதலில் வேலை செய்த ஊர் அல்லது நகரம் எது?",
        "SECRET_ANSWER": "பாதுகாப்புப் பதில்:",
        "SECRET_QUESTION": "பாதுகாப்புக் கேள்வி:",
        "SECRET_QUESTION_HELP_TEXT": "கீழுள்ள பட்டியலிலிருந்து பாதுகாப்புக் கேள்வியைத் தேர்ந்தெடுக்கவும். நீங்கள் உங்கள் கடவுச்சொல்லை மறந்துவிட்டால், உள்நுழைவை அனுமதிக்க, பதில் பயன்படுத்தப்படும்.",
        "SECRET_QUESTION_ANSWER": "பாதுகாப்புக் கேள்வியும் பதிலும்",
        "SELECT_LANGUAGE": "தயவுசெய்து, ஆய்விடத்திற்காக விருப்ப மொழியைத் தேர்ந்தெடுக்கவும்.",
        "SET_TIMEZONE_MESSAGE": "உங்கள் நேர மண்டலத்தைத் தேர்ந்தெடுக்கவும்:",
        "SELECT_SITE_NUMBER": "ஆய்விடத்தின் எண்ணைத் தேர்ந்தெடுக்கவும்",
        "SERVICE_URL": "சேவை URL",
        "SETTINGS": "அமைப்புகள்",
        "SETUP_COMPLETE": "அமைப்பு நிறைவடைந்தது",
        "SETUP_COMPLETE_DESC": "சாதனம் தற்போது அமைக்கப்பட்டு, ஷிப்மென்டுக்குத் தயாராக உள்ளது.  சரி என்பதை அழுத்தி, பிறகு அடுத்த திரையில் சாதனத்தை அணைக்கவும்.",
        "SETUP_SITE_USER": "ஆய்விடப் பயனரை அமைக்கவும்",
        "SETUP_SITE_USER_LEGEND": "இந்தச் சாதனத்திற்கான ஆய்விடப் பயனரை அமைக்கவும்.",
        "SITE": "தளம்",
        "SITE_ASSESSMENTS": "ஆய்விட மதிப்பீடுகள்",
        "SIGNATURE_DATA_LIMIT_EXCEEDED": "கையொப்பட்ட பெட்டியில் இருக்கும் கையொப்பமானது உங்களுடைய கையொப்பத்தை சரியாக பிரதிபலிக்கவில்லை. தயவுசெய்து உங்கள் முதல்பெயர்களுடன் கையொப்பமிடவும்.",
        "SITE_NUMBER": "தள எண்:",
        "SITE_ROLE": "தள பயனர்",
        "SITE_SELECTION": "ஆய்விடத் தேர்வு",
        "SKIP_FORM": "படிவத்தைத் தவிர்",
        "SKIP_QUESTION": "நீங்கள் நிச்சயமாக இத்திரையிலுள்ள பதில்களைத் தவிர்க்க விரும்புகிறீர்களா?",
        "SKIP_TO_VISIT": "வருகைக்குத் தாவு",
        "SKIP_VISIT": "வருகைக்குத் தாவு",
        "SKIP_VISITS": "வருகையைத் தவிர்",
        "SKIP_VISITS_QUESTION_1": "<div class='question-title-large'><strong>காரணம்</strong></div><br /><br /><div>வருகைகளைத் தவிர்ப்பதற்கான காரணத்தைத் தேர்ந்தெடுக்கவும்:</div>",
        "SKIP_VISITS_REASON_0": "வருகை காலாவதியானது",
        "SKIP_VISITS_REASON_1": "நிர்வாகத்தில் ஆய்விடப் பிழை",
        "SKIP_VISITS_REASON_2": "மருத்துவச் சந்திப்பு நியமனத்தை ஆய்வுக்குட்படுநர் தவறவிட்டுவிட்டார்.",
        "SKIP_VISITS_REASON_3": "பொருந்தாது.",
        "SKIP_VISITS_REASON_4": "வருகை விருப்பத்திற்குரியது, மேற்கொள்ளப்படவில்லை.",
        "SKIP_VISITS_CANCEL_CONFIRM": "வருகைகளைத் தவிர்ப்பதை ரத்துசெய்யவா?",
        "SKIP_VISITS_CANCEL_BODY": "இப்போது ரத்துசெய்தால், வருகைகள் தவிர்க்கப்படாது. உறுதியாக நீக்க விரும்புகிறீர்களா?",
        "SKIPPED" : "விடப்பட்டது",
        "SKIPPED_VISITS": "{{{ skippedVisits }}}",
        "START_FORM": "தொடக்கப் படிவம்",
        "START_VISIT": "தொடக்க வருகை",
        "STATUS": "நிலை",
        "STATUS_DATE": "நிலைத் தேதி",
        "STUDY": "ஆய்வு",
        "STUDYWORKS_LOGIN": "StudyWorks உள்நுழைவு",
        "SUBJECT_ID": "நோயாளி அடையாள எண்:",
        "SUBJECT_ROLE": "நோயாளி",
        "SUBMIT": "சமர்ப்பி",
        "SUPPORT_TOOLS": "ஆதரவு சாதனங்கள்",
        "SYNC": "ஒத்திசைவு",
        "SYNC_USERS": "பயனர்களை ஒத்திசை",
        "SYNC_TO_DEVICE": "ஆய்வைச் சாதனத்துடன் ஒத்திசை",
        "TEMPORARY_PASSWORD_MESSAGE": "புதிய பயனருக்கு தற்காலிகமான கடவுச்சொல்லை வழங்கவும். அவர்கள் உள்நுழைவு செய்தபிறகு புதிய கடவுச்சொல்லை உருவாக்குமாறு கேட்டுக் கொள்ளப்படுவார்கள்.",
        "TEMP_PASSWORD": "தற்காலிக கடவுச்சொல்: ",
        "UNABLE_TO_GET_SITE_LIST": "ஆய்விடப் பட்டியலைப் பெற முடியவில்லை",
        "UNLOCK_CODE": "பூட்டுநீக்கக் குறியீடு",
        "UNLOCK_CODE_HELP": "உங்கள் ERT Tablet-க்கான பூட்டுநீக்கக் குறியீட்டை 'ERT பூட்டுநீக்கக் குறியீடுகள்' SmartReport-இல் StudyWorks-இலிருந்து பெறலாம். கூடுதல் உதவிக்குத் தயவுசெய்து ERT ஆதரவு மையத்தைத் தொடர்பு கொள்ளுங்கள்.",
        "USER": "பயனர்",
        "USER_ALREADY_EXISTS": "பயனர் ஏற்கனவே உள்ளார்",
        "USER_EDITED": "பயனர் புதுப்பிக்கப்பட்டுள்ளார்.",
        "USER_TO_ACTIVATE": "<strong>செயற்படுத்த வேண்டிய பயனர்:</strong> <br />{{{ getSelectedUsername }}}<br /><br /><strong>இவரின் கையொப்பம்:</strong> {{{ getActiveUserName }}}",
        "SUBJECT_ALREADY_EXISTS": "என்ற அடையாள எண்ணுள்ள நோயாளி {{{ getPatientIDForDuplicate }}} ஏற்கனவே இருக்கிறார்",
        "TIME_CONFIRMATION_INSTRUCTIONS": "சாதனம் உங்களது உள்ளூர் நேரத்தை உறுதிசெய்ய வேண்டும். நம்பகமான மூலத்திலிருந்து உங்கள் தேதி மற்றும் நேரத்தை உள்ளிடவும்.",
        "TIME_ZONE_ERROR_HEADER": "நேர மண்டலப் பிழை",
        "TIME_ZONE_ERROR_MSG": "நேர மண்டல பட்டியலைப் பெறும்போது பிழை ஏற்பட்டுள்ளது. கூடுதல் உதவிக்குத் தயவுசெய்து ERT ஆதரவு மையத்தைத் தொடர்பு கொள்ளுங்கள்.",
        "TIME_ZONE_SET_ERROR_MSG": "நேர மண்டலத்தை நிர்ணயிக்கும்போது பிழை ஏற்பட்டுள்ளது. கூடுதல் உதவிக்குத் தயவுசெய்து ERT ஆதரவு மையத்தைத் தொடர்பு கொள்ளுங்கள்.",
        "TIME_ZONE_SET_CONFIRM": "நீங்கள் நிச்சயமாக இந்த நேர மண்டலம் அமைக்க விரும்புகிறீர்களா: <bdo dir='ltr'>{{{selectedTimeZone}}}</bdo>? <br/> மாற்றத்தைச் செயல்படுத்த இந்தப் பயன்பாடு மீள்துவக்கம் செய்யும்.",
        "TIME_ZONE_SET_CONFIRM_NOCHANGE": "நீங்கள் நிச்சயமாக இந்த நேர மண்டலம் அமைக்க விரும்புகிறீர்களா: <bdo dir='ltr'>{{{selectedTimeZone}}}</bdo>?",
        "TIME_ZONE_SET_HEADER": "மேக் நேர மண்டலத்தை அமைக்க உறுதி",
        "TRAINER": "பயிற்சியாளர் பயன்முறை",
        "TRAINER_EXIT": "பயிற்சியாளர் பயன்முறையை விட்டு வெளியேறு",
        "TRAINER_EXIT_NOTIFICATION": "பயிற்சியாளர் பயன்முறையை விட்டு வெளியேறுகிறீர்கள்",
        "TRAINER_HEADER": "(பயிற்சியாளர்)",
        "USER_ROLE": "பயனர் பணி",
        "USERNAME": "பயனர்பெயர்:",
        "USER_NAME": "பயனர்பெயர்:",
        "VISIT": "வருகை",
        "VISIT_COMPLETED_MESSAGE": "இந்த வருகைக்கு வேறு படிவங்கள் இல்லை.  இந்த வருகை இப்போது நிறைவடைந்தது.",
        "VISIT_INACTIVE_HEADER": "செயற்படா வருகை.",
        "VISIT_INACTIVE_MESSAGE": "இந்த வருகை இனி செயலில் இருக்காது.",
        "VISIT_INACTIVE_MESSAGE_SUBJECT": "இந்த வருகை இனி செயலில் இருக்காது. தயவுசெய்து சாதனத்தைப் பொருத்தமான ஆய்விட அலுவலரிடம் திரும்ப அளிக்கவும்.",
        "VISITS": "வருகைகள்:",
        "VISITS_SKIPPED": "தவிர்க்கப்பட்ட வருகைகள்:",
        "VISIT_NAME": "வருகைப் பெயர்",
        "WELCOME": "வருக",
        "AF-ZA": "ஆஃப்ரிக்கான்ஸ்",
        "AR-EG": "அரபிக்",
        "BE-BY": "பெலாருஸியன்",
        "BG-BG": "பல்கேரியன்",
        "BN-IN": "பெங்காலி",
        "BS-BA": "போஸ்னியன்",
        "CA-ES": "கேட்டலன்",
        "CS-CZ": "செக்",
        "DA-DK": "டானிஷ்",
        "DE-DE": "ஜெர்மன் (ஜெர்மனி)",
        "DE-AT": "ஜெர்மன் (ஆஸ்திரியா)",
        "EL-GR": "கிரேக்கம்",
        "EN-GB": "ஆங்கிலம் (யுகே)",
        "EN-US": "ஆங்கிலம் (யுஎஸ்)",
        "ES-ES": "ஸ்பேனிஷ் (ஸ்பெயின்)",
        "ES-US": "ஸ்பேனிஷ் (யுஎஸ்)",
        "ES-PY": "ஸ்பேனிஷ் (யூனிவர்சல்)",
        "ET-EE": "எஸ்டோனியன்",
        "FI-FI": "ஃபீனிஷ்",
        "FR-CA": "பிரெஞ்சு (கனடா)",
        "FR-FR": "பிரெஞ்சு (பிரான்ஸ்)",
        "GD-IE": "கியாலிக்",
        "GU-IN": "குஜராத்தி",
        "HE-IL": "ஹீப்ரூ",
        "HI-IN": "ஹிந்தி",
        "HR-HR": "குரேஷியன்",
        "HU-HU": "ஹங்கேரியன்",
        "IT-IT": "இத்தாலியன்",
        "JA-JP": "ஜப்பானீஸ்",
        "KA-GE": "ஜார்ஜியன்",
        "KN-IN": "கன்னடா",
        "KO-KR": "கொரியன்",
        "LV-LV": "லாத்வியன்",
        "LT-LT": "லித்துவேனியன்",
        "ML-IN": "மலையாளம்",
        "MR-IN": "மராத்தி",
        "MS-MY": "மலாய்",
        "NB-NO": "நார்வேஜியன்",
        "NL-BE": "டச்சு (பெல்ஜியம்)",
        "NL-NL": "டச்சு (நெதர்லாந்து)",
        "PA-IN": "பஞ்சாபி",
        "PL-PL": "போலீஷ்",
        "PT-BR": "போர்ச்சுகீசு (பிரேசில்)",
        "PT-PT": "போர்ச்சுகீசு (போர்ச்சுக்கல்)",
        "RO-RO": "ரோமானியன்",
        "RU-RU": "ரஷ்யன்",
        "SL-SL": "ஸ்லோவேனியன்",
        "SK-SK": "ஸ்லோவாக்",
        "SR-RS": "செர்பியன் (லத்தீன்)",
        "SR-SP": "செர்பியன் (சிரிலிக்)",
        "ST-ZA": "சோத்தோ",
        "SV-SE": "ஸ்வீடிஷ்",
        "TA-IN": "தமிழ்",
        "TE-IN": "தெலுங்கு",
        "TH-TH": "தாய்",
        "TL-PH": "தாகாலாக்",
        "TN-ZA": "ஸ்வானா",
        "TR-TR": "டர்க்கிஷ்",
        "UK-UA": "உக்ரேனியன்",
        "UR-IN": "உருது",
        "VI-VN": "வியட்னாமீஸ்",
        "XH-ZA": "ஸோஸா",
        "ZH-CN": "சைனீஸ் (சீனா)",
        "ZH-TW": "சைனீஸ் (தைவான்)",
        "ZU-ZU": "ஸுலு",
        "HAND_DEVICE_SUBJECT_BODY": "அடுத்த படிவத்தை நிறைவு செய்ய வேண்டும் {{{ patientOrRole }}}. தயவுசெய்து, வெளியேறி, பிறகு சாதனத்தை இடம் கொடுக்கவும் {{{ patientOrRole }}}.",
        "HAND_DEVICE_SUBJECT_TITLE": "தொடக்கப் படிவம் {{{ formTitle }}}",
        "SKIP_VISIT_TITLE": "வருகையை(களை) தவிர்த்தீர்களா?",
        "SKIP_VISIT_TEXT": "நீங்கள் தொடர்ந்தால், பின்வரும் வருகைகள் தவிர்க்கப்படும்:<br/> {{{ skippedVisits }}} தொடர்ந்து, இப்போது இந்த வருகைகளைத் தவிர்க்கவா?",
        "YES": "ஆம்",
        "NO": "இல்லை",
        "TIME_LBL": "நேரம்:",
        "SET_TIME": "நேரத்தை அமை",
        "DATE_LBL": "தேதி:",
        "CREATE_PERMANENT_PASSWORD_TITLE": "நிரந்தரக் கடவுச்சொல்லை உருவாக்கு",
        "USER_ID": "பயனர் அடையாள எண்:",
        "PHASE": "கட்டம்",
        "LAST_VISIT": "கடைசியாக நிறைவு செய்த வருகை",
        "CONNECTION_REQUIRED": "இண்டர்நெட் இணைப்பு தேவை.",
        "RETRY": "மறுமுயற்சி",
        "UPDATE_FAILURE": "புதுப்பிப்பு முடியவில்லை",
        "UPDATE_SUCCESS": "புதுப்பிப்பு வெற்றி",
        "CANCEL_PERMANENT_PASSWORD_TITLE": "நிரந்தரக் கடவுச்சொல்லை உருவாக்குவதை ரத்துசெய்யவா?",
        "CANCEL_PERMANENT_PASSWORD_TEXT": "இப்போது ரத்துசெய்தால், உங்கள் நிரந்தரக் கடவுச்சொல் உருவாக்கப்படாது. ERT-ஐப் பயன்படுத்தத் தொடங்க, உங்களுக்கு நிரந்தரக் கடவுச்சொல் தேவை. உறுதியாக நீக்க விரும்புகிறீர்களா?",
        "ACCOUNT_CONFIGURED_TITLE": "கணக்கு அமைப்பு நிறைவடைந்தது",
        "ACCOUNT_CONFIGURED_TEXT": "இப்போது உங்கள் கணக்கை அமைத்து முடித்துவிட்டீர்கள், நீங்கள் இப்போது eCOA அமைப்பைத் தொடர்ந்து பயன்படுத்தலாம்.",
        "LOGGED_IN_AS": "உள்நுழைந்துள்ளவர்",
        "EDIT_PATIENT_AFFIDAVIT_HEADER": "<p class='question-title-large'>கையொப்பம்</p><br />",
        "EDIT_PATIENT_AFF": "கீழே கையொப்பமிடுவதன் மூலம், இந்த நோயாளியைத் திருத்துவதற்கு நான் அங்கீகரிக்கப்படுகிறேன் என்று இதன்மூலம் தெரிவிக்கிறேன்.<br /><br />நோயாளி அடையாள எண்: {{{ getPatientIdNumber }}}<br /><br /><strong>இவரின் கையொப்பம்:</strong> {{{ getActiveUserName }}}",
        "PASSWORD_MISMATCH": "கடவுச்சொல் உறுதி செய்தல் கடவுச்சொல்லுடன் பொருந்தவில்லை",
        "FIRST_USER_AFFIDAVIT": "கீழே கையொப்பமிடுவதன் மூலம், இந்த அமைப்பில் கணக்குகளை உருவாக்க, நான் தான் முதன்மை ஆய்வாளர் அல்லது அங்கீகரிக்கப்பட்ட நபர் என்று இதன்மூலம் தெரிவிக்கிறேன்.<br /><br /><strong>இவரின் கையொப்பம்:</strong> {{{ getFirstUsername }}}",
		"INCOMPLETE": "நிறைவடையாதது",
        "INVALID_ENTRY": "தவறான உள்நுழைவு",
        "PLEASE_ANSWER_SQ": "உங்கள் பாதுகாப்புக் கேள்விக்குப் பதிலளியுங்கள்:",
        "FORGOT_SECRET_ANSWER": "பாதுகாப்புக் கேள்வியை மறந்துவிட்டீர்களா?",
        "CONTACT_STUDY_COORDINATOR": "தயவுசெய்து ஆய்வு ஒருங்கிணைப்பாளரை அணுகவும்",
        "ENTER_NEW_PASSWORD": "புதிய கடவுச்சொல்:",
        "CONTACT_UNLOCK_CODE": "இன்றைய நாளிற்கான பூட்டுநீக்கக் குறியீட்டிற்கு உங்கள் ஆய்வு ஒருங்கிணைப்பாளரை அணுகவும்:",
        "CURRENT_DATE": "{{{ currentDate }}}",
        "TEMPORARY_UNLOCK_CODE": "ஆய்வு ஒருங்கிணைப்பாளர் வழங்கிய பூட்டுநீக்க குறியீட்டை உள்ளிடவும்.",
        "RESET_SECRET_QUESTION": "பாதுகாப்புக் கேள்வியை மீட்டமை",
        "SECRET_QUESTION_CHANGE_SUCCESS": "உங்கள் கடவுச்சொல்லையும் பாதுகாப்புக் கேள்வியையும் வெற்றிகரமாக புதுப்பித்து விட்டீர்கள்.",
        "RESET_PASSWORD": "கடவுச்சொல்லை மீட்டமைக்கவும்",
        "ANSWER_ATTEMPT_EXCEEDED": "நீங்கள் பல தடவைகள் ஒரு தவறான பதிலை உள்ளிட்டுள்ளீர்கள் அல்லது பாதுகாப்புப் பதிலை மறந்துவிட்டேன் என்ற இணைப்பைக் கிளிக் செய்து விட்டீர்கள்.",
        "PASSWORD_ATTEMPT_EXCEEDED": "நீங்கள் பல தடவைகள் ஒரு தவறான கடவுச்சொல்லை உள்ளிட்டுள்ளீர்கள் அல்லது கடவுச்சொல்லை மறந்துவிட்டேன் என்ற இணைப்பைக் கிளிக் செய்து விட்டீர்கள்.",
        "PASSWORD_CHANGE_SUCCESS": "உங்கள் கடவுச்சொல்லை வெற்றிகரமாக புதுப்பித்து விட்டீர்கள்.",
        "CHANGE_PASSWORD": "கடவுச்சொல்லை மாற்றுக",
        "CHANGE_SECRET_QUESTION": "பாதுகாப்புக் கேள்வி மாற்று",
        "SYNC_COMPLETE": "ஒத்திசைவு நிறைவடைந்தது",
        "INCORRECT_ANSWER": "தவறான பதில்",
        "INCORRECT_UNLOCK_CODE": "தவறான பூட்டுநீக்கக் குறியீடு",
        "PASSWORD_INVALID": "தவறான கடவுச்சொல்",
        "SUBJECT": "நோயாளி",
        "PATIENT_ADDED": "நோயாளி சேர்க்கப்பட்டார்",
        "SITE_ADMINISTRATOR": "தள நிர்வாகி",
        "LOW_BATTERY": "எச்சரிக்கை: பேட்டரி ஆற்றல் குறைவாக உள்ளது. ரீசார்ஜ் செய்வதற்குத் தயவுசெய்து சாதனத்தைச் சொருகுங்கள்.",
        "CRITICAL_BATTERY": "எச்சரிக்கை: பேட்டரி ஆற்றல் மிகவும் குறைவாக உள்ளது. சாதனத்திற்கு மீண்டும் சார்ஜ் ஏற்ற, செருகவும், அல்லது அதன் இயக்கம் நிறுத்தப்படும்.",
        "TIME_CONFIRMATION_HEADER": "தேதி/நேரத்தை உறுதிப்படுத்தவும்",
        "TIMESLIP_ERROR": "உங்கள் சாதனத்தில் உள்ள நேரம் அல்லது தேதி தவறானதாக உள்ளது. இணைய இணைப்பு உள்ள இருப்பிடத்துக்குச் சென்று மீண்டும் முயற்சிக்கவும். உங்களுக்குத் தொடர்ந்து சிக்கல் ஏற்பட்டால், ERT வாடிக்கையாளர் பராமரிப்பைத் தொடர்புகொள்ளவும்.",
        "SUPPORT": "வாடிக்கையாளர் ஆதரவு",
        "SUPPORT_MESSAGE": "ERT ஆதரவு மையத்தை தொடர்பு கொள்ள அமெரிக்க பயனர்கள் 800-748-5669.யை தொடர்பு கொள்ளலாம். சர்வதேசப் பயனர்கள், கீழே உள்ள நெருங்கிய நாட்டை தேர்வு செய்யவும்:",
        "SUPPORT_DROPDOWN": "உங்கள் நாட்டை தேர்வு செய்யவும்",
        "SUPPORT_NAME_ARGENTINA": "அர்ஜென்டீனா",
        "SUPPORT_NUMBER_ARGENTINA": "<bdo dir='ltr'>0800 444 0962</bdo>",
        "SUPPORT_NAME_ARMENIA": "அர்மீனியா",
        "SUPPORT_NUMBER_ARMENIA": "<bdo dir='ltr'>+1 617 681 6306</bdo>",
        "SUPPORT_NAME_AUSTRALIA": "ஆஸ்ட்ரேலியா",
        "SUPPORT_NUMBER_AUSTRALIA": "<bdo dir='ltr'>1 800 800 051</bdo>",
        "SUPPORT_NAME_AUSTRIA": "ஆஸ்திரியா",
        "SUPPORT_NUMBER_AUSTRIA": "<bdo dir='ltr'>0800 100 405</bdo>",
        "SUPPORT_NAME_BELARUS": "பெலாரஸ்",
        "SUPPORT_NUMBER_BELARUS": "<bdo dir='ltr'>8 820 0321 0036</bdo>",
        "SUPPORT_NAME_BELGIUM": "பெல்ஜியம்",
        "SUPPORT_NUMBER_BELGIUM_1": "(ஆங்கிலம்): <bdo dir='ltr'>0800 58 016</bdo>",
        "SUPPORT_NUMBER_BELGIUM_2": "(பிரெஞ்சு): <bdo dir='ltr'>0800 71 076</bdo>",
        "SUPPORT_NUMBER_BELGIUM_3": "(ஜெர்மன்): <bdo dir='ltr'>0800 71 113</bdo>",
        "SUPPORT_NAME_BRAZIL": "பிரேசில்",
        "SUPPORT_NUMBER_BRAZIL": "<bdo dir='ltr'>0800 891 5909</bdo>",
        "SUPPORT_NAME_BOSNIA": "பாஸ்னியா",
        "SUPPORT_NUMBER_BOSNIA": "<bdo dir='ltr'>+1 617 681 6306</bdo>",
        "SUPPORT_NAME_BULGARIA": "பல்கேரியா",
        "SUPPORT_NUMBER_BULGARIA": "<bdo dir='ltr'>00800 0010</bdo>, பின்னர் <bdo dir='ltr'>866 245 4931</bdo>",
        "SUPPORT_NAME_CANADA": "கனடா",
        "SUPPORT_NUMBER_CANADA": "<bdo dir='ltr'>1 800 748 5669</bdo>",
        "SUPPORT_NAME_CHILE": "சில்லி",
        "SUPPORT_NUMBER_CHILE": "<bdo dir='ltr'>123 0020 3408</bdo>",
        "SUPPORT_NAME_CHINA": "சீனா",
        "SUPPORT_NUMBER_CHINA_1": "நெட்காம் (வடக்கு): <bdo dir='ltr'>1 0800 74 40 164</bdo>",
        "SUPPORT_NUMBER_CHINA_2": "டெலிகாம் (தெற்கு): <bdo dir='ltr'>1 0800 44 00 158</bdo>",
        "SUPPORT_NAME_COLOMBIA": "கொலம்பியா",
        "SUPPORT_NUMBER_COLOMBIA": "<bdo dir='ltr'>01 800 911.0010</bdo>, பின்னர் <bdo dir='ltr'>866 310 3707</bdo>",
        "SUPPORT_NAME_COSTA_RICA": "காஸ்டா ரிக்கா",
        "SUPPORT_NUMBER_COSTA_RICA": "<bdo dir='ltr'>0800 013 1210</bdo>",
        "SUPPORT_NAME_CROATIA": "குரோஷியா",
        "SUPPORT_NUMBER_CROATIA": "<bdo dir='ltr'>0800 222 953</bdo>",
        "SUPPORT_NAME_CZECH_REPUBLIC": "செக் ரிபப்ளிக்",
        "SUPPORT_NUMBER_CZECH_REPUBLIC": "<bdo dir='ltr'>800 142 150</bdo>",
        "SUPPORT_NAME_DENMARK": "டென்மார்க்",
        "SUPPORT_NUMBER_DENMARK": "<bdo dir='ltr'>80 60 00 09</bdo>",
        "SUPPORT_NAME_EGYPT": "எகிப்து",
        "SUPPORT_NUMBER_EGYPT": "<bdo dir='ltr'>02 510 0200</bdo>, பின்னர் <bdo dir='ltr'>866 310 3707</bdo>",
        "SUPPORT_NAME_EL_SALVADOR": "எல் சால்வடார்",
        "SUPPORT_NUMBER_EL_SALVADOR": "<bdo dir='ltr'>+1 617 681 6306</bdo>",
        "SUPPORT_NAME_ESTONIA": "ஈஸ்டானியா",
        "SUPPORT_NUMBER_ESTONIA": "<bdo dir='ltr'>800 00 44 154</bdo>",
        "SUPPORT_NAME_FINLAND": "பின்லான்ட்",
        "SUPPORT_NUMBER_FINLAND": "<bdo dir='ltr'>0800 11 6366</bdo>",
        "SUPPORT_NAME_FRANCE": "பிரான்ஸ்",
        "SUPPORT_NUMBER_FRANCE": "<bdo dir='ltr'>0800 10 19 79</bdo>",
        "SUPPORT_NAME_GERMANY": "ஜெர்மனி",
        "SUPPORT_NUMBER_GERMANY": "<bdo dir='ltr'>0800 101 28 21</bdo>",
        "SUPPORT_NAME_GREECE": "கிரீஸ்",
        "SUPPORT_NUMBER_GREECE": "<bdo dir='ltr'>00 800 1311</bdo>, பின்னர் <bdo dir='ltr'>866 310 3707</bdo>",
        "SUPPORT_NAME_GUATEMALA": "குவாத்தமாலா",
        "SUPPORT_NUMBER_GUATEMALA": "<bdo dir='ltr'>1 800 624 0079</bdo>",
        "SUPPORT_NAME_HONG_KONG": "ஹாங்காங்",
        "SUPPORT_NUMBER_HONG_KONG": "<bdo dir='ltr'>3002 1665</bdo>",
        "SUPPORT_NAME_HUNGARY": "ஹங்கேரி",
        "SUPPORT_NUMBER_HUNGARY": "<bdo dir='ltr'>06 800 14 571</bdo>",
        "SUPPORT_NAME_ICELAND": "ஐஸ்லாண்ட்",
        "SUPPORT_NUMBER_ICELAND": "<bdo dir='ltr'>800 8544</bdo>",
        "SUPPORT_NAME_INDIA": "இந்தியா",
        "SUPPORT_NUMBER_INDIA": "<bdo dir='ltr'>000 800 440 1125</bdo>",
        "SUPPORT_NAME_INDONESIA": "இந்தோனேஷியா",
        "SUPPORT_NUMBER_INDONESIA": "<bdo dir='ltr'>008 800 330 334</bdo>",
        "SUPPORT_NAME_IRELAND": "அயர்லாந்து",
        "SUPPORT_NUMBER_IRELAND": "<bdo dir='ltr'>1 800 946 700</bdo>",
        "SUPPORT_NAME_ISRAEL": "இஸ்ரேல்",
        "SUPPORT_NUMBER_ISRAEL": "<bdo dir='ltr'>1 809 470 062</bdo>",
        "SUPPORT_NAME_ITALY": "இத்தாலி",
        "SUPPORT_NUMBER_ITALY": "<bdo dir='ltr'>800 90 56 37</bdo>",
        "SUPPORT_NAME_JAPAN": "ஜப்பான்",
        "SUPPORT_NUMBER_JAPAN": "உங்களது ஆய்வின் இலவச-உதவி எண்ணிற்கு தயவுசெய்து உங்களது ePRO ஆய்வுத் தகவல் வழிகாட்டுதலைப் பார்க்கவும்.",
        "SUPPORT_NAME_LATVIA": "லேட்வியா",
        "SUPPORT_NUMBER_LATVIA": "<bdo dir='ltr'>8000 2151</bdo>",
        "SUPPORT_NAME_LEBANON": "லெபனான்",
        "SUPPORT_NUMBER_LEBANON": "<bdo dir='ltr'>01-426-801</bdo> பின்னர் <bdo dir='ltr'>866 310 3707</bdo>",
        "SUPPORT_NAME_LITHUANIA": "லிதோனியா",
        "SUPPORT_NUMBER_LITHUANIA": "<bdo dir='ltr'>8800 30207</bdo>",
        "SUPPORT_NAME_MALAYSIA": "மலேஷியா",
        "SUPPORT_NUMBER_MALAYSIA": "<bdo dir='ltr'>1800 80 59 71</bdo>",
        "SUPPORT_NAME_MEXICO": "மெக்சிகோ",
        "SUPPORT_NUMBER_MEXICO_1": "(ஆங்கிலம்): <bdo dir='ltr'>001 800 748 5669</bdo> ",
        "SUPPORT_NUMBER_MEXICO_2": "(ஸ்பானிஷ்): <bdo dir='ltr'>001 855 631 6952</bdo>",
        "SUPPORT_NAME_MOLDOVA": "மோல்டோவா",
        "SUPPORT_NUMBER_MOLDOVA": "<bdo dir='ltr'>617 681 6306</bdo>",
        "SUPPORT_NAME_NETHERLANDS": "நெதர்லாந்து",
        "SUPPORT_NUMBER_NETHERLANDS": "<bdo dir='ltr'>0800 023 1389</bdo>",
        "SUPPORT_NAME_NEW_ZEALAND": "நியுசீலாந்து",
        "SUPPORT_NUMBER_NEW_ZEALAND": "<bdo dir='ltr'>0800 110 178</bdo>",
        "SUPPORT_NAME_NORWAY": "நார்வே",
        "SUPPORT_NUMBER_NORWAY": "<bdo dir='ltr'>800 62 051</bdo>",
        "SUPPORT_NAME_PAKISTAN": "பாகிஸ்தான்",
        "SUPPORT_NUMBER_PAKISTAN": "<bdo dir='ltr'>00 800 0100</bdo>, பின்னர் <bdo dir='ltr'>866 237 9767</bdo>",
        "SUPPORT_NAME_PANAMA": "பனாமா",
        "SUPPORT_NUMBER_PANAMA": "<bdo dir='ltr'>001 800 201 3095</bdo>",
        "SUPPORT_NAME_PERU": "பெரு",
        "SUPPORT_NUMBER_PERU": "<bdo dir='ltr'>0800 5 0974</bdo>",
        "SUPPORT_NAME_PHILIPPINES": "பிலிப்பைன்ஸ்",
        "SUPPORT_NUMBER_PHILIPPINES": "<bdo dir='ltr'>1 800 1116 0651</bdo>",
        "SUPPORT_NAME_POLAND": "போலாந்து",
        "SUPPORT_NUMBER_POLAND": "<bdo dir='ltr'>00800 331 1262</bdo>",
        "SUPPORT_NAME_PORTUGAL": "போர்சுகல்",
        "SUPPORT_NUMBER_PORTUGAL": "<bdo dir='ltr'>800 206 172</bdo>",
        "SUPPORT_NAME_PUERTO_RICO": "பியுர்டோ ரிக்கோ (அமெரிக்க மாகாணம்)",
        "SUPPORT_NUMBER_PUERTO_RICO": "<bdo dir='ltr'>1 800 748 5669</bdo>",
        "SUPPORT_NAME_ROMANIA": "ரோமானியா",
        "SUPPORT_NUMBER_ROMANIA": "<bdo dir='ltr'>0800 894492</bdo>",
        "SUPPORT_NAME_RUSSIA": "ரஷியா",
        "SUPPORT_NUMBER_RUSSIA_1": "(முதன்மை -இலவச எண்): <bdo dir='ltr'>8 10 800 249 13011</bdo>",
        "SUPPORT_NUMBER_RUSSIA_2": "(மாஸ்கோ உள்ளே): <bdo dir='ltr'>363-2400</bdo> <br> பின்னர் <bdo dir='ltr'>866 310 3707</bdo>",
        "SUPPORT_NUMBER_RUSSIA_3": "(மாஸ்கோ -வெளியே): <bdo dir='ltr'>8^(495) 363-2400</bdo> <br> பின்னர் <bdo dir='ltr'>866 310 3707</bdo>",
        "SUPPORT_NUMBER_RUSSIA_4": "(செயின்ட் பீட்டர்ஸ்பார்க் உள்ளே): <bdo dir='ltr'>363-2400</bdo> <br> பின்னர் <bdo dir='ltr'>866 310 3707</bdo>",
        "SUPPORT_NUMBER_RUSSIA_5": "(செயின்ட் பீட்டர்ஸ்பார்க் வெளியே): <bdo dir='ltr'>8^(495) 363-2400</bdo> <br> பின்னர் <bdo dir='ltr'>866 310 3707</bdo>",
        "SUPPORT_NAME_SAUDI_ARABIA": "சவுதி அரேபியா",
        "SUPPORT_NUMBER_SAUDI_ARABIA": "<bdo dir='ltr'>+1 617 681 6306</bdo>",
        "SUPPORT_NAME_SERBIA": "செர்பியா",
        "SUPPORT_NUMBER_SERBIA": "<bdo dir='ltr'>+1 617 973 1739</bdo>",
        "SUPPORT_NAME_SINGAPORE": "சிங்கப்பூர்",
        "SUPPORT_NUMBER_SINGAPORE": "<bdo dir='ltr'>800 616 30 03</bdo>",
        "SUPPORT_NAME_SLOVAKIA": "ஸ்லோவாகியா",
        "SUPPORT_NUMBER_SLOVAKIA": "<bdo dir='ltr'>0800 0044 65</bdo>",
        "SUPPORT_NAME_SLOVENIA": "சுலோவீனியா",
        "SUPPORT_NUMBER_SLOVENIA": "<bdo dir='ltr'>+1 617 681 6306</bdo>",
        "SUPPORT_NAME_SOUTH_AFRICA": "தென் ஆப்ரிகா",
        "SUPPORT_NUMBER_SOUTH_AFRICA": "<bdo dir='ltr'>0800 99 5853</bdo>",
        "SUPPORT_NAME_SOUTH_KOREA": "தென் கொரியா",
        "SUPPORT_NUMBER_SOUTH_KOREA": "<bdo dir='ltr'>00308 33 00 08</bdo>",
        "SUPPORT_NAME_SPAIN": "ஸ்பெயின்",
        "SUPPORT_NUMBER_SPAIN": "<bdo dir='ltr'>900 90 2541</bdo>",
        "SUPPORT_NAME_SWEDEN": "ஸ்வீடன்",
        "SUPPORT_NUMBER_SWEDEN": "<bdo dir='ltr'>020 120 99 69</bdo>",
        "SUPPORT_NAME_SWITZERLAND": "சுவிசர்லாந்து",
        "SUPPORT_NUMBER_SWITZERLAND_1": "(ஆங்கிலம்): <bdo dir='ltr'>0800 199 325</bdo>",
        "SUPPORT_NUMBER_SWITZERLAND_2": "(பிரெஞ்சு): <bdo dir='ltr'>0800 891 183</bdo>",
        "SUPPORT_NUMBER_SWITZERLAND_3": "(ஜெர்மன்): <bdo dir='ltr'>0800 891 025</bdo>",
        "SUPPORT_NAME_TAIWAN": "தைவான்",
        "SUPPORT_NUMBER_TAIWAN": "<bdo dir='ltr'>00801 33 33 42</bdo>",
        "SUPPORT_NAME_THAILAND": "தாய்லாந்து",
        "SUPPORT_NUMBER_THAILAND": "<bdo dir='ltr'>1 800 33 140 353</bdo>",
        "SUPPORT_NAME_TUNISIA": "துனிஷியா",
        "SUPPORT_NUMBER_TUNISIA": "<bdo dir='ltr'>+1 617 681 6306</bdo>",
        "SUPPORT_NAME_TURKEY": "துருக்கி",
        "SUPPORT_NUMBER_TURKEY": "<bdo dir='ltr'>00 800 151 1335</bdo>",
        "SUPPORT_NAME_UKRAINE": "உக்ரைன்",
        "SUPPORT_NUMBER_UKRAINE": "<bdo dir='ltr'>0^00 11</bdo>, பின்னர் <bdo dir='ltr'>866 245 4931</bdo>",
        "SUPPORT_NAME_UAE": "யுனைடட் அராப் எமிரேட்ஸ்",
        "SUPPORT_NUMBER_UAE": "<bdo dir='ltr'>8000-021</bdo>, பின்னர் <bdo dir='ltr'>866 310 3707</bdo>",
        "SUPPORT_NAME_UK": "யுனைடட் கிங்டம்",
        "SUPPORT_NUMBER_UK": "<bdo dir='ltr'>0800 015 0408</bdo>",
        "SUPPORT_NAME_US": "யுனைடட் ஸ்டேட்ஸ்",
        "SUPPORT_NUMBER_US_1": "(முதன்மை): <bdo dir='ltr'>1 800 748 5669</bdo>",
        "SUPPORT_NUMBER_US_2": "(பாக் அப்): <bdo dir='ltr'>1 877 748 5669</bdo>",
        "SUPPORT_NAME_VENEZUELA": "வெனின்சுலா",
        "SUPPORT_NUMBER_VENEZUELA_1": "(ஆங்கிலம்): <bdo dir='ltr'>0 800 552 6288</bdo> <br> பின்னர் <bdo dir='ltr'>866 310 3707</bdo> ",
        "SUPPORT_NUMBER_VENEZUELA_2": "(ஸ்பானிஷ்): <bdo dir='ltr'>0 800 100 3063</bdo> ",
        "STUDY_VERSION": "ஆய்வு பதிப்பு:",
        "STUDY_URL": "ஆய்வு URL:",
        "PROTOCOL": "வரைமுறை:",
        "SPONSOR": "ஸ்பான்சர்:",
        "STORED_REPORTS": "சேமிக்கப்பட்ட படிவங்கள்:",
        "CORE_PRODUCT_VERSION_LABEL": "தயாரிப்புப் பதிப்பு:",
        "ABOUT": "அறிமுகம்",
        "P_AFFIDAVIT_HEADER": "<div><strong>தளம்: {{{ getSiteCode }}}</strong><br /><strong>நோயாளி ID: {{{ getPatientIdNumber }}}</strong></div>",
		"SET_TIMEZONE": "நேர மண்டலத்தை அமை",
		"DEVICE_SERIAL_NUMBER": "சாதனத்தின் தொடர் எண்",
		"NONEXISTENT_USER": "தற்போது இல்லாத பயனரைப் புதுப்பிக்க முயற்சிக்கப்பட்டது.",
		"SCREENING" : "தகுதிகாணுதல் (ஸ்கிரீனிங்)",
		"TREATMENT" : "சிகிச்சை",
		"RANDOMIZATION" : "தற்போக்காக ஒதுக்கீடு செய்தல்",
		"FOLLOWUP" : "பின் தொடர்வு",
		"TERMINATION" : "முடிவு",
        "ACCEPT": "ஏற்கிறேன்",
        "DECLINE": "மறுக்கிறேன்",
		"EULA": "இறுதிப் பயனர் உரிமம்",
        "EULA_TEXT": "<p><strong><span class=\"text-underline\">முக்கியம்</span>:  நீங்கள் இந்த ஒப்பந்தத்தைப் படித்து முடிக்கும் வரை, ஏற்கிறேன் என்ற பொத்தானைக் கிளிக் செய்ய வேண்டாம்.  ஏற்கிறேன் என்ற பொத்தானைக் கிளிச் செய்வதன் மூலம், இந்த ஒப்பந்தத்தின் விதிமுறைகள் அனைத்தையும் ஏற்கிறீர்கள்.  இந்த ஒப்பந்தத்தின் விதிமுறைகள் அனைத்தையும் நீங்கள் ஏற்கவில்லை என்றால், (1) \"ஏற்கிறேன்\" என்ற பொத்தானைக் கிளிக் செய்ய வேண்டாம், (2) \"மறுக்கிறேன்\" என்ற பொத்தானைக் கிளிக் செய்து, நிறுவலையும் உரிமம் அளித்தல் செயலையும் இடைநிறுத்தவும்.</strong></p><p>மருத்துவச் சோதனை ஒப்பந்தத்தில் உங்கள் பங்கேற்பாளருடன் தொடர்பாக இச்சாதனத்தில் (\"மென்பொருள்]\")உள்ளமைத்துள்ள eResearchTechnology, இன்ங். மென்பொருளைப் பயன்படுத்த, eResearchTechnology, இன்ங். (\"உரிமம் அளித்தவர்\"), தனிப்பட்டதல்லாத, மாற்ற இயலாத உரிமையை உங்களுக்கு வழங்கும்: <strong>{{{ clinicalTrial }}}</strong>.  eResearchTechnology, இன்ங். மென்பொருளை வழங்கப்பட்ட காப்புரிமைகள் மற்றும் பிற நிலுவையிலுள்ள காப்புறுமைகளால் பாதுகாக்கப்படுகிறது.  இந்த ஒப்பந்தம் உங்களுக்கு எந்தவொரு மென்பொருளிலும் (அல்லது அவற்றின் நகல்கள் எதிலும்) உடைமையுரிமைகள் எதையும் அளிக்காது, ஆனால் இந்த ஒப்பந்தத்தின் விதிமுறைகளுக்கு இணங்க மென்பொருளைப் பயன்படுத்துவதற்கு மட்டும் ஒரு உரிமத்தை அளிக்கும்.  மென்பொருளுக்கான தலைப்பு மற்றும் அதன் அனைத்துப் பாகங்கள் மற்றும் அவற்றில் அடக்கப்பட்டுள்ள உரிமையுடைமை மற்றும் அறிவுசார் சொத்து உரிமைகள் அனைத்தும் எல்லாச் சமயங்களிலும் உரிமம் அளிப்பவருக்கு உரியவையாகவே இருக்கும்.</p><p>நீங்கள் நேரடியாக அல்லது மறைமுகமாக, (i) மென்பொருளின் வடிவமைப்புத் தகவலைப் பெற, பாகங்களாகப் பிரிக்க அல்லது கலைக்க மாட்டேன் என்று; (ii)மென்பொருளை நகலெடுக்க, விநியோகிக்க, உற்பத்தி செய்ய, ஏற்றவாறு மாற்றியமைக்க, அதையொத்து வருவித்த பணிகளை உருவாக்க, படியெடுக்க, மொழிபெயர்க்க, வழிகாட்ட அல்லது வேறுவகையில் மாற்றியமைக்க மாட்டேன் என்று; அல்லது (iii) ஏதேனும் பதிப்புரிமை, வணிக இரகசியம் அல்லது மென்பொருள் மீது அல்லது அதில் உள்ள பிற சட்ட அறிவிப்புகளை அகற்றவோ அல்லது மாற்றவோ மாட்டேன் என்று ஏற்கிறீர்கள்.  மென்பொருளின் அங்கீகரிக்கப்படாத பயன்பாட்டைத் தடுக்கின்ற குறியீடு மென்பொருளில் இருக்கலாம் என்பதை நீங்கள் ஒப்புக்கொண்டு, ஏற்கிறீர்கள்.</p><br><p>முந்தைய அனைத்தையும் நீங்கள் ஏற்றுக்கொண்டால், தயவுசெய்து - <strong>ஏற்கிறேன்</strong> -என்பதைத் தேர்ந்தெடுங்கள் - \"ஏற்கிறேன்\" என்பதைக் கிளிக் செய்வது, உரிம விதிமுறைகளை நீங்கள் ஏற்கிறீர்கள் என்று குறிப்பிடும்.</p><p>நீங்கள் முந்தைய அனைத்தையும் ஏற்காவிட்டால் அல்லது ஏற்றுக்கொள்ள அங்கீகரிக்காவிட்டால், - <strong>மறுக்கிறேன்</strong> - என்பதைத் தேர்ந்தெடுங்கள், இச்சந்தர்ப்பத்தில், மென்பொருளுக்கான அணுகல் முடக்கப்படும்.  அங்கீகரிக்கப்பட்டால், நீங்கள் மற்றொரு நேரத்தில் ஏற்றுக்கொள்ளக் கூடும்.</p>",
        "VISIT_EXPIRED_HEADER": "காலாவதியாகிய வருகை.",
        "VISIT_EXPIRED_MESSAGE": "இந்த வருகை காலாவதியாகிவிட்டதால், இது இனி கிடைக்காது.",
        "VISIT_EXPIRED_MESSAGE_SUBJECT": "இந்த வருகை காலாவதியாகிவிட்டதால், இது இனி கிடைக்காது. தயவுசெய்து சாதனத்தைப் பொருத்தமான ஆய்விட அலுவலரிடம் திரும்ப அளிக்கவும்.",
        "SQ-AL": "அல்பேனியன்",
        "IMAGE_FOLDER": "{{{ imageFolder }}}",
		"MODAL_OK_TEXT": "சரி",
        "BROWSER_LOAD_ERROR": "பக்கம் இல்லை. தயவுசெய்து, உங்கள் இணையம் இணைக்கப்பட்டுள்ளதா என்று சரிபார்த்து, மீண்டும் முயற்சிக்கவும்.",
		"NO_USER_OF_ROLE" : "அந்தப் பணியுள்ள பயனர் எவரும் இல்லை.",
        "EDIT_PATIENT_REASON_1": "பண்புருத் தரவுத் திருத்தம்",
        "EDIT_PATIENT_REASON_2": "ID மாற்றம்",
        "EDIT_PATIENT_REASON_3": "தவறான மொழி தேர்ந்தெடுக்கப்பட்டது",
		"START_VISIT_OUTSIDE_WINDOW_MSG": "உள்ளமைக்கப்பட்ட நேர அவகாசத்திற்கு வெளியில் {{{ getVisitName }}}-ஐ உள்ளிடவும். {{{ startDate }}} - {{{ endDate }}}",
		"START_VISIT_HARD_STOP_MSG": "உள்ளமைக்கப்பட்ட நேர அவகாசத்திற்கு வெளியில் {{{ getVisitName }}} ஐ உள்ளிட முடியாது. {{{ startDate }}} - {{{ endDate }}}",
		"USER_NAME_INVALID_CHARACTERS" : "தயவுசெய்து சிறப்பு எழுத்துக்குறிகளை பயன்படுத்தவேண்டாம்",
		"ERROR_PATIENT_SAVE" : "புதிய நோயாளியைச் சேர்க்கும்போது, பிழை நேர்ந்தது.",
		"PASSWORD_CHANGE_FAILED" : "உங்கள் ஆய்வுத் தரவுகளைச் சேகரிப்பதற்காக வேறுபட்ட சாதனம் செயல்படுத்தப்பட்டுள்ளது. தயவுசெய்து, அச்சாதனத்தில் உங்கள் கடவுச்சொல்லை மாற்றுங்கள்.",
		"ERROR" : "பிழை.  தயவுசெய்து ERT ஆதரவு மையத்தை அணுகவும்.",
		"ERROR_AFTER_ACTIVATION_SUCCESSFUL" : "பிழை ஏற்பட்டுள்ளது. நீங்கள் உங்கள் அமைவுக் குறியீட்டையும் கடவுச்சொல்லையும் உள்ளிட வேண்டும்.",
		"CONNECTION_TIMEOUT" : "இணைப்பின் நேரம் முடிந்தது.",
		"UPDATE_FAILED" : "ERT புதுப்பிப்பு முடியவில்லை. தயவுசெய்து, இச்சாதனம் இண்டர்நெட்டுடன் இணைக்கப்பட்டிருப்பதை உறுதிசெய்து, மீண்டும் முயற்சிக்கவும்.",
        "QR_CODE_UNAVAILABLE": "QR-ஐப் புதுப்பிக்க நோயாளி என்பதை கிளிக் செய்க.",
        "QR_MODAL_TITLE": "இதற்கான QR குறியீடு: ",
        "TRANSMIT_FAILED_403_14": "நோயாளி உருவாக்கம் நிறைவடையவில்லை என்பதால் ஒன்று அல்லது மேலும் பரிமாற்றங்கள் தோல்வியடைந்தன. தயவுசெய்து காத்திருந்து மீண்டும் முயற்சிக்கவும்.",
        "CONSOLE_LOG": "கன்சோல் பதிவு",
		"USER_SELECT_ROLE_VALIDATION": "பதவித் தேர்வு செய்தல் தேவைப்படுகிறது.",
        "USER_SELECT_LANGUAGE_VALIDATION": "மொழித் தேர்வு செய்தல் தேவைப்படுகிறது."
    },
    "dates": {
        "setDateButtonLabel": "தேதியை அமை",
        "setTimeButtonLabel": "சரி",
        "setDurationButtonLabel": "காலஅளவை அமை",
        "calTodayButtonLabel": "இன்றைய நாளிற்குத் தாவு",
        "titleDateDialogLabel": "தேதியை அமை",
        "titleTimeDialogLabel": "நேரத்தை அமை",
        "daysOfWeek": [
            "ஞாயிறு",
            "திங்கள்",
            "செவ்வாய்",
            "புதன்",
            "வியாழன்",
            "வெள்ளி",
            "சனி"
        ],
        "daysOfWeekShort": [
            "ஞா",
            "தி",
            "செ",
            "பு",
            "வி",
            "வெ",
            "ச"
        ],
        "monthsOfYear": [
            "ஜனவரி",
            "பிப்ரவரி",
            "மார்ச்",
            "ஏப்ரல்",
            "மே",
            "ஜூன்",
            "ஜூலை",
            "ஆகஸ்ட்",
            "செப்டம்பர்",
            "அக்டோபர்",
            "நவம்பர்",
            "டிசம்பர்"
        ],
        "monthsOfYearShort": [
            "ஜன",
            "பிப்",
            "மார்ச்",
            "ஏப்",
            "மே",
            "ஜூன்",
            "ஜூலை",
            "ஆகஸ்",
            "செப்",
            "அக்டோ",
            "நவம்",
            "டிசம்"
        ],
        "durationLabel": [
            "நாட்கள்",
            "மணிநேரங்கள்",
            "நிமிடங்கள்",
            "நொடிகள்"
        ],
        "durationDays": [
            "நாள்",
            "நாட்கள்"
        ],
        "tooltip": "தேதி தெரிந்தெடுப்பியைத் திற",
        "nextMonth": "அடுத்த மாதம்",
        "prevMonth": "முந்தைய மாதம்",
        "clearButton": "அழி",
        "meridiem": [
            "AM",
            "PM"
        ]
    }
}
