^C:\USERS\COREY\PHT-DEV-SYNDICATION-WINDOWS\TARGET\SITEPAD\PLUGINS\CORDOVA-SQLITE-STORAGE\SRC\WINDOWS\SQLITE3-WIN-RT\SQLITE3\PCH.CPP
C:\USERS\COREY\PHT-DEV-SYNDICATION-WINDOWS\TARGET\SITEPAD\PLUGINS\CORDOVA-SQLITE-STORAGE\SRC\WINDOWS\SQLITE3-WIN-RT\SQLITE3\SQLITE3.UWP\X64\DEBUG\PCH.PCH
C:\USERS\COREY\PHT-DEV-SYNDICATION-WINDOWS\TARGET\SITEPAD\PLUGINS\CORDOVA-SQLITE-STORAGE\SRC\WINDOWS\SQLITE3-WIN-RT\SQLITE3\SQLITE3.UWP\X64\DEBUG\VC140.PDB
C:\USERS\COREY\PHT-DEV-SYNDICATION-WINDOWS\TARGET\SITEPAD\PLUGINS\CORDOVA-SQLITE-STORAGE\SRC\WINDOWS\SQLITE3-WIN-RT\SQLITE3\SQLITE3.UWP\X64\DEBUG\VC140.IDB
C:\USERS\COREY\PHT-DEV-SYNDICATION-WINDOWS\TARGET\SITEPAD\PLUGINS\CORDOVA-SQLITE-STORAGE\SRC\WINDOWS\SQLITE3-WIN-RT\SQLITE3\SQLITE3.UWP\X64\DEBUG\PCH.OBJ
^C:\USERS\COREY\PHT-DEV-SYNDICATION-WINDOWS\TARGET\SITEPAD\PLUGINS\CORDOVA-SQLITE-STORAGE\SRC\WINDOWS\SQLITE3-WIN-RT\SQLITE3\CONSTANTS.CPP|C:\USERS\COREY\PHT-DEV-SYNDICATION-WINDOWS\TARGET\SITEPAD\PLUGINS\CORDOVA-SQLITE-STORAGE\SRC\WINDOWS\SQLITE3-WIN-RT\SQLITE3\DATABASE.CPP|C:\USERS\COREY\PHT-DEV-SYNDICATION-WINDOWS\TARGET\SITEPAD\PLUGINS\CORDOVA-SQLITE-STORAGE\SRC\WINDOWS\SQLITE3-WIN-RT\SQLITE3\STATEMENT.CPP
C:\USERS\COREY\PHT-DEV-SYNDICATION-WINDOWS\TARGET\SITEPAD\PLUGINS\CORDOVA-SQLITE-STORAGE\SRC\WINDOWS\SQLITE3-WIN-RT\SQLITE3\SQLITE3.UWP\X64\DEBUG\CONSTANTS.OBJ
C:\USERS\COREY\PHT-DEV-SYNDICATION-WINDOWS\TARGET\SITEPAD\PLUGINS\CORDOVA-SQLITE-STORAGE\SRC\WINDOWS\SQLITE3-WIN-RT\SQLITE3\SQLITE3.UWP\X64\DEBUG\STATEMENT.OBJ
C:\USERS\COREY\PHT-DEV-SYNDICATION-WINDOWS\TARGET\SITEPAD\PLUGINS\CORDOVA-SQLITE-STORAGE\SRC\WINDOWS\SQLITE3-WIN-RT\SQLITE3\SQLITE3.UWP\X64\DEBUG\DATABASE.OBJ
^C:\USERS\COREY\PHT-DEV-SYNDICATION-WINDOWS\TARGET\SITEPAD\PLUGINS\CORDOVA-SQLITE-STORAGE\SRC\WINDOWS\SQLITE3-WIN-RT\SQLITE3\CONSTANTS.CPP
C:\USERS\COREY\PHT-DEV-SYNDICATION-WINDOWS\TARGET\SITEPAD\PLUGINS\CORDOVA-SQLITE-STORAGE\SRC\WINDOWS\SQLITE3-WIN-RT\SQLITE3\SQLITE3.UWP\X64\DEBUG\VC140.PDB
^C:\USERS\COREY\PHT-DEV-SYNDICATION-WINDOWS\TARGET\SITEPAD\PLUGINS\CORDOVA-SQLITE-STORAGE\SRC\WINDOWS\SQLITE3-WIN-RT\SQLITE3\DATABASE.CPP
C:\USERS\COREY\PHT-DEV-SYNDICATION-WINDOWS\TARGET\SITEPAD\PLUGINS\CORDOVA-SQLITE-STORAGE\SRC\WINDOWS\SQLITE3-WIN-RT\SQLITE3\SQLITE3.UWP\X64\DEBUG\VC140.PDB
^C:\USERS\COREY\PHT-DEV-SYNDICATION-WINDOWS\TARGET\SITEPAD\PLUGINS\CORDOVA-SQLITE-STORAGE\SRC\WINDOWS\SQLITE3-WIN-RT\SQLITE3\STATEMENT.CPP
C:\USERS\COREY\PHT-DEV-SYNDICATION-WINDOWS\TARGET\SITEPAD\PLUGINS\CORDOVA-SQLITE-STORAGE\SRC\WINDOWS\SQLITE3-WIN-RT\SQLITE3\SQLITE3.UWP\X64\DEBUG\VC140.PDB
^C:\USERS\COREY\PHT-DEV-SYNDICATION-WINDOWS\TARGET\SITEPAD\PLUGINS\CORDOVA-SQLITE-STORAGE\NODE_MODULES\CORDOVA-SQLITE-STORAGE-DEPENDENCIES\SQLITE3.C
C:\USERS\COREY\PHT-DEV-SYNDICATION-WINDOWS\TARGET\SITEPAD\PLUGINS\CORDOVA-SQLITE-STORAGE\SRC\WINDOWS\SQLITE3-WIN-RT\SQLITE3\SQLITE3.UWP\X64\DEBUG\VC140.PDB
C:\USERS\COREY\PHT-DEV-SYNDICATION-WINDOWS\TARGET\SITEPAD\PLUGINS\CORDOVA-SQLITE-STORAGE\SRC\WINDOWS\SQLITE3-WIN-RT\SQLITE3\SQLITE3.UWP\X64\DEBUG\VC140.IDB
C:\USERS\COREY\PHT-DEV-SYNDICATION-WINDOWS\TARGET\SITEPAD\PLUGINS\CORDOVA-SQLITE-STORAGE\SRC\WINDOWS\SQLITE3-WIN-RT\SQLITE3\SQLITE3.UWP\X64\DEBUG\SQLITE3.OBJ
