{
        "namespace": "CORE",
        "language": "hu",
        "locale": "HU",
        "localized": "Magyar (HU)",
        "direction": "ltr",
        "resources": {
        "ACTIVE": "Aktív",
        "ACTIVATE_USER": "Felhasználó aktiválása",
        "ADD_PATIENT": "Új beteg felvétele",
        "ADD_USER": "Felhasználó felvétele",
        "AFFIDAVIT": "Ha készen áll a válaszok mentésére, válassza az OK, majd a Tovább lehetőséget.",
        "AFFIDAVIT_HELP": "Köszönjük! Minden szükséges választ megadott. A Vissza gombbal visszaléphet, és ellenőrizheti és megváltoztathatja a válaszait.",
        "ALL_QUESTIONNAIRES_COMPLETED": "Minden űrlap kész!",
        "APP_NAME": "ERT",
        "APPLICATION_HEADER": "{{{ appHeader }}}",
        "APP_NAME_LBL": "Alkalmazás neve",
        "APP_VERSION": "Alkalmazás verziója",
        "ASSIGNED_TO": "Hozzárendelve ehhez",
        "AVAILABLE": "Rendelkezésre áll",
        "BACK": "Vissza",
        "BACK_OUT_CONFIRM": "Biztosan kilép? Az űrlap válaszai elvesznek.",
        "BLUETOOTH_REG_REFRESH_BUTTON": "Lista frissítése",
        "CANCEL": "Mégse",
        "CHECK_FOR_UPDATES": "Frissítések keresése",
        "CHOOSE_A_SITE": "Rendelje hozzá ezt az eszközt egy vizsgálóhelyhez.",
        "COMPLETED": "Kész",
        "CONFIRM_PASSWORD": "Jelszó megerősítése:",
        "CONFIRM_TEMP_PASS": "Ideiglenes jelszó megerősítése:",
        "CONTINUE": "Folytatás",
        "COUNTRY": "Ország",
        "CUSTOM_ENVIRONMENT": "Egyedi környezet",
        "DEACTIVATE_PATIENT": "Beteg deaktiválása",
        "DEACTIVATE_USER": "Felhasználó deaktiválása",
        "DEACTIVATED": "Deaktiválva",
        "DEVICE_ID": "Eszközazonosító",
        "DEVICE_REGISTRATION_FAILURE": "Nem sikerült regisztrálni az eszközt.",
        "DEVICE_UUIID": "Eszköz univerzálisan egyedi azonosítója",
        "BATTERY_LEVEL": "Akkumulátor töltöttsége",
        "DEVICE_INFO": "Eszköz adatai",
        "EDIT_MY_INFO": "Adataim szerkesztése",
        "EDIT_PATIENT": "Beteg szerkesztése",
        "EDIT_SERVICE_URL": "Szolgáltatás URL-címének szerkesztése",
        "EDIT_SERVICE_URL_SUCCESS": "A szolgáltatás URL-címének frissítése megtörtént.",
        "EDIT_USER": "Felhasználó adatainak szerkesztése",
        "EMAIL": "E-mail-cím",
        "ENTER_PATIENT_INFO": "Betegadatok megadása",
        "ENTER_UNLOCK_CODE": "Adja meg a feloldási kódot.",
        "ENTER_USER_INFO": "Új vizsgálóhely-felhasználó adatainak megadása",
        "ENVIRONMENT": "Környezet",
        "FIRST_NAME": "Keresztnév",
        "FORGOT_PASSWORD": "Elfelejtette a jelszavát?",
        "FORM": "Űrlap",
        "FORM_GATEWAY": "Űrlap átjárója",
        "FORM_NAME": "Űrlap neve",
        "FULL_NAME": "Teljes név:",
        "GO_TO_VISITS": "Beteg vizitjei",
        "HAND_DEVICE_SITE_TITLE": "Adja az eszközt egy vizsgálóhely-felhasználónak",
        "HAND_DEVICE_SITE_BODY": "Adja az eszközt a vizsgálóhely-felhasználónak.",
        "HELP": "Súgó",
        "HOME": "Kezdőlap",
        "IN_PROGRESS": "Folyamatban",
        "INITIALS": "Kezdőbetűk",
        "INVALID_URL": "Adjon meg érvényes URL-t.",
        "INVALID_PERMISSION": "Az engedély érvénytelen.",
        "INVALID_PASSWORD": "A jelszó érvénytelen.",
        "LANGUAGE": "Nyelv:",
        "LAST_LOGIN": "Utolsó bejelentkezés ideje",
        "LAST_NAME": "Családnév",
        "LAST_REFRESH_TIME": "Utolsó frissítés ideje",
        "LOCATION": "Hely",
        "LOGIN": "Bejelentkezés",
        "LOGIN_SCREEN": "Bejelentkezés",
        "LOGOUT": "Kijelentkezés",
        "MANAGE_USERS": "Vizsgálóhely-felhasználók kezelése",
        "MARK_AS_COMPLETED": "Megjelölés készként",
        "SITE_SIGNATURE": "Név nyomtatott betűkkel: ",
        "SITE_REPORT_AFF": "Én írtam be és ellenőriztem a fenti adatokat, és ezennel igazolom azok helyességét.<p><strong>{{{ getActiveUserName }}}</strong> aláírása:</p>",
        "PATIENT_REPORT_AFF": "Én írtam be és ellenőriztem a fenti adatokat, ezennel igazolom azok helyességét.<p class={{{ getPatientInitials }}}><strong>{{{ getActiveUserName }}}</strong> monogramja:</p>",
        "CLEAR_SIGNATURE": "Aláírás törlése",
        "MENU": "Menü",
        "MODE": "Mód",
        "NAME": "Név",
        "NEW_USER": "Új felhasználói napló hozzáadása",
        "NEW_USER_CREATED": "Sikeresen létrehozta a vizsgálóhely-felhasználót",
        "NEXT": "Tovább",
        "NO_RESULTS_FOUND": "A keresés nem talált eredményt.",
        "NOT_AVAILABLE": "Nem áll rendelkezésre",
        "OK": "OK",
        "ORDER": "Rendelés",
        "PASSWORD": "Jelszó:",
        "PATIENT": "Beteg",
        "PATIENT_ID": "Beteg azonosítója:",
        "PENDING_TRANSMISSIONS": "Függőben lévő küldések",
        "PLEASE_WAIT": "Kis türelmet...",
        "PLEASE_CONFIRM": "Erősítse meg",
        "REPORTS_AND_FORMS": "Jelentések és űrlapok",
        "REPORTS_COMPLETED_MESSAGE": "Ezzel kitöltötte az összes űrlapot. Adja vissza az eszközt a helyi személyzet megfelelő tagjának.",
        "REQUIRED_ANSWER": "Töltse ki a kért adatokat.",
        "RESET_PIN": "Beteg PIN-kódjának átállítása",
        "RESET_USER_PASSWORD": "Felhasználói jelszó átállítása",
        "ROLES": "Szerepkör:",
        "SAVE": "Mentés",
        "SEARCH": "Keresés",
        "SECURITY_QUESTION_0": "Mi édesanyja leánykori neve?",
        "SECURITY_QUESTION_1": "Melyik városban született?",
        "SECURITY_QUESTION_2": "Mi első háziállatának a neve?",
        "SECURITY_QUESTION_3": "Mi a kedvenc sportja?",
        "SECURITY_QUESTION_4": "Melyik évben fejezte be tanulmányait?",
        "SECURITY_QUESTION_5": "Mi legidősebb gyermekének középső neve?",
        "SECURITY_QUESTION_6": "Mi legjobb gyermekkori barátjának neve?",
        "SECURITY_QUESTION_7": "Mi volt a harmadik osztályos tanárának vezetékneve?",
        "SECURITY_QUESTION_8": "Melyik településen volt az első munkahelye?",
        "SECRET_ANSWER": "Biztonsági válasz:",
        "SECRET_QUESTION": "Biztonsági kérdés:",
        "SECRET_QUESTION_HELP_TEXT": "Válassza ki biztonsági kérdést az alábbi listából. Amennyiben elfelejti a jelszavát, ezt a kérdést megválaszolva jelentkezhet be.",
        "SECRET_QUESTION_ANSWER": "Biztonsági kérdés és válasza",
        "SELECT_LANGUAGE": "Válassza ki a vizsgálóhely számára preferált nyelvet.",
        "SELECT_SITE_NUMBER": "Válassza ki a vizsgálóhely számát",
        "SERVICE_URL": "Szolgáltatás URL-címe",
        "SETTINGS": "Beállítások",
        "SETUP_COMPLETE": "A telepítés befejeződött",
        "SETUP_COMPLETE_DESC": "Az eszköz most már telepítve van és szállítható.  A következő képernyőn nyomja meg az OK gombot, majd kapcsolja ki az eszközt.",
        "SETUP_SITE_USER": "Vizsgálóhely-felhasználó beállítása",
        "SETUP_SITE_USER_LEGEND": "Kérjük, állítsa be az eszköz vizsgálóhely-felhasználóját.",
        "SITE": "Vizsgálóhely",
        "SITE_ASSESSMENTS": "Vizsgálóhelyi értékelések",
        "SIGNATURE_DATA_LIMIT_EXCEEDED": "Az aláírásmező nem tudta pontosan feldolgozni aláírását. Az aláíráshoz használja monogramját.",
        "SITE_NUMBER": "Vizsgálóhely száma",
        "SITE_ROLE": "Vizsgálóhely-felhasználó",
        "SITE_SELECTION": "Vizsgálóhely kiválasztása",
        "SKIP_FORM": "Űrlap átugrása",
        "SKIP_QUESTION": "Biztosan átugorja a képernyőn lévő válaszokat?",
        "SKIP_TO_VISIT": "Ugrás a vizithez",
        "SKIP_VISIT": "Vizit átugrása",
        "SKIPPED": "Átugorva",
        "START_FORM": "Űrlap elkezdése",
        "START_VISIT": "Vizit elkezdése",
        "STATUS": "Állapot",
        "STATUS_DATE": "Állapot dátuma",
        "STUDY": "Vizsgálat",
        "STUDYWORKS_LOGIN": "StudyWorks-bejelentkezés",
        "SUBJECT_ID": "Beteg azonosítója",
        "SUBJECT_ROLE": "Beteg",
        "SUBMIT": "Küldés",
        "SUPPORT_TOOLS": "Támogatóeszközök",
        "SYNC": "Szinkronizálás",
        "SYNC_USERS": "Felhasználók szinkronizálása",
        "SYNC_TO_DEVICE": "Vizsgálat és eszköz szinkronizálása",
        "TEMPORARY_PASSWORD_MESSAGE": "Adja meg az új felhasználó ideiglenes jelszavát. A bejelentkezés után új jelszó létrehozása szükséges.",
        "TEMP_PASSWORD": "Ideiglenes jelszó: ",
        "UNABLE_TO_GET_SITE_LIST": "Nem sikerült lekérdezni a vizsgálóhelyek listáját",
        "UNLOCK_CODE": "Feloldási kód",
        "UNLOCK_CODE_HELP": "A ERT Tablet alkalmazás feloldási kódja a StudyWorks alkalmazás „ERT Unlock Codes” (A ERT feloldási kódjai) intelligens jelentésében található. Ha további segítségre van szüksége, forduljon a ERT ügyfélszolgálatához.",
        "USER": "Felhasználó",
        "USER_ALREADY_EXISTS": "Ez a felhasználó már létezik",
        "SUBJECT_ALREADY_EXISTS": "A(z) {{{ getPatientIDForDuplicate }}} azonosítójú beteg már szerepel a rendszerben",
        "USER_ROLE": "Felhasználó szerepköre",
        "USERNAME": "Felhasználónév",
        "USER_NAME": "Felhasználónév:",
        "VISIT": "Vizit",
        "VISIT_COMPLETED_MESSAGE": "Nincsenek egyéb űrlapok ehhez a vizithez.  Ez a vizit most befejeződött.",
        "VISITS": "Vizitek",
        "VISITS_SKIPPED": "Átugrott vizitek:",
        "VISIT_NAME": "Vizit neve",
        "WELCOME": "Üdvözöljük",
        "AF-ZA": "Afrikaans",
        "AR-EG": "Arab",
        "BE-BY": "Fehérorosz",
        "BG-BG": "Bolgár",
        "BN-IN": "Bengáli",
        "BS-BA": "Bosnyák",
        "CA-ES": "Katalán",
        "CS-CZ": "Cseh",
        "DA-DK": "Dán",
        "DE-DE": "Német (Németország)",
        "DE-AT": "Német (Ausztria)",
        "EL-GR": "Görög",
        "EN-GB": "Angol (Egyesült Királyság)",
        "EN-US": "Angol (USA)",
        "ES-ES": "Spanyol (Spanyolország)",
        "ES-US": "Spanyol (USA)",
        "ES-PY": "Spanyol (általános)",
        "ET-EE": "Észt",
        "FI-FI": "Finn",
        "FR-CA": "Francia (Kanada)",
        "FR-FR": "Francia (Franciaország)",
        "GD-IE": "Gael",
        "GU-IN": "Gudzsaráti",
        "HE-IL": "Héber",
        "HI-IN": "Hindi",
        "HR-HR": "Horvát",
        "HU-HU": "Magyar",
        "IT-IT": "Olasz",
        "JA-JP": "Japán",
        "KA-GE": "Grúz",
        "KN-IN": "Kannada",
        "KO-KR": "Koreai",
        "LV-LV": "Lett",
        "LT-LT": "Litván",
        "ML-IN": "Malajálam",
        "MR-IN": "Maráthi",
        "MS-MY": "Maláj",
        "NB-NO": "Norvég",
        "NL-BE": "Holland (Belgium)",
        "NL-NL": "Holland (Hollandia)",
        "PA-IN": "Pandzsábi",
        "PL-PL": "Lengyel",
        "PT-BR": "Portugál (Brazília)",
        "PT-PT": "Portugál (Portugália)",
        "RO-RO": "Román",
        "RU-RU": "Orosz",
        "SL-SL": "Szlovén",
        "SK-SK": "Szlovák",
        "SR-RS": "Szerb (latin)",
        "SR-SP": "Szerb (cirill)",
        "ST-ZA": "Szoto",
        "SV-SE": "Svéd",
        "TA-IN": "Tamil",
        "TE-IN": "Telugu",
        "TH-TH": "Thai",
        "TL-PH": "Tagalog",
        "TN-ZA": "Tswana",
        "TR-TR": "Török",
        "UK-UA": "Ukrán",
        "UR-IN": "Urdu",
        "VI-VN": "Vietnami",
        "XH-ZA": "Xhosa",
        "ZH-CN": "Kínai (Kína)",
        "ZH-TW": "Kínai (Tajvan)",
        "ZU-ZU": "Zulu",
        "HAND_DEVICE_SUBJECT_BODY": "A következő űrlapot kitölti: {{{ patientOrRole }}}. Jelentkezzen ki, és adja át az eszközt neki: {{{ patientOrRole }}}.",
        "HAND_DEVICE_SUBJECT_TITLE": "{{{ formTitle }}} űrlap elkezdése",
        "SKIP_VISIT_TITLE": "Átugorja a vizit(ek)et?",
        "SKIP_VISIT_TEXT": "Ha igen, a következő viziteket fogja kihagyni:<br/> {{{ skippedVisits }}} Folytatja, és átugorja ezeket a vizeteket?",
        "YES": "Igen",
        "NO": "Nem",
        "TIME_LBL": "Idő:",
        "SET_TIME": "Idő beállítása",
        "DATE_LBL": "Dátum:",
        "CREATE_PERMANENT_PASSWORD_TITLE": "Jelszó létrehozása",
        "USER_ID": "Felhasználói azonosító",
        "PHASE": "Szakasz",
        "LAST_VISIT": "Utolsó elvégzett vizit",
        "CONNECTION_REQUIRED": "Internetkapcsolat szükséges.",
        "RETRY": "Próbálkozzon újra",
        "UPDATE_FAILURE": "A frissítés nem fejeződött be",
        "UPDATE_SUCCESS": "Sikeres frissítés",
        "CANCEL_PERMANENT_PASSWORD_TITLE": "Megszakítja a jelszó létrehozását?",
        "CANCEL_PERMANENT_PASSWORD_TEXT": "Ha igen, nem fogja létrehozni a jelszót. A ERT eszközt csak jelszóval lehet használni. Biztosan megszakítja?",
        "ACCOUNT_CONFIGURED_TITLE": "A fiók létrehozása befejeződött",
        "ACCOUNT_CONFIGURED_TEXT": "Sikeresen létrehozta a fiókját, és most már használhatja az eCOA rendszert.",
        "LOGGED_IN_AS": "Bejelentkezve mint",
        "EDIT_PATIENT_AFFIDAVIT_HEADER": "<p class='question-title-large'>Aláírás</p><br />",
        "EDIT_PATIENT_AFF": "Alulírott kijelentem, hogy jogosult vagyok ezen beteg adatainak szerkesztésére.<br /><br />Beteg azonosítója: {{{ getPatientIdNumber }}}<br /><br />{{{ getActiveUserName }}} aláírása:",
        "PASSWORD_MISMATCH": "A beírt jelszavak nem egyeznek",
        "FIRST_USER_AFFIDAVIT": "Alulírott kijelentem, hogy én vagyok a vizsgálatvezető vagy az a megbízott, aki jogosult fiókokat létrehozni ezen a rendszeren.<br /><br />{{{ getFirstUsername }}} aláírása:",
        "INCOMPLETE": "Nincs kész",
        "INVALID_ENTRY": "Érvénytelen bejegyzés",
        "PLEASE_ANSWER_SQ": "Válaszolja meg a biztonsági kérdést:",
        "FORGOT_SECRET_ANSWER": "Elfelejtette a biztonsági kérdés válaszát?",
        "CONTACT_STUDY_COORDINATOR": "Forduljon a vizsgálat koordinátorához",
        "ENTER_NEW_PASSWORD": "Új j elszó:",
        "CONTACT_UNLOCK_CODE": "A mai feloldási kódot a vizsgálat koordinátorától kaphatja meg:",
        "CURRENT_DATE": "{{{ currentDate }}}",
        "TEMPORARY_UNLOCK_CODE": "Írja be a vizsgálat koordinátora által adott feloldási kódot.",
        "RESET_SECRET_QUESTION": "Biztonsági kérdés átállítása",
        "SECRET_QUESTION_CHANGE_SUCCESS": "Sikeresen megváltoztatta a jelszavát és a biztonsági kérdést.",
        "RESET_PASSWORD": "Jelszó átállítása",
        "ANSWER_ATTEMPT_EXCEEDED": "Túl sokszor adott meg helytelen választ, vagy az Elfelejtette a választ? hivatkozásra kattintott.",
        "PASSWORD_ATTEMPT_EXCEEDED": "Túl sokszor adott meg hibás jelszót, vagy az Elfelejtette a jelszavát? hivatkozásra kattintott.",
        "PASSWORD_CHANGE_SUCCESS": "Sikeresen megváltoztatta a jelszavát.",
        "CHANGE_PASSWORD": "Jelszó módosítása",
        "CHANGE_SECRET_QUESTION": "Biztonsági kérdés megváltoztatása",
        "SYNC_COMPLETE": "A szinkronizálás befejeződött",
        "INCORRECT_ANSWER": "Helytelen válasz",
        "INCORRECT_UNLOCK_CODE": "Hibás feloldási kód",
        "PASSWORD_INVALID": "Hibás jelszó",
        "SUBJECT": "Beteg",
        "PATIENT_ADDED": "Felvette a beteget",
        "TIME_ZONE": "Időzóna:",
        "ACTIVATE_USER_CANCEL_CONFIRM": "Megszakítja az aktiválást?",
        "ACTIVATE_USER_CANCEL_BODY": "Ha igen, nem fogja aktiválni a vizsgálóhely-felhasználót. Biztosan megszakítja?",
        "ACTIVATE_USER_AFF": "Alulírott kijelentem, hogy jogosult vagyok ezen vizsgálóhely-felhasználó aktiválására.",
        "ACTIVATE_USER_CONFIRM_INFORMATION": "Erősítse meg, hogy az alábbi információk az aktiválni kívánt vizsgálóhely-felhasználóhoz tartoznak.",
        "DEACTIVATE_USER_CANCEL_CONFIRM": "Megszakítja a deaktiválást?",
        "DEACTIVATE_USER_CANCEL_BODY": "Ha igen, nem fogja deaktiválni a vizsgálóhely-felhasználót. Biztosan megszakítja?",
        "DEACTIVATE_USER_AFF": "Alulírott kijelentem, hogy jogosult vagyok ezen vizsgálóhely-felhasználó deaktiválására.",
        "DEACTIVATE_USER_SIG": "<strong>Deaktiválni kívánt felhasználó:</strong> <br />{{{ getSelectedUsername }}}<p><strong>Név nyomtatott betűkkel:</strong> {{{ getActiveUserName }}}</p>",
        "DEACTIVATE_USER_CONFIRM_INFORMATION": "Erősítse meg, hogy az alábbi információk a deaktiválni kívánt vizsgálóhely-felhasználóhoz tartoznak.",
        "DIARY_TIMEOUT": "Letelt az űrlap időkorlátja.",
        "EDIT_PATIENT_QUESTION_1_MAIN_TITLE": "<div class='question-title-large'>Beteg azonosítása </div><div>Oldal engedélyezett azonosítótartománya:<br /><strong> {{{ patientIDRange }}}</strong></div><div class='edit-patient-id'>Beteg azonosítója:<br /><strong>{{{ getPatientIdNumber }}} ({{{getPatientInitials}}})</strong</div><br /><br />",
        "EDIT_PATIENT_QUESTION_1": "Beteg azonosítója:",
        "EDIT_PATIENT_QUESTION_1_EMPTY": "Adja meg a beteg azonosítóját.",
        "EDIT_PATIENT_QUESTION_1_EMPTY_HEADER": "Beteg azonosítója",
        "EDIT_PATIENT_QUESTION_1_RANGE": "A megadott betegazonosító nem az engedélyezett azonosítótartományból való: {{{ patientIDRange }}}.  Adjon meg érvényes betegazonosítót.",
        "EDIT_PATIENT_QUESTION_1_RANGE_HEADER": "A megadott betegazonosító kívül esik a tartományon",
        "EDIT_PATIENT_QUESTION_1_UNIQUE": "Ez a beteg már szerepel a rendszerben.  Adjon meg egy másik betegazonosítót.",
        "EDIT_PATIENT_QUESTION_1_UNIQUE_HEADER": "A megadott azonosító már szerepel a rendszerben",
        "EDIT_PATIENT_QUESTION_2": "Beteg monogramja:",
        "EDIT_PATIENT_QUESTION_2_EMPTY": "Adja meg a beteg monogramját (legalább 2 karakter).",
        "EDIT_PATIENT_QUESTION_2_EMPTY_HEADER": "Beteg monogramja",
        "EDIT_PATIENT_QUESTION_3_TITLE": "<div class='question-title-large'>Válasszon nyelvet</div><div>Beteg azonosítója:<br /><strong>{{{ getPatientIdNumber }}} ({{{getPatientInitials}}})</strong</div><br /><br />",
        "EDIT_PATIENT_QUESTION_3": "Válasszon nyelvet a beteg számára",
        "EDIT_PATIENT_QUESTION_4_TITLE": "<div class='question-title-large'>Módosítás oka</div><br /><br />",
        "EDIT_PATIENT_QUESTION_4": "Válassza ki a betegadatok módosításának okát",
        "EDIT_PATIENT_CANCEL_CONFIRM": "Elveti a betegadatok módosítását?",
        "EDIT_PATIENT_CANCEL_BODY": "Ha igen, nem frissíti a betegadatokat.  Biztosan elveti?",
        "EDIT_PATIENT_NO_CHANGES_CONFIRM": "A beteg adatai nem módosultak",
        "EDIT_PATIENT_NO_CHANGES_BODY": "A beteg adatai nem módosultak. Mégis kilép?",
        "EDIT_PATIENT_REASON_0": "Hiba javítása az orvos által",
        "EDIT_REASON": "Módosítás oka:",
        "EDIT_USER_AFF": "Alulírott kijelentem, hogy jogosult vagyok ezen vizsgálóhely-felhasználó adatainak szerkesztésére. <p><strong>Név nyomtatott betűkkel: </strong>{{{ getActiveUserName }}}</p>",
        "EDIT_USER_CANCEL_CONFIRM": "Megszakítja a felhasználó adatainak szerkesztését?",
        "EDIT_USER_CANCEL_BODY": "Ha igen, nem érvényesíti az elvégezett módosításokat. Biztosan megszakítja?",
        "EDIT_USER_NO_CHANGES_HEADER": "A vizsgálóhely-felhasználó adatai nem módosultak",
        "EDIT_USER_NO_CHANGES_BODY": "A vizsgálóhely-felhasználó adatai nem módosultak. Mégis kilép?",
        "ERROR_CODE": "Hibakód:",
        "ERROR_TITLE": "Hiba",
        "FIRST_SITE_USER": "Első felhasználó hozzáadása",
        "NEW_PATIENT_QUESTION_1_MAIN_TITLE": "<div class='question-title-large'>Betegazonosító adatok megadása</div><div>Oldal engedélyezett azonosítótartománya:<br /><strong> {{{ patientIDRange }}}</strong></div><div>Vizsgálóhely:<strong> {{{ getSiteCode }}}</strong></div><div><strong>Felhasználó: {{{ getUserName }}}</strong</div><br /><br />",
        "NEW_PATIENT_HELP_TEXT_1": "",
        "NEW_PATIENT_HELP_TEXT_2": "",
        "NEW_PATIENT_HELP_TEXT_3": "",
        "NEW_PATIENT_QUESTION_1_TITLE": "Beteg azonosítója",
        "NEW_PATIENT_QUESTION_1": "Beteg azonosítója:",
        "NEW_PATIENT_QUESTION_1_EMPTY": "Adja meg a beteg azonosítóját.",
        "NEW_PATIENT_QUESTION_1_EMPTY_HEADER": "Beteg azonosítója",
        "NEW_PATIENT_QUESTION_1_RANGE": "A megadott betegazonosító nem az engedélyezett azonosítótartományból való: {{{ patientIDRange }}}.  Adjon meg érvényes betegazonosítót.",
        "NEW_PATIENT_QUESTION_1_RANGE_HEADER": "A megadott betegazonosító kívül esik a tartományon",
        "NEW_PATIENT_QUESTION_1_UNIQUE": "Ez a beteg már szerepel a rendszerben.  Adjon meg egy másik betegazonosítót.",
        "NEW_PATIENT_QUESTION_1_UNIQUE_HEADER": "A megadott azonosító már szerepel a rendszerben",
        "NEW_PATIENT_QUESTION_2": "Beteg monogramja:",
        "NEW_PATIENT_QUESTION_2_EMPTY": "Adja meg a beteg monogramját (legalább 2 karakter).",
        "NEW_PATIENT_QUESTION_2_EMPTY_HEADER": "Beteg monogramja",
        "NEW_PATIENT_QUESTION_3_TITLE": "<div class='question-title-large'>Válasszon nyelvet</div><div><strong>Vizsgálóhely: {{{ getSiteCode }}}</strong></div><div><strong>Felhasználó: {{{ getUserName }}}</strong</div><div><strong>Beteg azonosítója: {{{ getPatientID }}}</strong></div><br /><br />",
        "NEW_PATIENT_QUESTION_3": "Válasszon nyelvet a beteg számára",
        "NEW_PATIENT_CANCEL_CONFIRM": "Megszakítja a beteg felvételét?",
        "NEW_PATIENT_CANCEL_BODY": "Ha igen, nem regisztrálja a beteget.  Biztosan megszakítja?",
        "NEW_PATIENT_AFFIDAVIT_HEADER": "<div><strong>Vizsgálóhely: {{{ getSiteCode }}}</strong><br /><strong>Felhasználó: {{{ getUserName }}}</strong><br /><strong>Beteg azonosítója: {{{ getPatientID }}}</strong></div>",
        "PATIENT_INITIALS": "Beteg monogramja:",
        "PATIENT_DELETED": "Ismeretlen beteg",
        "PATIENT_DELETED_MSG": "A beteg nem található.",
        "PATIENT_DELETED_SUBJECT_MSG": "A beteg nem található. Adja vissza az eszközt a helyi személyzet megfelelő tagjának.",
        "PLEASE_CONTACT": "Forduljon az ERT ügyfélszolgálatához.",
        "PLEASE_TRY_OR_CONTACT_SUPPORT": "Próbálkozzon újra, vagy forduljon az ERT ügyfélszolgálatához.",
        "REASON": "Ok:",
        "SET_TIMEZONE_MESSAGE": "Válassza ki az időzónáját:",
        "SKIP_VISITS": "Vizitek átugrása",
        "SKIP_VISITS_QUESTION_1": "<div class='question-title-large'><strong>Ok</strong></div><br /><br /><div>Válassza ki a vizitek átugrásának okát:</div>",
        "SKIP_VISITS_REASON_0": "A vizit lejárt.",
        "SKIP_VISITS_REASON_1": "Egy hellyel kapcsolatos hiba kezelés alatt van.",
        "SKIP_VISITS_REASON_2": "A beteg kihagyta a klinikai vizitet.",
        "SKIP_VISITS_REASON_3": "Nem alkalmazható.",
        "SKIP_VISITS_REASON_4": "A vizit nem kötelező, és nem végezték el.",
        "SKIP_VISITS_CANCEL_CONFIRM": "Megszakítja a vizitek átugrását?",
        "SKIP_VISITS_CANCEL_BODY": "Ha igen, nem fogja átugorni a viziteket. Biztosan megszakítja?",
        "SKIPPED_VISITS": "{{{ skippedVisits }}}",
        "USER_EDITED": "Sikeresen frissítette a felhasználó adatait.",
        "USER_TO_ACTIVATE": "<strong>Aktiválni kívánt felhasználó:</strong> <br />{{{ getSelectedUsername }}}<p><strong>Név nyomtatott betűkkel:</strong> {{{ getActiveUserName }}}</p>",
        "TIME_CONFIRMATION_INSTRUCTIONS": "A készüléken meg kell erősíteni a helyi időt. Adja meg a dátumot és időt egy megbízható forrás alapján.",
        "TIME_ZONE_ERROR_HEADER": "Időzónával kapcsolatos hiba",
        "TIME_ZONE_ERROR_MSG": "Hiba történt az időzónák listájának lekérése során. Ha további segítségre van szüksége, forduljon az ERT ügyfélszolgálatához.",
        "TIME_ZONE_SET_ERROR_MSG": "Hiba történt az időzóna beállítása során. Ha további segítségre van szüksége, forduljon az ERT ügyfélszolgálatához.",
        "TIME_ZONE_SET_CONFIRM": "Biztosan erre állítja az időzónát: {{{selectedTimeZone}}}? <br/> Az alkalmazás újraindulhat a módosítások érvényesítéséhez.",
        "TIME_ZONE_SET_CONFIRM_NOCHANGE": "Biztosan erre állítja az időzónát: {{{selectedTimeZone}}}?",
        "TIME_ZONE_SET_HEADER": "Időzóna-beállítás megerősítése",
        "TRAINER": "Oktatómód",
        "TRAINER_EXIT": "Kilépés az oktatómódból",
        "TRAINER_EXIT_NOTIFICATION": "Kilép az oktatómódból",
        "TRAINER_HEADER": "(Oktató)",
        "VISIT_INACTIVE_HEADER": "A vizit nem aktív.",
        "VISIT_INACTIVE_MESSAGE": "Ez a vizit már nem aktív.",
        "VISIT_INACTIVE_MESSAGE_SUBJECT": "Ez a vizit már nem aktív. Adja vissza az eszközt a helyi személyzet megfelelő tagjának.",
        "SITE_ADMINISTRATOR": "Hely rendszergazdája",
        "LOW_BATTERY": "Figyelmeztetés: Az akkumulátor töltése alacsony. Csatlakoztassa az eszközt a töltőhöz.",
        "CRITICAL_BATTERY": "Figyelmeztetés: Az akkumulátor töltése nagyon alacsony. Csatlakoztassa az eszközt a töltőhöz, vagy kikapcsol.",
        "TIME_CONFIRMATION_HEADER": "Dátum/idő megerősítése",
        "TIMESLIP_ERROR": "Az eszköz dátuma vagy ideje hibás. Vigye egy internetkapcsolattal rendelkező helyre, és próbálja újra. Ha továbbra is problémái vannak, forduljon az ERT ügyfélszolgálatához.",
        "SUPPORT": "Ügyfélszolgálat",
        "SUPPORT_MESSAGE": "Az Egyesült Államokban az ügyfelek az ERT ügyfélszolgálatot a 800-748-5669 számon érhetik el. A más országokban lévő ügyfelek válasszák ki a hozzájuk legközelebb eső országot az alábbi listából:",
        "SUPPORT_DROPDOWN": "Válassza ki országát",
        "SUPPORT_NAME_ARGENTINA": "Argentína",
        "SUPPORT_NUMBER_ARGENTINA": "<bdi>0800 444 0962</bdi>",
        "SUPPORT_NAME_ARMENIA": "Örményország",
        "SUPPORT_NUMBER_ARMENIA": "<bdi>+1 617 681 6306</bdi>",
        "SUPPORT_NAME_AUSTRALIA": "Ausztrália",
        "SUPPORT_NUMBER_AUSTRALIA": "<bdi>1 800 800 051</bdi>",
        "SUPPORT_NAME_AUSTRIA": "Ausztria",
        "SUPPORT_NUMBER_AUSTRIA": "<bdi>0800 100 405</bdi>",
        "SUPPORT_NAME_BELARUS": "Fehéroroszország",
        "SUPPORT_NUMBER_BELARUS": "<bdi>8 820 0321 0036</bdi>",
        "SUPPORT_NAME_BELGIUM": "Belgium",
        "SUPPORT_NUMBER_BELGIUM_1": "(angol): <bdi>0800 58 016</bdi>",
        "SUPPORT_NUMBER_BELGIUM_2": "(francia): <bdi>0800 71 076</bdi>",
        "SUPPORT_NUMBER_BELGIUM_3": "(német): <bdi>0800 71 113</bdi>",
        "SUPPORT_NAME_BRAZIL": "Brazília",
        "SUPPORT_NUMBER_BRAZIL": "<bdi>0800 891 5909</bdi>",
        "SUPPORT_NAME_BOSNIA": "Bosznia",
        "SUPPORT_NUMBER_BOSNIA": "<bdi>+1 617 681 6306</bdi>",
        "SUPPORT_NAME_BULGARIA": "Bulgária",
        "SUPPORT_NUMBER_BULGARIA": "<bdi>00800 0010</bdi>, majd <bdi>866 245 4931</bdi>",
        "SUPPORT_NAME_CANADA": "Kanada",
        "SUPPORT_NUMBER_CANADA": "<bdi>1 800 748 5669</bdi>",
        "SUPPORT_NAME_CHILE": "Chile",
        "SUPPORT_NUMBER_CHILE": "<bdi>123 0020 3408</bdi>",
        "SUPPORT_NAME_CHINA": "Kína",
        "SUPPORT_NUMBER_CHINA_1": "NetCom (Észak): <bdi>11 0800 74 40 164</bdi>",
        "SUPPORT_NUMBER_CHINA_2": "Telecom (Dél): <bdi>1 0800 44 00 158</bdi>",
        "SUPPORT_NAME_COLOMBIA": "Kolumbia",
        "SUPPORT_NUMBER_COLOMBIA": "<bdi>01 800 911 0010</bdi>, majd <bdi>866 310 3707</bdi>",
        "SUPPORT_NAME_COSTA_RICA": "Costa Rica",
        "SUPPORT_NUMBER_COSTA_RICA": "<bdi>0800 013 1210</bdi>",
        "SUPPORT_NAME_CROATIA": "Horvátország",
        "SUPPORT_NUMBER_CROATIA": "<bdi>0800 222 953</bdi>",
        "SUPPORT_NAME_CZECH_REPUBLIC": "Cseh Köztársaság",
        "SUPPORT_NUMBER_CZECH_REPUBLIC": "<bdi>800 142 150</bdi>",
        "SUPPORT_NAME_DENMARK": "Dánia",
        "SUPPORT_NUMBER_DENMARK": "<bdi>80 60 00 09</bdi>",
        "SUPPORT_NAME_EGYPT": "Egyiptom",
        "SUPPORT_NUMBER_EGYPT": "<bdi>02 510 0200</bdi>, majd <bdi>866 310 3707</bdi>",
        "SUPPORT_NAME_EL_SALVADOR": "El Salvador",
        "SUPPORT_NUMBER_EL_SALVADOR": "<bdi>+1 617 681 6306</bdi>",
        "SUPPORT_NAME_ESTONIA": "Észtország",
        "SUPPORT_NUMBER_ESTONIA": "<bdi>800 00 44 154</bdi>",
        "SUPPORT_NAME_FINLAND": "Finnország",
        "SUPPORT_NUMBER_FINLAND": "<bdi>0800 11 6366</bdi>",
        "SUPPORT_NAME_FRANCE": "Franciaország",
        "SUPPORT_NUMBER_FRANCE": "<bdi>0800 10 19 79</bdi>",
        "SUPPORT_NAME_GERMANY": "Németország",
        "SUPPORT_NUMBER_GERMANY": "<bdi>0800 101 28 21</bdi>",
        "SUPPORT_NAME_GREECE": "Görögország",
        "SUPPORT_NUMBER_GREECE": "<bdi>00 800 1311</bdi>, majd <bdi>866 310 3707</bdi>",
        "SUPPORT_NAME_GUATEMALA": "Guatemala",
        "SUPPORT_NUMBER_GUATEMALA": "<bdi>1 800 624 0079</bdi>",
        "SUPPORT_NAME_HONG_KONG": "Hong Kong",
        "SUPPORT_NUMBER_HONG_KONG": "<bdi>3002 1665</bdi>",
        "SUPPORT_NAME_HUNGARY": "Magyarország",
        "SUPPORT_NUMBER_HUNGARY": "<bdi>06 800 14 571</bdi>",
        "SUPPORT_NAME_ICELAND": "Izland",
        "SUPPORT_NUMBER_ICELAND": "<bdi>800 8544</bdi>",
        "SUPPORT_NAME_INDIA": "India",
        "SUPPORT_NUMBER_INDIA": "<bdi>000 800 440 1125</bdi>",
        "SUPPORT_NAME_INDONESIA": "Indonézia",
        "SUPPORT_NUMBER_INDONESIA": "<bdi>008 800 330 334</bdi>",
        "SUPPORT_NAME_IRELAND": "Írország",
        "SUPPORT_NUMBER_IRELAND": "<bdi>1 800 946 700</bdi>",
        "SUPPORT_NAME_ISRAEL": "Izrael",
        "SUPPORT_NUMBER_ISRAEL": "<bdi>1 809 470 062</bdi>",
        "SUPPORT_NAME_ITALY": "Olaszország",
        "SUPPORT_NUMBER_ITALY": "<bdi>800 90 56 37</bdi>",
        "SUPPORT_NAME_JAPAN": "Japán",
        "SUPPORT_NUMBER_JAPAN": "Vizsgálatának díjmentes telefonszámát az ePRO Vizsgálati tájékoztató anyagból tudhatja meg",
        "SUPPORT_NAME_LATVIA": "Lettország",
        "SUPPORT_NUMBER_LATVIA": "<bdi>8000 2151</bdi>",
        "SUPPORT_NAME_LEBANON": "Libanon",
        "SUPPORT_NUMBER_LEBANON": "<bdi>01-426-801</bdi> majd <bdi>866 310 3707</bdi>",
        "SUPPORT_NAME_LITHUANIA": "Litvánia",
        "SUPPORT_NUMBER_LITHUANIA": "<bdi>8800 30207</bdi>",
        "SUPPORT_NAME_MALAYSIA": "Malajzia",
        "SUPPORT_NUMBER_MALAYSIA": "<bdi>1800 80 59 71</bdi>",
        "SUPPORT_NAME_MEXICO": "Mexikó",
        "SUPPORT_NUMBER_MEXICO_1": "(angol): <bdi>001 800 748 5669</bdi> ",
        "SUPPORT_NUMBER_MEXICO_2": "(spanyol): <bdi>001 855 631 6952</bdi>",
        "SUPPORT_NAME_MOLDOVA": "Moldova",
        "SUPPORT_NUMBER_MOLDOVA": "<bdi>617 681 6306</bdi>",
        "SUPPORT_NAME_NETHERLANDS": "Hollandia",
        "SUPPORT_NUMBER_NETHERLANDS": "<bdi>0800 023 1389</bdi>",
        "SUPPORT_NAME_NEW_ZEALAND": "Új-Zéland",
        "SUPPORT_NUMBER_NEW_ZEALAND": "<bdi>0800 110 178</bdi>",
        "SUPPORT_NAME_NORWAY": "Norvégia",
        "SUPPORT_NUMBER_NORWAY": "<bdi>800 62 051</bdi>",
        "SUPPORT_NAME_PAKISTAN": "Pakisztán",
        "SUPPORT_NUMBER_PAKISTAN": "<bdi>00 800 0100</bdi>, majd <bdi>866 237 9767</bdi>",
        "SUPPORT_NAME_PANAMA": "Panama",
        "SUPPORT_NUMBER_PANAMA": "<bdi>001 800 201 3095</bdi>",
        "SUPPORT_NAME_PERU": "Peru",
        "SUPPORT_NUMBER_PERU": "<bdi>0800 5 0974</bdi>",
        "SUPPORT_NAME_PHILIPPINES": "Fülöp-szigetek",
        "SUPPORT_NUMBER_PHILIPPINES": "<bdi>1 800 1116 0651</bdi>",
        "SUPPORT_NAME_POLAND": "Lengyelország",
        "SUPPORT_NUMBER_POLAND": "<bdi>00800 331 1262</bdi>",
        "SUPPORT_NAME_PORTUGAL": "Portugália",
        "SUPPORT_NUMBER_PORTUGAL": "<bdi>800 206 172</bdi>",
        "SUPPORT_NAME_PUERTO_RICO": "Puerto Rico (az Egyesült Államok területe)",
        "SUPPORT_NUMBER_PUERTO_RICO": "<bdi>1 800 748 5669</bdi>",
        "SUPPORT_NAME_ROMANIA": "Románia",
        "SUPPORT_NUMBER_ROMANIA": "<bdi>0800 894492</bdi>",
        "SUPPORT_NAME_RUSSIA": "Oroszország",
        "SUPPORT_NUMBER_RUSSIA_1": "(Elsődleges – díjmentes): <bdi>8 10 800 249 13011</bdi>",
        "SUPPORT_NUMBER_RUSSIA_2": "(Moszkvában): <bdi>363-2400</bdi> <br> majd <bdi>866 310 3707</bdi>",
        "SUPPORT_NUMBER_RUSSIA_3": "(Moszkván kívül): <bdi>8^(495) 363-2400</bdi> <br> majd <bdi>866 310 3707</bdi>",
        "SUPPORT_NUMBER_RUSSIA_4": "(Szentpétervárott): <bdi>363-2400</bdi> <br> majd <bdi>866 310 3707</bdi>",
        "SUPPORT_NUMBER_RUSSIA_5": "(Szentpéterváron kívül): <bdi>8^(495) 363-2400</bdi> <br> majd <bdi>866 310 3707</bdi>",
        "SUPPORT_NAME_SAUDI_ARABIA": "Szaúd-Arábia",
        "SUPPORT_NUMBER_SAUDI_ARABIA": "<bdi>+1 617 681 6306</bdi>",
        "SUPPORT_NAME_SERBIA": "Szerbia",
        "SUPPORT_NUMBER_SERBIA": "<bdi>+1 617 973 1739</bdi>",
        "SUPPORT_NAME_SINGAPORE": "Szingapúr",
        "SUPPORT_NUMBER_SINGAPORE": "<bdi>800 616 30 03</bdi>",
        "SUPPORT_NAME_SLOVAKIA": "Szlovákia",
        "SUPPORT_NUMBER_SLOVAKIA": "<bdi>0800 0044 65</bdi>",
        "SUPPORT_NAME_SLOVENIA": "Szlovénia",
        "SUPPORT_NUMBER_SLOVENIA": "<bdi>+1 617 681 6306</bdi>",
        "SUPPORT_NAME_SOUTH_AFRICA": "Dél-Afrika",
        "SUPPORT_NUMBER_SOUTH_AFRICA": "<bdi>0800 99 5853</bdi>",
        "SUPPORT_NAME_SOUTH_KOREA": "Dél-Korea",
        "SUPPORT_NUMBER_SOUTH_KOREA": "<bdi>00308 33 00 08</bdi>",
        "SUPPORT_NAME_SPAIN": "Spanyolország",
        "SUPPORT_NUMBER_SPAIN": "<bdi>900 90 2541</bdi>",
        "SUPPORT_NAME_SWEDEN": "Svédország",
        "SUPPORT_NUMBER_SWEDEN": "<bdi>020 120 99 69</bdi>",
        "SUPPORT_NAME_SWITZERLAND": "Svájc",
        "SUPPORT_NUMBER_SWITZERLAND_1": "(angol): <bdi>0800 199 325</bdi>",
        "SUPPORT_NUMBER_SWITZERLAND_2": "(francia): <bdi>0800 891 183</bdi>",
        "SUPPORT_NUMBER_SWITZERLAND_3": "(német): <bdi>0800 891 025</bdi>",
        "SUPPORT_NAME_TAIWAN": "Tajvan",
        "SUPPORT_NUMBER_TAIWAN": "<bdi>00801 33 33 42</bdi>",
        "SUPPORT_NAME_THAILAND": "Thaiföld",
        "SUPPORT_NUMBER_THAILAND": "<bdi>1 800 33 140 353</bdi>",
        "SUPPORT_NAME_TUNISIA": "Tunézia",
        "SUPPORT_NUMBER_TUNISIA": "<bdi>+1 617 681 6306</bdi>",
        "SUPPORT_NAME_TURKEY": "Törökország",
        "SUPPORT_NUMBER_TURKEY": "<bdi>00 800 151 1335</bdi>",
        "SUPPORT_NAME_UKRAINE": "Ukrajna",
        "SUPPORT_NUMBER_UKRAINE": "<bdi>0^00 11</bdi>, majd <bdi>866 245 4931</bdi>",
        "SUPPORT_NAME_UAE": "Egyesült Arab Emírségek",
        "SUPPORT_NUMBER_UAE": "<bdi>8000-021</bdi>, majd <bdi>866 310 3707</bdi>",
        "SUPPORT_NAME_UK": "Egyesült Királyság",
        "SUPPORT_NUMBER_UK": "<bdi>0800 015 0408</bdi>",
        "SUPPORT_NAME_US": "Egyesült Államok",
        "SUPPORT_NUMBER_US_1": "(Fő): <bdi>1 800 748 5669</bdi>",
        "SUPPORT_NUMBER_US_2": "(másodlagos): <bdi>1 877 748 5669</bdi>",
        "SUPPORT_NAME_VENEZUELA": "Venezuela",
        "SUPPORT_NUMBER_VENEZUELA_1": "(angol): <bdi>0 800 552 6288</bdi> <br> majd <bdi>866 310 3707</bdi> ",
        "SUPPORT_NUMBER_VENEZUELA_2": "(spanyol): <bdi>0 800 100 3063</bdi> ",
        "ABOUT": "Névjegy",
        "CORE_PRODUCT_VERSION_LABEL": "Termékverzió:",
        "PROTOCOL": "Protokoll:",
        "SPONSOR": "Szponzor:",
        "STORED_REPORTS": "Tárolt űrlapok:",
        "STUDY_VERSION": "Felmérés verziója: ",
        "STUDY_URL": "Vizsgálat URL-címe:",
        "P_AFFIDAVIT_HEADER": "<div><strong>Vizsgálóhely: {{{ getSiteCode }}}</strong><br /><strong>Beteg azonosítója: {{{ getPatientIdNumber }}}</strong></div>",
		"SET_TIMEZONE": "Időzóna beállítása",
		"DEVICE_SERIAL_NUMBER": "Eszköz sorozatszáma",
		"NONEXISTENT_USER": "Egy nem létező felhasználót próbált frissíteni.",
		"SCREENING" : "Szűrés",
		"TREATMENT" : "Kezelés",
		"RANDOMIZATION" : "Randomizálás",
		"FOLLOWUP" : "Utánkövetés",
		"TERMINATION" : "Befejezés",
        "ACCEPT": "Elfogadom",
        "DECLINE": "Nem fogadom el",
		"EULA": "VÉGFELHASZNÁLÓI LICENCSZERZŐDÉS",
        "EULA_TEXT": "<p><strong><span class=\"text-underline\">FONTOS</span>: NE KATTINTSON AZ „ELFOGADOM” GOMBRA, AMÍG EL NEM OLVASTA EZT A SZERZŐDÉST. AZ „ELFOGADOM” GOMBRA KATTINTVA ELFOGADJA A SZERZŐDÉS ÖSSZES FELTÉTELÉT. HA NEM FOGADJA EL A SZERZŐDÉS ÖSSZES FELTÉTELÉT, (1) NE KATTINTSON AZ „ELFOGADOM” GOMBRA, ÉS (2) SZAKÍTSA MEG A TELEPÍTÉSI ÉS LICENCELÉSI FOLYAMATOT ÚGY, HOGY A „NEM FOGADOM EL” GOMBRA KATTINT.</strong></p><p>Az eResearchTechnology, Inc. (a továbbiakban: „Licencelő”) nem exkluzív és nem átadható jogot biztosít Önnek az eszközön található, a Licencelő birtokában lévő szoftver (a továbbiakban: „Szoftver”) használatára a következő klinikai vizsgálatban való részvételével összefüggésben: <strong>{{{ clinicalTrial }}}</strong>. A Szoftvert bejegyzett és függőben lévő szabadalmak védik. Ez a Szerződés nem ad tulajdonjogot semmilyen Szoftverre (vagy bármilyen másolatára), de engedélyezi a Szoftver használatát a Szerződés feltételeinek megfelelően. A Szoftver és minden részének minden tulajdonjoga és szellemi joga mindvégig a Licencelő birtokában marad.</p><p>Ön elfogadja, hogy sem közvetlenül, sem közvetett módon (I) nem fejtheti vissza és nem bonthatja szét a Szoftvert; (II) nem másolhatja le, nem terjesztheti, nem gyárthatja, nem adaptálhatja, nem hozhat létre az alapján származékos munkákat, nem fordíthatja le, nem lokalizálhatja, nem portolhatja és nem módosíthatja semmiképpen a Szoftvert; és (III) nem távolíthatja el és nem módosíthatja a Szoftverben található szerzői jogi, üzleti titokra vonatkozó vagy más jogi megjegyzéseket. TUDOMÁSUL VESZI ÉS ELFOGADJA, HOGY A SZOFTVER OLYAN KÓDOT TARTALMAZHAT, AMELYNEK CÉLJA A SZOFTVER JOGOSULATLAN HASZNÁLATÁNAK MEGAKADÁLYOZÁSA.</p><br><p>HA ELFOGADJA AZ ELŐBBI FELTÉTELEKET, kattintson az <strong>Elfogadom</strong> gombra. Az <strong>Elfogadom</strong> gombra kattintva jelzi, hogy elfogadja a licencfeltételeket.</p><p>HA NEM FOGADJA EL AZ ELŐBBI FELTÉTELEKET, vagy nem jogosult elfogadni őket, válassza a <strong>Nem fogadom el lehetőséget</strong>. Ebben az esetben nem használhatja tovább a Szoftvert. Ha később jogosult lesz elfogadni ezeket a feltételeket, akkor ezt később is megteheti.</p>",
        "VISIT_EXPIRED_HEADER": "A vizit lejárt.",
        "VISIT_EXPIRED_MESSAGE": "Ez a vizit már nem áll rendelkezésre, mert lejárt.",
        "VISIT_EXPIRED_MESSAGE_SUBJECT": "Ez a vizit már nem áll rendelkezésre, mert lejárt. Adja vissza az eszközt a helyi személyzet megfelelő tagjának.",
        "SQ-AL": "Albán",
        "IMAGE_FOLDER": "{{{ imageFolder }}}",
		"MODAL_OK_TEXT": "OK",
        "BROWSER_LOAD_ERROR": "Az oldal nem található. Ellenőrizze az internetkapcsolatot, és próbálja újra.",
		"NO_USER_OF_ROLE" : "Nem található ilyen szerepkörű felhasználó.",
        "EDIT_PATIENT_REASON_1": "Adatkorrekció hozzárendelése",
        "EDIT_PATIENT_REASON_2": "Módosult azonosító",
        "EDIT_PATIENT_REASON_3": "Hibás nyelvet választott",
		"START_VISIT_OUTSIDE_WINDOW_MSG": "A következő beállított időkereten kívül lép be a(z) {{{ getVisitName }}} vizitbe: {{{ startDate }}} - {{{ endDate }}}?",
		"START_VISIT_HARD_STOP_MSG" : "A következő beállított időkereten kívül nem léphet be a(z) {{{ getVisitName }}} vizitbe: {{{ startDate }}} - {{{ endDate }}}",
		"USER_NAME_INVALID_CHARACTERS" : "Kérjük, ne használjon speciális karaktereket",
		"ERROR_PATIENT_SAVE" : "Hiba történt az új beteg hozzáadásakor",
		"PASSWORD_CHANGE_FAILED" : "Egy másik eszközt aktiváltak a vizsgálati adatok gyűjtéséhez. Változtassa meg a jelszót a másik eszközön.",
		"ERROR" : "Hiba. Forduljon az ERT ügyfélszolgálatához.",
		"ERROR_AFTER_ACTIVATION_SUCCESSFUL" : "Hiba történt. Meg kell adnia a telepítőkódját és a jelszavát.",
		"CONNECTION_TIMEOUT" : "Letelt a kapcsolat időkorlátja.",
		"UPDATE_FAILED" : "Az ERT frissítése nem fejeződött be. Bizonyosodjon meg arról, hogy a készülék csatlakozik az internethez, majd próbálja újra.",
        "QR_CODE_UNAVAILABLE": "A QR-kód frissítéséhez kattintson a betegre.",
        "QR_MODAL_TITLE": "A következő beteg QR-kódja: ",
        "TRANSMIT_FAILED_403_14": "Egy vagy több átvitel sikertelen volt, mert nem ért véget a beteg létrehozása. Próbálja újra később.",
        "CONSOLE_LOG": "Konzol naplója",
		"USER_SELECT_ROLE_VALIDATION": "Ki kell választani a szerepkört.",
        "USER_SELECT_LANGUAGE_VALIDATION": "Ki kell választani a nyelvet."
    },
    "dates": {
        "setDateButtonLabel": "Dátum beállítása",
        "setTimeButtonLabel": "OK",
        "setDurationButtonLabel": "Időtartam beállítása",
        "calTodayButtonLabel": "Ugrás a mai napra",
        "titleDateDialogLabel": "Dátum beállítása",
        "titleTimeDialogLabel": "Idő beállítása",
        "daysOfWeek": [
            "vasárnap",
            "hétfő",
            "kedd",
            "szerda",
            "csütörtök",
            "péntek",
            "szombat"
        ],
        "daysOfWeekShort": [
            "V",
            "H",
            "K",
            "Sze",
            "Cs",
            "P",
            "Szo"
        ],
        "monthsOfYear": [
            "január",
            "február",
            "március",
            "április",
            "május",
            "június",
            "július",
            "augusztus",
            "szeptember",
            "október",
            "november",
            "december"
        ],
        "monthsOfYearShort": [
            "jan",
            "feb",
            "már",
            "ápr",
            "máj",
            "jún",
            "júl",
            "aug",
            "szep",
            "okt",
            "nov",
            "dec"
        ],
        "durationLabel": [
            "nap",
            "óra",
            "perc",
            "másodperc"
        ],
        "durationDays": [
            "nap",
            "nap"
        ],
        "tooltip": "Dátumválasztó megnyitása",
        "nextMonth": "Következő hónap",
        "prevMonth": "Előző hónap",
        "clearButton": "Törlés",
        "meridiem": [
            "de.",
            "du."
        ]
    }
}
