{
    "namespace": "CORE",
    "language": "es",
    "locale": "US",
    "localized": "Español (Estados Unidos)",
    "direction": "ltr",
    "resources": {
        "ABOUT": "Acerca de",
        "ACTIVATED_ELSEWHERE": "Se ha activado un dispositivo distinto para recabar sus datos del estudio. Si cree que esto se hizo por error, comuníquese con el coordinador del estudio.",
        "ACTIVATION_CODE": "Código de configuración:",
        "AFFIDAVIT": "Seleccione OK y luego Siguiente cuando esté listo para guardar sus respuestas.",
        "AFFIDAVIT_HELP": "Gracias. Ha dado todas las respuestas requeridas. Para revisar y cambiar sus respuestas, seleccione Atrás.",
        "ANSWER_ATTEMPT_EXCEEDED": "Ha ingresado la respuesta incorrecta demasiadas veces o ha hecho clic en el enlace de respuesta de seguridad olvidada.",
        "APPLICATION_HEADER": "{{{ appHeader }}}",
        "BACK": "Atrás",
        "BACK_OUT_CONFIRM": "¿Está seguro de que desea salirse? Se perderán las respuestas que haya ingresado en este formulario.",
        "CANCEL": "Cancelar",
        "CANCEL_UPDATE": "Cancelar actualización",
        "CHANGE_PASSWORD": "Cambiar contraseña",
        "CHANGE_SECRET_QUESTION": "Cambiar pregunta de seguridad",
        "CODE_ENTRY_NO_SERVER": "Servidor no disponible",
        "CONNECTION_REQUIRED": "Se requiere una conexión a Internet.",
        "CONNECTION_TIMEOUT": "Se agotó el tiempo de espera de la conexión.",
        "CONFIRM_PASSWORD": "Confirmar contraseña:",
        "CONTACT_STUDY_COORDINATOR": "Contactar al coordinador del estudio",
        "CONTACT_UNLOCK_CODE": "Póngase en contacto con el coordinador del estudio para obtener el código de desbloqueo para el día de hoy:",
        "CORE_PRODUCT_VERSION_LABEL": "Versión del producto:",
        "CURRENT_DATE": "{{{ currentDate }}}",
        "CURRENT_PASSWORD": "Contraseña actual:",
        "DATE_LBL": "Fecha:",
        "DEACTIVATED_LABEL": "Ha terminado su uso del ERT para este estudio. Si esto es incorrecto, comuníquese con el coordinador del estudio.",
        "DEVICE_ACTIVATION": "Configuración",
        "DEVICE_NOT_SUPPORTED": "Este dispositivo no es compatible. Comuníquese con el coordinador del estudio para conocer los dispositivos que han sido aprobados para su uso en este estudio.",
        "DEVICE_REACTIVATION": "Configuración del dispositivo",
        "DIARY_TIMEOUT": "Se agotó el tiempo de espera para este formulario.",
        "DOWNLOAD_FAILED": "Se interrumpió la descarga de la aplicación. Inténtelo nuevamente cuando tenga una conexión a Internet o comuníquese con el Centro de Soporte de ERT.",
        "DOWNLOAD_FAILURE": "Descarga interrumpida",
        "ENTER_NEW_PASSWORD": "Nueva contraseña:",
        "ERROR": "Error.  Comuníquese con el Centro de Soporte de ERT.",
        "ERROR_AFTER_ACTIVATION_SUCCESSFUL": "Ha ocurrido un error. Tendrá que ingresar su código de configuración y contraseña.",
        "ERROR_CODE": "Código de error:",
        "ERROR_TITLE": "Error",
        "FORGOT_PASSWORD": "¿Olvidó su contraseña?",
        "FORGOT_SECRET_ANSWER": "¿Olvidó la respuesta de seguridad?",
        "INCORRECT_ANSWER": "Respuesta incorrecta",
        "INCORRECT_UNLOCK_CODE": "Código de desbloqueo incorrecto",
        "INSTALLING": "Instalando la aplicación",
        "INVALID_CODE": "Código de configuración inválido",
        "LOCAL_STORAGE_FAILURE": "Falla de almacenamiento local",
        "LOG_IN": "Iniciar sesión",
        "LOG_LEVEL": "Nivel de registro:",
        "LOGOUT": "Cerrar sesión",
        "LOGOUT_CONFIRM": "¿Está seguro de que desea cerrar la sesión?",
        "NEXT": "Siguiente",
        "NEXT_ACTION": " Es momento de realizar la siguiente acción en el ERT ",
        "NO_DIARIES_TITLE": "No hay informes para ingresar",
        "OK": "OK",
        "PASSWORD": "Contraseña:",
        "PASSWORD_ATTEMPT_EXCEEDED": "Ha ingresado la contraseña incorrecta demasiadas veces o ha hecho clic en el enlace de contraseña olvidada.",
        "PASSWORD_CHANGE_FAILED": "Se ha activado un dispositivo distinto para recabar sus datos del estudio. Cambie su contraseña en ese dispositivo.",
        "PASSWORD_CHANGE_SUCCESS": "Ha actualizado con éxito su contraseña.",
        "PASSWORD_INVALID": "Contraseña incorrecta",
        "PLEASE_ANSWER_SQ": "Responda su pregunta de seguridad:",
        "PLEASE_CONFIRM": "Favor de confirmar",
        "PLEASE_CONTACT": "Comuníquese con el Centro de Soporte de ERT.",
        "PLEASE_TRY_OR_CONTACT_SUPPORT": "Inténtelo nuevamente o comuníquese con el Centro de Soporte de ERT.",
        "PLEASE_WAIT": "Espere...",
        "PORTRAIT_ONLY": "Sostenga su dispositivo en posición vertical.",
        "PRIVATE_BROWSING_ON": "Desactive la navegación privada. Si sigue teniendo problemas, comuníquese con el coordinador del estudio.",
        "PRIVACY_POLICY": "Política de privacidad",
        "PRIVACY_POLICY_APPLICATION_UNAVAILABILITY": "La política de privacidad de ERT no está disponible temporalmente.",
        "PRIVACY_POLICY_ACTIVATION_UNAVAILABILITY": "La política de privacidad de ERT no está disponible temporalmente. La política de privacidad de ERT se encuentra disponible en la página de ajustes después de la activación.",
        "PROTOCOL": "Protocolo:",
        "REQUIRED_ANSWER": "Favor de responder",
        "RETRY": "Intentar nuevamente",
        "RESET_PASSWORD": "Restablecer contraseña",
        "RESET_SECRET_QUESTION": "Restablecer pregunta de seguridad",
        "SECRET_ANSWER": "Respuesta de seguridad:",
        "SECRET_QUESTION": "Pregunta de seguridad:",
        "SECRET_QUESTION_CHANGE_FAILED": "Se ha activado un dispositivo distinto para recabar sus datos del estudio. Cambie su pregunta de seguridad en ese dispositivo.",
        "SECRET_QUESTION_CHANGE_SUCCESS": "Ha actualizado con éxito su contraseña y pregunta de seguridad.",
        "SETTINGS": "Configuración",
        "SITE": "Centro:",
        "SKIP_QUESTION": "¿Está seguro de que quiere saltarse las respuestas que aparecen en esta pantalla?",
        "SPONSOR": "Patrocinador:",
        "STORED_REPORTS": "Formularios guardados:",
        "STUDY_VERSION": "Versión del estudio: ",
        "STUDY_URL": "URL del estudio:",
        "SUBJECT_ID": "Código de paciente:",
        "TEMPORARY_UNLOCK_CODE": "Ingrese el código de desbloqueo que le haya dado el coordinador del estudio.",
        "TRANSMIT_REPORTS": "Actualizar",
        "UPDATE_CACHED_DELETED": "No se completó la actualización del ERT. Necesitará una conexión a Internet para usar el ERT. Comuníquese con el Centro de Soporte de ERT.",
        "UPDATE_FAILED": "No se completó la actualización del ERT. Asegúrese de que este dispositivo esté conectado a Internet e inténtelo nuevamente.",
        "UPDATE_FAILURE": "Actualización no completada",
        "UPDATE_SUCCESS": "Actualización exitosa",
        "WELCOME": "Bienvenido",
        "ALARM_OFF_LBL": "Apagado",
        "ALARM_TURN_OFF": "Apagar",
        "SET_ALARMS": "Fijar alarmas",
        "SCHED_NO_DIARIES_AVAILABLE": "No se deben informes en este momento",
        "TRAINER": "Modo de Entrenador",
        "TRAINER_EXIT": "Salir del Modo de Entrenador",
        "TRAINER_EXIT_NOTIFICATION": "Se está saliendo del Modo de Entrenador",
        "TRAINER_HEADER": "(Entrenador)",
        "ELPU_FAILURE": "Su uso de este dispositivo ERT ha terminado; sin embargo, ha ocurrido un error. Inténtelo de nuevo.",
        "ELPU_ON_REPLACED_DEVICE": "Su uso de este dispositivo ERT ha terminado. Utilice su dispositivo de reposición.",
        "SECURITY_QUESTION_0": "¿Apellido de soltera de su madre?",
        "SECURITY_QUESTION_1": "¿En qué ciudad nació?",
        "SECURITY_QUESTION_2": "¿Cuál es el nombre de su primera mascota?",
        "SECURITY_QUESTION_3": "¿Su deporte favorito?",
        "SECURITY_QUESTION_4": "¿En qué año se graduó?",
        "SECURITY_QUESTION_5": "¿Cuál es el nombre del medio de su hijo mayor?",
        "SECURITY_QUESTION_6": "¿Cómo se llama su mejor amigo de la infancia?",
        "SECURITY_QUESTION_7": "¿Cómo se llamaba su maestro de tercer grado?",
        "SECURITY_QUESTION_8": "¿En qué ciudad o pueblo tuvo su primer trabajo?",
        "SELECT_SITE_USER": "Seleccione el nombre del usuario del centro",
        "SITE_USER_NAME": "Nombre del usuario del centro:",
        "ADD_SITE_USER": "Agregar un usuario del centro",
        "INVALID_ENTRY": "Datos inválidos",
        "HANDOFF_MESSAGE": "<strong>El paciente debe completar la siguiente serie de pantallas para establecer su código de acceso al formulario.</strong>",
        "REVERSE_HANDOFF_CONFIRM": "Si selecciona OK, se reiniciará el proceso de activación. ¿Está seguro de que desea reiniciar la activación?",
        "SITE_GATEWAY_TITLE": "Puerta de enlace del centro",
        "USER_ALREADY_EXISTS": "Ya existe ese usuario",
        "SITE_SIGNATURE": "Firma de: ",
        "SITE_REPORT_AFF": "He ingresado, cotejado y por este medio confirmo los datos anteriores.<br /><br /><strong>Firma de:</strong> {{{ getActiveUserName }}}",
        "PATIENT_REPORT_AFF": "He ingresado, cotejado y por este medio confirmo los datos anteriores.<br /><br /><strong>Iniciales de:</strong> {{{ getActiveUserName }}}",
        "CLEAR_SIGNATURE": "Borrar firma",
        "STUDY_ALIAS": "{{{ studyAlias }}}",
        "SITE_ACTIVATED_ELSEWHERE": "Se ha activado un dispositivo distinto para recabar los datos del estudio del paciente. Si cree que esto se hizo por error, póngase en contacto con el coordinador del estudio.",
        "SITE_DEACTIVATED_LABEL": "Ha terminado el uso del ERT por parte del paciente para este estudio. Si esto es incorrecto, póngase en contacto con el coordinador del estudio.",
        "SIGNATURE_DATA_LIMIT_EXCEEDED": "El recuadro de firma no pudo representar su firma exactamente como la dibujó. Firme con sus iniciales en vez.",
        "PAIRED": "Apareado",
        "BLUETOOTH_REG_TITLE": "Apareamiento del eSense",
        "BLUETOOTH_REG_REFRESH_BUTTON": "Actualizar la lista",
        "BLUETOOTH_PAIR_DEVICE": "Aparear el dispositivo seleccionado",
        "BLUETOOTH_PAIRING_FAILED": "El apareamiento con el dispositivo seleccionado no se realizó con éxito. Inténtelo de nuevo.",
        "BLUETOOTH_PAIRING_SUCCESS": "El apareamiento con el dispositivo seleccionado se realizó con éxito.",
        "BLUETOOTH_REG_NO_DEVICES_FOUND": "No se encontraron dispositivos. Asegúrese de que el dispositivo esté cerca del ERT y en modo de transmisión.",
        "SYNC_FAILED": "Falló la sincronización con el servidor.",
        "DIARY_REQUIRES_E_SENSE_SUPPORT": "No se cuenta con soporte para eSense. Este formulario requiere soporte para eSense.",
        "ERROR_E_SENSE_ENABLE": "eSense no se pudo habilitar.",
        "E_SENSE_NOT_PAIRED": "No se ha apareado ningún dispositivo eSense. Este formulario requiere un dispositivo eSense apareado.",
        "BLUETOOTH_SYNC_FAILURE_TOP": "ERT no pudo comunicarse con el dispositivo {{{ eSenseDeviceName }}}.",
        "BLUETOOTH_SYNC_FAILURE_MIDDLE": "Asegúrese de que el dispositivo {{{ eSenseDeviceName }}} número {{{ eSenseSerialNumber }}} esté cerca de ERT y en modo de transmisión.",
        "PLUGIN_MISSING": "No se pudo cargar el complemento necesario.",
        "WRAPPER_VERSION": "Versión del wrapper:",
        "SUPPORT": "Soporte al Cliente",
        "SUPPORT_MESSAGE": "Los usuarios de los Estados Unidos se pueden comunicar con el Centro de Soporte de ERT llamando al 800-PHT-KNOW (800-748-5669). En el caso de usuarios internacionales, deberán seleccionar el país más cercano de la lista siguiente:",
        "SUPPORT_DROPDOWN": "Seleccione su país",
        "SUPPORT_NAME_ARGENTINA": "Argentina",
        "SUPPORT_NUMBER_ARGENTINA": "<bdi>0800 444 0962</bdi>",
        "SUPPORT_NAME_ARMENIA": "Armenia",
        "SUPPORT_NUMBER_ARMENIA": "<bdi>+1 617 681 6306</bdi>",
        "SUPPORT_NAME_AUSTRALIA": "Australia",
        "SUPPORT_NUMBER_AUSTRALIA": "<bdi>1 800 800 051</bdi>",
        "SUPPORT_NAME_AUSTRIA": "Austria",
        "SUPPORT_NUMBER_AUSTRIA": "<bdi>0800 100 405</bdi>",
        "SUPPORT_NAME_BELARUS": "Bielorrusia",
        "SUPPORT_NUMBER_BELARUS": "<bdi>8 820 0321 0036</bdi>",
        "SUPPORT_NAME_BELGIUM": "Bélgica",
        "SUPPORT_NUMBER_BELGIUM_1": "(inglés): <bdi>0800 58 016</bdi>",
        "SUPPORT_NUMBER_BELGIUM_2": "(francés): <bdi>0800 71 076</bdi>",
        "SUPPORT_NUMBER_BELGIUM_3": "(alemán): <bdi>0800 71 113</bdi>",
        "SUPPORT_NAME_BRAZIL": "Brasil",
        "SUPPORT_NUMBER_BRAZIL": "<bdi>0800 891 5909</bdi>",
        "SUPPORT_NAME_BOSNIA": "Bosnia",
        "SUPPORT_NUMBER_BOSNIA": "<bdi>+1 617 681 6306</bdi>",
        "SUPPORT_NAME_BULGARIA": "Bulgaria",
        "SUPPORT_NUMBER_BULGARIA": "<bdi>00800 0010</bdi>, luego <bdi>866 245 4931</bdi>",
        "SUPPORT_NAME_CANADA": "Canadá",
        "SUPPORT_NUMBER_CANADA": "<bdi>1 800 748 5669</bdi>",
        "SUPPORT_NAME_CHILE": "Chile",
        "SUPPORT_NUMBER_CHILE": "<bdi>123 0020 3408</bdi>",
        "SUPPORT_NAME_CHINA": "China",
        "SUPPORT_NUMBER_CHINA_1": "NetCom (norte): <bdi>1 0800 74 40 164</bdi>",
        "SUPPORT_NUMBER_CHINA_2": "Telecom (sur): <bdi>1 0800 44 00 158</bdi>",
        "SUPPORT_NAME_COLOMBIA": "Colombia",
        "SUPPORT_NUMBER_COLOMBIA": "<bdi>01 800 911 0010</bdi>, luego <bdi>866 310 3707</bdi>",
        "SUPPORT_NAME_COSTA_RICA": "Costa Rica",
        "SUPPORT_NUMBER_COSTA_RICA": "<bdi>0800 013 1210</bdi>",
        "SUPPORT_NAME_CROATIA": "Croacia",
        "SUPPORT_NUMBER_CROATIA": "<bdi>0800 222 953</bdi>",
        "SUPPORT_NAME_CZECH_REPUBLIC": "República Checa",
        "SUPPORT_NUMBER_CZECH_REPUBLIC": "<bdi>800 142 150</bdi>",
        "SUPPORT_NAME_DENMARK": "Dinamarca",
        "SUPPORT_NUMBER_DENMARK": "<bdi>80 60 00 09</bdi>",
        "SUPPORT_NAME_EGYPT": "Egipto",
        "SUPPORT_NUMBER_EGYPT": "<bdi>02 510 0200</bdi>, luego <bdi>866 310 3707</bdi>",
        "SUPPORT_NAME_EL_SALVADOR": "El Salvador",
        "SUPPORT_NUMBER_EL_SALVADOR": "<bdi>+1 617 681 6306</bdi>",
        "SUPPORT_NAME_ESTONIA": "Estonia",
        "SUPPORT_NUMBER_ESTONIA": "<bdi>800 00 44 154</bdi>",
        "SUPPORT_NAME_FINLAND": "Finlandia",
        "SUPPORT_NUMBER_FINLAND": "<bdi>0800 11 6366</bdi>",
        "SUPPORT_NAME_FRANCE": "Francia",
        "SUPPORT_NUMBER_FRANCE": "<bdi>0800 10 19 79</bdi>",
        "SUPPORT_NAME_GERMANY": "Alemania",
        "SUPPORT_NUMBER_GERMANY": "<bdi>0800 101 28 21</bdi>",
        "SUPPORT_NAME_GREECE": "Grecia",
        "SUPPORT_NUMBER_GREECE": "<bdi>00 800 1311</bdi>, luego <bdi>866 310 3707</bdi>",
        "SUPPORT_NAME_GUATEMALA": "Guatemala",
        "SUPPORT_NUMBER_GUATEMALA": "<bdi>1 800 624 0079</bdi>",
        "SUPPORT_NAME_HONG_KONG": "Hong Kong",
        "SUPPORT_NUMBER_HONG_KONG": "<bdi>3002 1665</bdi>",
        "SUPPORT_NAME_HUNGARY": "Hungría",
        "SUPPORT_NUMBER_HUNGARY": "<bdi>06 800 14 571</bdi>",
        "SUPPORT_NAME_ICELAND": "Islandia",
        "SUPPORT_NUMBER_ICELAND": "<bdi>800 8544</bdi>",
        "SUPPORT_NAME_INDIA": "India",
        "SUPPORT_NUMBER_INDIA": "<bdi>000 800 440 1125</bdi>",
        "SUPPORT_NAME_INDONESIA": "Indonesia",
        "SUPPORT_NUMBER_INDONESIA": "<bdi>008 800 330 334</bdi>",
        "SUPPORT_NAME_IRELAND": "Irlanda",
        "SUPPORT_NUMBER_IRELAND": "<bdi>1 800 946 700</bdi>",
        "SUPPORT_NAME_ISRAEL": "Israel",
        "SUPPORT_NUMBER_ISRAEL": "<bdi>1 809 470 062</bdi>",
        "SUPPORT_NAME_ITALY": "Italia",
        "SUPPORT_NUMBER_ITALY": "<bdi>800 90 56 37</bdi>",
        "SUPPORT_NAME_JAPAN": "Japón",
        "SUPPORT_NUMBER_JAPAN": "Para encontrar el número gratuito de su estudio, consulte la Guía de información del estudio para ePRO (ePRO Study Information Guide).",
        "SUPPORT_NAME_LATVIA": "Letonia",
        "SUPPORT_NUMBER_LATVIA": "<bdi>8000 2151</bdi>",
        "SUPPORT_NAME_LEBANON": "Líbano",
        "SUPPORT_NUMBER_LEBANON": "<bdi>01-426-801</bdi>, luego <bdi>866 310 3707</bdi>",
        "SUPPORT_NAME_LITHUANIA": "Lituania",
        "SUPPORT_NUMBER_LITHUANIA": "<bdi>8800 30207</bdi>",
        "SUPPORT_NAME_MALAYSIA": "Malasia",
        "SUPPORT_NUMBER_MALAYSIA": "<bdi>1800 80 59 71</bdi>",
        "SUPPORT_NAME_MEXICO": "México",
        "SUPPORT_NUMBER_MEXICO_1": "(Inglés): <bdi>001 800 748 5669</bdi> ",
        "SUPPORT_NUMBER_MEXICO_2": "(español): <bdi>001 855 631 6952</bdi>",
        "SUPPORT_NAME_MOLDOVA": "Moldavia",
        "SUPPORT_NUMBER_MOLDOVA": "<bdi>617 681 6306</bdi>",
        "SUPPORT_NAME_NETHERLANDS": "Países Bajos",
        "SUPPORT_NUMBER_NETHERLANDS": "<bdi>0800 023 1389</bdi>",
        "SUPPORT_NAME_NEW_ZEALAND": "Nueva Zelanda",
        "SUPPORT_NUMBER_NEW_ZEALAND": "<bdi>0800 110 178</bdi>",
        "SUPPORT_NAME_NORWAY": "Noruega",
        "SUPPORT_NUMBER_NORWAY": "<bdi>800 62 051</bdi>",
        "SUPPORT_NAME_PAKISTAN": "Pakistán",
        "SUPPORT_NUMBER_PAKISTAN": "<bdi>00 800 0100</bdi>, luego <bdi>866 237 9767</bdi>",
        "SUPPORT_NAME_PANAMA": "Panamá",
        "SUPPORT_NUMBER_PANAMA": "<bdi>001 800 201 3095</bdi>",
        "SUPPORT_NAME_PERU": "Perú",
        "SUPPORT_NUMBER_PERU": "<bdi>0800 5 0974</bdi>",
        "SUPPORT_NAME_PHILIPPINES": "Filipinas",
        "SUPPORT_NUMBER_PHILIPPINES": "<bdi>1 800 1116 0651</bdi>",
        "SUPPORT_NAME_POLAND": "Polonia",
        "SUPPORT_NUMBER_POLAND": "<bdi>00800 331 1262</bdi>",
        "SUPPORT_NAME_PORTUGAL": "Portugal",
        "SUPPORT_NUMBER_PORTUGAL": "<bdi>800 206 172</bdi>",
        "SUPPORT_NAME_PUERTO_RICO": "Puerto Rico (territorio de los EE. UU.)",
        "SUPPORT_NUMBER_PUERTO_RICO": "<bdi>1 800 748 5669</bdi>",
        "SUPPORT_NAME_ROMANIA": "Rumania",
        "SUPPORT_NUMBER_ROMANIA": "<bdi>0800 894492</bdi>",
        "SUPPORT_NAME_RUSSIA": "Rusia",
        "SUPPORT_NUMBER_RUSSIA_1": "(primario – sin costo): <bdi>8 10 800 249 13011</bdi>",
        "SUPPORT_NUMBER_RUSSIA_2": "(dentro de Moscú): <bdi>363-2400</bdi> <br>, luego <bdi>866 310 3707</bdi>",
        "SUPPORT_NUMBER_RUSSIA_3": "(fuera de Moscú): <bdi>8^(495) 363-2400</bdi> <br>, luego <bdi>866 310 3707</bdi>",
        "SUPPORT_NUMBER_RUSSIA_4": "(dentro de San Petersburgo): <bdi>363-2400</bdi> <br>, luego <bdi>866 310 3707</bdi>",
        "SUPPORT_NUMBER_RUSSIA_5": "(fuera de San Petersburgo): <bdi>8^(495) 363-2400</bdi> <br>, luego <bdi>866 310 3707</bdi>",
        "SUPPORT_NAME_SAUDI_ARABIA": "Arabia Saudita",
        "SUPPORT_NUMBER_SAUDI_ARABIA": "<bdi>+1 617 681 6306</bdi>",
        "SUPPORT_NAME_SERBIA": "Serbia",
        "SUPPORT_NUMBER_SERBIA": "<bdi>+1 617 973 1739</bdi>",
        "SUPPORT_NAME_SINGAPORE": "Singapur",
        "SUPPORT_NUMBER_SINGAPORE": "<bdi>800 616 30 03</bdi>",
        "SUPPORT_NAME_SLOVAKIA": "Eslovaquia",
        "SUPPORT_NUMBER_SLOVAKIA": "<bdi>0800 0044 65</bdi>",
        "SUPPORT_NAME_SLOVENIA": "Eslovenia",
        "SUPPORT_NUMBER_SLOVENIA": "<bdi>+1 617 681 6306</bdi>",
        "SUPPORT_NAME_SOUTH_AFRICA": "Sudáfrica",
        "SUPPORT_NUMBER_SOUTH_AFRICA": "<bdi>0800 99 5853</bdi>",
        "SUPPORT_NAME_SOUTH_KOREA": "Corea del Sur",
        "SUPPORT_NUMBER_SOUTH_KOREA": "<bdi>00308 33 00 08</bdi>",
        "SUPPORT_NAME_SPAIN": "España",
        "SUPPORT_NUMBER_SPAIN": "<bdi>900 90 2541</bdi>",
        "SUPPORT_NAME_SWEDEN": "Suecia",
        "SUPPORT_NUMBER_SWEDEN": "<bdi>020 120 99 69</bdi>",
        "SUPPORT_NAME_SWITZERLAND": "Suiza",
        "SUPPORT_NUMBER_SWITZERLAND_1": "(inglés): <bdi>0800 199 325</bdi>",
        "SUPPORT_NUMBER_SWITZERLAND_2": "(francés): <bdi>0800 891 183</bdi>",
        "SUPPORT_NUMBER_SWITZERLAND_3": "(alemán): <bdi>0800 891 025</bdi>",
        "SUPPORT_NAME_TAIWAN": "Taiwán",
        "SUPPORT_NUMBER_TAIWAN": "<bdi>00801 33 33 42</bdi>",
        "SUPPORT_NAME_THAILAND": "Tailandia",
        "SUPPORT_NUMBER_THAILAND": "<bdi>1 800 33 140 353</bdi>",
        "SUPPORT_NAME_TUNISIA": "Túnez",
        "SUPPORT_NUMBER_TUNISIA": "<bdi>+1 617 681 6306</bdi>",
        "SUPPORT_NAME_TURKEY": "Turquía",
        "SUPPORT_NUMBER_TURKEY": "<bdi>00 800 151 1335</bdi>",
        "SUPPORT_NAME_UKRAINE": "Ucrania",
        "SUPPORT_NUMBER_UKRAINE": "<bdi>0^00 11</bdi>, luego <bdi>866 245 4931</bdi>",
        "SUPPORT_NAME_UAE": "Emiratos Árabes Unidos",
        "SUPPORT_NUMBER_UAE": "<bdi>8000-021</bdi>, luego <bdi>866 310 3707</bdi>",
        "SUPPORT_NAME_UK": "Reino Unido",
        "SUPPORT_NUMBER_UK": "<bdi>0800 015 0408</bdi>",
        "SUPPORT_NAME_US": "Estados Unidos",
        "SUPPORT_NUMBER_US_1": "(Principal): <bdi>1 800 748 5669</bdi>",
        "SUPPORT_NUMBER_US_2": "(Secundario): <bdi>1 877 748 5669</bdi>",
        "SUPPORT_NAME_VENEZUELA": "Venezuela",
        "SUPPORT_NUMBER_VENEZUELA_1": "(Inglés): <bdi>0 800 552 6288</bdi><br>, luego <bdi>866 310 3707</bdi> ",
        "SUPPORT_NUMBER_VENEZUELA_2": "(español): <bdi>0 800 100 3063</bdi> ",
        "USER_NAME": "Nombre de usuario:",
        "SUBJECT_ROLE": "Código de paciente: {{{ getParticipantCode }}}",
        "SITE_ROLE": "Centro",
        "TEMPORARY_PASSWORD_MESSAGE": "Dele la contraseña temporal al nuevo usuario. Se le pedirá que cree una nueva contraseña después de que inicie sesión.",
        "SHARED_PASSWORD_MESSAGE": "La contraseña para el nuevo usuario se debe obtener desde StudyWorks.",
        "TEMP_PASSWORD": "Contraseña temporal: ",
        "ROLES": "Función:",
        "LANGUAGE": "Idioma:",
        "FULL_NAME": "Nombre completo:",
        "CONFIRM_TEMP_PASS": "Confirmar la contraseña temporal:",
        "PASSWORD_MISMATCH": "La contraseña de confirmación no coincide con la contraseña",
        "PASSWORD_INVALID_CHARACTERS": "Solamente utilice números",
        "USER_NAME_INVALID_CHARACTERS": "No utilice caracteres especiales",
        "USER_NAME_MORE_THAN_25": "Utilice 25 caracteres o menos",
        "PRIVACY_POLICY_VERSION_LABEL": "Versión: ",
        "PRIVACY_POLICY_VERSION": "1.6.0",
        "PRIVACY_POLICY_LAST_UPDATED_LABEL": "Última actualización: ",
        "PRIVACY_POLICY_LAST_UPDATED": "21 ene 2014",
        "PRIVACY_POLICY_TEXT_LABEL": "Acerca de la privacidad: ",
        "PRIVACY_POLICY_TEXT": "ERT provee el software que usted está por instalar. ERT trabaja junto con su centro del ensayo clínico para garantizar que nadie pueda saber quién es usted sin el permiso de su centro. Usted tiene el derecho de ver sus registros; para revisarlos, deberá hacer los arreglos necesarios a través de su centro.",
        "SUBJECT_REPORT_AFF": "Por el presente, declaro que respondí todas las preguntas lo mejor posible.",
        "SUBJECT_INITIALS_LABEL": "Iniciales del paciente:",
        "SUBJECT": "Paciente",
        "SET_TIMEZONE": "Editar huso horario",
        "SET_TIMEZONE_MESSAGE": "Seleccione su huso horario:",
        "SET_TIMEZONE_BUTTON": "Fijar",
        "TIME_ZONE_CONFIRM_HEADER": "Confirmación del cambio de huso horario",
        "TIME_ZONE_CONFIRM": "¿Está seguro de que desea cambiar el huso horario? La aplicación se reiniciará para aplicar el cambio.",
        "TIME_ZONE_EUROPE_KALININGRAD": "Europa/Kaliningrado",
        "TIME_ZONE_EUROPE_MOSCOW": "Europa/Moscú",
        "TIME_ZONE_ASIA_KARACHI": "Asia/Karachi",
        "TIME_ZONE_ASIA_YEKATERINBURG": "Asia/Ekaterimburgo",
        "TIME_ZONE_ASIA_NOVOSIBIRSK": "Asia/Novosibirsk",
        "TIME_ZONE_ASIA_KRASNOYARSK": "Asia/Krasnoyarsk",
        "TIME_ZONE_ASIA_IRKUTSK": "Asia/Irkutsk",
        "TIME_ZONE_ASIA_YAKUTSK": "Asia/Yakutsk",
        "TIME_ZONE_ASIA_VLADIVOSTOK": "Asia/Vladivostok",
        "TIME_ZONE_ASIA_KAMCHATKA": "Asia/Kamchatka",
        "AF-ZA": "Afrikáans",
        "AR-EG": "Árabe",
        "BE-BY": "Bielorruso",
        "BG-BG": "Búlgaro",
        "BN-IN": "Bengalí",
        "BS-BA": "Bosnio",
        "CA-ES": "Catalán",
        "CS-CZ": "Checo",
        "DA-DK": "Danés",
        "DE-DE": "Alemán (Alemania)",
        "DE-AT": "Alemán (Austria)",
        "EL-GR": "Griego",
        "EN-GB": "Inglés (Reino Unido)",
        "EN-US": "Inglés (Estados Unidos)",
        "ES-ES": "Español (España)",
        "ES-US": "Español (Estados Unidos)",
        "ES-PY": "Español (Universal)",
        "ET-EE": "Estonio",
        "FI-FI": "Finés",
        "FR-CA": "Francés (Canadá)",
        "FR-FR": "Francés (Francia)",
        "GD-IE": "Gaélico",
        "GU-IN": "Guyaratí",
        "HE-IL": "Hebreo",
        "HI-IN": "Hindi",
        "HR-HR": "Croata",
        "HU-HU": "Húngaro",
        "IT-IT": "Italiano",
        "JA-JP": "Japonés",
        "KA-GE": "Georgiano",
        "KN-IN": "Canarés",
        "KO-KR": "Coreano",
        "LV-LV": "Letón",
        "LT-LT": "Lituano",
        "ML-IN": "Malayalam",
        "MR-IN": "Maratí",
        "MS-MY": "Malayo",
        "NB-NO": "Noruego",
        "NL-BE": "Holandés (Bélgica)",
        "NL-NL": "Holandés (Países Bajos)",
        "PA-IN": "Panyabí",
        "PL-PL": "Polaco",
        "PT-BR": "Portugués (Brasil)",
        "PT-PT": "Portugués (Portugal)",
        "RO-RO": "Rumano",
        "RU-RU": "Ruso",
        "SL-SL": "Esloveno",
        "SK-SK": "Eslovaco",
        "SR-RS": "Serbio (Latín)",
        "SR-SP": "Serbio (Cirílico)",
        "ST-ZA": "Sotho",
        "SV-SE": "Sueco",
        "TA-IN": "Támil",
        "TE-IN": "Télugu",
        "TH-TH": "Tailandés",
        "TL-PH": "Tagálog",
        "TN-ZA": "Tswana",
        "TR-TR": "Turco",
        "UK-UA": "Ucraniano",
        "UR-IN": "Urdú",
        "VI-VN": "Vietnamita",
        "XH-ZA": "Xhosa",
        "ZH-CN": "Chino (China)",
        "ZH-TW": "Chino (Taiwán)",
        "ZU-ZU": "Zulú",
        "NO_RESULTS_FOUND": "No se encontraron resultados.",
        "USER": "Usuario",
        "SYNC": "Sincronizar",
        "TIME_LBL": "Hora:",
        "SET_TIME": "Fijar hora",
        "NEW_USER": "Agregar nuevo diario de usuario",
        "NEW_USER_CREATED": "Se ha creado el nuevo usuario.",
        "TIME_ZONE_SET_CONFIRM": "¿Está seguro de que desea configurar la zona horaria a {{{selectedTimeZone}}}? <br/> La aplicación puede reiniciarse para aplicar el cambio.",
        "TIME_ZONE_SET_CONFIRM_NOCHANGE": "¿Está seguro de que desea configurar la zona horaria a {{{selectedTimeZone}}}?",
        "TIME_ZONE_SET_HEADER": "Confirmación del ajuste de zona horaria",
        "TIME_ZONE_ERROR_HEADER": "Error de zona horaria",
        "TIME_ZONE_ERROR_MSG": "El error ocurrió al obtener la lista de zonas horarias. Comuníquese con el Centro de Soporte de ERT para obtener más ayuda.",
        "TIME_ZONE_SET_ERROR_MSG": "El error ocurrió al configurar la zona horaria. Comuníquese con el Centro de Soporte de ERT para obtener más ayuda.",
        "TIME_CONFIRMATION_INSTRUCTIONS": "El dispositivo necesita confirmar su hora local. Ingrese su fecha y hora desde una fuente confiable.",
        "LOW_BATTERY": "Advertencia: El nivel de batería está bajo. Enchufe el dispositivo para recargarlo.",
        "CRITICAL_BATTERY": "Advertencia: El nivel de batería está críticamente bajo. Enchufe el dispositivo para recargarlo o se apagará.",
        "SITE_ADMINISTRATOR": "Administrador del centro",
        "TIME_CONFIRMATION_HEADER": "Confirmar fecha/hora",
        "TIMESLIP_ERROR": "La hora o fecha en el dispositivo es incorrecta. Ubíquese en un lugar con conectividad a Internet y vuelva a intentarlo. Si sigue teniendo problemas, comuníquese con el Servicio de atención al cliente de ERT.",
        "P_AFFIDAVIT_HEADER": "<div><strong>Centro: {{{ getSiteCodeForSubject }}}</strong><br /><strong>ID de paciente: {{{ getParticipantCodeForSubject }}}</strong></div>",
        "RESTART_NOTIFICATION_HEADER": "Es necesario reiniciar",
        "RESTART_NOTIFICATION_MSG": "Se ha cambiado la zona horaria. La aplicación se reiniciará en {{{ timeZoneChangeRestartCountdown }}}.",
        "RESTART_NOW": "Reiniciar ahora",
        "SECONDS": "segundos",
        "MINUTES": "minutos",
        "SELECT_LANGUAGE": "Seleccione un idioma preferido para el sujeto.",
        "ACCEPT": "Acepto",
        "DECLINE": "No acepto",
        "EULA": "LICENCIA DE USUARIO FINAL",
        "EULA_TEXT": "<p><strong><span class=\"text-underline\">IMPORTANTE</span>:  NO HAGA CLIC EN EL BOTÓN ACEPTAR SINO HASTA QUE HAYA LEÍDO ESTE CONTRATO.  AL HACER CLIC EN EL BOTÓN ACEPTAR, USTED ACEPTA TODOS LOS TÉRMINOS Y CONDICIONES DE ESTE CONTRATO.  SI NO ACEPTA TODOS LOS TÉRMINOS Y CONDICIONES DE ESTE CONTRATO: (1) NO HAGA CLIC EN EL BOTÓN \"ACEPTO\" Y (2) CANCELE EL PROCESO DE INSTALACIÓN Y OTORGAMIENTO DE LICENCIA HACIENDO CLIC EN EL BOTÓN \"NO ACEPTO\".</strong></p><p>eResearchTechnology, Inc. (el \"Licenciante\") le otorga el derecho no exclusivo y no transferible de usar el software de eResearchTechnology, Inc. que se incluye en este dispositivo (el \"Software\") en lo relativo a su participación en el contrato del ensayo clínico: <strong>{{{ clinicalTrial }}}</strong>.  El software de eResearchTechnology, Inc. está cubierto por patentes expedidas y otras patentes en trámite.  El presente Contrato no le confiere ningún derecho de propiedad con respecto a ningún Software (ni ninguna copia del mismo), sino que solo constituye una licencia para usar el Software de conformidad con todos los términos y condiciones de este Contrato.  La titularidad del Software y de todas sus partes, así como todos los derechos de propiedad exclusiva y de propiedad intelectual incorporados al mismo, le seguirán correspondiendo al Licenciante en todo momento.</p><p>Usted conviene en no hacer nada de lo relacionado a continuación, ya sea directa o indirectamente: (i) aplicar ingeniería inversa, desensamblar o descompilar el Software; (ii) copiar, distribuir, fabricar, adaptar, crear obras derivadas, traducir, localizar, editar el código para su uso en otra plataforma o de algún otro modo modificar el Software; o (iii) eliminar o alterar cualquier derecho de autor, secreto comercial u otros avisos legales correspondientes al Software o contenidos en el mismo.  USTED RECONOCE Y ACEPTA QUE EL SOFTWARE PODRÁ CONTENER CÓDIGO QUE IMPIDA EL USO NO AUTORIZADO DEL MISMO.</p><br><p>SI ACEPTA TODO LO ANTERIOR, seleccione <strong>Acepto</strong>. Al hacer clic en \"Acepto\", usted indica su aceptación de los términos y condiciones de la licencia.</p><p>SI NO ACEPTA TODO LO ANTERIOR o no cuenta con autorización para aceptar, seleccione <strong>No acepto</strong>, en cuyo caso quedará bloqueado su acceso posterior al Software.  Si cuenta con autorización, podrá aceptar en otro momento.</p>",
        "HAND_DEVICE_SITE_TITLE": "Entregar dispositivo al usuario del centro",
        "HAND_DEVICE_SITE_BODY": "Entréguele el dispositivo al usuario del centro.",
        "SQ-AL": "Albanés",
        "IMAGE_FOLDER": "{{{ imageFolder }}}",
        "MODAL_OK_TEXT": "OK",
        "BROWSER_LOAD_ERROR": "No se encontró la página. Revise su conexión a Internet e inténtelo nuevamente.",
		"NONEXISTENT_USER" : "No se encontró al usuario.",
		"NO_USER_OF_ROLE" : "No se encontró ningún usuario con ese rol.",
		"START_VISIT_OUTSIDE_WINDOW_MSG": "¿Desea ingresar la {{{ getVisitName }}} fuera de la ventana temporal configurada: {{{ startDate }}} - {{{ endDate }}}",
		"START_VISIT_HARD_STOP_MSG" : "No se puede ingresar la {{{ getVisitName }}} fuera de la ventana temporal configurada: {{{ startDate }}} - {{{ endDate }}}",
		"YES" : "Sí",
		"NO" : "NO"
    },
    "dates": {
        "setDateButtonLabel": "OK",
        "setTimeButtonLabel": "OK",
        "setDurationButtonLabel": "Fijar duración",
        "calTodayButtonLabel": "Saltarse a hoy",
        "titleDateDialogLabel": "Fijar fecha",
        "titleTimeDialogLabel": "Fijar hora",
        "daysOfWeek": [
            "Domingo",
            "Lunes",
            "Martes",
            "Miércoles",
            "Jueves",
            "Viernes",
            "Sábado"
        ],
        "daysOfWeekShort": [
            "Do",
            "Lu",
            "Ma",
            "Mi",
            "Ju",
            "Vi",
            "Sa"
        ],
        "monthsOfYear": [
            "enero",
            "febrero",
            "marzo",
            "abril",
            "mayo",
            "junio",
            "julio",
            "agosto",
            "septiembre",
            "octubre",
            "noviembre",
            "diciembre"
        ],
        "monthsOfYearShort": [
            "ene",
            "feb",
            "mar",
            "abr",
            "mayo",
            "jun",
            "jul",
            "ago",
            "sep",
            "oct",
            "nov",
            "dic"
        ],
        "durationLabel": [
            "días",
            "horas",
            "minutos",
            "segundos"
        ],
        "durationDays": [
            "día",
            "días"
        ],
        "tooltip": "Abrir el selector de fecha",
        "nextMonth": "Siguiente mes",
        "prevMonth": "Mes anterior",
        "clearButton": "Borrar",
        "meridiem": [
            "a. m.",
            "p. m."
        ]
    }
}
