{
    "namespace": "CORE",
    "language": "pt",
    "locale": "BR",
    "localized": "Português (Brasil)",
    "direction": "ltr",
    "resources": {
        "ACTIVE": "Ativo",
        "ACTIVATE_USER": "Ativar usuário",
        "ACTIVATE_USER_CANCEL_CONFIRM": "Cancelar ativação?",
        "ACTIVATE_USER_CANCEL_BODY": "Se você cancelar agora, o usuário do centro não será ativado. Tem certeza de que deseja cancelar?",
        "ACTIVATE_USER_AFF": "Ao assinar abaixo, confirmo que estou autorizado a ativar este usuário do centro.",
        "ACTIVATE_USER_CONFIRM_INFORMATION": "Confirme que as informações abaixo pertencem ao usuário do centro que deseja ativar.",
        "ADD_PATIENT": "Adicionar novo paciente",
        "ADD_USER": "Adicionar usuário",
        "AFFIDAVIT": "Selecione OK e, em seguida, Avançar quando estiver pronto para salvar suas repostas.",
        "AFFIDAVIT_HELP": "Obrigado. Você forneceu todas as respostas necessárias. Você pode verificar e alterar suas respostas selecionando Voltar.",
        "ALL_QUESTIONNAIRES_COMPLETED": "Todos os formulários concluídos",
        "APP_NAME": "ERT",
        "APPLICATION_HEADER": "{{{ appHeader }}}",
        "APP_NAME_LBL": "Nome do app",
        "APP_VERSION": "Versão do app",
        "ASSIGNED_TO": "Atribuído a",
        "AVAILABLE": "Disponível",
        "BACK": "Voltar",
        "BACK_OUT_CONFIRM": "Tem certeza de que deseja sair? As respostas para este formulário serão perdidas.",
        "BLUETOOTH_REG_REFRESH_BUTTON": "Atualizar lista",
        "CANCEL": "Cancelar",
        "CHECK_FOR_UPDATES": "Verificar atualizações",
        "CHOOSE_A_SITE": "Atribua este dispositivo a um centro específico.",
        "COMPLETED": "Concluído",
        "CONFIRM_PASSWORD": "Confirmação da senha:",
        "CONFIRM_TEMP_PASS": "Confirmação da senha temporária:",
        "CONTINUE": "Continuar",
        "COUNTRY": "País",
        "CUSTOM_ENVIRONMENT": "Ambiente personalizado",
        "DEACTIVATE_PATIENT": "Desativar paciente",
        "DEACTIVATE_USER": "Desativar usuário",
        "DEACTIVATED": "Desativado",
        "DEACTIVATE_USER_CANCEL_CONFIRM": "Cancelar desativação?",
        "DEACTIVATE_USER_CANCEL_BODY": "Se você cancelar agora, o usuário do centro não será desativado. Tem certeza de que deseja cancelar?",
        "DEACTIVATE_USER_AFF": "Ao assinar abaixo, confirmo que estou autorizado a desativar este usuário do centro.",
        "DEACTIVATE_USER_SIG": "<strong>Usuário a ser desativado:</strong> <br />{{{ getSelectedUsername }}}<br /><br /><strong>Assinatura de:</strong> {{{ getActiveUserName }}}",
        "DEACTIVATE_USER_CONFIRM_INFORMATION": "Confirme que as informações abaixo pertencem ao usuário do centro que deseja desativar.",
        "DEVICE_ID": "ID do dispositivo",
        "DEVICE_REGISTRATION_FAILURE": "Falha ao registrar o dispositivo.",
        "DEVICE_UUIID": "UUID do dispositivo",
        "BATTERY_LEVEL": "Nível da bateria",
        "DEVICE_INFO": "Informações do dispositivo",
        "DIARY_TIMEOUT": "O tempo limite deste formulário expirou.",
        "EDIT_MY_INFO": "Editar minhas informações",
        "EDIT_PATIENT": "Editar paciente",
        "EDIT_PATIENT_QUESTION_1_MAIN_TITLE": "<div class='question-title-large'>Identificação do paciente </div><div>Faixa de IDs para este centro:<br /><strong> {{{ patientIDRange }}}</strong></div><div class='edit-patient-id'>ID do paciente:<br /><strong>{{{ getPatientIdNumber }}} ({{{getPatientInitials}}})</strong</div><br /><br />",
        "EDIT_PATIENT_QUESTION_1": "ID do paciente:",
        "EDIT_PATIENT_QUESTION_1_EMPTY": "Preencha o ID do paciente.",
        "EDIT_PATIENT_QUESTION_1_EMPTY_HEADER": "ID do paciente",
        "EDIT_PATIENT_QUESTION_1_RANGE": "O ID do paciente que você inseriu não está na faixa de IDs permitidos: {{{ patientIDRange }}}.  Insira um ID de paciente válido.",
        "EDIT_PATIENT_QUESTION_1_RANGE_HEADER": "O ID de paciente está fora da faixa",
        "EDIT_PATIENT_QUESTION_1_UNIQUE": "O paciente já existe.  Insira outro ID de paciente.",
        "EDIT_PATIENT_QUESTION_1_UNIQUE_HEADER": "O ID do paciente está duplicado",
        "EDIT_PATIENT_QUESTION_2": "Iniciais do paciente:",
        "EDIT_PATIENT_QUESTION_2_EMPTY": "Preencha as iniciais do paciente com, no mínimo, 2 caracteres.",
        "EDIT_PATIENT_QUESTION_2_EMPTY_HEADER": "Iniciais do paciente",
        "EDIT_PATIENT_QUESTION_3_TITLE": "<div class='question-title-large'>Selecionar idioma</div><div>ID do paciente:<br /><strong>{{{ getPatientIdNumber }}} ({{{getPatientInitials}}})</strong</div><br /><br />",
        "EDIT_PATIENT_QUESTION_3": "Selecione o idioma do paciente",
        "EDIT_PATIENT_QUESTION_4_TITLE": "<div class='question-title-large'>Editar motivo</div><br /><br />",
        "EDIT_PATIENT_QUESTION_4": "Selecione o motivo para editar um paciente",
        "EDIT_PATIENT_CANCEL_CONFIRM": "Cancelar alterações no paciente?",
        "EDIT_PATIENT_CANCEL_BODY": "Se você cancelar agora, as configurações do paciente não serão atualizadas.  Tem certeza de que deseja cancelar?",
        "EDIT_PATIENT_NO_CHANGES_CONFIRM": "Nenhuma alteração feita no paciente",
        "EDIT_PATIENT_NO_CHANGES_BODY": "Nenhuma alteração foi feita neste paciente. Sair assim mesmo?",
        "EDIT_PATIENT_REASON_0": "Correção de erro do médico",
        "EDIT_REASON": "Editar motivo:",
        "EDIT_SERVICE_URL": "Editar URL do serviço",
        "EDIT_SERVICE_URL_SUCCESS": "O URL do serviço foi atualizado.",
        "EDIT_USER": "Editar usuário",
        "EDIT_USER_AFF": "Ao assinar abaixo, confirmo que estou autorizado a editar este usuário do centro. <br /><br /><strong>Assinatura de:</strong> {{{ getActiveUserName }}}",
        "EDIT_USER_CANCEL_CONFIRM": "Cancelar edição de usuário?",
        "EDIT_USER_CANCEL_BODY": "Se você cancelar agora, as alterações no usuário do centro não serão efetivadas. Tem certeza de que deseja cancelar?",
        "EDIT_USER_NO_CHANGES_HEADER": "Nenhuma alteração feita usuário do centro",
        "EDIT_USER_NO_CHANGES_BODY": "Nenhuma alteração foi feita neste usuário do centro. Sair assim mesmo?",
        "EMAIL": "Endereço de email",
        "ENTER_PATIENT_INFO": "Inserir informações do paciente",
        "ENTER_UNLOCK_CODE": "Insira o Código de desbloqueio",
        "ENTER_USER_INFO": "Inserir informações do novo usuário do centro",
        "ENVIRONMENT": "Ambiente",
        "ERROR_CODE": "Código de erro:",
        "ERROR_TITLE": "Erro",
        "FIRST_NAME": "Primeiro nome",
        "FORGOT_PASSWORD": "Esqueceu a senha?",
        "FORM": "Formulário",
        "FORM_GATEWAY": "Gateway do formulário",
        "FORM_NAME": "Nome do formulário",
        "FULL_NAME": "Nome completo:",
        "GO_TO_VISITS": "Visitas do paciente",
        "HAND_DEVICE_SITE_TITLE": "Entregar dispositivo a usuário do centro",
        "HAND_DEVICE_SITE_BODY": "Entregue o dispositivo ao usuário do centro.",
        "HELP": "Ajuda",
        "HOME": "Início",
        "IN_PROGRESS": "Em andamento",
        "INITIALS": "Iniciais",
        "INVALID_URL": "Insira um URL válido.",
        "INVALID_PERMISSION": "Permissão inválida.",
        "INVALID_PASSWORD": "Senha inválida.",
        "LANGUAGE": "Idioma:",
        "LAST_LOGIN": "Último login",
        "LAST_NAME": "Sobrenome",
        "LAST_REFRESH_TIME": "Hora da última atualização",
        "LOCATION": "Local",
        "LOGIN": "Login",
        "LOGIN_SCREEN": "Login",
        "LOGOUT": "Logout",
        "MANAGE_USERS": "Gerenciar usuários do centro",
        "MARK_AS_COMPLETED": "Marcar como concluído",
        "SITE_SIGNATURE": "Assinatura de: ",
        "SITE_REPORT_AFF": "Inseri, verifiquei e confirmo os dados anteriores.<br /><br /><strong>Assinatura de:</strong> {{{ getActiveUserName }}}",
        "PATIENT_REPORT_AFF": "Inseri, verifiquei e confirmo os dados anteriores.<br /><br /><strong>Iniciais de:</strong> {{{ getActiveUserName }}}",
        "CLEAR_SIGNATURE": "Limpar assinatura",
        "MENU": "Menu",
        "MODE": "Modo",
        "NAME": "Nome",
        "NEW_USER": "Adicionar novo diário de usuário",
        "FIRST_SITE_USER": "Adicionar primeiro usuário do centro",
        "NEW_USER_CREATED": "O usuário do centro foi criado.",
        "NEW_PATIENT_QUESTION_1_MAIN_TITLE": "<div class='question-title-large'>Inserir informações de identificação do paciente</div><div>Faixa de IDs para este centro:<br /><strong> {{{ patientIDRange }}}</strong></div><div><strong>Centro: {{{ getSiteCode }}}</strong></div><div><strong>Usuário: {{{ getUserName }}}</strong</div><br /><br />",
        "NEW_PATIENT_HELP_TEXT_1": "",
        "NEW_PATIENT_HELP_TEXT_2": "",
        "NEW_PATIENT_HELP_TEXT_3": "",
        "NEW_PATIENT_QUESTION_1_TITLE": "ID do paciente",
        "NEW_PATIENT_QUESTION_1": "ID do paciente:",
        "NEW_PATIENT_QUESTION_1_EMPTY": "Preencha o ID do paciente.",
        "NEW_PATIENT_QUESTION_1_EMPTY_HEADER": "ID do paciente",
        "NEW_PATIENT_QUESTION_1_RANGE": "O ID do paciente que você inseriu não está na faixa de IDs permitidos: {{{ patientIDRange }}}.  Insira um ID de paciente válido.",
        "NEW_PATIENT_QUESTION_1_RANGE_HEADER": "O ID de paciente está fora da faixa",
        "NEW_PATIENT_QUESTION_1_UNIQUE": "O paciente já existe.  Insira outro ID de paciente.",
        "NEW_PATIENT_QUESTION_1_UNIQUE_HEADER": "O ID do paciente está duplicado",
        "NEW_PATIENT_QUESTION_2": "Iniciais do paciente:",
        "NEW_PATIENT_QUESTION_2_EMPTY": "Preencha as iniciais do paciente com, no mínimo, 2 caracteres.",
        "NEW_PATIENT_QUESTION_2_EMPTY_HEADER": "Iniciais do paciente",
        "NEW_PATIENT_QUESTION_3_TITLE": "<div class='question-title-large'>Selecione o idioma</div><div><strong>Centro: {{{ getSiteCode }}}</strong></div><div><strong>Usuário: {{{ getUserName }}}</strong</div><div><strong>ID do paciente: {{{ getPatientID }}}</strong></div><br /><br />",
        "NEW_PATIENT_QUESTION_3": "Selecione o idioma do paciente",
        "NEW_PATIENT_CANCEL_CONFIRM": "Cancelar a adição de paciente?",
        "NEW_PATIENT_CANCEL_BODY": "Se você cancelar, o paciente não será registrado.  Tem certeza de que deseja cancelar?",
        "NEW_PATIENT_AFFIDAVIT_HEADER": "<div><strong>Centro: {{{ getSiteCode }}}</strong><br /><strong>Usuário: {{{ getUserName }}}</strong><br /><strong>ID do paciente: {{{ getPatientID }}}</strong></div>",
        "NEXT": "Avançar",
        "NO_RESULTS_FOUND": "Nenhum resultado encontrado.",
        "NOT_AVAILABLE": "Não disponível",
        "OK": "OK",
        "ORDER": "Ordem",
        "PASSWORD": "Senha:",
        "PATIENT": "Paciente",
        "PATIENT_ID": "ID do paciente:",
        "PATIENT_INITIALS": "Iniciais do paciente:",
        "PATIENT_DELETED": "Paciente desconhecido",
        "PATIENT_DELETED_MSG": "Não é possível encontrar o paciente.",
        "PATIENT_DELETED_SUBJECT_MSG": "Não é possível encontrar o paciente. Devolva o dispositivo à equipe do centro de estudo.",
        "PENDING_TRANSMISSIONS": "Transmissões pendentes",
        "PLEASE_WAIT": "Aguarde",
        "PLEASE_CONFIRM": "Confirme",
        "PLEASE_CONTACT": "Entre em contato com a Central de Atendimento da ERT.",
        "PLEASE_TRY_OR_CONTACT_SUPPORT": "Tente novamente ou entre em contato com a Central de Atendimento da ERT.",
        "REASON": "Motivo:",
        "REPORTS_AND_FORMS": "Relatórios e formulários",
        "REPORTS_COMPLETED_MESSAGE": "Você concluiu todos os seus formulários. Devolva o dispositivo à equipe do centro de estudo.",
        "REQUIRED_ANSWER": "Complete as informações solicitadas.",
        "RESET_PIN": "Redefinir PIN do paciente",
        "RESET_USER_PASSWORD": "Redefinir senha do usuário",
        "ROLES": "Função:",
        "SAVE": "Salvar",
        "SEARCH": "Pesquisar",
        "SECURITY_QUESTION_0": "Qual é o nome de solteira da sua mãe?",
        "SECURITY_QUESTION_1": "Em que cidade você nasceu?",
        "SECURITY_QUESTION_2": "Qual é o nome do seu primeiro animal de estimação?",
        "SECURITY_QUESTION_3": "Qual é o seu esporte preferido?",
        "SECURITY_QUESTION_4": "Em que ano você se formou?",
        "SECURITY_QUESTION_5": "Qual é o nome do meio do seu filho mais velho?",
        "SECURITY_QUESTION_6": "Qual é o nome do seu melhor amigo de infância?",
        "SECURITY_QUESTION_7": "Qual era o sobrenome do seu professor do terceiro ano?",
        "SECURITY_QUESTION_8": "Em que cidade foi seu primeiro emprego?",
        "SECRET_ANSWER": "Resposta de segurança:",
        "SECRET_QUESTION": "Pergunta de segurança:",
        "SECRET_QUESTION_HELP_TEXT": "Selecione uma pergunta de segurança na lista abaixo. A resposta será usada para permitir o login se você esquecer a senha.",
        "SECRET_QUESTION_ANSWER": "Pergunta e resposta de segurança",
        "SELECT_LANGUAGE": "Selecione um idioma preferido para o centro.",
        "SET_TIMEZONE_MESSAGE": "Selecione seu fuso horário:",
        "SELECT_SITE_NUMBER": "Selecione o número do centro",
        "SERVICE_URL": "URL do serviço",
        "SETTINGS": "Configurações",
        "SETUP_COMPLETE": "Configuração concluída",
        "SETUP_COMPLETE_DESC": "O dispositivo está configurado e pronto para o envio.  Pressione OK e desligue o dispositivo na tela seguinte.",
        "SETUP_SITE_USER": "Configurar usuário do centro",
        "SETUP_SITE_USER_LEGEND": "Configure o usuário do centro para este dispositivo.",
        "SITE": "Centro",
        "SITE_ASSESSMENTS": "Avaliações do centro",
        "SIGNATURE_DATA_LIMIT_EXCEEDED": "A caixa de assinatura não conseguiu representar sua assinatura exatamente como ela foi desenhada. Em vez disso, assine com suas iniciais.",
        "SITE_NUMBER": "Número do centro",
        "SITE_ROLE": "Usuário do centro",
        "SITE_SELECTION": "Seleção do centro",
        "SKIP_FORM": "Pular formulário",
        "SKIP_QUESTION": "Tem certeza de que deseja pular as respostas nesta tela?",
        "SKIP_TO_VISIT": "Pular para visita",
        "SKIP_VISIT": "Pular visita",
        "SKIP_VISITS": "Pular visitas",
        "SKIP_VISITS_QUESTION_1": "<div class='question-title-large'><strong>Motivo</strong></div><br /><br /><div>Selecione um motivo para pular as visitas:</div>",
        "SKIP_VISITS_REASON_0": "Visita expirada",
        "SKIP_VISITS_REASON_1": "Erro do centro na administração",
        "SKIP_VISITS_REASON_2": "O indivíduo perdeu um compromisso médico.",
        "SKIP_VISITS_REASON_3": "Não se aplica.",
        "SKIP_VISITS_REASON_4": "A visita é opcional, não realizada.",
        "SKIP_VISITS_CANCEL_CONFIRM": "Cancelar pular visitas?",
        "SKIP_VISITS_CANCEL_BODY": "Se você cancelar agora, as visitas não serão puladas. Tem certeza de que deseja cancelar?",
        "SKIPPED" : "Pulada",
        "SKIPPED_VISITS": "{{{ skippedVisits }}}",
        "START_FORM": "Iniciar formulário",
        "START_VISIT": "Iniciar visita",
        "STATUS": "Status",
        "STATUS_DATE": "Data do status",
        "STUDY": "Estudo",
        "STUDYWORKS_LOGIN": "Login no StudyWorks",
        "SUBJECT_ID": "ID do paciente",
        "SUBJECT_ROLE": "Paciente",
        "SUBMIT": "Enviar",
        "SUPPORT_TOOLS": "Ferramentas de suporte",
        "SYNC": "Sincronizar",
        "SYNC_USERS": "Sincronizar usuários",
        "SYNC_TO_DEVICE": "Sincronizar estudo no dispositivo",
        "TEMPORARY_PASSWORD_MESSAGE": "Forneça a senha temporária ao novo usuário. Ele deverá criar uma nova senha após fazer login.",
        "TEMP_PASSWORD": "Senha temporária: ",
        "UNABLE_TO_GET_SITE_LIST": "Não é possível obter lista de centros",
        "UNLOCK_CODE": "Código de desbloqueio",
        "UNLOCK_CODE_HELP": "O Código de desbloqueio do seu ERT Tablet pode ser obtido no StudyWorks no SmartReport 'Códigos de desbloqueio ERT'. Entre em contato com a Central de Atendimento da ERT para obter auxílio.",
        "USER": "Usuário",
        "USER_ALREADY_EXISTS": "O usuário já existe",
        "USER_EDITED": "O usuário foi atualizado.",
        "USER_TO_ACTIVATE": "<strong>Usuário a ser ativado:</strong> <br />{{{ getSelectedUsername }}}<br /><br /><strong>Assinatura de:</strong> {{{ getActiveUserName }}}",
        "SUBJECT_ALREADY_EXISTS": "Já existe um paciente com ID {{{ getPatientIDForDuplicate }}}",
        "TIME_CONFIRMATION_INSTRUCTIONS": "O dispositivo precisa confirmar a hora local. Insira a data e a hora com base em uma fonte confiável.",
        "TIME_ZONE_ERROR_HEADER": "Erro de fuso horário",
        "TIME_ZONE_ERROR_MSG": "Erro ao obter a lista de fusos horários. Entre em contato com a Central de Atendimento da ERT para obter auxílio.",
        "TIME_ZONE_SET_ERROR_MSG": "Erro ao definir fuso horário. Entre em contato com a Central de Atendimento da ERT para obter auxílio.",
        "TIME_ZONE_SET_CONFIRM": "Tem certeza de que deseja definir o fuso horário como {{{selectedTimeZone}}}? <br/> O aplicativo poderá reiniciar para aplicar a alteração.",
        "TIME_ZONE_SET_CONFIRM_NOCHANGE": "Tem certeza de que deseja definir o fuso horário como {{{selectedTimeZone}}}?",
        "TIME_ZONE_SET_HEADER": "Confirmação de definição de fuso horário",
        "TRAINER": "Modo de treinador",
        "TRAINER_EXIT": "Sair do Modo de treinador",
        "TRAINER_EXIT_NOTIFICATION": "Você está saindo do Modo de treinador",
        "TRAINER_HEADER": "(Treinador)",
        "USER_ROLE": "Função do usuário",
        "USERNAME": "Nome do usuário",
        "USER_NAME": "Nome do usuário:",
        "VISIT": "Visita",
        "VISIT_COMPLETED_MESSAGE": "Não há outros formulários para esta visita.  Esta visita está concluída.",
        "VISIT_INACTIVE_HEADER": "Visita inativa.",
        "VISIT_INACTIVE_MESSAGE": "Esta visita não está mais ativa.",
        "VISIT_INACTIVE_MESSAGE_SUBJECT": "Esta visita não está mais ativa. Devolva o dispositivo à equipe do centro de estudo.",
        "VISITS": "Visitas",
        "VISITS_SKIPPED": "Visitas puladas:",
        "VISIT_NAME": "Nome da visita",
        "WELCOME": "Bem-vindo",
        "AF-ZA": "Africâner",
        "AR-EG": "Árabe",
        "BE-BY": "Bielorrusso",
        "BG-BG": "Búlgaro",
        "BN-IN": "Bengali",
        "BS-BA": "Bósnio",
        "CA-ES": "Catalão",
        "CS-CZ": "Tcheco",
        "DA-DK": "Dinamarquês",
        "DE-DE": "Alemão (Alemanha)",
        "DE-AT": "Alemão (Áustria)",
        "EL-GR": "Grego",
        "EN-GB": "Inglês (Reino Unido)",
        "EN-US": "Inglês (EUA)",
        "ES-ES": "Espanhol (Espanha)",
        "ES-US": "Espanhol (EUA)",
        "ES-PY": "Espanhol (Universal)",
        "ET-EE": "Estoniano",
        "FI-FI": "Finlandês",
        "FR-CA": "Francês (Canadá)",
        "FR-FR": "Francês (França)",
        "GD-IE": "Gaélico",
        "GU-IN": "Gujarati",
        "HE-IL": "Hebraico",
        "HI-IN": "Hindu",
        "HR-HR": "Croata",
        "HU-HU": "Húngaro",
        "IT-IT": "Italiano",
        "JA-JP": "Japonês",
        "KA-GE": "Georgiano",
        "KN-IN": "Kannada",
        "KO-KR": "Coreano",
        "LV-LV": "Letoniano",
        "LT-LT": "Lituano",
        "ML-IN": "Malayalam",
        "MR-IN": "Marathi",
        "MS-MY": "Malaio",
        "NB-NO": "Norueguês",
        "NL-BE": "Holandês (Bélgica)",
        "NL-NL": "Holandês (Países Baixos)",
        "PA-IN": "Punjabi",
        "PL-PL": "Polonês",
        "PT-BR": "Português (Brasil)",
        "PT-PT": "Português (Portugal)",
        "RO-RO": "Romeno",
        "RU-RU": "Russo",
        "SL-SL": "Esloveno",
        "SK-SK": "Eslovaco",
        "SR-RS": "Sérvio (Latino)",
        "SR-SP": "Sérvio (Cirílico)",
        "ST-ZA": "Soto",
        "SV-SE": "Sueco",
        "TA-IN": "Tamil",
        "TE-IN": "Telugu",
        "TH-TH": "Tailandês",
        "TL-PH": "Tagalog",
        "TN-ZA": "Tswana",
        "TR-TR": "Turco",
        "UK-UA": "Ucraniano",
        "UR-IN": "Urdu",
        "VI-VN": "Vietnamita",
        "XH-ZA": "Xhosa",
        "ZH-CN": "Chinês (China)",
        "ZH-TW": "Chinês (Taiwan)",
        "ZU-ZU": "Zulu",
        "HAND_DEVICE_SUBJECT_BODY": "O próximo formulário deverá ser preenchido por {{{ patientOrRole }}}. Faça logout e, em seguida, entregue o dispositivo a {{{ patientOrRole }}}.",
        "HAND_DEVICE_SUBJECT_TITLE": "Iniciando formulário {{{ formTitle }}}",
        "SKIP_VISIT_TITLE": "Pular visita(s)?",
        "SKIP_VISIT_TEXT": "Se você continuar, as seguintes visitas serão puladas:<br/> {{{ skippedVisits }}} Continuar e pular estas visitas agora?",
        "YES":"Sim",
        "NO":"Não",
        "TIME_LBL": "Hora:",
        "SET_TIME": "Definir hora",
        "DATE_LBL": "Data:",
        "CREATE_PERMANENT_PASSWORD_TITLE": "Criar senha permanente",
        "USER_ID": "ID do usuário:",
        "PHASE": "Fase",
        "LAST_VISIT": "Última visita concluída",
        "CONNECTION_REQUIRED": "Conexão com a Internet necessária.",
        "RETRY": "Tente novamente",
        "UPDATE_FAILURE": "Atualização não concluída",
        "UPDATE_SUCCESS": "Atualização concluída com êxito",
        "CANCEL_PERMANENT_PASSWORD_TITLE": "Cancelar criação de senha permanente?",
        "CANCEL_PERMANENT_PASSWORD_TEXT": "Se você cancelar agora, sua senha permanente não será criada. Você precisará de uma senha permanente para começar a usar o ERT. Tem certeza de que deseja cancelar?",
        "ACCOUNT_CONFIGURED_TITLE": "Configuração da conta concluída",
        "ACCOUNT_CONFIGURED_TEXT": "Você terminou de configurar a sua conta e pode continuar a usar o sistema eCOA.",
        "LOGGED_IN_AS": "Conectado como",
        "EDIT_PATIENT_AFFIDAVIT_HEADER": "<p class='question-title-large'>Assinatura</p><br />",
        "EDIT_PATIENT_AFF": "Ao assinar abaixo, confirmo que estou autorizado a editar este paciente.<br /><br />ID do paciente: {{{ getPatientIdNumber }}}<br /><br /><strong>Assinatura de:</strong> {{{ getActiveUserName }}}",
        "PASSWORD_MISMATCH": "A confirmação da senha não coincide com a senha",
        "FIRST_USER_AFFIDAVIT": "Ao assinar abaixo, confirmo que sou o investigador principal ou um delegado autorizado a criar contas neste sistema.<br /><br /><strong>Assinatura de:</strong> {{{ getFirstUsername }}}",
		"INCOMPLETE": "Incompleto",
        "INVALID_ENTRY": "Entrada inválida",
        "PLEASE_ANSWER_SQ": "Responda à sua pergunta de segurança:",
        "FORGOT_SECRET_ANSWER": "Esqueceu a resposta de segurança?",
        "CONTACT_STUDY_COORDINATOR": "Entre em contato com o coordenador do estudo",
        "ENTER_NEW_PASSWORD": "Nova senha:",
        "CONTACT_UNLOCK_CODE": "Entre em contato com seu coordenador do estudo para obter o Código de desbloqueio de hoje:",
        "CURRENT_DATE": "{{{ currentDate }}}",
        "TEMPORARY_UNLOCK_CODE": "Insira o Código de desbloqueio fornecido pelo coordenador do estudo.",
        "RESET_SECRET_QUESTION": "Redefinir pergunta de segurança",
        "SECRET_QUESTION_CHANGE_SUCCESS": "Você atualizou suas senha e pergunta de segurança com êxito.",
        "RESET_PASSWORD": "Redefinir senha",
        "ANSWER_ATTEMPT_EXCEEDED": "Você inseriu uma resposta incorreta um número excessivo de vezes ou clicou no link de resposta de segurança esquecida.",
        "PASSWORD_ATTEMPT_EXCEEDED": "Você inseriu uma senha incorreta um número excessivo de vezes ou clicou no link de senha esquecida.",
        "PASSWORD_CHANGE_SUCCESS": "Você atualizou sua senha com êxito.",
        "CHANGE_PASSWORD": "Alterar senha",
        "CHANGE_SECRET_QUESTION": "Alterar pergunta de segurança",
        "SYNC_COMPLETE": "Sincronização concluída",
        "INCORRECT_ANSWER": "Resposta incorreta",
        "INCORRECT_UNLOCK_CODE": "Código de desbloqueio incorreto",
        "PASSWORD_INVALID": "Senha incorreta",
        "SUBJECT": "Paciente",
        "PATIENT_ADDED": "Paciente adicionado",
        "SITE_ADMINISTRATOR": "Administrador do centro",
        "LOW_BATTERY": "Aviso: O nível da bateria está baixo. Conecte o dispositivo para recarregar.",
        "CRITICAL_BATTERY": "Aviso: O nível da bateria está extremamente baixo. Conecte o dispositivo para recarregá-lo. Caso contrário, ele desligará.",
        "TIME_CONFIRMATION_HEADER": "Confirmar data/hora",
        "TIMESLIP_ERROR": "A hora ou data no seu dispositivo estão incorretas. Vá para um local com conexão à Internet e tente novamente. Se os problemas continuarem, entre em contato com o Atendimento ao Cliente da ERT.",
        "SUPPORT": "Atendimento ao cliente",
        "SUPPORT_MESSAGE": "Usuários nos Estados Unidos podem contatar o Centro de Suporte da ERT em 800-748-5669. Usuários internacionais, utilizem o país mais próximo abaixo:",
        "SUPPORT_DROPDOWN": "Selecione seu país",
        "SUPPORT_NAME_ARGENTINA": "Argentina",
        "SUPPORT_NUMBER_ARGENTINA": "<bdi>0800 444 0962</bdi>",
        "SUPPORT_NAME_ARMENIA": "Armênia",
        "SUPPORT_NUMBER_ARMENIA": "<bdi>+1 617 681 6306</bdi>",
        "SUPPORT_NAME_AUSTRALIA": "Austrália",
        "SUPPORT_NUMBER_AUSTRALIA": "<bdi>1 800 800 051</bdi>",
        "SUPPORT_NAME_AUSTRIA": "Áustria",
        "SUPPORT_NUMBER_AUSTRIA": "<bdi>0800 100 405</bdi>",
        "SUPPORT_NAME_BELARUS": "Belarus",
        "SUPPORT_NUMBER_BELARUS": "<bdi>8 820 0321 0036</bdi>",
        "SUPPORT_NAME_BELGIUM": "Bélgica",
        "SUPPORT_NUMBER_BELGIUM_1": "(Inglês): <bdi>0800 58 016</bdi>",
        "SUPPORT_NUMBER_BELGIUM_2": "(Francês): <bdi>0800 71 076</bdi>",
        "SUPPORT_NUMBER_BELGIUM_3": "(Alemão): <bdi>0800 71 113</bdi>",
        "SUPPORT_NAME_BRAZIL": "Brasil",
        "SUPPORT_NUMBER_BRAZIL": "<bdi>0800 891 5909</bdi>",
        "SUPPORT_NAME_BOSNIA": "Bósnia",
        "SUPPORT_NUMBER_BOSNIA": "<bdi>+1 617 681 6306</bdi>",
        "SUPPORT_NAME_BULGARIA": "Bulgária",
        "SUPPORT_NUMBER_BULGARIA": "<bdi>00800 0010</bdi> e, em seguida, <bdi>866 245 4931</bdi>",
        "SUPPORT_NAME_CANADA": "Canadá",
        "SUPPORT_NUMBER_CANADA": "<bdi>1 800 748 5669</bdi>",
        "SUPPORT_NAME_CHILE": "Chile",
        "SUPPORT_NUMBER_CHILE": "<bdi>123 0020 3408</bdi>",
        "SUPPORT_NAME_CHINA": "China",
        "SUPPORT_NUMBER_CHINA_1": "NetCom (Norte): <bdi>1 0800 74 40 164</bdi>",
        "SUPPORT_NUMBER_CHINA_2": "Telecom (Sul): <bdi>1 0800 44 00 158</bdi>",
        "SUPPORT_NAME_COLOMBIA": "Colômbia",
        "SUPPORT_NUMBER_COLOMBIA": "<bdi>01 800 911 0010</bdi> e, em seguida, <bdi>866 310 3707</bdi>",
        "SUPPORT_NAME_COSTA_RICA": "Costa Rica",
        "SUPPORT_NUMBER_COSTA_RICA": "<bdi>0800 013 1210</bdi>",
        "SUPPORT_NAME_CROATIA": "Croácia",
        "SUPPORT_NUMBER_CROATIA": "<bdi>0800 222 953</bdi>",
        "SUPPORT_NAME_CZECH_REPUBLIC": "República Tcheca",
        "SUPPORT_NUMBER_CZECH_REPUBLIC": "<bdi>800 142 150</bdi>",
        "SUPPORT_NAME_DENMARK": "Dinamarca",
        "SUPPORT_NUMBER_DENMARK": "<bdi>80 60 00 09</bdi>",
        "SUPPORT_NAME_EGYPT": "Egito",
        "SUPPORT_NUMBER_EGYPT": "<bdi>02 510 0200</bdi> e, em seguida, <bdi>866 310 3707</bdi>",
        "SUPPORT_NAME_EL_SALVADOR": "El Salvador",
        "SUPPORT_NUMBER_EL_SALVADOR": "<bdi>+1 617 681 6306</bdi>",
        "SUPPORT_NAME_ESTONIA": "Estônia",
        "SUPPORT_NUMBER_ESTONIA": "<bdi>800 00 44 154</bdi>",
        "SUPPORT_NAME_FINLAND": "Finlândia",
        "SUPPORT_NUMBER_FINLAND": "<bdi>0800 11 6366</bdi>",
        "SUPPORT_NAME_FRANCE": "França",
        "SUPPORT_NUMBER_FRANCE": "<bdi>0800 10 19 79</bdi>",
        "SUPPORT_NAME_GERMANY": "Alemanha",
        "SUPPORT_NUMBER_GERMANY": "<bdi>0800 101 28 21</bdi>",
        "SUPPORT_NAME_GREECE": "Grécia",
        "SUPPORT_NUMBER_GREECE": "<bdi>00 800 1311</bdi> e, em seguida, <bdi>866 310 3707</bdi>",
        "SUPPORT_NAME_GUATEMALA": "Guatemala",
        "SUPPORT_NUMBER_GUATEMALA": "<bdi>1 800 624 0079</bdi>",
        "SUPPORT_NAME_HONG_KONG": "Hong Kong",
        "SUPPORT_NUMBER_HONG_KONG": "<bdi>3002 1665</bdi>",
        "SUPPORT_NAME_HUNGARY": "Hungria",
        "SUPPORT_NUMBER_HUNGARY": "<bdi>06 800 14 571</bdi>",
        "SUPPORT_NAME_ICELAND": "Islândia",
        "SUPPORT_NUMBER_ICELAND": "<bdi>800 8544</bdi>",
        "SUPPORT_NAME_INDIA": "Índia",
        "SUPPORT_NUMBER_INDIA": "<bdi>000 800 440 1125</bdi>",
        "SUPPORT_NAME_INDONESIA": "Indonésia",
        "SUPPORT_NUMBER_INDONESIA": "<bdi>008 800 330 334</bdi>",
        "SUPPORT_NAME_IRELAND": "Irlanda",
        "SUPPORT_NUMBER_IRELAND": "<bdi>1 800 946 700</bdi>",
        "SUPPORT_NAME_ISRAEL": "Israel",
        "SUPPORT_NUMBER_ISRAEL": "<bdi>1 809 470 062</bdi>",
        "SUPPORT_NAME_ITALY": "Itália",
        "SUPPORT_NUMBER_ITALY": "<bdi>800 90 56 37</bdi>",
        "SUPPORT_NAME_JAPAN": "Japão",
        "SUPPORT_NUMBER_JAPAN": "Consulte seu Guia de Informações de Estudos ePRO para obter informações sobre o número de discagem grátis aplicável a seu estudo.",
        "SUPPORT_NAME_LATVIA": "Letônia",
        "SUPPORT_NUMBER_LATVIA": "<bdi>8000 2151</bdi>",
        "SUPPORT_NAME_LEBANON": "Líbano",
        "SUPPORT_NUMBER_LEBANON": "<bdi>01-426-801</bdi> e, em seguida, <bdi>866 310 3707</bdi>",
        "SUPPORT_NAME_LITHUANIA": "Lituânia",
        "SUPPORT_NUMBER_LITHUANIA": "<bdi>8800 30207</bdi>",
        "SUPPORT_NAME_MALAYSIA": "Malásia",
        "SUPPORT_NUMBER_MALAYSIA": "<bdi>1800 80 59 71</bdi>",
        "SUPPORT_NAME_MEXICO": "México",
        "SUPPORT_NUMBER_MEXICO_1": "(Inglês): <bdi>001 800 748 5669</bdi> ",
        "SUPPORT_NUMBER_MEXICO_2": "(Espanhol): <bdi>001 855 631 6952</bdi>",
        "SUPPORT_NAME_MOLDOVA": "Moldávia",
        "SUPPORT_NUMBER_MOLDOVA": "<bdi>617 681 6306</bdi>",
        "SUPPORT_NAME_NETHERLANDS": "Países Baixos",
        "SUPPORT_NUMBER_NETHERLANDS": "<bdi>0800 023 1389</bdi>",
        "SUPPORT_NAME_NEW_ZEALAND": "Nova Zelândia",
        "SUPPORT_NUMBER_NEW_ZEALAND": "<bdi>0800 110 178</bdi>",
        "SUPPORT_NAME_NORWAY": "Noruega",
        "SUPPORT_NUMBER_NORWAY": "<bdi>800 62 051</bdi>",
        "SUPPORT_NAME_PAKISTAN": "Paquistão",
        "SUPPORT_NUMBER_PAKISTAN": "<bdi>00 800 0100</bdi> e, em seguida, <bdi>866 237 9767</bdi>",
        "SUPPORT_NAME_PANAMA": "Panamá",
        "SUPPORT_NUMBER_PANAMA": "<bdi>001 800 201 3095</bdi>",
        "SUPPORT_NAME_PERU": "Peru",
        "SUPPORT_NUMBER_PERU": "<bdi>0800 5 0974</bdi>",
        "SUPPORT_NAME_PHILIPPINES": "Filipinas",
        "SUPPORT_NUMBER_PHILIPPINES": "<bdi>1 800 1116 0651</bdi>",
        "SUPPORT_NAME_POLAND": "Polônia",
        "SUPPORT_NUMBER_POLAND": "<bdi>00800 331 1262</bdi>",
        "SUPPORT_NAME_PORTUGAL": "Portugal",
        "SUPPORT_NUMBER_PORTUGAL": "<bdi>800 206 172</bdi>",
        "SUPPORT_NAME_PUERTO_RICO": "Porto Rico (Território dos EUA)",
        "SUPPORT_NUMBER_PUERTO_RICO": "<bdi>1 800 748 5669</bdi>",
        "SUPPORT_NAME_ROMANIA": "Romênia",
        "SUPPORT_NUMBER_ROMANIA": "<bdi>0800 894492</bdi>",
        "SUPPORT_NAME_RUSSIA": "Rússia",
        "SUPPORT_NUMBER_RUSSIA_1": "(Primário – Discagem grátis): <bdi>8 10 800 249 13011</bdi>",
        "SUPPORT_NUMBER_RUSSIA_2": "(Em Moscou): <bdi>363-2400</bdi> <br> e, em seguida, <bdi>866 310 3707</bdi>",
        "SUPPORT_NUMBER_RUSSIA_3": "(Fora de Moscou): <bdi>8^(495) 363-2400</bdi> <br> e, em seguida, <bdi>866 310 3707</bdi>",
        "SUPPORT_NUMBER_RUSSIA_4": "(Em São Petersburgo): <bdi>363-2400</bdi> <br> e, em seguida, <bdi>866 310 3707</bdi>",
        "SUPPORT_NUMBER_RUSSIA_5": "(Fora de São Petersburgo): <bdi>8^(495) 363-2400</bdi> <br> e, em seguida, <bdi>866 310 3707</bdi>",
        "SUPPORT_NAME_SAUDI_ARABIA": "Arábia Saudita",
        "SUPPORT_NUMBER_SAUDI_ARABIA": "<bdi>+1 617 681 6306</bdi>",
        "SUPPORT_NAME_SERBIA": "Sérvia",
        "SUPPORT_NUMBER_SERBIA": "<bdi>+1 617 973 1739</bdi>",
        "SUPPORT_NAME_SINGAPORE": "Singapura",
        "SUPPORT_NUMBER_SINGAPORE": "<bdi>800 616 30 03</bdi>",
        "SUPPORT_NAME_SLOVAKIA": "Eslováquia",
        "SUPPORT_NUMBER_SLOVAKIA": "<bdi>0800 0044 65</bdi>",
        "SUPPORT_NAME_SLOVENIA": "Eslovênia",
        "SUPPORT_NUMBER_SLOVENIA": "<bdi>+1 617 681 6306</bdi>",
        "SUPPORT_NAME_SOUTH_AFRICA": "África do Sul",
        "SUPPORT_NUMBER_SOUTH_AFRICA": "<bdi>0800 99 5853</bdi>",
        "SUPPORT_NAME_SOUTH_KOREA": "Coreia do Sul",
        "SUPPORT_NUMBER_SOUTH_KOREA": "<bdi>00308 33 00 08</bdi>",
        "SUPPORT_NAME_SPAIN": "Espanha",
        "SUPPORT_NUMBER_SPAIN": "<bdi>900 90 2541</bdi>",
        "SUPPORT_NAME_SWEDEN": "Suécia",
        "SUPPORT_NUMBER_SWEDEN": "<bdi>020 120 99 69</bdi>",
        "SUPPORT_NAME_SWITZERLAND": "Suíça",
        "SUPPORT_NUMBER_SWITZERLAND_1": "(Inglês): <bdi>0800 199 325</bdi>",
        "SUPPORT_NUMBER_SWITZERLAND_2": "(Francês): <bdi>0800 891 183</bdi>",
        "SUPPORT_NUMBER_SWITZERLAND_3": "(Alemão): <bdi>0800 891 025</bdi>",
        "SUPPORT_NAME_TAIWAN": "Taiwan",
        "SUPPORT_NUMBER_TAIWAN": "<bdi>00801 33 33 42</bdi>",
        "SUPPORT_NAME_THAILAND": "Tailândia",
        "SUPPORT_NUMBER_THAILAND": "<bdi>1 800 33 140 353</bdi>",
        "SUPPORT_NAME_TUNISIA": "Tunísia",
        "SUPPORT_NUMBER_TUNISIA": "<bdi>+1 617 681 6306</bdi>",
        "SUPPORT_NAME_TURKEY": "Turquia",
        "SUPPORT_NUMBER_TURKEY": "<bdi>00 800 151 1335</bdi>",
        "SUPPORT_NAME_UKRAINE": "Ucrânia",
        "SUPPORT_NUMBER_UKRAINE": "<bdi>0^00 11</bdi> e, em seguida, <bdi>866 245 4931</bdi>",
        "SUPPORT_NAME_UAE": "Emirados Árabes Unidos",
        "SUPPORT_NUMBER_UAE": "<bdi>8000-021</bdi> e, em seguida, <bdi>866 310 3707</bdi>",
        "SUPPORT_NAME_UK": "Reino Unido",
        "SUPPORT_NUMBER_UK": "<bdi>0800 015 0408</bdi>",
        "SUPPORT_NAME_US": "Estados Unidos",
        "SUPPORT_NUMBER_US_1": "(Principal): <bdi>1 800 748 5669</bdi>",
        "SUPPORT_NUMBER_US_2": "(Secundário): <bdi>1 877 748 5669</bdi>",
        "SUPPORT_NAME_VENEZUELA": "Venezuela",
        "SUPPORT_NUMBER_VENEZUELA_1": "(Inglês): <bdi>0 800 552 6288</bdi> <br> e, em seguida, <bdi>866 310 3707</bdi> ",
        "SUPPORT_NUMBER_VENEZUELA_2": "(Espanhol): <bdi>0 800 100 3063</bdi> ",
        "STUDY_VERSION": "Versão do estudo: ",
        "STUDY_URL": "URL do estudo:",
        "PROTOCOL": "Protocolo:",
        "SPONSOR": "Patrocinador:",
        "STORED_REPORTS": "Formulários armazenados:",
        "CORE_PRODUCT_VERSION_LABEL": "Versão do produto:",
        "ABOUT": "Sobre",
        "P_AFFIDAVIT_HEADER": "<div><strong>Centro: {{{ getSiteCode }}}</strong><br /><strong>ID do paciente: {{{ getPatientIdNumber }}}</strong></div>",
		"SET_TIMEZONE": "Definir fuso horário",
		"DEVICE_SERIAL_NUMBER": "Número de série do dispositivo",
		"NONEXISTENT_USER": "Tentativa de atualizar um usuário não existente.",
		"SCREENING" : "Triagem",
		"TREATMENT" : "Tratamento",
		"RANDOMIZATION" : "Randomização",
		"FOLLOWUP" : "Acompanhamento",
		"TERMINATION" : "Término",
        "ACCEPT": "Aceito",
        "DECLINE": "Não aceito",
		"EULA": "LICENÇA DO USUÁRIO FINAL",
        "EULA_TEXT": "<p><strong><span class=\"text-underline\">IMPORTANTE</span>:  NÃO CLIQUE NO BOTÃO ACEITO ANTES DE LER ESTE CONTRATO.  AO CLICAR NO BOTÃO ACEITO, VOCÊ ACEITA TODOS OS TERMOS DESTE CONTRATO.  SE VOCÊ NÃO ACEITAR TODOS OS TERMOS DESTE CONTRATO, (1) NÃO CLIQUE NO BOTÃO \"ACEITO\" E (2) INTERROMPA O PROCESSO DE INSTALAÇÃO E LICENCIAMENTO CLICANDO NO BOTÃO \"NÃO ACEITO\".</strong></p><p>A eResearchTechnology, Inc. (o \"Licenciador\") concede a você direitos não exclusivos e intransferíveis de uso do software da eResearchTechnology, Inc. embarcado neste dispositivo (\"Software\") em conexão com sua participação no contrato do estudo clínico: <strong>{{{ clinicalTrial }}}</strong>.  O software da eResearchTechnology, Inc. é coberto por patentes emitidas e outras patentes pendentes.  Este Contrato não concede a você quaisquer direitos de propriedade sobre qualquer Software (ou suas cópias), mas constitui apenas uma licença para utilização do Software de acordo com todos os termos deste Contrato.  O título do Software e qualquer uma de suas partes, bem como todos os direitos proprietários e de propriedade intelectual aqui incorporados, permanecerão com o Licenciador a todo e qualquer momento.</p><p>Você concorda em não, direta ou indiretamente, (i) realizar engenharia reversa, desmontar ou descompilar o Software, (ii) copiar, distribuir, manufaturar, adaptar, criar trabalhos derivados de, traduzir, localizar, portar ou de alguma forma modificar o Software e (iii) remover ou alterar quaisquer avisos de direitos comerciais, de segredo comercial ou legais contidos no Software.  VOCÊ RECONHECE E CONCORDA QUE O SOFTWARE PODE CONTER CÓDIGO QUE PREVINE O USO NÃO AUTORIZADO DO SOFTWARE.</p><br><p>CASO CONCORDE COM TODAS AS DISPOSIÇÕES ACIMA, selecione – <strong>Aceito</strong>. Clicar em \"Aceito\" indica a sua aceitação dos termos da licença.</p><p>CASO NÃO CONCORDE COM TODAS AS DISPOSIÇÕES ACIMA, ou não esteja autorizado a concordar, selecione – <strong>Não aceito</strong>. Nesse caso, acesso adicional ao Software será bloqueado.  Caso receba a autorização, você poderá aceitar os termos posteriormente.</p>",
        "VISIT_EXPIRED_HEADER": "Visita expirada.",
        "VISIT_EXPIRED_MESSAGE": "Esta visita não está mais disponível porque expirou.",
        "VISIT_EXPIRED_MESSAGE_SUBJECT": "Esta visita não está mais disponível porque expirou. Devolva o dispositivo à equipe do centro de estudo.",
        "SQ-AL": "Albanês",
        "IMAGE_FOLDER": "{{{ imageFolder }}}",
		"MODAL_OK_TEXT": "OK",
        "BROWSER_LOAD_ERROR": "Página não encontrada. Verifique sua conexão com a Internet e tente novamente.",
		"NO_USER_OF_ROLE" : "Nenhum usuário com esta função encontrado.",
        "EDIT_PATIENT_REASON_1": "Correção de dados do atributo",
        "EDIT_PATIENT_REASON_2": "Alteração do ID",
        "EDIT_PATIENT_REASON_3": "Idioma incorreto selecionado",
		"START_VISIT_OUTSIDE_WINDOW_MSG": "Entrar na {{{ getVisitName }}} fora da janela de tempo configurada: {{{ startDate }}} - {{{ endDate }}}",
		"START_VISIT_HARD_STOP_MSG": "Você não pode entrar na {{{ getVisitName }}} fora da janela de tempo configurada: {{{ startDate }}} - {{{ endDate }}}",
		"USER_NAME_INVALID_CHARACTERS" : "Não use caracteres especiais",
		"ERROR_PATIENT_SAVE" : "Erro ao adicionar o novo paciente",
		"PASSWORD_CHANGE_FAILED" : "Um dispositivo diferente foi ativado para coletar seus dados do estudo. Altere sua senha nesse dispositivo.",
		"ERROR" : "Erro.  Entre em contato com a Central de Atendimento da ERT.",
		"ERROR_AFTER_ACTIVATION_SUCCESSFUL" : "Erro. Você deve inserir seu código de configuração e a senha.",
		"CONNECTION_TIMEOUT" : "Tempo limite da conexão excedido.",
		"UPDATE_FAILED" : "A atualização do ERT não foi concluída. Certifique-se de que este dispositivo esteja conectado à Internet e tente novamente.",
        "QR_CODE_UNAVAILABLE": "Clique no paciente para atualizar o QR.",
        "QR_MODAL_TITLE": "Código QR para: ",
        "TRANSMIT_FAILED_403_14": "Uma ou mais transmissões falharam porque a criação do paciente não foi concluída. Aguarde e tente novamente.",
        "CONSOLE_LOG": "Log do console",
		"USER_SELECT_ROLE_VALIDATION": "Uma seleção de função é necessária.",
        "USER_SELECT_LANGUAGE_VALIDATION": "Uma seleção de idioma é necessária."
    },
    "dates": {
        "setDateButtonLabel": "Definir data",
        "setTimeButtonLabel": "OK",
        "setDurationButtonLabel": "Definir duração",
        "calTodayButtonLabel": "Pular para hoje",
        "titleDateDialogLabel": "Definir data",
        "titleTimeDialogLabel": "Definir hora",
        "daysOfWeek": [
            "Domingo",
            "Segunda-feira",
            "Terça-feira",
            "Quarta-feira",
            "Quinta-feira",
            "Sexta-feira",
            "Sábado"
        ],
        "daysOfWeekShort": [
            "Dom",
            "Seg",
            "Ter",
            "Qua",
            "Qui",
            "Sex",
            "Sáb"
        ],
        "monthsOfYear": [
            "Janeiro",
            "Fevereiro",
            "Março",
            "Abril",
            "Maio",
            "Junho",
            "Julho",
            "Agosto",
            "Setembro",
            "Outubro",
            "Novembro",
            "Dezembro"
        ],
        "monthsOfYearShort": [
            "Jan",
            "Fev",
            "Mar",
            "Abr",
            "Mai",
            "Jun",
            "Jul",
            "Ago",
            "Set",
            "Out",
            "Nov",
            "Dez"
        ],
        "durationLabel": [
            "Dias",
            "Horas",
            "Minutos",
            "Segundos"
        ],
        "durationDays": [
            "Dia",
            "Dias"
        ],
        "tooltip": "Abrir Seletor de datas",
        "nextMonth": "Próximo mês",
        "prevMonth": "Mês anterior",
        "clearButton": "Limpar",
        "meridiem": [
            "AM",
            "PM"
        ]
    }
}
