{
    "namespace": "CORE",
    "language": "zh",
    "locale": "CN",
    "localized": "中文（中国大陆）",
    "direction": "ltr",
    "resources": {
        "ACTIVE": "活动",
        "ACTIVATE_USER": "激活用户",
        "ADD_PATIENT": "添加新患者",
        "ADD_USER": "添加用户",
        "AFFIDAVIT": "选择“确定”，然后在准备就绪后选择“下一步”以保存您的回复。",
        "AFFIDAVIT_HELP": "谢谢您。您已提供所有必需的回复。您可通过选择“后退”来检查和更改回复。",
        "ALL_QUESTIONNAIRES_COMPLETED": "所有表格均已完成！",
        "APP_NAME": "ERT",
        "APPLICATION_HEADER": "{{{ appHeader }}}",
        "APP_NAME_LBL": "App 名称",
        "APP_VERSION": "App 版本",
        "ASSIGNED_TO": "分配对象",
        "AVAILABLE": "可用",
        "BACK": "后退",
        "BACK_OUT_CONFIRM": "是否确定要退出？此表格的答案将丢失。",
        "BLUETOOTH_REG_REFRESH_BUTTON": "刷新列表",
        "CANCEL": "取消",
        "CHECK_FOR_UPDATES": "检查更新",
        "CHOOSE_A_SITE": "将该设备分配给特定的研究中心。",
        "COMPLETED": "已完成",
        "CONFIRM_PASSWORD": "确认密码:",
        "CONFIRM_TEMP_PASS": "确认临时密码：",
        "CONTINUE": "继续",
        "COUNTRY": "国家/地区",
        "CUSTOM_ENVIRONMENT": "定制环境",
        "DEACTIVATE_PATIENT": "停用患者",
        "DEACTIVATE_USER": "停用用户",
        "DEACTIVATED": "已停用",
        "DEVICE_ID": "设备标识",
        "DEVICE_REGISTRATION_FAILURE": "未能注册该设备。",
        "DEVICE_UUIID": "设备 UUID",
        "BATTERY_LEVEL": "电池电量",
        "DEVICE_INFO": "设备信息",
        "EDIT_MY_INFO": "编辑我的信息",
        "EDIT_PATIENT": "编辑患者",
        "EDIT_SERVICE_URL": "编辑服务 URL",
        "EDIT_SERVICE_URL_SUCCESS": "服务 URL 已更新。",
        "EDIT_USER": "编辑用户",
        "EMAIL": "电子邮件地址",
        "ENTER_PATIENT_INFO": "输入患者信息。",
        "ENTER_UNLOCK_CODE": "请输入解锁码",
        "ENTER_USER_INFO": "输入新的研究中心用户信息",
        "ENVIRONMENT": "环境",
        "FIRST_NAME": "名",
        "FORGOT_PASSWORD": "忘记密码？",
        "FORM": "表格",
        "FORM_GATEWAY": "网关表格",
        "FORM_NAME": "名称表格",
        "FULL_NAME": "全名:",
        "GO_TO_VISITS": "患者访视",
        "HAND_DEVICE_SITE_TITLE": "将设备交给研究中心用户",
        "HAND_DEVICE_SITE_BODY": "请将设备交给研究中心用户。",
        "HELP": "帮助",
        "HOME": "主页",
        "IN_PROGRESS": "正在进行中",
        "INITIALS": "姓名首字母",
        "INVALID_URL": "请输入有效的 URL。",
        "INVALID_PERMISSION": "权限无效。",
        "INVALID_PASSWORD": "密码无效。",
        "LANGUAGE": "语言：",
        "LAST_LOGIN": "最后登录",
        "LAST_NAME": "姓",
        "LAST_REFRESH_TIME": "最后刷新时间",
        "LOCATION": "位置",
        "LOGIN": "登录",
        "LOGIN_SCREEN": "登录",
        "LOGOUT": "注销",
        "MANAGE_USERS": "管理研究中心用户",
        "MARK_AS_COMPLETED": "标记为已完成",
        "SITE_SIGNATURE": "签名：",
        "SITE_REPORT_AFF": "本人已输入并反复核对上述数据，特此确认。<br /><br /><strong>签名：</strong>{{{ getActiveUserName }}}",
        "PATIENT_REPORT_AFF": "本人已输入并反复核对上述数据，特此确认。<br /><br /><strong>姓名首字母：</strong>{{{ getActiveUserName }}}",
        "CLEAR_SIGNATURE": "清除签名",
        "MENU": "菜单",
        "MODE": "模式",
        "NAME": "名称",
        "NEW_USER": "添加新用户日志",
        "NEW_USER_CREATED": "研究中心用户已创建。",
        "NEXT": "下一步",
        "NO_RESULTS_FOUND": "没有找到结果。",
        "NOT_AVAILABLE": "无可用",
        "OK": "确定",
        "ORDER": "订单",
        "PASSWORD": "密码:",
        "PATIENT": "患者",
        "PATIENT_ID": "患者标识：",
        "PENDING_TRANSMISSIONS": "待传送",
        "PLEASE_WAIT": "请稍候",
        "PLEASE_CONFIRM": "请确认",
        "REPORTS_AND_FORMS": "报告和表格",
        "REPORTS_COMPLETED_MESSAGE": "您已经完成所有表格。请将设备退回给相应的研究中心人员。",
        "REQUIRED_ANSWER": "请完成请求提供的信息。",
        "RESET_PIN": "重置患者 PIN",
        "RESET_USER_PASSWORD": "重置用户密码",
        "ROLES": "角色：",
        "SAVE": "保存",
        "SEARCH": "搜索",
        "SECURITY_QUESTION_0": "您母亲婚前姓什么？",
        "SECURITY_QUESTION_1": "您在哪个城市出生的？",
        "SECURITY_QUESTION_2": "您的第一只宠物的名字叫什么？",
        "SECURITY_QUESTION_3": "您最喜欢的体育运动是什么?",
        "SECURITY_QUESTION_4": "您是哪一年毕业的？",
        "SECURITY_QUESTION_5": "您最年长的孩子的中间名是什么？",
        "SECURITY_QUESTION_6": "您童年时最喜欢的朋友叫什么名字？",
        "SECURITY_QUESTION_7": "您三年级的老师姓什么？",
        "SECURITY_QUESTION_8": "您的第一份工作是在哪个城市或城镇？",
        "SECRET_ANSWER": "密保问题答案：",
        "SECRET_QUESTION": "密保问题：",
        "SECRET_QUESTION_HELP_TEXT": "从以下列表中选择一个密保问题。您在忘记密码时可通过提供该问题的答案登录。",
        "SECRET_QUESTION_ANSWER": "密保问题和答案",
        "SELECT_LANGUAGE": "请为该研究中心选择首选语言。",
        "SELECT_SITE_NUMBER": "请选择研究中心编号",
        "SERVICE_URL": "服务 URL",
        "SETTINGS": "设置",
        "SETUP_COMPLETE": "设置完成",
        "SETUP_COMPLETE_DESC": "设备现已设置并已做好发货准备。请按“确定”，然后在下一屏幕上关闭设备。",
        "SETUP_SITE_USER": "设置研究中心用户",
        "SETUP_SITE_USER_LEGEND": "请就该设备设置研究中心用户。",
        "SITE": "研究中心",
        "SITE_ASSESSMENTS": "研究中心评估",
        "SIGNATURE_DATA_LIMIT_EXCEEDED": "签名框不能完全一致地体现您的签名笔画。请使用您的姓名首字母来代替签字。",
        "SITE_NUMBER": "研究中心编号",
        "SITE_ROLE": "研究中心用户",
        "SITE_SELECTION": "研究中心选择",
        "SKIP_FORM": "跳过表格",
        "SKIP_QUESTION": "是否确定要在该屏上跳过回复？",
        "SKIP_TO_VISIT": "是否跳至访视？",
        "SKIP_VISIT": "跳过访视",
        "SKIPPED" : "已跳过",
        "START_FORM": "开始处理表格",
        "START_VISIT": "开始访视",
        "STATUS": "状态",
        "STATUS_DATE": "状态日期",
        "STUDY": "研究",
        "STUDYWORKS_LOGIN": "StudyWorks 登录",
        "SUBJECT_ID": "患者标识",
        "SUBJECT_ROLE": "患者",
        "SUBMIT": "提交",
        "SUPPORT_TOOLS": "支持工具",
        "SYNC": "同步",
        "SYNC_USERS": "同步用户",
        "SYNC_TO_DEVICE": "将研究同步至设备",
        "TEMPORARY_PASSWORD_MESSAGE": "请为该新用户提供临时密码。在他们登录之后，他们将被要求创建新的密码。",
        "TEMP_PASSWORD": "临时密码：",
        "UNABLE_TO_GET_SITE_LIST": "无法获取研究中心列表",
        "UNLOCK_CODE": "解锁码",
        "UNLOCK_CODE_HELP": "您的 ERT Tablet 的解锁码可以从 StudyWorks 的 ERT 解锁码 SmartReport 中获取。如需额外协助，请与 ERT 支持中心联系。",
        "USER": "用户",
        "USER_ALREADY_EXISTS": "用户已存在",
        "SUBJECT_ALREADY_EXISTS": "已存在标识为{{{ getPatientIDForDuplicate }}}的患者。",
        "USER_ROLE": "用户角色",
        "USERNAME": "用户名",
        "USER_NAME": "用户名：",
        "VISIT": "访视",
        "VISIT_COMPLETED_MESSAGE": "对于该访视，没有其他表格。该访视现已完成。",
        "VISITS": "访视",
        "VISITS_SKIPPED": "跳过的访视：",
        "VISIT_NAME": "访视名称",
        "WELCOME": "欢迎使用",
        "AF-ZA": "南非荷兰语",
        "AR-EG": "阿拉伯语",
        "BE-BY": "白俄罗斯语",
        "BG-BG": "保加利亚语",
        "BN-IN": "孟加拉语",
        "BS-BA": "波斯尼亚语",
        "CA-ES": "加泰罗尼亚语",
        "CS-CZ": "捷克语",
        "DA-DK": "丹麦语",
        "DE-DE": "德语（德国）",
        "DE-AT": "德语（奥地利）",
        "EL-GR": "希腊语",
        "EN-GB": "英语（英国）",
        "EN-US": "英语（美国）",
        "ES-ES": "西班牙语（西班牙）：",
        "ES-US": "西班牙语（美国）",
        "ES-PY": "西班牙语（通用）",
        "ET-EE": "爱沙尼亚语",
        "FI-FI": "芬兰语",
        "FR-CA": "法语（加拿大）",
        "FR-FR": "法语（法国）",
        "GD-IE": "盖尔语（爱尔兰）",
        "GU-IN": "古吉拉特语",
        "HE-IL": "希伯来语",
        "HI-IN": "印地语",
        "HR-HR": "克罗地亚语",
        "HU-HU": "匈牙利语",
        "IT-IT": "意大利语",
        "JA-JP": "日语",
        "KA-GE": "格鲁吉亚语",
        "KN-IN": "卡纳达语",
        "KO-KR": "韩语",
        "LV-LV": "拉脱维亚语",
        "LT-LT": "立陶宛语",
        "ML-IN": "马拉雅拉姆语",
        "MR-IN": "马拉地语",
        "MS-MY": "马来语",
        "NB-NO": "挪威语",
        "NL-BE": "荷兰语（比利时）",
        "NL-NL": "荷兰语（荷兰）",
        "PA-IN": "旁遮普语",
        "PL-PL": "波兰语",
        "PT-BR": "葡萄牙语（巴西）",
        "PT-PT": "葡萄牙语（葡萄牙）",
        "RO-RO": "罗马尼亚语",
        "RU-RU": "俄语",
        "SL-SL": "斯洛文尼亚语",
        "SK-SK": "斯洛伐克语",
        "SR-RS": "塞尔维亚语（拉丁）",
        "SR-SP": "塞尔维亚语（西里尔文）",
        "ST-ZA": "索托语",
        "SV-SE": "瑞典语",
        "TA-IN": "泰米尔语",
        "TE-IN": "泰卢固语",
        "TH-TH": "泰语",
        "TL-PH": "他加禄语",
        "TN-ZA": "茨瓦纳语",
        "TR-TR": "土耳其语",
        "UK-UA": "乌克兰语",
        "UR-IN": "乌尔都语",
        "VI-VN": "越南语",
        "XH-ZA": "科萨语",
        "ZH-CN": "中文（中国大陆）",
        "ZH-TW": "中文（中国台湾）",
        "ZU-ZU": "祖鲁语",
        "HAND_DEVICE_SUBJECT_BODY": "下一表格必须由{{{ patientOrRole }}}完成。请注销，然后将设备交给{{{ patientOrRole }}}。",
        "HAND_DEVICE_SUBJECT_TITLE": "起始表格：{{{ formTitle }}}",
        "SKIP_VISIT_TITLE": "是否跳过访视？",
        "SKIP_VISIT_TEXT": "如果继续，则将跳过以下访视：<br/>{{{ skippedVisits }}} 现在是否继续并跳过这些访视？",
        "YES":"是",
        "NO":"否",
        "TIME_LBL": "时间：",
        "SET_TIME": "设置时间",
        "DATE_LBL": "日期：",
        "CREATE_PERMANENT_PASSWORD_TITLE": "创建永久密码",
        "USER_ID": "用户标识：",
        "PHASE": "阶段",
        "LAST_VISIT": "最后完成的访视",
        "CONNECTION_REQUIRED": "需要网络连接。",
        "RETRY": "重试",
        "UPDATE_FAILURE": "更新未完成",
        "UPDATE_SUCCESS": "更新成功",
        "CANCEL_PERMANENT_PASSWORD_TITLE": "是否取消永久密码创建？",
        "CANCEL_PERMANENT_PASSWORD_TEXT": "如果现在取消，则不会创建永久密码。您需要有一个永久密码，才可开始使用 ERT。是否确定要取消?",
        "ACCOUNT_CONFIGURED_TITLE": "帐户设置完成",
        "ACCOUNT_CONFIGURED_TEXT": "您现已完成帐户设置，接下来，您可以继续使用 eCOA 系统。",
        "LOGGED_IN_AS": "登录身份",
        "EDIT_PATIENT_AFFIDAVIT_HEADER": "<p class='question-title-large'>签名</p><br />",
        "EDIT_PATIENT_AFF": "本人在此声明，在下面签字即表示本人有权编辑此患者。<br /><br />患者标识：{{{ getPatientIdNumber }}}<br /><br /><strong>签名：</strong>{{{ getActiveUserName }}}",
        "PASSWORD_MISMATCH": "密码确认与密码不匹配",
        "FIRST_USER_AFFIDAVIT": "本人在此声明，在下面签字即表示本人是有权在此系统中创建帐户的主研究者或授权代表。<br /><br /><strong>签名：</strong>{{{ getFirstUsername }}}",
		"INCOMPLETE": "未完成",
        "INVALID_ENTRY": "无效条目",
        "PLEASE_ANSWER_SQ": "请回答您的密保问题：",
        "FORGOT_SECRET_ANSWER": "忘记密保问题答案？",
        "CONTACT_STUDY_COORDINATOR": "联系研究协调员",
        "ENTER_NEW_PASSWORD": "新密码：",
        "CONTACT_UNLOCK_CODE": "请联系您的研究协调员获取今天的解锁码：",
        "CURRENT_DATE": "{{{ currentDate }}}",
        "TEMPORARY_UNLOCK_CODE": "输入研究协调员提供的解锁码。",
        "RESET_SECRET_QUESTION": "重置密保问题",
        "SECRET_QUESTION_CHANGE_SUCCESS": "您已成功更新了您的密码和保密问题。",
        "RESET_PASSWORD": "重置密码",
        "ANSWER_ATTEMPT_EXCEEDED": "您输入不正确答案的次数过多或单击了忘记保密答案链接。",
        "PASSWORD_ATTEMPT_EXCEEDED": "您输入不正确密码的次数过多或单击了忘记密码链接。",
        "PASSWORD_CHANGE_SUCCESS": "您成功更新了您的密码。",
        "CHANGE_PASSWORD": "更改密码",
        "CHANGE_SECRET_QUESTION": "更改密保问题",
        "SYNC_COMPLETE": "同步完成",
        "INCORRECT_ANSWER": "答案错误",
        "INCORRECT_UNLOCK_CODE": "解锁码错误",
        "PASSWORD_INVALID": "密码不正确",
        "SUBJECT": "患者",
        "PATIENT_ADDED": "患者已添加",
        "TIME_ZONE": "时区：",
        "ACTIVATE_USER_CANCEL_CONFIRM":"是否取消激活？",
        "ACTIVATE_USER_CANCEL_BODY":"如果现在取消，则不会激活研究中心用户。是否确定要取消？",
        "ACTIVATE_USER_AFF":"本人特此声明，本人在下面签字即表示本人经授权激活此研究中心用户。",
        "ACTIVATE_USER_CONFIRM_INFORMATION":"请确认以下信息属于您要激活的研究中心用户。",
        "DEACTIVATE_USER_CANCEL_CONFIRM":"是否取消停用？",
        "DEACTIVATE_USER_CANCEL_BODY":"如果现在取消，则不会停用研究中心用户。是否确定要取消？",
        "DEACTIVATE_USER_AFF":"本人特此声明，本人在下面签字即表示本人经授权停用此研究中心用户。",
        "DEACTIVATE_USER_SIG":"<strong>待停用的用户：</strong><br />{{{ getSelectedUsername }}}<br /><br /><strong>签名：</strong>{{{ getActiveUserName }}}",
        "DEACTIVATE_USER_CONFIRM_INFORMATION":"请确认以下信息属于您要停用的研究中心用户。",
        "DIARY_TIMEOUT":"此表格已超时。",
        "EDIT_PATIENT_QUESTION_1_MAIN_TITLE":"<div class='question-title-large'>患者标识 </div><div>该研究中心的标识范围：<br /><strong>{{{ patientIDRange }}}</strong></div><div class='edit-patient-id'>患者标识：<br /><strong>{{{ getPatientIdNumber }}}({{{getPatientInitials}}})</strong</div><br /><br />",
        "EDIT_PATIENT_QUESTION_1":"患者标识：",
        "EDIT_PATIENT_QUESTION_1_EMPTY":"请填写患者标识。",
        "EDIT_PATIENT_QUESTION_1_EMPTY_HEADER":"患者标识",
        "EDIT_PATIENT_QUESTION_1_RANGE":"您输入的患者标识不在允许的标识范围内：{{{ patientIDRange }}}.请输入有效的患者标识。",
        "EDIT_PATIENT_QUESTION_1_RANGE_HEADER":"患者标识超出范围",
        "EDIT_PATIENT_QUESTION_1_UNIQUE":"患者已存在。请输入其他患者标识。",
        "EDIT_PATIENT_QUESTION_1_UNIQUE_HEADER":"患者标识重复",
        "EDIT_PATIENT_QUESTION_2":"患者姓名首字母：",
        "EDIT_PATIENT_QUESTION_2_EMPTY":"请填写不少于 2 个字符的患者姓名首字母。",
        "EDIT_PATIENT_QUESTION_2_EMPTY_HEADER":"患者姓名首字母",
        "EDIT_PATIENT_QUESTION_3_TITLE":"<div class='question-title-large'>选择语言</div><div>患者标识：<br /><strong>{{{ getPatientIdNumber }}}({{{getPatientInitials}}})</strong</div><br /><br />",
        "EDIT_PATIENT_QUESTION_3":"选择此患者的语言",
        "EDIT_PATIENT_QUESTION_4_TITLE":"<div class='question-title-large'>编辑原因</div><br /><br />",
        "EDIT_PATIENT_QUESTION_4":"选择编辑患者的原因",
        "EDIT_PATIENT_CANCEL_CONFIRM":"是否取消对患者进行的更改？",
        "EDIT_PATIENT_CANCEL_BODY":"如果现在取消，则不会更新患者设置。是否确定要取消？",
        "EDIT_PATIENT_NO_CHANGES_CONFIRM":"未对患者进行更改",
        "EDIT_PATIENT_NO_CHANGES_BODY":"未对此患者进行更改。仍然退出？",
        "EDIT_PATIENT_REASON_0":"临床医生纠错",
        "EDIT_REASON":"编辑原因：",
        "EDIT_USER_AFF":"本人在此声明，本人在下面签字即表示本人经授权编辑此研究中心用户。<br /><br /><strong>签名：</strong>{{{ getActiveUserName }}}",
        "EDIT_USER_CANCEL_CONFIRM":"是否取消编辑用户？",
        "EDIT_USER_CANCEL_BODY":"如果现在取消，则不会提交研究中心用户变更。是否确定要取消？",
        "EDIT_USER_NO_CHANGES_HEADER":"未对研究中心用户进行更改",
        "EDIT_USER_NO_CHANGES_BODY":"未对此研究中心用户进行更改。仍然退出？",
        "ERROR_CODE":"错误代码：",
        "ERROR_TITLE":"错误",
        "FIRST_SITE_USER":"添加第一个研究中心用户",
        "NEW_PATIENT_QUESTION_1_MAIN_TITLE":"<div class='question-title-large'>输入患者标识信息</div><div>该研究中心的标识范围：<br /><strong>{{{ patientIDRange }}}</strong></div><div><strong>研究中心：{{{ getSiteCode }}}</strong></div><div><strong>用户：{{{ getUserName }}}</strong</div><br /><br />",
        "NEW_PATIENT_HELP_TEXT_1":"",
        "NEW_PATIENT_HELP_TEXT_2":"",
        "NEW_PATIENT_HELP_TEXT_3":"",
        "NEW_PATIENT_QUESTION_1_TITLE":"患者标识",
        "NEW_PATIENT_QUESTION_1":"患者标识：",
        "NEW_PATIENT_QUESTION_1_EMPTY":"请填写患者标识。",
        "NEW_PATIENT_QUESTION_1_EMPTY_HEADER":"患者标识",
        "NEW_PATIENT_QUESTION_1_RANGE":"您输入的患者标识不在允许的标识范围内：{{{ patientIDRange }}}。请输入有效的患者标识。",
        "NEW_PATIENT_QUESTION_1_RANGE_HEADER":"患者标识超出范围",
        "NEW_PATIENT_QUESTION_1_UNIQUE":"患者已存在。请输入其他患者标识。",
        "NEW_PATIENT_QUESTION_1_UNIQUE_HEADER":"患者标识重复",
        "NEW_PATIENT_QUESTION_2":"患者姓名首字母：",
        "NEW_PATIENT_QUESTION_2_EMPTY":"请填写不少于 2 个字符的患者姓名首字母。",
        "NEW_PATIENT_QUESTION_2_EMPTY_HEADER":"患者姓名首字母",
        "NEW_PATIENT_QUESTION_3_TITLE":"<div class='question-title-large'>选择语言</div><div><strong>研究中心：{{{ getSiteCode }}}</strong></div><div><strong>用户：{{{ getUserName }}}</strong</div><div><strong>患者标识：{{{ getPatientID }}}</strong></div><br /><br />",
        "NEW_PATIENT_QUESTION_3":"选择此患者的语言",
        "NEW_PATIENT_CANCEL_CONFIRM":"是否取消添加患者？",
        "NEW_PATIENT_CANCEL_BODY":"如果取消，则不会注册该患者。是否确定要取消?",
        "NEW_PATIENT_AFFIDAVIT_HEADER":"<div><strong>研究中心：{{{ getSiteCode }}}</strong><br /><strong>用户：{{{ getUserName }}}</strong><br /><strong>患者标识：{{{ getPatientID }}}</strong></div>",
        "PATIENT_INITIALS":"患者姓名首字母：",
        "PATIENT_DELETED":"未知患者",
        "PATIENT_DELETED_MSG":"找不到患者。",
        "PATIENT_DELETED_SUBJECT_MSG":"找不到患者。请将设备退还给相应的研究中心工作人员。",
        "PLEASE_CONTACT":"请联系 ERT 支持中心。",
        "PLEASE_TRY_OR_CONTACT_SUPPORT":"请重试或联系 ERT 支持中心。",
        "REASON":"原因：",
        "SET_TIMEZONE_MESSAGE":"选择您所在的时区：",
        "SKIP_VISITS":"跳过访视",
        "SKIP_VISITS_QUESTION_1":"<div class='question-title-large'><strong>原因</strong></div><br /><br /><div>选择跳过访视的原因：</div>",
        "SKIP_VISITS_REASON_0":"访视过期",
        "SKIP_VISITS_REASON_1":"研究中心管理错误",
        "SKIP_VISITS_REASON_2":"受试者错过临床预约。",
        "SKIP_VISITS_REASON_3":"不适用。",
        "SKIP_VISITS_REASON_4":"访视为可选项，未做。",
        "SKIP_VISITS_CANCEL_CONFIRM":"是否取消跳过访视？",
        "SKIP_VISITS_CANCEL_BODY":"如果现在取消，则不会跳过访视。是否确定要取消?",
        "SKIPPED_VISITS":"{{{ skippedVisits }}}",
		"USER_EDITED":"用户已更新。",
        "USER_TO_ACTIVATE":"<strong>待激活的用户：</strong><br />{{{ getSelectedUsername }}}<br /><br /><strong>签名：</strong>{{{ getActiveUserName }}}",
        "TIME_CONFIRMATION_INSTRUCTIONS":"设备需要确认本地时间。请输入来源可靠的日期和时间。",
        "TIME_ZONE_ERROR_HEADER":"时区错误",
        "TIME_ZONE_ERROR_MSG":"在获取时区列表时出错。如需额外协助，请与 ERT 支持中心联系。",
        "TIME_ZONE_SET_ERROR_MSG":"在设置时区时出错。如需额外协助，请与 ERT 支持中心联系。",
        "TIME_ZONE_SET_CONFIRM":"是否确定要将时区设置为 {{{selectedTimeZone}}}？<br/>可重新启动该应用程序以应用此更改。",
        "TIME_ZONE_SET_CONFIRM_NOCHANGE":"是否确定要将时区设置为 {{{selectedTimeZone}}}？",
        "TIME_ZONE_SET_HEADER":"时区设置确认",
        "TRAINER":"训练员模式",
        "TRAINER_EXIT":"退出训练员模式",
        "TRAINER_EXIT_NOTIFICATION":"您正在退出训练员模式",
        "TRAINER_HEADER":"（训练员）",
		"VISIT_INACTIVE_HEADER":"非活跃访视。",
        "VISIT_INACTIVE_MESSAGE":"该访视不再活跃。",
        "VISIT_INACTIVE_MESSAGE_SUBJECT":"该访视不再活跃。请将设备退还给相应的研究中心工作人员。",
        "SITE_ADMINISTRATOR":"研究中心管理员",
        "LOW_BATTERY":"警告：电池电量低。请插入设备充电。",
        "CRITICAL_BATTERY":"警告：电池电量严重偏低。请插入设备充电，否则设备将关机。",
        "TIME_CONFIRMATION_HEADER":"确认日期/时间",
        "TIMESLIP_ERROR":"设备时间或日期有误。请移至可连接互联网的位置重试。如果仍有问题，请联系 ERT 客户服务部。",
        "SUPPORT":"客户支持",
        "SUPPORT_MESSAGE":"美国用户可通过致电 800-748-5669 联系 ERT 支持中心。如为国际用户，请选择以下最接近的国家/地区：",
        "SUPPORT_DROPDOWN":"选择您的国家/地区",
        "SUPPORT_NAME_ARGENTINA":"阿根廷",
        "SUPPORT_NUMBER_ARGENTINA":"<bdi>0800 444 0962</bdi>",
        "SUPPORT_NAME_ARMENIA":"亚美尼亚",
        "SUPPORT_NUMBER_ARMENIA":"<bdi>+1 617 681 6306</bdi>",
        "SUPPORT_NAME_AUSTRALIA":"澳大利亚",
        "SUPPORT_NUMBER_AUSTRALIA":"<bdi>1 800 800 051</bdi>",
        "SUPPORT_NAME_AUSTRIA":"奥地利",
        "SUPPORT_NUMBER_AUSTRIA":"<bdi>0800 100 405</bdi>",
        "SUPPORT_NAME_BELARUS":"白俄罗斯",
        "SUPPORT_NUMBER_BELARUS":"<bdi>8 820 0321 0036</bdi>",
        "SUPPORT_NAME_BELGIUM":"比利时",
        "SUPPORT_NUMBER_BELGIUM_1":"（英文）：<bdi>0800 58 016</bdi>",
        "SUPPORT_NUMBER_BELGIUM_2":"（法语）：<bdi>0800 71 076</bdi>",
        "SUPPORT_NUMBER_BELGIUM_3":"（德语）：<bdi>0800 71 113</bdi>",
        "SUPPORT_NAME_BRAZIL":"巴西",
        "SUPPORT_NUMBER_BRAZIL":"<bdi>0800 891 5909</bdi>",
        "SUPPORT_NAME_BOSNIA":"波斯尼亚",
        "SUPPORT_NUMBER_BOSNIA":"<bdi>+1 617 681 6306</bdi>",
        "SUPPORT_NAME_BULGARIA":"保加利亚",
        "SUPPORT_NUMBER_BULGARIA":"<bdi>00800 0010</bdi>，然后 <bdi>866 245 4931</bdi>",
        "SUPPORT_NAME_CANADA":"加拿大",
        "SUPPORT_NUMBER_CANADA":"<bdi>1 800 748 5669</bdi>",
        "SUPPORT_NAME_CHILE":"智利",
        "SUPPORT_NUMBER_CHILE":"<bdi>123 0020 3408</bdi>",
        "SUPPORT_NAME_CHINA":"中国",
        "SUPPORT_NUMBER_CHINA_1":"网通（北）：<bdi>1 0800 74 40 164</bdi>",
        "SUPPORT_NUMBER_CHINA_2":"电信（南）：<bdi>1 0800 44 00 158</bdi>",
        "SUPPORT_NAME_COLOMBIA":"哥伦比亚",
        "SUPPORT_NUMBER_COLOMBIA":"<bdi>01 800 911 0010</bdi>，然后 <bdi>866 310 3707</bdi>",
        "SUPPORT_NAME_COSTA_RICA":"哥斯达黎加",
        "SUPPORT_NUMBER_COSTA_RICA":"<bdi>0800 013 1210</bdi>",
        "SUPPORT_NAME_CROATIA":"克罗地亚",
        "SUPPORT_NUMBER_CROATIA":"<bdi>0800 222 953</bdi>",
        "SUPPORT_NAME_CZECH_REPUBLIC":"捷克共和国",
        "SUPPORT_NUMBER_CZECH_REPUBLIC":"<bdi>800 142 150</bdi>",
        "SUPPORT_NAME_DENMARK":"丹麦",
        "SUPPORT_NUMBER_DENMARK":"<bdi>80 60 00 09</bdi>",
        "SUPPORT_NAME_EGYPT":"埃及",
        "SUPPORT_NUMBER_EGYPT":"<bdi>02 510 0200</bdi>，然后 <bdi>866 310 3707</bdi>",
        "SUPPORT_NAME_EL_SALVADOR":"萨尔瓦多",
        "SUPPORT_NUMBER_EL_SALVADOR":"<bdi>+1 617 681 6306</bdi>",
        "SUPPORT_NAME_ESTONIA":"爱沙尼亚",
        "SUPPORT_NUMBER_ESTONIA":"<bdi>800 00 44 154</bdi>",
        "SUPPORT_NAME_FINLAND":"芬兰",
        "SUPPORT_NUMBER_FINLAND":"<bdi>0800 11 6366</bdi>",
        "SUPPORT_NAME_FRANCE":"法国",
        "SUPPORT_NUMBER_FRANCE":"<bdi>0800 10 19 79</bdi>",
        "SUPPORT_NAME_GERMANY":"德国",
        "SUPPORT_NUMBER_GERMANY":"<bdi>0800 101 28 21</bdi>",
        "SUPPORT_NAME_GREECE":"希腊",
        "SUPPORT_NUMBER_GREECE":"<bdi>00 800 1311</bdi>，然后 <bdi>866 310 3707</bdi>",
        "SUPPORT_NAME_GUATEMALA":"危地马拉",
        "SUPPORT_NUMBER_GUATEMALA":"<bdi>1 800 624 0079</bdi>",
        "SUPPORT_NAME_HONG_KONG":"香港",
        "SUPPORT_NUMBER_HONG_KONG":"<bdi>3002 1665</bdi>",
        "SUPPORT_NAME_HUNGARY":"匈牙利",
        "SUPPORT_NUMBER_HUNGARY":"<bdi>06 800 14 571</bdi>",
        "SUPPORT_NAME_ICELAND":"冰岛",
        "SUPPORT_NUMBER_ICELAND":"<bdi>800 8544</bdi>",
        "SUPPORT_NAME_INDIA":"印度",
        "SUPPORT_NUMBER_INDIA":"<bdi>000 800 440 1125</bdi>",
        "SUPPORT_NAME_INDONESIA":"印度尼西亚",
        "SUPPORT_NUMBER_INDONESIA":"<bdi>008 800 330 334</bdi>",
        "SUPPORT_NAME_IRELAND":"爱尔兰",
        "SUPPORT_NUMBER_IRELAND":"<bdi>1 800 946 700</bdi>",
        "SUPPORT_NAME_ISRAEL":"以色列",
        "SUPPORT_NUMBER_ISRAEL":"<bdi>1 809 470 062</bdi>",
        "SUPPORT_NAME_ITALY":"意大利",
        "SUPPORT_NUMBER_ITALY":"<bdi>800 90 56 37</bdi>",
        "SUPPORT_NAME_JAPAN":"日本",
        "SUPPORT_NUMBER_JAPAN":"请参见 ePRO 研究信息指南查看与您的研究相关的免费电话",
        "SUPPORT_NAME_LATVIA":"拉脱维亚",
        "SUPPORT_NUMBER_LATVIA":"<bdi>8000 2151</bdi>",
        "SUPPORT_NAME_LEBANON":"黎巴嫩",
        "SUPPORT_NUMBER_LEBANON":"<bdi>01-426-801</bdi>，然后 <bdi>866 310 3707</bdi>",
        "SUPPORT_NAME_LITHUANIA":"立陶宛",
        "SUPPORT_NUMBER_LITHUANIA":"<bdi>8800 30207</bdi>",
        "SUPPORT_NAME_MALAYSIA":"马来西亚",
        "SUPPORT_NUMBER_MALAYSIA":"<bdi>1800 80 59 71</bdi>",
        "SUPPORT_NAME_MEXICO":"墨西哥",
        "SUPPORT_NUMBER_MEXICO_1":"（英文）：<bdi>001 800 748 5669</bdi>",
        "SUPPORT_NUMBER_MEXICO_2":"（西班牙语）：<bdi>001 855 631 6952</bdi>",
        "SUPPORT_NAME_MOLDOVA":"摩尔多瓦",
        "SUPPORT_NUMBER_MOLDOVA":"<bdi>617 681 6306</bdi>",
        "SUPPORT_NAME_NETHERLANDS":"荷兰",
        "SUPPORT_NUMBER_NETHERLANDS":"<bdi>0800 023 1389</bdi>",
        "SUPPORT_NAME_NEW_ZEALAND":"新西兰",
        "SUPPORT_NUMBER_NEW_ZEALAND":"<bdi>0800 110 178</bdi>",
        "SUPPORT_NAME_NORWAY":"挪威",
        "SUPPORT_NUMBER_NORWAY":"<bdi>800 62 051</bdi>",
        "SUPPORT_NAME_PAKISTAN":"巴基斯坦",
        "SUPPORT_NUMBER_PAKISTAN":"<bdi>00 800 0100</bdi>，然后 <bdi>866 237 9767</bdi>",
        "SUPPORT_NAME_PANAMA":"巴拿马",
        "SUPPORT_NUMBER_PANAMA":"<bdi>001 800 201 3095</bdi>",
        "SUPPORT_NAME_PERU":"秘鲁",
        "SUPPORT_NUMBER_PERU":"<bdi>0800 5 0974</bdi>",
        "SUPPORT_NAME_PHILIPPINES":"菲律宾",
        "SUPPORT_NUMBER_PHILIPPINES":"<bdi>1 800 1116 0651</bdi>",
        "SUPPORT_NAME_POLAND":"波兰",
        "SUPPORT_NUMBER_POLAND":"<bdi>00800 331 1262</bdi>",
        "SUPPORT_NAME_PORTUGAL":"葡萄牙",
        "SUPPORT_NUMBER_PORTUGAL":"<bdi>800 206 172</bdi>",
        "SUPPORT_NAME_PUERTO_RICO":"波多黎各（美属领地）",
        "SUPPORT_NUMBER_PUERTO_RICO":"<bdi>1 800 748 5669</bdi>",
        "SUPPORT_NAME_ROMANIA":"罗马尼亚",
        "SUPPORT_NUMBER_ROMANIA":"<bdi>0800 894492</bdi>",
        "SUPPORT_NAME_RUSSIA":"俄罗斯",
        "SUPPORT_NUMBER_RUSSIA_1":"（首选 - 免费）：<bdi>8 10 800 249 13011</bdi>",
        "SUPPORT_NUMBER_RUSSIA_2":"（莫斯科范围内）： <bdi>363-2400</bdi> <br>然后 <bdi>866 310 3707</bdi>",
        "SUPPORT_NUMBER_RUSSIA_3":"（莫斯科范围外）： <bdi>8^(495) 363-2400</bdi> <br>然后 <bdi>866 310 3707</bdi>",
        "SUPPORT_NUMBER_RUSSIA_4":"（圣彼德斯堡范围内）：<bdi>363-2400</bdi> <br>然后 <bdi>866 310 3707</bdi>",
        "SUPPORT_NUMBER_RUSSIA_5":"（圣彼德斯堡范围外）：<bdi>8^(495) 363-2400</bdi> <br>然后 <bdi>866 310 3707</bdi>",
        "SUPPORT_NAME_SAUDI_ARABIA":"沙特阿拉伯",
        "SUPPORT_NUMBER_SAUDI_ARABIA":"<bdi>+1 617 681 6306</bdi>",
        "SUPPORT_NAME_SERBIA":"塞尔维亚",
        "SUPPORT_NUMBER_SERBIA":"<bdi>+1 617 973 1739</bdi>",
        "SUPPORT_NAME_SINGAPORE":"新加坡",
        "SUPPORT_NUMBER_SINGAPORE":"<bdi>800 616 30 03</bdi>",
        "SUPPORT_NAME_SLOVAKIA":"斯洛伐克",
        "SUPPORT_NUMBER_SLOVAKIA":"<bdi>0800 0044 65</bdi>",
        "SUPPORT_NAME_SLOVENIA":"斯洛文尼亚",
        "SUPPORT_NUMBER_SLOVENIA":"<bdi>+1 617 681 6306</bdi>",
        "SUPPORT_NAME_SOUTH_AFRICA":"南非",
        "SUPPORT_NUMBER_SOUTH_AFRICA":"<bdi>0800 99 5853</bdi>",
        "SUPPORT_NAME_SOUTH_KOREA":"韩国",
        "SUPPORT_NUMBER_SOUTH_KOREA":"<bdi>00308 33 00 08</bdi>",
        "SUPPORT_NAME_SPAIN":"西班牙",
        "SUPPORT_NUMBER_SPAIN":"<bdi>900 90 2541</bdi>",
        "SUPPORT_NAME_SWEDEN":"瑞典",
        "SUPPORT_NUMBER_SWEDEN":"<bdi>020 120 99 69</bdi>",
        "SUPPORT_NAME_SWITZERLAND":"瑞士",
        "SUPPORT_NUMBER_SWITZERLAND_1":"（英文）：<bdi>0800 199 325</bdi>",
        "SUPPORT_NUMBER_SWITZERLAND_2":"（法语）：<bdi>0800 891 183</bdi>",
        "SUPPORT_NUMBER_SWITZERLAND_3":"（德语）：<bdi>0800 891 025</bdi>",
        "SUPPORT_NAME_TAIWAN":"台湾",
        "SUPPORT_NUMBER_TAIWAN":"<bdi>00801 33 33 42</bdi>",
        "SUPPORT_NAME_THAILAND":"泰国",
        "SUPPORT_NUMBER_THAILAND":"<bdi>1 800 33 140 353</bdi>",
        "SUPPORT_NAME_TUNISIA":"突尼斯",
        "SUPPORT_NUMBER_TUNISIA":"<bdi>+1 617 681 6306</bdi>",
        "SUPPORT_NAME_TURKEY":"土耳其",
        "SUPPORT_NUMBER_TURKEY":"<bdi>00 800 151 1335</bdi>",
        "SUPPORT_NAME_UKRAINE":"乌克兰",
        "SUPPORT_NUMBER_UKRAINE":"<bdi>0^00 11</bdi>，然后 <bdi>866 245 4931</bdi>",
        "SUPPORT_NAME_UAE":"阿拉伯联合酋长国",
        "SUPPORT_NUMBER_UAE":"<bdi>8000-021</bdi>，然后 <bdi>866 310 3707</bdi>",
        "SUPPORT_NAME_UK":"英国",
        "SUPPORT_NUMBER_UK":"<bdi>0800 015 0408</bdi>",
        "SUPPORT_NAME_US":"美国",
        "SUPPORT_NUMBER_US_1":"（主号）：<bdi>1 800 748 5669</bdi>",
        "SUPPORT_NUMBER_US_2":"（备用）：<bdi>1 877 748 5669</bdi>",
        "SUPPORT_NAME_VENEZUELA":"委内瑞拉",
        "SUPPORT_NUMBER_VENEZUELA_1":"（英文）：<bdi>0 800 552 6288</bdi> <br>然后 <bdi>866 310 3707</bdi>",
        "SUPPORT_NUMBER_VENEZUELA_2":"（西班牙语）：<bdi>0 800 100 3063</bdi>",
        "ABOUT":"关于",
        "CORE_PRODUCT_VERSION_LABEL":"产品版本：",
        "PROTOCOL":"研究方案：",
        "SPONSOR":"主办方：",
        "STORED_REPORTS":"已保存的表格：",
        "STUDY_VERSION":"研究版本：",
        "STUDY_URL":"研究 URL：",
        "P_AFFIDAVIT_HEADER":"<div><strong>研究中心：{{{ getSiteCode }}}</strong><br /><strong>患者标识：{{{ getPatientIdNumber }}}</strong></div>",
		"SET_TIMEZONE":"设置时区",
		"DEVICE_SERIAL_NUMBER":"设备序列号",
		"NONEXISTENT_USER":"试图更新非现有用户。",
		"SCREENING" :"筛查",
		"TREATMENT" :"治疗",
		"RANDOMIZATION" :"随机分派",
		"FOLLOWUP" :"随访",
		"TERMINATION" :"终止",
        "ACCEPT":"本人接受",
        "DECLINE":"本人拒绝",
		"EULA":"最终用户许可",
        "EULA_TEXT":"<p><strong><span class=\"text-underline\">重要提示</span>：请在点击接受按钮前仔细研读本协议。点击接受按钮即表示您接受本协议的所有条款。如不接受本协议的所有条款 (1) 请勿点击“本人接受”按钮，(2) 请点击“本人拒绝”以停止安装和许可流程。</strong></p><p>eResearchTechnology, Inc.（“许可人”）就本设备中所包含的 eResearchTechnology, Inc. 软件（“软件”），向您赋予与您参与临床试验协议有关的非排他、不可转让的使用权：<strong>{{{ clinicalTrial }}}</strong>.在已公布或其他在申请的专利中已涵盖 eResearchTechnology, Inc. 软件。本协议不向您转让任何软件（或任何副本）的任何所有权，它而是仅构成依据本协议的所有条款使用本软件的许可。无论何时，许可人都始终持有本软件及其任何部分及其所含的所有专属和知识产权的任何权利。</p><p>您同意不会直接或间接地 (i) 执行反向工程、拆解或反编译该软件；(ii) 复制、分发、制造、适配性改造、创作衍生作品、翻译、本地化、移植或另行修改本软件；或者 (iii) 移除或修改有关本软件或本软件所含的任何版权、商业机密或其他法律声明。您确认并同意本软件可能包含用于防止未经授权使用本软件的代码。</p><br><p>如您同意上述所有内容，请选择 – <strong>本人接受</strong> – 点击“本人接受”即表示您接受许可条款。</p><p>如您不同意上述所有内容，或无权接受许可条款，请选择 – <strong>本人拒绝</strong> – 在此情况下，系统将阻止您进一步访问本软件。如经授权，则您可在其他时候再行接受。</p>",
        "VISIT_EXPIRED_HEADER":"访视已过期。",
        "VISIT_EXPIRED_MESSAGE":"该访视由于到期而不再可用。",
        "VISIT_EXPIRED_MESSAGE_SUBJECT":"该访视由于到期而不再可用。请将设备退还给相应的研究中心工作人员。",
        "SQ-AL":"阿尔巴尼亚语",
        "IMAGE_FOLDER":"{{{ imageFolder }}}",
		"MODAL_OK_TEXT":"确定",
        "BROWSER_LOAD_ERROR":"未找到页面。请检查您的互联网连接并重试。",
		"NO_USER_OF_ROLE" :"未找到具有该职能的用户。",
        "EDIT_PATIENT_REASON_1":"属性数据纠正",
        "EDIT_PATIENT_REASON_2":"标识变更",
        "EDIT_PATIENT_REASON_3":"选择的语言不正确",
		"START_VISIT_OUTSIDE_WINDOW_MSG":"在此配置的时间窗外输入 {{{ getVisitName }}}：{{{ startDate }}} - {{{ endDate }}}",
		"START_VISIT_HARD_STOP_MSG" :"您无法在此配置的时间窗外输入 {{{ getVisitName }}}：{{{ startDate }}} - {{{ endDate }}}",
		"USER_NAME_INVALID_CHARACTERS" :"请不要使用特殊字符",
		"ERROR_PATIENT_SAVE" :"在添加新患者时出错",
		"PASSWORD_CHANGE_FAILED" :"已启动另一设备来收集您的研究数据。请在该设备上更改您的密码。",
		"ERROR" :"错误。请联系 ERT 支持中心。",
		"ERROR_AFTER_ACTIVATION_SUCCESSFUL" :"发生了一个错误。您将需要输入您的设置代码和密码。",
		"CONNECTION_TIMEOUT" :"连接超时。",
		"UPDATE_FAILED" :"ERT 更新未完成。请确保此设备已连接至互联网并重试。",
        "QR_CODE_UNAVAILABLE":"单击患者可刷新二维码。",
        "QR_MODAL_TITLE":"二维码所有者：",
        "TRANSMIT_FAILED_403_14":"未完成患者创建导致一次或多次传输失败。请等待并重试。",
        "CONSOLE_LOG":"控制台日志",
		"USER_SELECT_ROLE_VALIDATION":"需要选择角色。",
        "USER_SELECT_LANGUAGE_VALIDATION":"需要选择语言。"
    },
    "dates": {
        "setDateButtonLabel": "设置日期",
        "setTimeButtonLabel": "确定",
        "setDurationButtonLabel": "设置时长",
        "calTodayButtonLabel": "跳至今天",
        "titleDateDialogLabel": "设置日期",
        "titleTimeDialogLabel": "设置时间",
        "daysOfWeek": [
            "星期日",
            "星期一",
            "星期二",
            "星期三",
            "星期四",
            "星期五",
            "星期六"
        ],
        "daysOfWeekShort": [
            "周日",
            "周一",
            "周二",
            "周三",
            "周四",
            "周五",
            "周六"
        ],
        "monthsOfYear": [
            "一月",
            "二月",
            "三月",
            "四月",
            "五月",
            "六月",
            "七月",
            "八月",
            "九月",
            "十月",
            "十一月",
            "十二月"
        ],
        "monthsOfYearShort": [
            "一月",
            "二月",
            "三月",
            "四月",
            "五月",
            "六月",
            "七月",
            "八月",
            "九月",
            "十月",
            "十一月",
            "十二月"
        ],
        "durationLabel": [
            "日",
            "小时",
            "分钟",
            "秒"
        ],
        "durationDays": [
            "日",
            "日"
        ],
        "tooltip": "打开日期挑选器",
        "nextMonth": "下个月",
        "prevMonth": "上个月",
        "clearButton": "清除",
        "meridiem": [
            "上午",
            "下午"
        ]
    }
}
