{
    "namespace": "CORE",
    "language": "sr",
    "locale": "RS",
    "localized": "Srpski (latinica)",
    "direction": "ltr",
    "resources": {
        "ACTIVE": "Aktivno",
        "ACTIVATE_USER": "Aktiviranje korisnika",
        "ACTIVATE_USER_CANCEL_CONFIRM": "Otkazati aktiviranje?",
        "ACTIVATE_USER_CANCEL_BODY": "Ako sada otkažete, korisnik centra neće biti aktiviran. Želite li zaista da otkažete?",
        "ACTIVATE_USER_AFF": "Potpisom u nastavku izjavljujem da imam ovlašćenje za aktiviranje ovog korisnika centra.",
        "ACTIVATE_USER_CONFIRM_INFORMATION": "Potvrdite da informacije u nastavku pripadaju korisniku kojeg želite da aktivirate.",
        "ADD_PATIENT": "Dodavanje novog pacijenta",
        "ADD_USER": "Dodavanje korisnika",
        "AFFIDAVIT": "Kada budete spremni da sačuvate odgovore, izaberite „U redu“, a zatim „Dalje“.",
        "AFFIDAVIT_HELP": "Hvala. Uneli ste sve potrebne odgovore. Odgovore možete proveriti i izmeniti tako što ćete izabrati „Nazad“.",
        "ALL_QUESTIONNAIRES_COMPLETED": "Svi obrasci su dovršeni",
        "APP_NAME": "ERT",
        "APPLICATION_HEADER": "ERT",
        "APP_NAME_LBL": "Naziv aplikacije",
        "APP_VERSION": "Verzija aplikacije",
        "ASSIGNED_TO": "Dodeljeno",
        "AVAILABLE": "Dostupno",
        "BACK": "Nazad",
        "BACK_OUT_CONFIRM": "Želite li zaista da napustite aplikaciju? Odgovori u ovom obrascu će biti izgubljeni.",
        "BLUETOOTH_REG_REFRESH_BUTTON": "Osveži listu",
        "CANCEL": "Otkaži",
        "CHECK_FOR_UPDATES": "Provera ažuriranja",
        "CHOOSE_A_SITE": "Dodelite ovaj uređaj određenom centru.",
        "COMPLETED": "Dovršeno",
        "CONFIRM_PASSWORD": "Potvrdite lozinku:",
        "CONFIRM_TEMP_PASS": "Potvrdite privremenu lozinku:",
        "CONTINUE": "Nastavi",
        "COUNTRY": "Zemlja",
        "CUSTOM_ENVIRONMENT": "Prilagođeno okruženje",
        "DEACTIVATE_PATIENT": "Deaktiviranje pacijenta",
        "DEACTIVATE_USER": "Deaktiviranje korisnika",
        "DEACTIVATED": "Deaktiviran",
        "DEACTIVATE_USER_CANCEL_CONFIRM": "Otkazati deaktiviranje?",
        "DEACTIVATE_USER_CANCEL_BODY": "Ako sada otkažete, korisnik centra neće biti deaktiviran. Želite li zaista da otkažete?",
        "DEACTIVATE_USER_AFF": "Potpisom u nastavku izjavljujem da imam ovlašćenje za deaktiviranje ovog korisnika centra.",
        "DEACTIVATE_USER_SIG": "<strong>Korisnik za deaktiviranje:</strong> <br />{{{ getSelectedUsername }}}<p><strong>Potpis:</strong> {{{ getActiveUserName }}}</p>",
        "DEACTIVATE_USER_CONFIRM_INFORMATION": "Potvrdite da informacije u nastavku pripadaju korisniku kojeg želite da deaktivirate.",
        "DEVICE_ID": "ID uređaja",
        "DEVICE_REGISTRATION_FAILURE": "Registrovanje uređaja nije uspelo.",
        "DEVICE_UUIID": "UUID uređaja",
        "BATTERY_LEVEL": "Nivo baterije",
        "DEVICE_INFO": "Informacije o uređaju",
        "DIARY_TIMEOUT": "Isteklo je vreme obrasca.",
        "EDIT_MY_INFO": "Uredi moje informacije",
        "EDIT_PATIENT": "Uređivanje pacijenta",
        "EDIT_PATIENT_QUESTION_1_MAIN_TITLE": "<div class='question-title-large'>Identifikacija pacijenta </div><div>ID opseg za ovaj centar:<br /><strong> {{{ patientIDRange }}}</strong></div><div class='edit-patient-id'>ID pacijenta:<br /><strong>{{{ getPatientIdNumber }}} ({{{getPatientInitials}}})</strong</div><br /><br />",
        "EDIT_PATIENT_QUESTION_1": "ID pacijenta:",
        "EDIT_PATIENT_QUESTION_1_EMPTY": "Popunite ID pacijenta.",
        "EDIT_PATIENT_QUESTION_1_EMPTY_HEADER": "ID pacijenta",
        "EDIT_PATIENT_QUESTION_1_RANGE": "Uneti ID pacijenta nije u opsegu dozvoljenih ID-ova: {{{ patientIDRange }}}.  Unesite važeći ID pacijenta.",
        "EDIT_PATIENT_QUESTION_1_RANGE_HEADER": "ID pacijenta je izvan opsega",
        "EDIT_PATIENT_QUESTION_1_UNIQUE": "Pacijent već postoji.  Unesite drugi ID pacijenta.",
        "EDIT_PATIENT_QUESTION_1_UNIQUE_HEADER": "ID pacijenta je duplikat",
        "EDIT_PATIENT_QUESTION_2": "Inicijali pacijenta:",
        "EDIT_PATIENT_QUESTION_2_EMPTY": "Unesite inicijale pacijenta sa najmanje 2 znaka.",
        "EDIT_PATIENT_QUESTION_2_EMPTY_HEADER": "Inicijali pacijenta",
        "EDIT_PATIENT_QUESTION_3_TITLE": "<div class='question-title-large'>Izaberite jezik</div><div>ID pacijenta:<br /><strong>{{{ getPatientIdNumber }}} ({{{getPatientInitials}}})</strong</div><br /><br />",
        "EDIT_PATIENT_QUESTION_3": "Izaberite jezik za pacijenta",
        "EDIT_PATIENT_QUESTION_4_TITLE": "<div class='question-title-large'>Razlog uređivanja</div><br /><br />",
        "EDIT_PATIENT_QUESTION_4": "Izaberite razlog za uređivanje pacijenta",
        "EDIT_PATIENT_CANCEL_CONFIRM": "Otkazati promene pacijenta?",
        "EDIT_PATIENT_CANCEL_BODY": "Ako sada otkažete, postavke pacijenta neće biti ažurirane.  Želite li zaista da otkažete?",
        "EDIT_PATIENT_NO_CHANGES_CONFIRM": "Nema izmena pacijenta",
        "EDIT_PATIENT_NO_CHANGES_BODY": "Nisu unete izmene za ovog pacijenta. Želite li ipak na napustite?",
        "EDIT_PATIENT_REASON_0": "Lekar ispravlja grešku",
        "EDIT_REASON": "Razlog uređivanja:",
        "EDIT_SERVICE_URL": "Uredi URL usluge",
        "EDIT_SERVICE_URL_SUCCESS": "URL usluge je ažuriran.",
        "EDIT_USER": "Uređivanje korisnika",
        "EDIT_USER_AFF": "Potpisom u nastavku izjavljujem da imam ovlašćenje za uređivanje ovog korisnika centra. <p><strong>Potpis: </strong>{{{ getActiveUserName }}}</p>",
        "EDIT_USER_CANCEL_CONFIRM": "Otkazati uređivanje korisnika?",
        "EDIT_USER_CANCEL_BODY": "Ako sada otkažete, promene korisnika centra neće biti prihvaćene. Želite li zaista da otkažete?",
        "EDIT_USER_NO_CHANGES_HEADER": "Nema izmena korisnika centra",
        "EDIT_USER_NO_CHANGES_BODY": "Nisu unete izmene ovog korisnika centra. Želite li ipak na napustite?",
        "EMAIL": "E-adresa",
        "ENTER_PATIENT_INFO": "Unesite informacije o pacijentu",
        "ENTER_UNLOCK_CODE": "Unesite kôd za otključavanje",
        "ENTER_USER_INFO": "Unesite informacije o novom korisniku centra",
        "ENVIRONMENT": "Okruženje",
        "ERROR_CODE": "Kôd greške:",
        "ERROR_TITLE": "Greška",
        "FIRST_NAME": "Ime",
        "FORGOT_PASSWORD": "Zaboravili ste lozinku?",
        "FORM": "Obrazac",
        "FORM_GATEWAY": "Mr. prolaz obrasca",
        "FORM_NAME": "Naziv obrasca",
        "FULL_NAME": "Ime i prezime:",
        "GO_TO_VISITS": "Posete pacijenta",
        "HAND_DEVICE_SITE_TITLE": "Dajte uređaj korisniku centra",
        "HAND_DEVICE_SITE_BODY": "Dajte uređaj korisniku centra.",
        "HELP": "Pomoć",
        "HOME": "Početak",
        "IN_PROGRESS": "U toku",
        "INITIALS": "Inicijali",
        "INVALID_URL": "Unesite važeći URL.",
        "INVALID_PERMISSION": "Nevažeća dozvola.",
        "INVALID_PASSWORD": "Nevažeća lozinka.",
        "LANGUAGE": "Jezik:",
        "LAST_LOGIN": "Poslednja prijava",
        "LAST_NAME": "Prezime",
        "LAST_REFRESH_TIME": "Vreme poslednjeg osvežavanja",
        "LOCATION": "Lokacija",
        "LOGIN": "Prijava",
        "LOGIN_SCREEN": "Prijava",
        "LOGOUT": "Odjava",
        "MANAGE_USERS": "Upravljanje korisnicima centra",
        "MARK_AS_COMPLETED": "Označi kao dovršeno",
        "SITE_SIGNATURE": "Potpis: ",
        "SITE_REPORT_AFF": "Potvrđujem unos i proveru prethodno navedenih podataka.<p><strong>Potpis: {{{ getActiveUserName }}}</strong></p>",
        "PATIENT_REPORT_AFF": "<hr />Potvrđujem unos i proveru prethodno navedenih podataka.<p class={{{ getPatientInitials }}}><strong>Inicijali: {{{ getActiveUserName }}}</strong></p>",
        "CLEAR_SIGNATURE": "Izbriši potpis",
        "MENU": "Meni",
        "MODE": "Režim",
        "NAME": "Ime",
        "NEW_USER": "Dodavanje dnevnika novog korisnika",
        "FIRST_SITE_USER": "Dodavanje prvog korisnika centra",
        "NEW_USER_CREATED": "Kreiran je korisnik centra.",
        "NEW_PATIENT_QUESTION_1_MAIN_TITLE": "<div class='question-title-large'>Unesite informacije za identifikaciju pacijenta</div><div><strong>Centar: {{{ getSiteCode }}}</strong></div><div><strong>Korisnik: {{{ getUserName }}}</strong</div><br /><br />",
        "NEW_PATIENT_HELP_TEXT_1": "",
        "NEW_PATIENT_HELP_TEXT_2": "",
        "NEW_PATIENT_HELP_TEXT_3": "",
        "NEW_PATIENT_QUESTION_1_TITLE": "ID pacijenta",
        "NEW_PATIENT_QUESTION_1": "ID pacijenta:",
        "NEW_PATIENT_QUESTION_1_EMPTY": "Popunite ID pacijenta.",
        "NEW_PATIENT_QUESTION_1_EMPTY_HEADER": "ID pacijenta",
        "NEW_PATIENT_QUESTION_1_RANGE": "Uneti ID pacijenta nije u opsegu dozvoljenih ID-ova: {{{ patientIDRange }}}.  Unesite važeći ID pacijenta.",
        "NEW_PATIENT_QUESTION_1_RANGE_HEADER": "ID pacijenta je izvan opsega",
        "NEW_PATIENT_QUESTION_1_UNIQUE": "Pacijent već postoji.  Unesite drugi ID pacijenta.",
        "NEW_PATIENT_QUESTION_1_UNIQUE_HEADER": "ID pacijenta je duplikat",
        "NEW_PATIENT_QUESTION_2": "Inicijali pacijenta:",
        "NEW_PATIENT_QUESTION_2_EMPTY": "Unesite inicijale pacijenta sa najmanje 2 znaka.",
        "NEW_PATIENT_QUESTION_2_EMPTY_HEADER": "Inicijali pacijenta",
        "NEW_PATIENT_QUESTION_3_TITLE": "<div class='question-title-large'>Izaberite jezik</div><div><strong>Centar: {{{ getSiteCode }}}</strong></div><div><strong>Korisnik: {{{ getUserName }}}</strong</div><div><strong>ID pacijenta: {{{ getPatientID }}}</strong></div><br /><br />",
        "NEW_PATIENT_QUESTION_3": "Izaberite jezik za pacijenta",
        "NEW_PATIENT_CANCEL_CONFIRM": "Otkazati dodavanje pacijenta?",
        "NEW_PATIENT_CANCEL_BODY": "Ako sada otkažete, pacijent neće biti registrovan.  Želite li zaista da otkažete?",
        "NEW_PATIENT_AFFIDAVIT_HEADER": "<div><strong>Centar: {{{ getSiteCode }}}</strong><br /><strong>Korisnik: {{{ getUserName }}}</strong><br /><strong>ID pacijenta: {{{ getPatientID }}}</strong></div>",
        "NEXT": "Dalje",
        "NO_RESULTS_FOUND": "Nema pronađenih rezultata.",
        "NOT_AVAILABLE": "Nije dostupno",
        "OK": "U redu",
        "ORDER": "Redosled",
        "PASSWORD": "Lozinka:",
        "PATIENT": "Pacijent",
        "PATIENT_ID": "ID pacijenta:",
        "PATIENT_INITIALS": "Inicijali pacijenta:",
        "PATIENT_DELETED": "Nepoznati pacijent",
        "PATIENT_DELETED_MSG": "Pacijent nije pronađen.",
        "PATIENT_DELETED_SUBJECT_MSG": "Pacijent nije pronađen. Vratite uređaj za to zaduženom osoblju u centru.",
        "PENDING_TRANSMISSIONS": "Prenosi na čekanju",
        "PLEASE_WAIT": "Sačekajte",
        "PLEASE_CONFIRM": "Potvrdite",
        "PLEASE_CONTACT": "Obratite se ERT centru za podršku.",
        "PLEASE_TRY_OR_CONTACT_SUPPORT": "Pokušajte opet ili se obratite ERT centru za podršku.",
        "REASON": "Razlog:",
        "REPORTS_AND_FORMS": "Izveštaji i obrasci",
        "REPORTS_COMPLETED_MESSAGE": "Dovršili ste sve obrasce. Vratite uređaj za to zaduženom osoblju u centru.",
        "REQUIRED_ANSWER": "Popunite potrebne informacije.",
        "RESET_PIN": "Ponovo podesite PIN pacijenta",
        "RESET_USER_PASSWORD": "Ponovo podesite lozinku korisnika",
        "ROLES": "Uloga:",
        "SAVE": "Sačuvaj",
        "SEARCH": "Pretraži",
        "SECURITY_QUESTION_0": "Koje je devojačko prezime vaše majke?",
        "SECURITY_QUESTION_1": "U kom gradu ste rođeni?",
        "SECURITY_QUESTION_2": "Kako se zvao vaš prvi kućni ljubimac?",
        "SECURITY_QUESTION_3": "Koji je vaš omiljeni sport?",
        "SECURITY_QUESTION_4": "Koje godine ste diplomirali?",
        "SECURITY_QUESTION_5": "Koje je srednje ime vašeg najstarijeg deteta?",
        "SECURITY_QUESTION_6": "Kako se zove vaš najbolji prijatelj iz detinjstva?",
        "SECURITY_QUESTION_7": "Kako se preziva vaš učitelj/učiteljica iz trećeg razreda?",
        "SECURITY_QUESTION_8": "U kom gradu je bilo vaše prvo radno mesto?",
        "SECRET_ANSWER": "Odgovor na bezbednosno pitanje:",
        "SECRET_QUESTION": "Bezbednosno pitanje:",
        "SECRET_QUESTION_HELP_TEXT": "Izaberite bezbednosno pitanje na listi u nastavku. Odgovor će se koristiti za prijavu ako zaboravite lozinku.",
        "SECRET_QUESTION_ANSWER": "Bezbednosno pitanje i odgovor",
        "SELECT_LANGUAGE": "Izaberite željeni jezik za centar.",
        "SET_TIMEZONE_MESSAGE": "Izaberite vremensku zonu:",
        "SELECT_SITE_NUMBER": "Izaberite broj centra",
        "SERVICE_URL": "URL usluge",
        "SETTINGS": "Postavke",
        "SETUP_COMPLETE": "Podešavanje je dovršeno",
        "SETUP_COMPLETE_DESC": "Uređaj je podešen i spreman za slanje.  Pritisnite „U redu“ i isključite uređaj na sledećem ekranu.",
        "SETUP_SITE_USER": "Podešavanje korisnika centra",
        "SETUP_SITE_USER_LEGEND": "Podesite korisnika centra za ovaj uređaj.",
        "SITE": "Centar",
        "SITE_ASSESSMENTS": "Procene centra",
        "SIGNATURE_DATA_LIMIT_EXCEEDED": "Vaš potpis nije bilo moguće verno prikazati u okviru za potpis. Umesto toga, potpišite se inicijalima.",
        "SITE_NUMBER": "Broj centra",
        "SITE_ROLE": "Korisnik centra",
        "SITE_SELECTION": "Izbor centra",
        "SKIP_FORM": "Preskoči obrazac",
        "SKIP_QUESTION": "Želite li zaista da preskočite odgovore na ovom ekranu?",
        "SKIP_TO_VISIT": "Preskoči na posetu",
        "SKIP_VISIT": "Preskoči posetu",
        "SKIP_VISITS": "Preskoči posete",
        "SKIP_VISITS_QUESTION_1": "<div class='question-title-large'><strong>Razlog</strong></div><br /><br /><div>Izaberite razlog za preskakanje poseta:</div>",
        "SKIP_VISITS_REASON_0": "Poseta je istekla",
        "SKIP_VISITS_REASON_1": "Greška u administraciji centra",
        "SKIP_VISITS_REASON_2": "Pacijent je propustio zakazan pregled na klinici.",
        "SKIP_VISITS_REASON_3": "Nije primenjivo.",
        "SKIP_VISITS_REASON_4": "Poseta je opcionalna, nije izvršena.",
        "SKIP_VISITS_CANCEL_CONFIRM": "Otkazati preskakanje poseta?",
        "SKIP_VISITS_CANCEL_BODY": "Ako sada otkažete, posete neće biti preskočene. Želite li zaista da otkažete?",
        "SKIPPED" : "Preskočeno",
        "SKIPPED_VISITS": "{{{ skippedVisits }}}",
        "START_FORM": "Pokreni obrazac",
        "START_VISIT": "Pokreni posetu",
        "STATUS": "Status",
        "STATUS_DATE": "Datum statusa",
        "STUDY": "Studija",
        "STUDYWORKS_LOGIN": "Prijava na StudyWorks",
        "SUBJECT_ID": "ID pacijenta",
        "SUBJECT_ROLE": "Pacijent",
        "SUBMIT": "Pošalji",
        "SUPPORT_TOOLS": "Alatke za podršku",
        "SYNC": "Sinhronizacija",
        "SYNC_USERS": "Sinhronizuj korisnike",
        "SYNC_TO_DEVICE": "Sinhronizuj studiju na uređaju",
        "TEMPORARY_PASSWORD_MESSAGE": "Dajte privremenu lozinku novom korisniku. Od njega će se tražiti da kreira novu lozinku kada se prijavi.",
        "TEMP_PASSWORD": "Privremena lozinka: ",
        "UNABLE_TO_GET_SITE_LIST": "Nije moguće dobiti listu centra",
        "UNLOCK_CODE": "Kôd za otključavanje",
        "UNLOCK_CODE_HELP": "Kôd za otključavanje ERT Tablet uređaja možete da nađete u StudyWorks, u okviru SmartReport pod imenom „Kodovi za otključavanje uređaja ERT“. Ukoliko vam je potrebna dodatna pomoć, obratite se ERT službi za podršku.",
        "USER": "Korisnik",
        "USER_ALREADY_EXISTS": "Korisnik već postoji",
        "USER_EDITED": "Korisnik je ažuriran.",
        "USER_TO_ACTIVATE": "<strong>Korisnik za aktiviranje:</strong> <br />{{{ getSelectedUsername }}}<p><strong>Potpis:</strong> {{{ getActiveUserName }}}</p>",
        "SUBJECT_ALREADY_EXISTS": "Pacijent sa ID-om {{{ getPatientIDForDuplicate }}} već postoji",
        "TIME_CONFIRMATION_INSTRUCTIONS": "Potrebno je da uređaj potvrdi lokalno vreme. Unesite datum i vreme na osnovu pouzdanog izvora.",
        "TIME_ZONE_ERROR_HEADER": "Greška vremenske zone",
        "TIME_ZONE_ERROR_MSG": "Došlo je do greške tokom preuzimanja liste vremenskih zona. Ukoliko vam je potrebna dodatna pomoć, obratite se ERT službi za podršku.",
        "TIME_ZONE_SET_ERROR_MSG": "Došlo je do greške prilikom podešavanja vremenske zone. Ukoliko vam je potrebna dodatna pomoć, obratite se ERT službi za podršku.",
        "TIME_ZONE_SET_CONFIRM": "Želite li zaista da podesite vremensku zonu na: <bdo dir='ltr'>{{{selectedTimeZone}}}</bdo>? <br/> Aplikacija može ponovo da se pokrene da bi se primenila promena.",
        "TIME_ZONE_SET_CONFIRM_NOCHANGE": "Želite li zaista da podesite vremensku zonu na: <bdo dir='ltr'>{{{selectedTimeZone}}}</bdo>?",
        "TIME_ZONE_SET_HEADER": "Potvrda podešavanja vremenske zone",
        "TRAINER": "Režim obuke",
        "TRAINER_EXIT": "Napusti režim obuke",
        "TRAINER_EXIT_NOTIFICATION": "Napuštate režim obuke",
        "TRAINER_HEADER": "(Obuka)",
        "USER_ROLE": "Uloga korisnika",
        "USERNAME": "Korisničko ime",
        "USER_NAME": "Korisničko ime:",
        "VISIT": "Poseta",
        "VISIT_COMPLETED_MESSAGE": "Nema drugih obrazaca za ovu posetu.  Ova poseta je sada dovršena.",
        "VISIT_INACTIVE_HEADER": "Neaktivna poseta.",
        "VISIT_INACTIVE_MESSAGE": "Ova poseta više nije aktivna.",
        "VISIT_INACTIVE_MESSAGE_SUBJECT": "Ova poseta više nije aktivna. Vratite uređaj za to zaduženom osoblju u centru.",
        "VISIT_EXPIRED_HEADER": "Poseta je istekla.",
        "VISIT_EXPIRED_MESSAGE": "Ova poseta više nije dostupna jer je istekla.",
        "VISIT_EXPIRED_MESSAGE_SUBJECT": "Ova poseta više nije dostupna jer je istekla. Vratite uređaj za to zaduženom osoblju u centru.",
        "VISITS": "Posete",
        "VISITS_SKIPPED": "Preskočene posete:",
        "VISIT_NAME": "Naziv posete",
        "WELCOME": "Dobro došli",
        "AF-ZA": "afrikans",
        "AR-EG": "arapski",
        "BE-BY": "beloruski",
        "BG-BG": "bugarski",
        "BN-IN": "bengalski",
        "BS-BA": "bosanski",
        "CA-ES": "katalonski",
        "CS-CZ": "češki",
        "DA-DK": "danski",
        "DE-DE": "nemački (Nemačka)",
        "DE-AT": "nemački (Austrija)",
        "EL-GR": "grčki",
        "EN-GB": "engleski (UK)",
        "EN-US": "engleski (SAD)",
        "ES-ES": "španski (Španija)",
        "ES-US": "španski (SAD)",
        "ES-PY": "španski (Univerzalni)",
        "ET-EE": "estonski",
        "FI-FI": "finski",
        "FR-CA": "francuski (Kanada)",
        "FR-FR": "francuski (Francuska)",
        "GD-IE": "gelski",
        "GU-IN": "gudžarati",
        "HE-IL": "hebrejski",
        "HI-IN": "hindi",
        "HR-HR": "hrvatski",
        "HU-HU": "mađarski",
        "IT-IT": "italijanski",
        "JA-JP": "japanski",
        "KA-GE": "gruzijski",
        "KN-IN": "kanada",
        "KO-KR": "korejski",
        "LV-LV": "letonski",
        "LT-LT": "litvanski",
        "ML-IN": "malajalam",
        "MR-IN": "marati",
        "MS-MY": "malajski",
        "NB-NO": "norveški",
        "NL-BE": "holandski (Belgija)",
        "NL-NL": "holandski (Holandija)",
        "PA-IN": "pundžapski",
        "PL-PL": "poljski",
        "PT-BR": "portugalski (Brazil)",
        "PT-PT": "portugalski (Portugal)",
        "RO-RO": "rumunski",
        "RU-RU": "ruski",
        "SL-SL": "slovenački",
        "SK-SK": "slovački",
        "SR-RS": "srpski (Latinica)",
        "SR-SP": "srpski (Ćirilica)",
        "ST-ZA": "soto",
        "SV-SE": "švedski",
        "TA-IN": "tamilski",
        "TE-IN": "telugu",
        "TH-TH": "tajlandski",
        "TL-PH": "tagalog",
        "TN-ZA": "tsvana",
        "TR-TR": "turski",
        "UK-UA": "ukrajinski",
        "UR-IN": "urdu",
        "VI-VN": "vijetnamski",
        "XH-ZA": "kosa",
        "ZH-CN": "kineski (Kina)",
        "ZH-TW": "kineski (Tajvan)",
        "ZU-ZU": "zulu",
        "HAND_DEVICE_SUBJECT_BODY": "Sledeći obrazac mora da popuni {{{ patientOrRole }}}. Odjavite se pa dajte uređaj {{{ patientOrRole }}}.",
        "HAND_DEVICE_SUBJECT_TITLE": "Pokretanje obrasca {{{ formTitle }}}",
        "SKIP_VISIT_TITLE": "Preskočiti posete?",
        "SKIP_VISIT_TEXT": "Ako nastavite, sledeće posete će biti preskočene:<br/> {{{ skippedVisits }}} Nastaviti i preskočiti ove posete sada?",
        "YES": "Da",
        "NO": "Ne",
        "TIME_LBL": "Vreme:",
        "SET_TIME": "Podešavanje vremena",
        "DATE_LBL": "Datum:",
        "CREATE_PERMANENT_PASSWORD_TITLE": "Kreiranje trajne lozinke",
        "USER_ID": "ID korisnika:",
        "PHASE": "Faza",
        "LAST_VISIT": "Poslednja dovršena poseta",
        "CONNECTION_REQUIRED": "Potrebna je veza sa Internetom.",
        "RETRY": "Pokušaj opet",
        "UPDATE_FAILURE": "Ažuriranje nije dovršeno",
        "UPDATE_SUCCESS": "Ažuriranje je uspelo",
        "CANCEL_PERMANENT_PASSWORD_TITLE": "Otkazati kreiranje trajne lozinke?",
        "CANCEL_PERMANENT_PASSWORD_TEXT": "Ako sada otkažete, trajna lozinka neće biti kreirana. Potrebna vam je trajna lozinka da biste mogli da počnete da koristite ERT. Želite li zaista da otkažete?",
        "ACCOUNT_CONFIGURED_TITLE": "Podešavanje naloga je dovršeno",
        "ACCOUNT_CONFIGURED_TEXT": "Sada ste dovršili podešavanje naloga, možete da nastavite da koristite sistem eCOA.",
        "LOGGED_IN_AS": "Prijavljen kao",
        "EDIT_PATIENT_AFFIDAVIT_HEADER": "<p class='question-title-large'>Potpis</p><br />",
        "EDIT_PATIENT_AFF": "Potpisom u nastavku izjavljujem da imam ovlašćenje za uređivanje ovog pacijenta.<br /><br />ID pacijenta: {{{ getPatientIdNumber }}}<br /><br />Potpis: {{{ getActiveUserName }}}",
        "PASSWORD_MISMATCH": "Potvrda lozinke se ne podudara sa lozinkom",
        "FIRST_USER_AFFIDAVIT": "Potpisom u nastavku izjavljujem da sam glavni istraživač ili ovlašćeni predstavnik za kreiranje naloga na ovom sistemu.<br /><br />Potpis: {{{ getFirstUsername }}}",
        "INCOMPLETE": "Nedovršeno",
        "INVALID_ENTRY": "Nevažeći unos",
        "PLEASE_ANSWER_SQ": "Odgovorite na bezbednosno pitanje:",
        "FORGOT_SECRET_ANSWER": "Zaboravili ste odgovor na bezbednosno pitanje?",
        "CONTACT_STUDY_COORDINATOR": "Obratite se koordinatoru studije",
        "ENTER_NEW_PASSWORD": "Nova lozinka:",
        "CONTACT_UNLOCK_CODE": "Zatražite današnji kôd za otključavanje od koordinatora studije:",
        "CURRENT_DATE": "{{{ currentDate }}}",
        "TEMPORARY_UNLOCK_CODE": "Unesite kôd za otključavanje dobijen od koordinatora studije.",
        "RESET_SECRET_QUESTION": "Ponovno podešavanje bezbednosnog pitanja",
        "SECRET_QUESTION_CHANGE_SUCCESS": "Uspešno ste ažurirali svoju lozinku i bezbednosno pitanje.",
        "RESET_PASSWORD": "Ponovno podešavanje lozinke",
        "ANSWER_ATTEMPT_EXCEEDED": "Previše puta ste uneli netačan odgovor ili ste kliknuli na vezu za zaboravljeni odgovor na bezbednosno pitanje.",
        "PASSWORD_ATTEMPT_EXCEEDED": "Previše puta ste uneli netačnu lozinku ili ste kliknuli na vezu za zaboravljenu lozinku.",
        "PASSWORD_CHANGE_SUCCESS": "Uspešno ste ažurirali svoju lozinku.",
        "CHANGE_PASSWORD": "Promena lozinke",
        "CHANGE_SECRET_QUESTION": "Promena bezbednosnog pitanja",
        "SYNC_COMPLETE": "Sinhronizacija je dovršena",
        "INCORRECT_ANSWER": "Netačan odgovor",
        "INCORRECT_UNLOCK_CODE": "Netačan kôd za otključavanje",
        "PASSWORD_INVALID": "Netačna lozinka",
        "SUBJECT": "Pacijent",
        "PATIENT_ADDED": "Pacijent je dodat",
        "SITE_ADMINISTRATOR": "Administrator centra",
        "LOW_BATTERY": "Upozorenje: Baterija je skoro prazna. Uključite uređaj u napajanje da bi se napunio.",
        "CRITICAL_BATTERY": "Upozorenje: Baterija je skoro potpuno prazna. Priključite uređaj da se puni ili će se isključiti.",
        "TIME_CONFIRMATION_HEADER": "Potvrđivanje vremenske zone",
        "IMAGE_FOLDER": "{{{ imageFolder }}}",
        "TIMESLIP_ERROR": "Vreme ili datum na uređaju nisu ispravni. Pomerite se na lokaciju sa internet vezom i pokušajte ponovo. Ukoliko i dalje nailazite na poteškoće, obratite se ERT korisničkoj službi.",
        "SUPPORT": "Korisnička podrška",
        "SUPPORT_MESSAGE": "Korisnici iz Sjedinjenih Država mogu da stupe u kontakt sa ERT korisničkim centrom putem broja telefona 800-748-5669. Međunarodni korisnici treba da izaberu najbližu zemlju od zemalja navedenih u nastavku:",
        "SUPPORT_DROPDOWN": "Izaberite svoju zemlju",
        "SUPPORT_NAME_ARGENTINA": "Argentina",
        "SUPPORT_NUMBER_ARGENTINA": "<bdo dir='ltr'>0800 444 0962</bdo>",
        "SUPPORT_NAME_ARMENIA": "Jermenija",
        "SUPPORT_NUMBER_ARMENIA": "<bdo dir='ltr'>+1 617 681 6306</bdo>",
        "SUPPORT_NAME_AUSTRALIA": "Australija",
        "SUPPORT_NUMBER_AUSTRALIA": "<bdo dir='ltr'>1 800 800 051</bdo>",
        "SUPPORT_NAME_AUSTRIA": "Austrija",
        "SUPPORT_NUMBER_AUSTRIA": "<bdo dir='ltr'>0800 100 405</bdo>",
        "SUPPORT_NAME_BELARUS": "Belorusija",
        "SUPPORT_NUMBER_BELARUS": "<bdo dir='ltr'>8 820 0321 0036</bdo>",
        "SUPPORT_NAME_BELGIUM": "Belgija",
        "SUPPORT_NUMBER_BELGIUM_1": "(engleski): <bdo dir='ltr'>0800 58 016</bdo>",
        "SUPPORT_NUMBER_BELGIUM_2": "(francuski): <bdo dir='ltr'>0800 71 076</bdo>",
        "SUPPORT_NUMBER_BELGIUM_3": "(nemački): <bdo dir='ltr'>0800 71 113</bdo>",
        "SUPPORT_NAME_BRAZIL": "Brazil",
        "SUPPORT_NUMBER_BRAZIL": "<bdo dir='ltr'>0800 891 5909</bdo>",
        "SUPPORT_NAME_BOSNIA": "Bosna",
        "SUPPORT_NUMBER_BOSNIA": "<bdo dir='ltr'>+1 617 681 6306</bdo>",
        "SUPPORT_NAME_BULGARIA": "Bugarska",
        "SUPPORT_NUMBER_BULGARIA": "<bdo dir='ltr'>00800 0010</bdo>, a zatim <bdo dir='ltr'>866 245 4931</bdo>",
        "SUPPORT_NAME_CANADA": "Kanada",
        "SUPPORT_NUMBER_CANADA": "<bdo dir='ltr'>1 800 748 5669</bdo>",
        "SUPPORT_NAME_CHILE": "Čile",
        "SUPPORT_NUMBER_CHILE": "<bdo dir='ltr'>123 0020 3408</bdo>",
        "SUPPORT_NAME_CHINA": "Kina",
        "SUPPORT_NUMBER_CHINA_1": "NetCom (sever): <bdo dir='ltr'>1 0800 74 40 164</bdo>",
        "SUPPORT_NUMBER_CHINA_2": "Telecom (jug): <bdo dir='ltr'>1 0800 44 00 158</bdo>",
        "SUPPORT_NAME_COLOMBIA": "Kolumbija",
        "SUPPORT_NUMBER_COLOMBIA": "<bdo dir='ltr'>01 800 911 0010</bdo>, a zatim <bdo dir='ltr'>866 310 3707</bdo>",
        "SUPPORT_NAME_COSTA_RICA": "Kostarika",
        "SUPPORT_NUMBER_COSTA_RICA": "<bdo dir='ltr'>0800 013 1210</bdo>",
        "SUPPORT_NAME_CROATIA": "Hrvatska",
        "SUPPORT_NUMBER_CROATIA": "<bdo dir='ltr'>0800 222 953</bdo>",
        "SUPPORT_NAME_CZECH_REPUBLIC": "Češka Republika",
        "SUPPORT_NUMBER_CZECH_REPUBLIC": "<bdo dir='ltr'>800 142 150</bdo>",
        "SUPPORT_NAME_DENMARK": "Danska",
        "SUPPORT_NUMBER_DENMARK": "<bdo dir='ltr'>80 60 00 09</bdo>",
        "SUPPORT_NAME_EGYPT": "Egipat",
        "SUPPORT_NUMBER_EGYPT": "<bdo dir='ltr'>02 510 0200</bdo>, a zatim <bdo dir='ltr'>866 310 3707</bdo>",
        "SUPPORT_NAME_EL_SALVADOR": "El Salvador",
        "SUPPORT_NUMBER_EL_SALVADOR": "<bdo dir='ltr'>+1 617 681 6306</bdo>",
        "SUPPORT_NAME_ESTONIA": "Estonija",
        "SUPPORT_NUMBER_ESTONIA": "<bdo dir='ltr'>800 00 44 154</bdo>",
        "SUPPORT_NAME_FINLAND": "Finska",
        "SUPPORT_NUMBER_FINLAND": "<bdo dir='ltr'>0800 11 6366</bdo>",
        "SUPPORT_NAME_FRANCE": "Francuska",
        "SUPPORT_NUMBER_FRANCE": "<bdo dir='ltr'>0800 10 19 79</bdo>",
        "SUPPORT_NAME_GERMANY": "Nemačka",
        "SUPPORT_NUMBER_GERMANY": "<bdo dir='ltr'>0800 101 28 21</bdo>",
        "SUPPORT_NAME_GREECE": "Grčka",
        "SUPPORT_NUMBER_GREECE": "<bdo dir='ltr'>00 800 1311</bdo>, a zatim <bdo dir='ltr'>866 310 3707</bdo>",
        "SUPPORT_NAME_GUATEMALA": "Gvatemala",
        "SUPPORT_NUMBER_GUATEMALA": "<bdo dir='ltr'>1 800 624 0079</bdo>",
        "SUPPORT_NAME_HONG_KONG": "Hongkong",
        "SUPPORT_NUMBER_HONG_KONG": "<bdo dir='ltr'>3002 1665</bdo>",
        "SUPPORT_NAME_HUNGARY": "Mađarska",
        "SUPPORT_NUMBER_HUNGARY": "<bdo dir='ltr'>06 800 14 571</bdo>",
        "SUPPORT_NAME_ICELAND": "Island",
        "SUPPORT_NUMBER_ICELAND": "<bdo dir='ltr'>800 8544</bdo>",
        "SUPPORT_NAME_INDIA": "Indija",
        "SUPPORT_NUMBER_INDIA": "<bdo dir='ltr'>000 800 440 1125</bdo>",
        "SUPPORT_NAME_INDONESIA": "Indonezija",
        "SUPPORT_NUMBER_INDONESIA": "<bdo dir='ltr'>008 800 330 334</bdo>",
        "SUPPORT_NAME_IRELAND": "Irska",
        "SUPPORT_NUMBER_IRELAND": "<bdo dir='ltr'>1 800 946 700</bdo>",
        "SUPPORT_NAME_ISRAEL": "Izrael",
        "SUPPORT_NUMBER_ISRAEL": "<bdo dir='ltr'>1 809 470 062</bdo>",
        "SUPPORT_NAME_ITALY": "Italija",
        "SUPPORT_NUMBER_ITALY": "<bdo dir='ltr'>800 90 56 37</bdo>",
        "SUPPORT_NAME_JAPAN": "Japan",
        "SUPPORT_NUMBER_JAPAN": "Pogledajte Vodič sa informacijama o ePRO studiji da biste pronašli besplatan broj telefona za svoju studiju",
        "SUPPORT_NAME_LATVIA": "Letonija",
        "SUPPORT_NUMBER_LATVIA": "<bdo dir='ltr'>8000 2151</bdo>",
        "SUPPORT_NAME_LEBANON": "Liban",
        "SUPPORT_NUMBER_LEBANON": "<bdo dir='ltr'>01-426-801</bdo>, a zatim <bdo dir='ltr'>866 310 3707</bdo>",
        "SUPPORT_NAME_LITHUANIA": "Litvanija",
        "SUPPORT_NUMBER_LITHUANIA": "<bdo dir='ltr'>8800 30207</bdo>",
        "SUPPORT_NAME_MALAYSIA": "Malezija",
        "SUPPORT_NUMBER_MALAYSIA": "<bdo dir='ltr'>1800 80 59 71</bdo>",
        "SUPPORT_NAME_MEXICO": "Meksiko",
        "SUPPORT_NUMBER_MEXICO_1": "(engleski): <bdo dir='ltr'>001 800 748 5669</bdo> ",
        "SUPPORT_NUMBER_MEXICO_2": "(španski): <bdo dir='ltr'>001 855 631 6952</bdo>",
        "SUPPORT_NAME_MOLDOVA": "Moldavija",
        "SUPPORT_NUMBER_MOLDOVA": "<bdo dir='ltr'>617 681 6306</bdo>",
        "SUPPORT_NAME_NETHERLANDS": "Holandija",
        "SUPPORT_NUMBER_NETHERLANDS": "<bdo dir='ltr'>0800 023 1389</bdo>",
        "SUPPORT_NAME_NEW_ZEALAND": "Novi Zeland",
        "SUPPORT_NUMBER_NEW_ZEALAND": "<bdo dir='ltr'>0800 110 178</bdo>",
        "SUPPORT_NAME_NORWAY": "Norveška",
        "SUPPORT_NUMBER_NORWAY": "<bdo dir='ltr'>800 62 051</bdo>",
        "SUPPORT_NAME_PAKISTAN": "Pakistan",
        "SUPPORT_NUMBER_PAKISTAN": "<bdo dir='ltr'>00 800 0100</bdo>, a zatim <bdo dir='ltr'>866 237 9767</bdo>",
        "SUPPORT_NAME_PANAMA": "Panama",
        "SUPPORT_NUMBER_PANAMA": "<bdo dir='ltr'>001 800 201 3095</bdo>",
        "SUPPORT_NAME_PERU": "Peru",
        "SUPPORT_NUMBER_PERU": "<bdo dir='ltr'>0800 5 0974</bdo>",
        "SUPPORT_NAME_PHILIPPINES": "Filipini",
        "SUPPORT_NUMBER_PHILIPPINES": "<bdo dir='ltr'>1 800 1116 0651</bdo>",
        "SUPPORT_NAME_POLAND": "Poljska",
        "SUPPORT_NUMBER_POLAND": "<bdo dir='ltr'>00800 331 1262</bdo>",
        "SUPPORT_NAME_PORTUGAL": "Portugal",
        "SUPPORT_NUMBER_PORTUGAL": "<bdo dir='ltr'>800 206 172</bdo>",
        "SUPPORT_NAME_PUERTO_RICO": "Portoriko (teritorija SAD)",
        "SUPPORT_NUMBER_PUERTO_RICO": "<bdo dir='ltr'>1 800 748 5669</bdo>",
        "SUPPORT_NAME_ROMANIA": "Rumunija",
        "SUPPORT_NUMBER_ROMANIA": "<bdo dir='ltr'>0800 894492</bdo>",
        "SUPPORT_NAME_RUSSIA": "Rusija",
        "SUPPORT_NUMBER_RUSSIA_1": "(primarni – besplatni): <bdo dir='ltr'>8 10 800 249 13011</bdo>",
        "SUPPORT_NUMBER_RUSSIA_2": "(u Moskvi) : <bdo dir='ltr'>363-2400</bdo> <br>, a zatim <bdo dir='ltr'>866 310 3707</bdo>",
        "SUPPORT_NUMBER_RUSSIA_3": "(izvan Moskve) : <bdo dir='ltr'>8^(495) 363-2400</bdo> <br>, a zatim <bdo dir='ltr'>866 310 3707</bdo>",
        "SUPPORT_NUMBER_RUSSIA_4": "(u Sankt Peterburgu) : <bdo dir='ltr'>363-2400</bdo> <br>, a zatim <bdo dir='ltr'>866 310 3707</bdo>",
        "SUPPORT_NUMBER_RUSSIA_5": "(izvan Sankt Peterburga) : <bdo dir='ltr'>8^(495) 363-2400</bdo> <br>, a zatim <bdo dir='ltr'>866 310 3707</bdo>",
        "SUPPORT_NAME_SAUDI_ARABIA": "Saudijska Arabija",
        "SUPPORT_NUMBER_SAUDI_ARABIA": "<bdo dir='ltr'>+1 617 681 6306</bdo>",
        "SUPPORT_NAME_SERBIA": "Srbija",
        "SUPPORT_NUMBER_SERBIA": "<bdo dir='ltr'>+1 617 973 1739</bdo>",
        "SUPPORT_NAME_SINGAPORE": "Singapur",
        "SUPPORT_NUMBER_SINGAPORE": "<bdo dir='ltr'>800 616 30 03</bdo>",
        "SUPPORT_NAME_SLOVAKIA": "Slovačka",
        "SUPPORT_NUMBER_SLOVAKIA": "<bdo dir='ltr'>0800 0044 65</bdo>",
        "SUPPORT_NAME_SLOVENIA": "Slovenija",
        "SUPPORT_NUMBER_SLOVENIA": "<bdo dir='ltr'>+1 617 681 6306</bdo>",
        "SUPPORT_NAME_SOUTH_AFRICA": "Južna Afrika",
        "SUPPORT_NUMBER_SOUTH_AFRICA": "<bdo dir='ltr'>0800 99 5853</bdo>",
        "SUPPORT_NAME_SOUTH_KOREA": "Južna Koreja",
        "SUPPORT_NUMBER_SOUTH_KOREA": "<bdo dir='ltr'>00308 33 00 08</bdo>",
        "SUPPORT_NAME_SPAIN": "Španija",
        "SUPPORT_NUMBER_SPAIN": "<bdo dir='ltr'>900 90 2541</bdo>",
        "SUPPORT_NAME_SWEDEN": "Švedska",
        "SUPPORT_NUMBER_SWEDEN": "<bdo dir='ltr'>020 120 99 69</bdo>",
        "SUPPORT_NAME_SWITZERLAND": "Švajcarska",
        "SUPPORT_NUMBER_SWITZERLAND_1": "(engleski): <bdo dir='ltr'>0800 199 325</bdo>",
        "SUPPORT_NUMBER_SWITZERLAND_2": "(francuski): <bdo dir='ltr'>0800 891 183</bdo>",
        "SUPPORT_NUMBER_SWITZERLAND_3": "(nemački): <bdo dir='ltr'>0800 891 025</bdo>",
        "SUPPORT_NAME_TAIWAN": "Tajvan",
        "SUPPORT_NUMBER_TAIWAN": "<bdo dir='ltr'>00801 33 33 42</bdo>",
        "SUPPORT_NAME_THAILAND": "Tajland",
        "SUPPORT_NUMBER_THAILAND": "<bdo dir='ltr'>1 800 33 140 353</bdo>",
        "SUPPORT_NAME_TUNISIA": "Tunis",
        "SUPPORT_NUMBER_TUNISIA": "<bdo dir='ltr'>+1 617 681 6306</bdo>",
        "SUPPORT_NAME_TURKEY": "Turska",
        "SUPPORT_NUMBER_TURKEY": "<bdo dir='ltr'>00 800 151 1335</bdo>",
        "SUPPORT_NAME_UKRAINE": "Ukrajina",
        "SUPPORT_NUMBER_UKRAINE": "<bdo dir='ltr'>0^00 11</bdo>, a zatim <bdo dir='ltr'>866 245 4931</bdo>",
        "SUPPORT_NAME_UAE": "Ujedinjeni Arapski Emirati",
        "SUPPORT_NUMBER_UAE": "<bdo dir='ltr'>8000-021</bdo>, a zatim <bdo dir='ltr'>866 310 3707</bdo>",
        "SUPPORT_NAME_UK": "Ujedinjeno Kraljevstvo",
        "SUPPORT_NUMBER_UK": "<bdo dir='ltr'>0800 015 0408</bdo>",
        "SUPPORT_NAME_US": "Sjedinjene Države",
        "SUPPORT_NUMBER_US_1": "(glavni): <bdo dir='ltr'>1 800 748 5669</bdo>",
        "SUPPORT_NUMBER_US_2": "(rezervni): <bdo dir='ltr'>1 877 748 5669</bdo>",
        "SUPPORT_NAME_VENEZUELA": "Venecuela",
        "SUPPORT_NUMBER_VENEZUELA_1": "(engleski): <bdo dir='ltr'>0 800 552 6288</bdo>, <br> a zatim <bdo dir='ltr'>866 310 3707</bdo> ",
        "SUPPORT_NUMBER_VENEZUELA_2": "(španski): <bdo dir='ltr'>0 800 100 3063</bdo> ",
        "STUDY_VERSION": "Verzija studije:",
        "STUDY_URL": "URL studije:",
        "P_AFFIDAVIT_HEADER": "<div><strong>Centar: {{{ getSiteCode }}}</strong><br /><strong>ID pacijenta: {{{ getPatientIdNumber }}}</strong></div>",
        "DEVICE_SERIAL_NUMBER": "Serijski broj uređaja",
        "PROTOCOL": "Protokol:",
        "SPONSOR": "Sponzor:",
        "STORED_REPORTS": "Sačuvani obrasci:",
        "CORE_PRODUCT_VERSION_LABEL": "Verzija proizvoda:",
        "ABOUT": "Informacije",
        "SET_TIMEZONE": "Podešavanje vremenske zone",
        "NONEXISTENT_USER": "Pokušaj ažuriranja nepostojećeg korisnika.",
        "SCREENING" : "Skrining",
        "TREATMENT" : "Lečenje",
        "RANDOMIZATION" : "Randomizacija",
        "FOLLOWUP" : "Kontrolni pregled",
        "TERMINATION" : "Prekid",
        "ACCEPT": "Prihvatam",
        "DECLINE": "Odbijam",
        "EULA": "LICENCA KRAJNJEG KORISNIKA",
        "EULA_TEXT": "<p><strong><span class=\"text-underline\">VAŽNO</span>:  NEMOJTE KLIKNUTI NA DUGME „PRIHVATAM“ DOK NE PROČITATE OVAJ UGOVOR.  KLIKOM NA DUGME „PRIHVATAM“ PRIHVATATE SVE ODREDBE OVOG UGOVORA.  AKO NE PRIHVATATE SVE ODREDBE OVOG UGOVORA (1) NEMOJTE KLIKNUTI NA DUGME „PRIHVATAM“, (2) PREKINITE PROCES INSTALACIJE I LICENCIRANJA KLIKOM NA DUGME „ODBIJAM“.</strong></p><p>eResearchTechnology, Inc. („Davalac licence“) vam daje neekskluzivno i neprenosivo pravo da koristite softver kompanije eResearchTechnology, Inc. u ovom uređaju („Softver“) u vezi sa vašim učešćem u ugovoru o kliničkom ispitivanju: <strong>{{{ clinicalTrial }}}</strong>.  Kompanija eResearchTechnology, Inc. poseduje izdate patente i patente na čekanju.  Ovaj ugovor vam ne prenosi nikakva prava vlasništva u vezi sa bilo kojim softverom (niti njegovim kopijama), već predstavlja samo licencu za korišćenje softvera u skladu sa svim odredbama ovog ugovora.  Pravo na softver i sve njegove delove i sva vlasnička i intelektualna prava svojine u okviru njega ostaju u vlasništvu davaoca licence u svakom trenutku.</p><p>Prihvatate da nećete, direktno niti indirektno, (i) podvrgnuti softver obrnutom inžinjeringu, rasklopiti ga ili rastaviti; (ii) kopirati, distribuirati, proizvoditi, adaptirati, kreirati njegove izvedene delove, prevoditi, lokalizovati, prenositi na druge uređaje niti na neki drugi način modifikovati softver; niti (iii) ukloniti ili izmeniti bilo koje autorsko pravo, poslovnu tajnu ili drugo pravno obaveštenje koje se nalazi na ili u softveru.  PRIHVATATE I SLAŽETE SE S TIM DA SOFTVER MOŽE DA SADRŽI KÔD KOJI SPREČAVA NEOVLAŠĆENO KORIŠĆENJE SOFTVERA.</p><br><p>AKO PRIHVATATE SVE GORENAVEDENO, izaberite stavku – <strong>Prihvatam</strong> – Klikom na „Prihvatam“ potvrđujete da prihvatate uslove licenciranja.</p><p>AKO NE PRIHVATATE SVE GORENAVEDENO ili niste ovlašćeni da prihvatite, izaberite – <strong>Odbijam</strong> – i u tom slučaju će vam dalji pristup softveru biti onemogućen.  Ukoliko ste ovlašćeni, uslove možete da prihvatite i kasnije.</p>",
        "SQ-AL": "albanski",
        "MODAL_OK_TEXT": "U redu",
        "BROWSER_LOAD_ERROR": "Stranica nije pronađena. Proverite vezu sa internetom i pokušajte ponovo.",
        "NO_USER_OF_ROLE" : "Nije pronađen korisnik sa tom ulogom.",
        "EDIT_PATIENT_REASON_1": "Ispravka podataka atributa",
        "EDIT_PATIENT_REASON_2": "Promena ID-a",
        "EDIT_PATIENT_REASON_3": "Izabran je netačan jezik",
        "START_VISIT_OUTSIDE_WINDOW_MSG" : "Unesite {{{ getVisitName }}} van konfigurisanog prozora vremena: {{{ startDate }}} - {{{ endDate }}}",
        "START_VISIT_HARD_STOP_MSG" : "Ne možete da unesete {{{ getVisitName }}} van konfigurisanog prozora vremena: {{{ startDate }}} - {{{ endDate }}}",
        "USER_NAME_INVALID_CHARACTERS" : "Ne koristite specijalne znakove",
        "ERROR_PATIENT_SAVE" : "Došlo je do greške prilikom dodavanja novog pacijenta",
        "PASSWORD_CHANGE_FAILED" : "Za prikupljanje vaših podataka o studiji aktiviran je drugi uređaj. Promenite lozinku na tom uređaju.",
        "ERROR" : "Greška.  Obratite se ERT centru za podršku.",
        "ERROR_AFTER_ACTIVATION_SUCCESSFUL" : "Došlo je do greške. Potrebno je da unesete svoj kôd za podešavanje i lozinku.",
        "CONNECTION_TIMEOUT" : "Isteklo je vreme veze.",
        "UPDATE_FAILED" : "Ažuriranje ERT uređaja nije dovršeno. Uverite se da je uređaj povezan sa Internetom i pokušajte ponovo.",
        "QR_CODE_UNAVAILABLE": "Kliknite na pacijenta da biste osvežili QR.",
        "QR_MODAL_TITLE": "QR kôd za: ",
        "TRANSMIT_FAILED_403_14": "Jedan ili više prenosa nije uspelo zbog nedovršenog kreiranja pacijenta. Sačekajte i pokušajte ponovo.",
        "CONSOLE_LOG": "Evidencija konzole",
        "USER_SELECT_ROLE_VALIDATION": "Potreban je izbor uloge.",
        "USER_SELECT_LANGUAGE_VALIDATION": "Potreban je izbor jezika."
    },
    "dates": {
        "setDateButtonLabel": "Podešavanje datuma",
        "setTimeButtonLabel": "U redu",
        "setDurationButtonLabel": "Podesi trajanje",
        "calTodayButtonLabel": "Preskoči na danas",
        "titleDateDialogLabel": "Podešavanje datuma",
        "titleTimeDialogLabel": "Podešavanje vremena",
        "daysOfWeek": [
            "nedelja",
            "ponedeljak",
            "utorak",
            "sreda",
            "četvrtak",
            "petak",
            "subota"
        ],
        "daysOfWeekShort": [
            "Ne",
            "Po",
            "Ut",
            "Sr",
            "Če",
            "Pe",
            "Su"
        ],
        "monthsOfYear": [
            "januar",
            "februar",
            "mart",
            "april",
            "maj",
            "jun",
            "jul",
            "avgust",
            "septembar",
            "oktobar",
            "novembar",
            "decembar"
        ],
        "monthsOfYearShort": [
            "jan",
            "feb",
            "mar",
            "apr",
            "maj",
            "jun",
            "jul",
            "avg",
            "sep",
            "okt",
            "nov",
            "dec"
        ],
        "durationLabel": [
            "Dani",
            "Sati",
            "Minuti",
            "Sekunde"
        ],
        "durationDays": [
            "Dan",
            "Dani"
        ],
        "tooltip": "Otvori Izbor datuma",
        "nextMonth": "Sledeći mesec",
        "prevMonth": "Prethodni mesec",
        "clearButton": "Obriši",
        "meridiem": [
            "AM",
            "PM"
        ]
    }
}
