{
    "namespace": "CORE",
    "language": "cy",
    "locale": "GB",
    "localized": "Cymraeg",
    "direction": "ltr",
    "resources": {
        "ACCEPT": "Rwy'n derbyn",
        "ACTIVE": "Gweithredol",
        "ACTIVATE_USER": "Ysgogi Defnyddiwr",
        "ACTIVATE_USER_CANCEL_CONFIRM": "Canslo'r Broses Ysgogi?",
        "ACTIVATE_USER_CANCEL_BODY": "Os byddwch chi'n canslo nawr, ni fydd defnyddiwr y safle'n cael ei ysgogi. Ydych chi'n siŵr eich bod am ganslo?",
        "ACTIVATE_USER_AFF": "Drwy lofnodi isod, rwyf drwy hyn yn nodi bod gennyf awdurdod i ysgogi'r defnyddiwr safle hwn.",
        "ACTIVATE_USER_CONFIRM_INFORMATION": "A fyddech cystal â chadarnhau bod y wybodaeth isod yn perthyn i'r defnyddiwr safle rydych chi am ei ysgogi.",
        "ADD_PATIENT": "Ychwanegu Claf Newydd",
        "ADD_USER": "Ychwanegu Defnyddiwr",
        "AFFIDAVIT": "Dewiswch Iawn ac yna Nesaf pan fyddwch chi'n barod i gadw'ch ymatebion.",
        "AFFIDAVIT_HELP": "Diolch. Rydych chi wedi darparu pob ymateb gofynnol. Fe allwch chi wirio a newid eich ymatebion drwy ddewis Yn ôl.",
        "P_AFFIDAVIT_HEADER": "<div><strong>Safle: {{{ getSiteCode }}}</strong><br /><strong>ID Claf: {{{ getPatientIdNumber }}}</strong></div>",
        "ALL_QUESTIONNAIRES_COMPLETED": "Wedi Llenwi Pob Ffurflen",
        "APP_NAME": "ERT",
        "APPLICATION_HEADER": "{{{ appHeader }}}",
        "APP_NAME_LBL": "Enw'r Ap",
        "APP_VERSION": "Fersiwn yr Ap",
        "ASSIGNED_TO": "Wedi'i Neilltuo i",
        "AVAILABLE": "Ar gael",
        "BACK": "Yn ôl",
        "BACK_OUT_CONFIRM": "Ydych chi'n siŵr eich bod am adael? Bydd yr ymatebion ar gyfer y ffurflen hon yn cael eu colli.",
        "BLUETOOTH_REG_REFRESH_BUTTON": "Adnewyddu'r Rhestr",
        "CANCEL": "Canslo",
        "CHECK_FOR_UPDATES": "Gwirio a oes Diweddariadau ar gael",
        "CHOOSE_A_SITE": "Neilltuo'r ddyfais hon i safle penodol.",
        "COMPLETED": "Wedi Cwblhau",
        "CONFIRM_PASSWORD": "Cadarnhau'r Cyfrinair:",
        "CONFIRM_TEMP_PASS": "Cadarnhau'r Cyfrinair Dros Dro:",
        "CONSOLE_LOG": "Log Consol",
        "CONTINUE": "Parhau",
        "COUNTRY": "Gwlad",
        "CUSTOM_ENVIRONMENT": "Amgylchedd Personol",
        "DEACTIVATE_PATIENT": "Dadysgogi Claf",
        "DEACTIVATE_USER": "Dadysgogi Defnyddiwr",
        "DEACTIVATED": "Wedi dadysgogi",
        "DEACTIVATE_USER_CANCEL_CONFIRM": "Canslo'r Broses Ddadysgogi?",
        "DEACTIVATE_USER_CANCEL_BODY": "Os byddwch chi'n canslo nawr, ni fydd defnyddiwr y safle'n cael ei ddadysgogi. Ydych chi'n siŵr eich bod am ganslo?",
        "DEACTIVATE_USER_AFF": "Drwy lofnodi isod, rwyf drwy hyn yn nodi bod gennyf awdurdod i ddadysgogi'r defnyddiwr safle hwn.",
        "DEACTIVATE_USER_SIG": "<strong>Defnyddiwr i'w ddadysgogi:</strong> <br />{{{ getSelectedUsername }}}<br /><br /><strong>Llofnod:</strong> {{{ getActiveUserName }}}",
        "DEACTIVATE_USER_CONFIRM_INFORMATION": "A fyddech cystal â chadarnhau bod y wybodaeth isod yn perthyn i'r defnyddiwr safle rydych chi am ei ddadysgogi.",
        "DECLINE": "Rwy'n gwrthod",
        "DEVICE_ID": "ID Dyfais",
        "DEVICE_REGISTRATION_FAILURE": "Wedi methu cofrestru'r ddyfais.",
        "DEVICE_UUIID": "UUID Dyfais",
        "BATTERY_LEVEL": "Lefel batri",
        "DEVICE_INFO": "Gwybodaeth am y Ddyfais",
        "DIARY_TIMEOUT": "Mae'r cysylltiad â'r ffurflen hon wedi dod i ben.",
        "EDIT_MY_INFO": "Golygu fy Ngwybodaeth",
        "EDIT_PATIENT": "Golygu Claf",
        "EDIT_PATIENT_QUESTION_1_MAIN_TITLE": "<div class='question-title-large'>Hunaniaeth Claf </div><div>ystod ID ar gyfer y safle hwn:<br /><strong> {{{ patientIDRange }}}</strong></div><div class='edit-patient-id'>ID Claf:<br /><strong>{{{ getPatientIdNumber }}} ({{{getPatientInitials}}})</strong</div><br /><br />",
        "EDIT_PATIENT_QUESTION_1": "ID Claf:",
        "EDIT_PATIENT_QUESTION_1_EMPTY": "Rhowch ID y claf.",
        "EDIT_PATIENT_QUESTION_1_EMPTY_HEADER": "ID Claf",
        "EDIT_PATIENT_QUESTION_1_RANGE": "Dydy'r ID Claf rydych chi wedi'i roi ddim o fewn yr ystod o IDs sy'n cael eu caniatáu: {{{ patientIDRange }}}.  Rhowch ID Claf dilys.",
        "EDIT_PATIENT_QUESTION_1_RANGE_HEADER": "Mae'r ID claf allan o'r ystod",
        "EDIT_PATIENT_QUESTION_1_UNIQUE": "Mae'r claf yn bodoli eisoes.  Rhowch ID Claf arall.",
        "EDIT_PATIENT_QUESTION_1_UNIQUE_HEADER": "Mae'r ID Claf yn gofnod dyblyg",
        "EDIT_PATIENT_QUESTION_2": "Llythrennau cyntaf enw'r claf:",
        "EDIT_PATIENT_QUESTION_2_EMPTY": "Rhowch lythrennau cyntaf enw'r claf, gyda 2 nod o leiaf.",
        "EDIT_PATIENT_QUESTION_2_EMPTY_HEADER": "Llythrennau cyntaf enw'r claf",
        "EDIT_PATIENT_QUESTION_3_TITLE": "<div class='question-title-large'>Dewiswch Iaith</div><div>ID Claf:<br /><strong>{{{ getPatientIdNumber }}} ({{{getPatientInitials}}})</strong</div><br /><br />",
        "EDIT_PATIENT_QUESTION_3": "Dewiswch yr iaith ar gyfer y claf",
        "EDIT_PATIENT_QUESTION_4_TITLE": "<div class='question-title-large'>Rheswm dros olygu</div><br /><br />",
        "EDIT_PATIENT_QUESTION_4": "Dewiswch y rheswm dros olygu claf",
        "EDIT_PATIENT_CANCEL_CONFIRM": "Canslo'r newidiadau i'r Claf?",
        "EDIT_PATIENT_CANCEL_BODY": "Os byddwch chi'n canslo nawr, ni fydd gosodiadau'r claf yn cael eu diweddaru.  Ydych chi'n siŵr eich bod am ganslo?",
        "EDIT_PATIENT_NO_CHANGES_CONFIRM": "Heb wneud newidiadau i'r Claf",
        "EDIT_PATIENT_NO_CHANGES_BODY": "Does dim newidiadau wedi cael eu gwneud i'r claf hwn. Gadael beth bynnag?",
        "EDIT_PATIENT_REASON_0": "Cywiro gwall clinigwr",
        "EDIT_PATIENT_REASON_1": "Cywiro data priodoledd",
        "EDIT_PATIENT_REASON_2": "Newid ID",
        "EDIT_PATIENT_REASON_3": "Wedi dewis iaith anghywir",
        "EDIT_REASON": "Rheswm dros olygu:",
        "EDIT_SERVICE_URL": "Golygu'r URL Gwasanaeth",
        "EDIT_SERVICE_URL_SUCCESS": "Wedi diweddaru'r URL gwasanaeth.",
        "EDIT_USER": "Golygu Defnyddiwr",
        "EDIT_USER_AFF": "Drwy lofnodi isod, rwyf drwy hyn yn nodi bod gennyf awdurdod i olygu'r defnyddiwr safle hwn. <br /><br /><strong>Llofnod:</strong> {{{ getActiveUserName }}}",
        "EDIT_USER_CANCEL_CONFIRM": "Canslo'r Broses Golygu Defnyddiwr?",
        "EDIT_USER_CANCEL_BODY": "Os byddwch chi'n canslo nawr, ni fydd y newidiadau'n cael eu cadw. Ydych chi'n siŵr eich bod am ganslo?",
        "EDIT_USER_NO_CHANGES_HEADER": "Heb wneud newidiadau i'r Defnyddiwr Safle",
        "EDIT_USER_NO_CHANGES_BODY": "Does dim newidiadau wedi cael eu gwneud i'r defnyddiwr safle hwn. Gadael beth bynnag?",
        "EMAIL": "Cyfeiriad E-bost",
        "ENTER_PATIENT_INFO": "Rhoi gwybodaeth am y claf",
        "ENTER_UNLOCK_CODE": "Rhowch y Cod Datgloi",
        "ENTER_USER_INFO": "Rhoi gwybodaeth am y defnyddiwr safle newydd",
        "ENVIRONMENT": "Amgylchedd",
        "ERROR_CODE": "Cod Gwall:",
        "ERROR_TITLE": "Gwall",
        "EULA": "TRWYDDED Y DEFNYDDIWR",
        "EULA_TEXT": "<p><strong><span class=\"text-underline\">PWYSIG</span>:  PEIDIWCH Â CHLICIO'R BOTWM DERBYN NES I CHI DDARLLEN Y CYTUNDEB HWN.  DRWY GLICIO'R BOTWM DERBYN, RYDYCH YN DERBYN HOLL DELERAU'R CYTUNDEB HWN.  OS NAD YDYCH YN DERBYN HOLL DELERAU'R CYTUNDEB HWN, (1) PEIDIWCH Â CHLICIO'R BOTWM \"RWY'N DERBYN\", (2) DEWCH Â'R BROSES OSOD A THRWYDDEDU I BEN DRWY GLICIO'R BOTWM \"RWY'N GWRTHOD\".</strong></p><p>Mae eResearchTechnology, Inc. (\"Trwyddedwr\") yn rhoi hawl anneilltuol nad oes modd ei throsglwyddo i chi i ddefnyddio'r feddalwedd eResearchTechnology, Inc. sydd wedi'i chynnwys ar y ddyfais hon (\"Meddalwedd\") mewn cysylltiad â'ch cytundeb ynghylch cymryd rhan yn y treial clinigol: <strong>{{{ clinicalTrial }}}</strong>.  Mae meddalwedd eResearchTechnology, Inc. yn dod o dan batentau wedi'u cyhoeddi a phatentau yn aros eraill.  Nid yw'r cytundeb hwn yn rhoi unrhyw hawliau perchnogaeth i chi ar gyfer unrhyw Feddalwedd (neu unrhyw gopi ohoni); mae'n drwydded i ddefnyddio'r Feddalwedd yn unol â holl delerau'r Cytundeb hwn a hynny'n unig.  Mae teitl i'r Feddalwedd a phob rhan ohoni, a phob hawl eiddo perchnogol a deallusol sydd wedi'u cynnwys yng nghyswllt hynny yn perthyn i'r Trwyddedwr bob amser.</p><p>Rydych yn cytuno i beidio â gwneud y canlynol, boed yn uniongyrchol neu'n anuniongyrchol (i) tynnu’r Feddalwedd oddi wrth ei gilydd, ei datgrynhoi neu ei datgymalu; (ii) copïo, dosbarthu, cynhyrchu, addasu, creu gwaith deilliadol, cyfieithu, lleoleiddio, cludo nac addasu'r Feddalwedd mewn ffordd arall; neu (iii) tynnu neu addasu unrhyw hawl masnach, cyfrinach masnach neu hysbysiadau cyfreithiol eraill sydd yn y Feddalwedd neu arni.  RYDYCH YN CYDNABOD AC YN CYTUNO Y GALLAI'R FEDDALWEDD GYNNWYS COD SY'N RHWYSTRO DEFNYDD HEB AWDURDOD O'R FEDDALWEDD.</p><br><p>OS YDYCH YN CYTUNO Â PHOPETH A NODIR UCHOD, dewiswch – <strong>Rwy'n derbyn</strong> –Mae clicio \"Rwy'n derbyn\" yn nodi eich bod yn cytuno â thelerau'r drwydded.</p><p>OS NAD YDYCH YN CYTUNO Â PHOPETH A NODIR UCHOD, neu nad oes gennych yr awdurdod i gytuno, dewiswch – <strong>Rwy'n gwrthod</strong> – ac os felly bydd mynediad pellach i'r Feddalwedd wedi'i rwystro.  Os oes gennych yr awdurdod, gallwch dderbyn rhywbryd eto.</p>",
        "FIRST_NAME": "Enw Cyntaf",
        "FORGOT_PASSWORD": "Wedi Anghofio'r Cyfrinair?",
        "FORM": "Ffurflen",
        "FORM_GATEWAY": "Adwy'r Ffurflen",
        "FORM_NAME": "Enw'r Ffurflen",
        "FULL_NAME": "Enw Llawn:",
        "GO_TO_VISITS": "Ymweliadau Claf",
        "HAND_DEVICE_SITE_TITLE": "Rhoi'r Ddyfais i Ddefnyddiwr y Safle",
        "HAND_DEVICE_SITE_BODY": "Rhowch y ddyfais i ddefnyddiwr y safle.",
        "HELP": "Help",
        "HOME": "Hafan",
        "IN_PROGRESS": "Ar y Gweill",
        "INITIALS": "Llythrennau cyntaf yr enw",
        "INVALID_URL": "Rhowch URL dilys.",
        "INVALID_PERMISSION": "Caniatâd Annilys.",
        "INVALID_PASSWORD": "Cyfrinair annilys.",
        "LANGUAGE": "Iaith:",
        "LAST_LOGIN": "Mewngofnodi Diwethaf",
        "LAST_NAME": "Cyfenw",
        "LAST_REFRESH_TIME": "Amser Adnewyddu Diwethaf",
        "LOCATION": "Lleoliad",
        "LOGIN": "Mewngofnodi",
        "LOGIN_SCREEN": "Mewngofnodi",
        "LOGOUT": "Allgofnodi",
        "MANAGE_USERS": "Rheoli Defnyddwyr Safle",
        "MARK_AS_COMPLETED": "Marcio fel Wedi Cwblhau",
        "SITE_SIGNATURE": "Llofnod: ",
        "SITE_REPORT_AFF": "Rydw i wedi rhoi a chroeswirio'r data blaenorol, a drwy hyn yn ei gadarnhau.<br /><br /><strong>Llofnod:</strong> {{{ getActiveUserName }}}",
        "PATIENT_REPORT_AFF": "Rydw i wedi rhoi a chroeswirio'r data blaenorol, a drwy hyn yn ei gadarnhau.<br /><br /><strong>Llythrennau cyntaf yr enw:</strong> {{{ getActiveUserName }}}",
        "CLEAR_SIGNATURE": "Clirio'r Llofnod",
        "MENU": "Dewislen",
        "MODE": "Modd",
        "NAME": "Enw",
        "NEW_USER": "Ychwanegu Dyddiadur Defnyddiwr Newydd",
        "FIRST_SITE_USER": "Ychwanegu Defnyddiwr Safle Cyntaf",
        "NEW_USER_CREATED": "Wedi creu'r defnyddiwr safle.",
        "NEW_PATIENT_QUESTION_1_MAIN_TITLE": "<div class='question-title-large'>Rhowch yr ystod ID ar gyfer y Wybodaeth Adnabod Claf</div><div>ar gyfer y safle hwn:<br /><strong> {{{ patientIDRange }}}</strong></div><div><strong>Safle: {{{ getSiteCode }}}</strong></div><div><strong>Defnyddiwr: {{{ getUserName }}}</strong</div><br /><br />",
        "NEW_PATIENT_HELP_TEXT_1": "",
        "NEW_PATIENT_HELP_TEXT_2": "",
        "NEW_PATIENT_HELP_TEXT_3": "",
        "NEW_PATIENT_QUESTION_1_TITLE": "ID Claf",
        "NEW_PATIENT_QUESTION_1": "ID Claf:",
        "NEW_PATIENT_QUESTION_1_EMPTY": "Rhowch ID y claf.",
        "NEW_PATIENT_QUESTION_1_EMPTY_HEADER": "ID Claf",
        "NEW_PATIENT_QUESTION_1_RANGE": "Dydy'r ID Claf rydych chi wedi'i roi ddim o fewn yr ystod o IDs sy'n cael eu caniatáu: {{{ patientIDRange }}}.  Rhowch ID Claf dilys.",
        "NEW_PATIENT_QUESTION_1_RANGE_HEADER": "Mae'r ID claf allan o'r ystod",
        "NEW_PATIENT_QUESTION_1_UNIQUE": "Mae'r claf yn bodoli eisoes.  Rhowch ID Claf arall.",
        "NEW_PATIENT_QUESTION_1_UNIQUE_HEADER": "Mae'r ID Claf yn gofnod dyblyg",
        "NEW_PATIENT_QUESTION_2": "Llythrennau cyntaf enw'r claf:",
        "NEW_PATIENT_QUESTION_2_EMPTY": "Rhowch lythrennau cyntaf enw'r claf, gyda 2 nod o leiaf.",
        "NEW_PATIENT_QUESTION_2_EMPTY_HEADER": "Llythrennau cyntaf enw'r claf",
        "NEW_PATIENT_QUESTION_3_TITLE": "<div class='question-title-large'>Dewiswch Iaith</div><div><strong>Safle: {{{ getSiteCode }}}</strong></div><div><strong>Defnyddiwr: {{{ getUserName }}}</strong</div><div><strong>ID Claf: {{{ getPatientID }}}</strong></div><br /><br />",
        "NEW_PATIENT_QUESTION_3": "Dewiswch yr iaith ar gyfer y claf",
        "NEW_PATIENT_CANCEL_CONFIRM": "Canslo'r Broses Ychwanegu Claf?",
        "NEW_PATIENT_CANCEL_BODY": "Os byddwch chi'n canslo nawr, ni fydd y claf yn cael ei gofrestru.  Ydych chi'n siŵr eich bod am ganslo?",
        "NEW_PATIENT_AFFIDAVIT_HEADER": "<div><strong>Safle: {{{ getSiteCode }}}</strong><br /><strong>Defnyddiwr: {{{ getUserName }}}</strong><br /><strong>ID Claf: {{{ getPatientID }}}</strong></div>",
        "NEXT": "Nesaf",
        "NO_RESULTS_FOUND": "Heb ddod o hyd i ganlyniadau.",
        "NOT_AVAILABLE": "Ddim ar gael",
        "OK": "Iawn",
        "ORDER": "Trefn",
        "PASSWORD": "Cyfrinair:",
        "PATIENT": "Claf",
        "PATIENT_ID": "ID Claf:",
        "PATIENT_INITIALS": "Llythrennau cyntaf enw'r claf:",
        "PATIENT_DELETED": "Claf Anhysbys",
        "PATIENT_DELETED_MSG": "Wedi methu dod o hyd i'r claf.",
        "PATIENT_DELETED_SUBJECT_MSG": "Wedi methu dod o hyd i'r claf. Rhowch y ddyfais yn ôl i'r personél safle priodol.",
        "PENDING_TRANSMISSIONS": "Trosglwyddiadau sy'n Aros",
        "PLEASE_WAIT": "Arhoswch funud",
        "PLEASE_CONFIRM": "Mae angen i chi gadarnhau",
        "PLEASE_CONTACT": "Cysylltwch â Chanolfan Gymorth ERT.",
        "PLEASE_TRY_OR_CONTACT_SUPPORT": "Rhowch gynnig arall arni neu cysylltwch â Chanolfan Gymorth ERT.",
        "QR_CODE_UNAVAILABLE": "Cliciwch y claf i adnewyddu'r QR.",
        "QR_MODAL_TITLE": "Cod QR ar gyfer: ",
        "REASON": "Rheswm:",
        "REPORTS_AND_FORMS": "Adroddiadau a Ffurflenni",
        "REPORTS_COMPLETED_MESSAGE": "Rydych chi wedi llenwi eich holl ffurflenni. Rhowch y ddyfais yn ôl i'r personél safle priodol.",
        "REQUIRED_ANSWER": "Rhowch y wybodaeth y gofynnir amdani.",
        "RESET_PIN": "Ailosod PIN y Claf",
        "RESET_USER_PASSWORD": "Ailosod Cyfrinair y Defnyddiwr",
        "ROLES": "Rôl:",
        "SAVE": "Cadw",
        "SEARCH": "Chwilio",
        "SECURITY_QUESTION_0": "Beth ydy enw cyn priodi eich mam?",
        "SECURITY_QUESTION_1": "Ym mha ddinas cawsoch chi eich geni?",
        "SECURITY_QUESTION_2": "Beth oedd enw eich anifail anwes cyntaf?",
        "SECURITY_QUESTION_3": "Beth ydy enw eich hoff chwaraeon?",
        "SECURITY_QUESTION_4": "Ym mha flwyddyn wnaethoch chi raddio?",
        "SECURITY_QUESTION_5": "Beth ydy enw canol eich plentyn hynaf?",
        "SECURITY_QUESTION_6": "Beth ydy enw eich ffrind gorau o'ch plentyndod?",
        "SECURITY_QUESTION_7": "Beth oedd cyfenw eich athro blwyddyn tri?",
        "SECURITY_QUESTION_8": "Ym mha dref neu ddinas oedd eich swydd gyntaf?",
        "SECRET_ANSWER": "Ateb Diogelwch:",
        "SECRET_QUESTION": "Cwestiwn Diogelwch:",
        "SECRET_QUESTION_HELP_TEXT": "Dewiswch gwestiwn diogelwch o'r rhestr isod. Caiff yr ateb ei ddefnyddio i ganiatáu i chi fewngofnodi os byddwch chi'n anghofio eich Cyfrinair.",
        "SECRET_QUESTION_ANSWER": "Cwestiwn ac Ateb Diogelwch",
        "SELECT_LANGUAGE": "Dewiswch yr iaith sydd orau gennych chi ar gyfer y safle.",
        "SET_TIMEZONE_MESSAGE": "Dewiswch eich Cylchfa Amser:",
        "SELECT_SITE_NUMBER": "Dewiswch rif safle",
        "SERVICE_URL": "URL Gwasanaeth",
        "SETTINGS": "Gosodiadau",
        "SETUP_COMPLETE": "Wedi Gorffen Gosod",
        "SETUP_COMPLETE_DESC": "Mae'r ddyfais wedi'i gosod bellach ac mae'n barod i'w hanfon.  Pwyswch Iawn a diffodd y ddyfais ar y sgrin nesaf.",
        "SETUP_SITE_USER": "Gosod Defnyddiwr Safle",
        "SETUP_SITE_USER_LEGEND": "Gosodwch y defnyddiwr safle ar gyfer y ddyfais hon.",
        "SITE": "Safle",
        "SITE_ASSESSMENTS": "Asesiadau Safle",
        "SIGNATURE_DATA_LIMIT_EXCEEDED": "Doedd dim modd i'r blwch llofnod gynrychioli eich llofnod yn union fel yr oedd wedi'i lunio. Llofnodwch gyda llythrennau cyntaf eich enw yn lle.",
        "SITE_NUMBER": "Rhif y Safle",
        "SITE_ROLE": "Defnyddiwr y Safle",
        "SITE_SELECTION": "Dewis Safle",
        "SKIP_FORM": "Anwybyddu'r Ffurflen",
        "SKIP_QUESTION": "Ydych chi'n siŵr eich bod am anwybyddu'r ymatebion ar y sgrin hon?",
        "SKIP_TO_VISIT": "Neidio i Ymweliad",
        "SKIP_VISIT": "Anwybyddu'r Ymweliad",
        "SKIP_VISITS": "Anwybyddu'r Ymweliadau",
        "SKIP_VISITS_QUESTION_1": "<div class='question-title-large'><strong>Rheswm</strong></div><br /><br /><div>Dewiswch reswm dros anwybyddu'r ymweliadau:</div>",
        "SKIP_VISITS_CANCEL_CONFIRM": "Canslo'r Broses Anwybyddu Ymweliadau?",
        "SKIP_VISITS_CANCEL_BODY": "Os byddwch chi'n canslo nawr, ni fydd yr ymweliadau'n cael eu hanwybyddu. Ydych chi'n siŵr eich bod am ganslo?",
        "SKIPPED": "Wedi Anwybyddu",
        "SKIPPED_VISITS": "{{{ skippedVisits }}}",
        "START_FORM": "Dechrau Ffurflen",
        "START_VISIT": "Dechrau Ymweliad",
        "STATUS": "Statws",
        "STATUS_DATE": "Dyddiad y Statws",
        "STUDY": "Astudiaeth",
        "STUDYWORKS_LOGIN": "Mewngofnodi i StudyWorks",
        "SUBJECT_ID": "ID Claf",
        "SUBJECT_ROLE": "Claf",
        "SUBMIT": "Cyflwyno",
        "SUPPORT_TOOLS": "Adnoddau Cymorth",
        "SYNC": "Cysoni",
        "SYNC_USERS": "Cysoni Defnyddwyr",
        "SYNC_TO_DEVICE": "Cysoni Astudiaeth i Ddyfais",
        "TEMPORARY_PASSWORD_MESSAGE": "Rhowch y cyfrinair dros dro i'r defnyddiwr newydd. Bydd gofyn iddo greu cyfrinair newydd ar ôl mewngofnodi.",
        "TEMP_PASSWORD": "Cyfrinair Dros Dro: ",
        "UNABLE_TO_GET_SITE_LIST": "Wedi methu cael y Rhestr Safle",
        "UNLOCK_CODE": "Cod Datgloi",
        "UNLOCK_CODE_HELP": "Mae modd cael y Cod Datgloi ar gyfer eich Dyfais Tabled ERT gan StudyWorks yn y SmartReport 'ERT Unlock Codes'. Cysylltwch â Chanolfan Gymorth ERT am fwy o gymorth.",
        "USER": "Defnyddiwr",
        "USER_ALREADY_EXISTS": "Defnyddiwr yn Bodoli Eisoes",
        "USER_EDITED": "Wedi diweddaru'r defnyddiwr.",
        "USER_TO_ACTIVATE": "<strong>Defnyddiwr i'w ysgogi:</strong> <br />{{{ getSelectedUsername }}}<br /><br /><strong>Llofnod:</strong> {{{ getActiveUserName }}}",
        "SUBJECT_ALREADY_EXISTS": "Mae Claf â'r ID {{{ getPatientIDForDuplicate }}} yn bodoli eisoes",
        "TIME_CONFIRMATION_INSTRUCTIONS": "Mae angen i'r ddyfais gadarnhau eich amser lleol. Rhowch eich dyddiad ac amser o ffynhonnell ddibynadwy.",
        "TIME_ZONE_ERROR_HEADER": "Gwall Cylchfa Amser",
        "TIME_ZONE_ERROR_MSG": "Cafwyd gwall wrth nôl y rhestr Cylchfa Amser. Cysylltwch â Chanolfan Gymorth ERT am fwy o gymorth.",
        "TIME_ZONE_SET_ERROR_MSG": "Cafwyd gwall wrth osod y Gylchfa Amser. Cysylltwch â Chanolfan Gymorth ERT am fwy o gymorth.",
        "TIME_ZONE_SET_CONFIRM": "Ydych chi'n siŵr eich bod am osod y Gylchfa Amser yn: <bdo dir='ltr'>{{{selectedTimeZone}}}</bdo>? <br/> Efallai y bydd y rhaglen yn ailddechrau er mwyn rhoi'r newid ar waith.",
        "TIME_ZONE_SET_CONFIRM_NOCHANGE": "Ydych chi'n siŵr eich bod am osod y Gylchfa Amser yn: <bdo dir='ltr'>{{{selectedTimeZone}}}</bdo>?",
        "TIME_ZONE_SET_HEADER": "Cadarnhau Gosod y Gylchfa Amser",
        "TRAINER": "Modd Hyfforddwr",
        "TRAINER_EXIT": "Gadael y Modd Hyfforddwr",
        "TRAINER_EXIT_NOTIFICATION": "Rydych chi'n gadael y Modd Hyfforddwr",
        "TRAINER_HEADER": "(Hyfforddwr)",
        "USER_ROLE": "Rôl y Defnyddiwr",
        "USERNAME": "Enw Defnyddiwr",
        "USER_NAME": "Enw Defnyddiwr:",
        "VISIT": "Ymweliad",
        "VISIT_COMPLETED_MESSAGE": "Does dim ffurflenni eraill ar gyfer yr ymweliad hwn.  Mae'r ymweliad wedi'i gwblhau bellach.",
        "VISIT_INACTIVE_HEADER": "Ymweliad anweithredol.",
        "VISIT_INACTIVE_MESSAGE": "Dydy'r ymweliad hwn ddim yn weithredol bellach.",
        "VISIT_INACTIVE_MESSAGE_SUBJECT": "Dydy'r ymweliad hwn ddim yn weithredol bellach. Rhowch y ddyfais yn ôl i'r personél safle priodol.",
        "VISIT_EXPIRED_HEADER": "Ymweliad wedi dod i ben.",
        "VISIT_EXPIRED_MESSAGE": "Dydy'r ymweliad hwn ddim ar gael bellach gan ei fod wedi dod i ben.",
        "VISIT_EXPIRED_MESSAGE_SUBJECT": "Dydy'r ymweliad hwn ddim ar gael bellach gan ei fod wedi dod i ben. Rhowch y ddyfais yn ôl i'r personél safle priodol.",
        "VISITS": "Ymweliadau",
        "VISITS_SKIPPED": "Ymweliadau a Anwybyddwyd:",
        "VISIT_NAME": "Enw'r Ymweliad",
        "WELCOME": "Croeso",
        "AF-ZA": "Afrikaans",
        "SQ-AL": "Albaneg",
        "AR-EG": "Arabeg",
        "BE-BY": "Belarwseg",
        "BG-BG": "Bwlgareg",
        "BN-IN": "Bengaleg",
        "BS-BA": "Bosnieg",
        "CA-ES": "Catalaneg",
        "CS-CZ": "Tsieceg",
        "DA-DK": "Daneg",
        "DE-DE": "Almaeneg (Yr Almaen)",
        "DE-AT": "Almaeneg (Awstria)",
        "EL-GR": "Groeg",
        "EN-GB": "Saesneg (DU)",
        "EN-US": "Saesneg (UD)",
        "ES-ES": "Sbaeneg (Sbaen)",
        "ES-US": "Sbaeneg (UD)",
        "ES-PY": "Sbaeneg (Byd-eang)",
        "ET-EE": "Estoneg",
        "FI-FI": "Ffinneg",
        "FR-CA": "Ffrangeg (Canada)",
        "FR-FR": "Ffrangeg (Ffrainc)",
        "GD-IE": "Gaeleg",
        "GU-IN": "Gwjarati",
        "HE-IL": "Hebraeg",
        "HI-IN": "Hindi",
        "HR-HR": "Croateg",
        "HU-HU": "Hwngareg",
        "IT-IT": "Eidaleg",
        "JA-JP": "Japaneg",
        "KA-GE": "Georgeg",
        "KN-IN": "Canareg",
        "KO-KR": "Corëeg",
        "LV-LV": "Latfieg",
        "LT-LT": "Lithwaneg",
        "ML-IN": "Malaialam",
        "MR-IN": "Marati",
        "MS-MY": "Maleieg",
        "NB-NO": "Norwyeg",
        "NL-BE": "Iseldireg (Gwlad Belg)",
        "NL-NL": "Iseldireg (Yr Iseldiroedd)",
        "PA-IN": "Pwnjabeg",
        "PL-PL": "Pwyleg",
        "PT-BR": "Portiwgaleg (Brasil)",
        "PT-PT": "Portiwgaleg (Portiwgal)",
        "RO-RO": "Rwmaneg",
        "RU-RU": "Rwsieg",
        "SL-SL": "Slofeneg",
        "SK-SK": "Slofaceg",
        "SR-RS": "Serbeg (Lladin)",
        "SR-SP": "Serbeg (Cyrilig)",
        "ST-ZA": "Sotho",
        "SV-SE": "Swedeg",
        "TA-IN": "Tamileg",
        "TE-IN": "Telwgw",
        "TH-TH": "Thai",
        "TL-PH": "Tagalog",
        "TN-ZA": "Tswana",
        "TR-TR": "Twrceg",
        "UK-UA": "Wcreineg",
        "UR-IN": "Wrdw",
        "VI-VN": "Fietnameg",
        "XH-ZA": "Xhosa",
        "ZH-CN": "Tsieinëeg (Tsieina)",
        "ZH-TW": "Tsieinëeg (Taiwan)",
        "ZU-ZU": "Zwlw",
        "HAND_DEVICE_SUBJECT_BODY": "Rhaid i'r {{{ patientOrRole }}} lenwi'r ffurflen nesaf. Allgofnodwch a rhoi'r ddyfais i'r {{{ patientOrRole }}}.",
        "HAND_DEVICE_SUBJECT_TITLE": "Ffurflen Ddechreuol {{{ formTitle }}}",
        "SKIP_VISIT_TITLE": "Anwybyddu'r Ymweliad(au)?",
        "SKIP_VISIT_TEXT": "Os byddwch chi'n parhau, bydd yr ymweliadau canlynol yn cael eu hanwybyddu:<br/> {{{ skippedVisits }}} Bwrw ymlaen ac anwybyddu'r ymweliadau hyn nawr?",
        "YES": "Iawn",
        "NO": "Na",
        "TIME_LBL": "Amser:",
        "SET_TIME": "Gosod Amser",
        "DATE_LBL": "Dyddiad:",
        "CREATE_PERMANENT_PASSWORD_TITLE": "Creu Cyfrinair Parhaol",
        "USER_ID": "Id Defnyddiwr:",
        "PHASE": "Cyfnod",
        "LAST_VISIT": "Ymweliad Cyflawn Diwethaf",
        "CONNECTION_REQUIRED": "Mae'n rhaid cael cysylltiad â'r rhyngrwyd.",
        "RETRY": "Cynnig Arall",
        "UPDATE_FAILURE": "Diweddariad ddim wedi cwblhau",
        "UPDATE_SUCCESS": "Wedi Llwyddo i Ddiweddaru",
        "CANCEL_PERMANENT_PASSWORD_TITLE": "Canslo'r Broses Creu Cyfrinair Parhaol?",
        "CANCEL_PERMANENT_PASSWORD_TEXT": "Os byddwch chi'n canslo nawr, ni fydd eich cyfrinair parhaol yn cael ei greu. Bydd angen cyfrinair parhaol arnoch chi i ddechrau defnyddio ERT. Ydych chi'n siŵr eich bod am ganslo?",
        "ACCOUNT_CONFIGURED_TITLE": "Wedi cwblhau'r broses gosod cyfrif",
        "ACCOUNT_CONFIGURED_TEXT": "Rydych chi bellach wedi gorffen gosod eich cyfrif. Gallwch chi nawr barhau i ddefnyddio system eCOA.",
        "LOGGED_IN_AS": "Wedi mewngofnodi fel",
        "EDIT_PATIENT_AFFIDAVIT_HEADER": "<p class='question-title-large'>Llofnod</p><br />",
        "EDIT_PATIENT_AFF": "Drwy lofnodi isod, rwyf drwy hyn yn nodi bod gennyf awdurdod i olygu'r claf hwn.<br /><br />ID Claf: {{{ getPatientIdNumber }}} ({{{getPatientInitials}}})<br /><br /><strong>Llofnod:</strong> {{{ getActiveUserName }}}",
        "PASSWORD_MISMATCH": "Dydy'r cyfrineiriau ddim yn cyfateb",
        "FIRST_USER_AFFIDAVIT": "Drwy lofnodi isod, rwyf drwy hyn yn nodi mai fi yw'r prif ymchwilydd neu'r cynrychiolydd awdurdodedig i greu cyfrifon ar y system hon.<br /><br /><strong>Llofnod:</strong> {{{ getFirstUsername }}}",
        "INCOMPLETE": "Heb Gwblhau",
        "INVALID_ENTRY": "Cofnod Annilys",
        "PLEASE_ANSWER_SQ": "Atebwch eich cwestiwn diogelwch:",
        "FORGOT_SECRET_ANSWER": "Wedi anghofio'r ateb diogelwch?",
        "CONTACT_STUDY_COORDINATOR": "Cysylltu â'r Cydlynydd Astudio",
        "ENTER_NEW_PASSWORD": "Cyfrinair Newydd:",
        "CONTACT_UNLOCK_CODE": "Cysylltwch â'ch Cydlynydd Astudio i gael Cod Datgloi heddiw:",
        "CURRENT_DATE": "{{{ currentDate }}}",
        "TEMPORARY_UNLOCK_CODE": "Rhowch y Cod Datgloi mae'r Cydlynydd Astudio wedi'i roi i chi.",
        "RESET_SECRET_QUESTION": "Ailosod y Cwestiwn Diogelwch",
        "SECRET_QUESTION_CHANGE_SUCCESS": "Rydych chi wedi llwyddo i ddiweddaru eich cyfrinair a'ch cwestiwn diogelwch.",
        "RESET_PASSWORD": "Ailosod y Cyfrinair",
        "ANSWER_ATTEMPT_EXCEEDED": "Rydych chi wedi rhoi ateb anghywir gormod o weithiau neu wedi clicio'r ddolen wedi anghofio'r ateb diogelwch.",
        "PASSWORD_ATTEMPT_EXCEEDED": "Rydych chi wedi rhoi cyfrinair anghywir gormod o weithiau neu wedi clicio'r ddolen wedi anghofio'r cyfrinair.",
        "PASSWORD_CHANGE_SUCCESS": "Rydych chi wedi llwyddo i ddiweddaru eich cyfrinair.",
        "CHANGE_PASSWORD": "Newid Cyfrinair",
        "CHANGE_SECRET_QUESTION": "Newid y Cwestiwn Diogelwch",
        "SYNC_COMPLETE": "Wedi Gorffen Cysoni",
        "INCORRECT_ANSWER": "Ateb anghywir",
        "INCORRECT_UNLOCK_CODE": "Cod Datgloi Anghywir",
        "PASSWORD_INVALID": "Cyfrinair Anghywir",
        "SUBJECT": "Claf",
        "PATIENT_ADDED": "Wedi Ychwanegu'r Claf",
        "SITE_ADMINISTRATOR": "Gweinyddwr y Safle",
        "LOW_BATTERY": "Rhybudd: Mae lefel y batri'n isel. Plygiwch y ddyfais i mewn i'w hailwefru.",
        "CRITICAL_BATTERY": "Rhybudd: Mae lefel y batri'n isel iawn. Plygiwch y ddyfais i mewn i'w hailwefru, neu bydd yn cau.",
        "TIME_CONFIRMATION_HEADER": "Cadarnhau'r Dyddiad/Amser",
        "IMAGE_FOLDER": "{{{ imageFolder }}}",
        "TIMESLIP_ERROR": "Mae'r amser neu'r dyddiad ar eich dyfais yn anghywir. Symudwch i rywle sydd â chysylltedd rhyngrwyd a rhoi cynnig arall arni. Os ydych chi'n parhau i gael problemau, cysylltwch â Gofal Cwsmeriaid ERT.",
        "SUPPORT": "Cymorth i Gwsmeriaid",
        "SUPPORT_MESSAGE": "Mae modd i ddefnyddwyr yn yr Unol Daleithiau gysylltu â Chanolfan Gymorth ERT ar 800-748-5669. Os ydych chi'n ddefnyddiwr rhyngwladol, dewiswch y wlad agosaf isod:",
        "SUPPORT_DROPDOWN": "Dewiswch eich gwlad",
        "SUPPORT_NAME_ARGENTINA": "Yr Ariannin",
        "SUPPORT_NUMBER_ARGENTINA": "<bdo dir='ltr'>0800 444 0962</bdo>",
        "SUPPORT_NAME_ARMENIA": "Armenia",
        "SUPPORT_NUMBER_ARMENIA": "<bdo dir='ltr'>+1 617 681 6306</bdo>",
        "SUPPORT_NAME_AUSTRALIA": "Awstralia",
        "SUPPORT_NUMBER_AUSTRALIA": "<bdo dir='ltr'>1 800 800 051</bdo>",
        "SUPPORT_NAME_AUSTRIA": "Awstria",
        "SUPPORT_NUMBER_AUSTRIA": "<bdo dir='ltr'>0800 100 405</bdo>",
        "SUPPORT_NAME_BELARUS": "Belarws",
        "SUPPORT_NUMBER_BELARUS": "<bdo dir='ltr'>8 820 0321 0036</bdo>",
        "SUPPORT_NAME_BELGIUM": "Gwlad Belg",
        "SUPPORT_NUMBER_BELGIUM_1": "(Saesneg) : <bdo dir='ltr'>0800 58 016</bdo>",
        "SUPPORT_NUMBER_BELGIUM_2": "(Ffrangeg) : <bdo dir='ltr'>0800 71 076</bdo>",
        "SUPPORT_NUMBER_BELGIUM_3": "(Almaeneg) : <bdo dir='ltr'>0800 71 113</bdo>",
        "SUPPORT_NAME_BRAZIL": "Brasil",
        "SUPPORT_NUMBER_BRAZIL": "<bdo dir='ltr'>0800 891 5909</bdo>",
        "SUPPORT_NAME_BOSNIA": "Bosnia",
        "SUPPORT_NUMBER_BOSNIA": "<bdo dir='ltr'>+1 617 681 6306</bdo>",
        "SUPPORT_NAME_BULGARIA": "Bwlgaria",
        "SUPPORT_NUMBER_BULGARIA": "<bdo dir='ltr'>00800 0010</bdo>, yna <bdo dir='ltr'>866 245 4931</bdo>",
        "SUPPORT_NAME_CANADA": "Canada",
        "SUPPORT_NUMBER_CANADA": "<bdo dir='ltr'>1 800 748 5669</bdo>",
        "SUPPORT_NAME_CHILE": "Chile",
        "SUPPORT_NUMBER_CHILE": "<bdo dir='ltr'>123 0020 3408</bdo>",
        "SUPPORT_NAME_CHINA": "Tsieina",
        "SUPPORT_NUMBER_CHINA_1": "NetCom (Gogledd) : <bdo dir='ltr'>1 0800 74 40 164</bdo>",
        "SUPPORT_NUMBER_CHINA_2": "Telecom (De) : <bdo dir='ltr'>1 0800 44 00 158</bdo>",
        "SUPPORT_NAME_COLOMBIA": "Colombia",
        "SUPPORT_NUMBER_COLOMBIA": "<bdo dir='ltr'>01 800 911 0010</bdo>, yna <bdo dir='ltr'>866 310 3707</bdo>",
        "SUPPORT_NAME_COSTA_RICA": "Costa Rica",
        "SUPPORT_NUMBER_COSTA_RICA": "<bdo dir='ltr'>0800 013 1210</bdo>",
        "SUPPORT_NAME_CROATIA": "Croatia",
        "SUPPORT_NUMBER_CROATIA": "<bdo dir='ltr'>0800 222 953</bdo>",
        "SUPPORT_NAME_CZECH_REPUBLIC": "Gweriniaeth Tsiec",
        "SUPPORT_NUMBER_CZECH_REPUBLIC": "<bdo dir='ltr'>800 142 150</bdo>",
        "SUPPORT_NAME_DENMARK": "Denmarc",
        "SUPPORT_NUMBER_DENMARK": "<bdo dir='ltr'>80 60 00 09</bdo>",
        "SUPPORT_NAME_EGYPT": "Yr Aifft",
        "SUPPORT_NUMBER_EGYPT": "<bdo dir='ltr'>02 510 0200</bdo>, yna <bdo dir='ltr'>866 310 3707</bdo>",
        "SUPPORT_NAME_EL_SALVADOR": "El Salvador",
        "SUPPORT_NUMBER_EL_SALVADOR": "<bdo dir='ltr'>+1 617 681 6306</bdo>",
        "SUPPORT_NAME_ESTONIA": "Estonia",
        "SUPPORT_NUMBER_ESTONIA": "<bdo dir='ltr'>800 00 44 154</bdo>",
        "SUPPORT_NAME_FINLAND": "Y Ffindir",
        "SUPPORT_NUMBER_FINLAND": "<bdo dir='ltr'>0800 11 6366</bdo>",
        "SUPPORT_NAME_FRANCE": "Ffrainc",
        "SUPPORT_NUMBER_FRANCE": "<bdo dir='ltr'>0800 10 19 79</bdo>",
        "SUPPORT_NAME_GERMANY": "Yr Almaen",
        "SUPPORT_NUMBER_GERMANY": "<bdo dir='ltr'>0800 101 28 21</bdo>",
        "SUPPORT_NAME_GREECE": "Groeg",
        "SUPPORT_NUMBER_GREECE": "<bdo dir='ltr'>00 800 1311</bdo>, yna <bdo dir='ltr'>866 310 3707</bdo>",
        "SUPPORT_NAME_GUATEMALA": "Gwatemala",
        "SUPPORT_NUMBER_GUATEMALA": "<bdo dir='ltr'>1 800 624 0079</bdo>",
        "SUPPORT_NAME_HONG_KONG": "Hong Kong",
        "SUPPORT_NUMBER_HONG_KONG": "<bdo dir='ltr'>3002 1665</bdo>",
        "SUPPORT_NAME_HUNGARY": "Hwngari",
        "SUPPORT_NUMBER_HUNGARY": "<bdo dir='ltr'>06 800 14 571</bdo>",
        "SUPPORT_NAME_ICELAND": "Gwlad yr Iâ",
        "SUPPORT_NUMBER_ICELAND": "<bdo dir='ltr'>800 8544</bdo>",
        "SUPPORT_NAME_INDIA": "India",
        "SUPPORT_NUMBER_INDIA": "<bdo dir='ltr'>000 800 440 1125</bdo>",
        "SUPPORT_NAME_INDONESIA": "Indonesia",
        "SUPPORT_NUMBER_INDONESIA": "<bdo dir='ltr'>008 800 330 334</bdo>",
        "SUPPORT_NAME_IRELAND": "Iwerddon",
        "SUPPORT_NUMBER_IRELAND": "<bdo dir='ltr'>1 800 946 700</bdo>",
        "SUPPORT_NAME_ISRAEL": "Israel",
        "SUPPORT_NUMBER_ISRAEL": "<bdo dir='ltr'>1 809 470 062</bdo>",
        "SUPPORT_NAME_ITALY": "Yr Eidal",
        "SUPPORT_NUMBER_ITALY": "<bdo dir='ltr'>800 90 56 37</bdo>",
        "SUPPORT_NAME_JAPAN": "Japan",
        "SUPPORT_NUMBER_JAPAN": "Cyfeiriwch at eich Canllaw Gwybodaeth Astudio ePRO am rif rhadffôn eich astudiaeth",
        "SUPPORT_NAME_LATVIA": "Latfia",
        "SUPPORT_NUMBER_LATVIA": "<bdo dir='ltr'>8000 2151</bdo>",
        "SUPPORT_NAME_LEBANON": "Lebanon",
        "SUPPORT_NUMBER_LEBANON": "<bdo dir='ltr'>01-426-801</bdo> yna <bdo dir='ltr'>866 310 3707</bdo>",
        "SUPPORT_NAME_LITHUANIA": "Lithwania",
        "SUPPORT_NUMBER_LITHUANIA": "<bdo dir='ltr'>8800 30207</bdo>",
        "SUPPORT_NAME_MALAYSIA": "Maleisia",
        "SUPPORT_NUMBER_MALAYSIA": "<bdo dir='ltr'>1800 80 59 71</bdo>",
        "SUPPORT_NAME_MEXICO": "Mecsico",
        "SUPPORT_NUMBER_MEXICO_1": "(Saesneg) : <bdo dir='ltr'>001 800 748 5669</bdo> ",
        "SUPPORT_NUMBER_MEXICO_2": "(Sbaeneg) : <bdo dir='ltr'>001 855 631 6952</bdo>",
        "SUPPORT_NAME_MOLDOVA": "Moldofa",
        "SUPPORT_NUMBER_MOLDOVA": "<bdo dir='ltr'>617 681 6306</bdo>",
        "SUPPORT_NAME_NETHERLANDS": "Yr Iseldiroedd",
        "SUPPORT_NUMBER_NETHERLANDS": "<bdo dir='ltr'>0800 023 1389</bdo>",
        "SUPPORT_NAME_NEW_ZEALAND": "Seland Newydd",
        "SUPPORT_NUMBER_NEW_ZEALAND": "<bdo dir='ltr'>0800 110 178</bdo>",
        "SUPPORT_NAME_NORWAY": "Norwy",
        "SUPPORT_NUMBER_NORWAY": "<bdo dir='ltr'>800 62 051</bdo>",
        "SUPPORT_NAME_PAKISTAN": "Pacistan",
        "SUPPORT_NUMBER_PAKISTAN": "<bdo dir='ltr'>00 800 0100</bdo>, yna <bdo dir='ltr'>866 237 9767</bdo>",
        "SUPPORT_NAME_PANAMA": "Panama",
        "SUPPORT_NUMBER_PANAMA": "<bdo dir='ltr'>001 800 201 3095</bdo>",
        "SUPPORT_NAME_PERU": "Periw",
        "SUPPORT_NUMBER_PERU": "<bdo dir='ltr'>0800 5 0974</bdo>",
        "SUPPORT_NAME_PHILIPPINES": "Ynysoedd y Philipinau",
        "SUPPORT_NUMBER_PHILIPPINES": "<bdo dir='ltr'>1 800 1116 0651</bdo>",
        "SUPPORT_NAME_POLAND": "Gwlad Pwyl",
        "SUPPORT_NUMBER_POLAND": "<bdo dir='ltr'>00800 331 1262</bdo>",
        "SUPPORT_NAME_PORTUGAL": "Portiwgal",
        "SUPPORT_NUMBER_PORTUGAL": "<bdo dir='ltr'>800 206 172</bdo>",
        "SUPPORT_NAME_PUERTO_RICO": "Puerto Rico (Tiriogaeth yr UD)",
        "SUPPORT_NUMBER_PUERTO_RICO": "<bdo dir='ltr'>1 800 748 5669</bdo>",
        "SUPPORT_NAME_ROMANIA": "Rwmania",
        "SUPPORT_NUMBER_ROMANIA": "<bdo dir='ltr'>0800 894492</bdo>",
        "SUPPORT_NAME_RUSSIA": "Rwsia",
        "SUPPORT_NUMBER_RUSSIA_1": "(Prif - Rhadffôn) : <bdo dir='ltr'>8 10 800 249 13011</bdo>",
        "SUPPORT_NUMBER_RUSSIA_2": "(Yn Moscow) : <bdo dir='ltr'>363-2400</bdo> <br> yna <bdo dir='ltr'>866 310 3707</bdo>",
        "SUPPORT_NUMBER_RUSSIA_3": "(Y tu allan i Moscow) : <bdo dir='ltr'>8^(495) 363-2400</bdo> <br> yna <bdo dir='ltr'>866 310 3707</bdo>",
        "SUPPORT_NUMBER_RUSSIA_4": "(Yn St. Petersburg) : <bdo dir='ltr'>363-2400</bdo> <br> yna <bdo dir='ltr'>866 310 3707</bdo>",
        "SUPPORT_NUMBER_RUSSIA_5": "(Y tu allan i St. Petersburg) : <bdo dir='ltr'>8^(495) 363-2400</bdo> <br> yna <bdo dir='ltr'>866 310 3707</bdo>",
        "SUPPORT_NAME_SAUDI_ARABIA": "Sawdi Arabia",
        "SUPPORT_NUMBER_SAUDI_ARABIA": "<bdo dir='ltr'>+1 617 681 6306</bdo>",
        "SUPPORT_NAME_SERBIA": "Serbia",
        "SUPPORT_NUMBER_SERBIA": "<bdo dir='ltr'>+1 617 973 1739</bdo>",
        "SUPPORT_NAME_SINGAPORE": "Singapôr",
        "SUPPORT_NUMBER_SINGAPORE": "<bdo dir='ltr'>800 616 30 03</bdo>",
        "SUPPORT_NAME_SLOVAKIA": "Slofacia",
        "SUPPORT_NUMBER_SLOVAKIA": "<bdo dir='ltr'>0800 0044 65</bdo>",
        "SUPPORT_NAME_SLOVENIA": "Slofenia",
        "SUPPORT_NUMBER_SLOVENIA": "<bdo dir='ltr'>+1 617 681 6306</bdo>",
        "SUPPORT_NAME_SOUTH_AFRICA": "De Affrica",
        "SUPPORT_NUMBER_SOUTH_AFRICA": "<bdo dir='ltr'>0800 99 5853</bdo>",
        "SUPPORT_NAME_SOUTH_KOREA": "De Corea",
        "SUPPORT_NUMBER_SOUTH_KOREA": "<bdo dir='ltr'>00308 33 00 08</bdo>",
        "SUPPORT_NAME_SPAIN": "Sbaen",
        "SUPPORT_NUMBER_SPAIN": "<bdo dir='ltr'>900 90 2541</bdo>",
        "SUPPORT_NAME_SWEDEN": "Sweden",
        "SUPPORT_NUMBER_SWEDEN": "<bdo dir='ltr'>020 120 99 69</bdo>",
        "SUPPORT_NAME_SWITZERLAND": "Swistir",
        "SUPPORT_NUMBER_SWITZERLAND_1": "(Saesneg) : <bdo dir='ltr'>0800 199 325</bdo>",
        "SUPPORT_NUMBER_SWITZERLAND_2": "(Ffrangeg) : <bdo dir='ltr'>0800 891 183</bdo>",
        "SUPPORT_NUMBER_SWITZERLAND_3": "(Almaeneg) : <bdo dir='ltr'>0800 891 025</bdo>",
        "SUPPORT_NAME_TAIWAN": "Taiwan",
        "SUPPORT_NUMBER_TAIWAN": "<bdo dir='ltr'>00801 33 33 42</bdo>",
        "SUPPORT_NAME_THAILAND": "Gwlad Thai",
        "SUPPORT_NUMBER_THAILAND": "<bdo dir='ltr'>1 800 33 140 353</bdo>",
        "SUPPORT_NAME_TUNISIA": "Tiwnisia",
        "SUPPORT_NUMBER_TUNISIA": "<bdo dir='ltr'>+1 617 681 6306</bdo>",
        "SUPPORT_NAME_TURKEY": "Twrci",
        "SUPPORT_NUMBER_TURKEY": "<bdo dir='ltr'>00 800 151 1335</bdo>",
        "SUPPORT_NAME_UKRAINE": "Yr Wcráin",
        "SUPPORT_NUMBER_UKRAINE": "<bdo dir='ltr'>0^00 11</bdo>, yna <bdo dir='ltr'>866 245 4931</bdo>",
        "SUPPORT_NAME_UAE": "Emiradau Arabaidd Unedig",
        "SUPPORT_NUMBER_UAE": "<bdo dir='ltr'>8000-021</bdo>, yna <bdo dir='ltr'>866 310 3707</bdo>",
        "SUPPORT_NAME_UK": "Y Deyrnas Unedig",
        "SUPPORT_NUMBER_UK": "<bdo dir='ltr'>0800 015 0408</bdo>",
        "SUPPORT_NAME_US": "Yr Unol Daleithiau",
        "SUPPORT_NUMBER_US_1": "(Prif) : <bdo dir='ltr'>1 800 748 5669</bdo>",
        "SUPPORT_NUMBER_US_2": "(Wrth gefn) : <bdo dir='ltr'>1 877 748 5669</bdo>",
        "SUPPORT_NAME_VENEZUELA": "Feneswela",
        "SUPPORT_NUMBER_VENEZUELA_1": "(Saesneg) : <bdo dir='ltr'>0 800 552 6288</bdo> <br> yna <bdo dir='ltr'>866 310 3707</bdo> ",
        "SUPPORT_NUMBER_VENEZUELA_2": "(Sbaeneg) : <bdo dir='ltr'>0 800 100 3063</bdo> ",
        "STUDY_VERSION": "Fersiwn Astudiaeth:",
        "STUDY_URL": "URL yr Astudiaeth:",
        "DEVICE_SERIAL_NUMBER": "Rhif Cyfresol y Ddyfais",
        "PROTOCOL": "Protocol:",
        "SPONSOR": "Noddwr:",
        "STORED_REPORTS": "Ffurflenni wedi'u Storio:",
        "CORE_PRODUCT_VERSION_LABEL": "Fersiwn Cynnyrch:",
        "ABOUT": "Ynghylch",
        "SET_TIMEZONE": "Gosod Cylchfa Amser",
        "NONEXISTENT_USER": "Wedi ceisio diweddaru defnyddiwr sydd ddim yn bodoli.",
        "SCREENING": "Sgrinio",
        "TREATMENT": "Triniaeth",
        "RANDOMIZATION": "Rhoi proses ar hap ar waith",
        "FOLLOWUP": "Dilyniant",
        "TERMINATION": "Terfynu",
        "MODAL_OK_TEXT": "Iawn",
        "BROWSER_LOAD_ERROR": "Heb ddod o hyd i'r Dudalen. Gwnewch yn siŵr eich bod chi wedi cysylltu â'r rhyngrwyd a rhoi cynnig arall arni.",
        "NO_USER_OF_ROLE": "Heb ddod o hyd i ddefnyddiwr â'r rôl honno.",
        "START_VISIT_OUTSIDE_WINDOW_MSG": "Rhowch {{{ getVisitName }}} y tu allan i'r ffenestr amser sydd wedi'i ffurfweddu: {{{ startDate }}} - {{{ endDate }}}",
        "START_VISIT_HARD_STOP_MSG" : "Does dim modd i chi roi {{{ getVisitName }}} y tu allan i'r ffenestr amser sydd wedi'i ffurfweddu: {{{ startDate }}} - {{{ endDate }}}",
        "USER_NAME_INVALID_CHARACTERS" : "Peidiwch â defnyddio nodau arbennig",
        "ERROR_PATIENT_SAVE" : "Cafwyd gwall wrth ychwanegu'r claf newydd",
        "PASSWORD_CHANGE_FAILED" : "Mae dyfais wahanol wedi cael ei hysgogi ar gyfer casglu eich data astudio. Newidiwch eich cyfrinair ar y ddyfais honno.",
        "ERROR" : "Gwall.  Cysylltwch â Chanolfan Gymorth ERT.",
        "ERROR_AFTER_ACTIVATION_SUCCESSFUL" : "Mae gwall wedi digwydd. Rhaid i chi roi eich cod gosod a'ch cyfrinair.",
        "CONNECTION_TIMEOUT" : "Mae'r cysylltiad wedi dod i ben.",
        "UPDATE_FAILED" : "Dydy'r diweddariad ERT ddim wedi cwblhau. Gwnewch yn siŵr bod y ddyfais hon wedi cysylltu â'r rhyngrwyd a rhoi cynnig arall arni.",
        "TRANSMIT_FAILED_403_14": "Mae un neu fwy o drosglwyddiadau wedi methu gan fod y broses creu claf ddim wedi cwblhau. Arhoswch funud a rhoi cynnig arall arni.",
        "USER_SELECT_ROLE_VALIDATION": "Mae'n rhaid dewis rôl.",
        "USER_SELECT_LANGUAGE_VALIDATION": "Mae'n rhaid dewis iaith.",
        "TRY_AGAIN_ADD_USER": "Rhowch gynnig arall arni neu dewiswch canslo i fwrw ymlaen ag ychwanegu defnyddiwr yn y modd all-lein.",
        "NO_INTERNET_CONNECTION": "Dim cysylltiad â'r rhyngrwyd",
        "TRANSMIT_FAILED_404": "Dydy'r broses gysoni ddim wedi cwblhau oherwydd problemau â chysylltedd rhyngrwyd. Gwnewch yn siŵr eich bod chi wedi cysylltu â'r rhyngrwyd a rhoi cynnig arall arni.",
        "SKIP_VISITS_REASON_0": "Ymweliad wedi dod i ben.",
        "SKIP_VISITS_REASON_1": "Safle wedi gwneud gwall gweinyddol.",
        "SKIP_VISITS_REASON_2": "Unigolyn wedi methu'r apwyntiad clinigol.",
        "SKIP_VISITS_REASON_3": "Dydy'r ymweliad hwn ddim yn berthnasol.",
        "SKIP_VISITS_REASON_4": "Mae'r ymweliad yn ddewisol ac ni chafodd ei gwblhau."
    },
    "dates": {
        "setDateButtonLabel": "Gosod Dyddiad",
        "setTimeButtonLabel": "Iawn",
        "setDurationButtonLabel": "Gosod Hyd",
        "calTodayButtonLabel": "Neidio i Heddiw",
        "titleDateDialogLabel": "Gosod Dyddiad",
        "titleTimeDialogLabel": "Gosod Amser",
        "daysOfWeek": [
            "Sul",
            "Llun",
            "Mawrth",
            "Mercher",
            "Iau",
            "Gwener",
            "Sadwrn"
        ],
        "daysOfWeekShort": [
            "Su",
            "Ll",
            "Ma",
            "Me",
            "Ia",
            "Gw",
            "Sa"
        ],
        "monthsOfYear": [
            "Ionawr",
            "Chwefror",
            "Mawrth",
            "Ebrill",
            "Mai",
            "Mehefin",
            "Gorffennaf",
            "Awst",
            "Medi",
            "Hydref",
            "Tachwedd",
            "Rhagfyr"
        ],
        "monthsOfYearShort": [
            "Ion",
            "Chwef",
            "Maw",
            "Ebr",
            "Mai",
            "Meh",
            "Gorff",
            "Awst",
            "Med",
            "Hyd",
            "Tach",
            "Rhag"
        ],
        "durationLabel": [
            "Diwrnod",
            "Awr",
            "Munud",
            "Eiliad"
        ],
        "durationDays": [
            "Diwrnod",
            "Diwrnod"
        ],
        "tooltip": "Agor Dewiswr Dyddiad",
        "nextMonth": "Mis Nesaf",
        "prevMonth": "Mis Blaenorol",
        "clearButton": "Clirio",
        "meridiem": [
            "AM",
            "PM"
        ]
    }
}
