{
    "namespace": "CORE",
    "language": "hr",
    "locale": "HR",
    "localized": "hrvatski",
    "direction": "ltr",
    "resources": {
        "ACTIVE": "Aktivno",
        "ACTIVATE_USER": "Aktiviraj korisnika",
        "ADD_PATIENT": "Dodaj novog pacijenta",
        "ADD_USER": "Dodaj korisnika",
        "AFFIDAVIT": "Kada ste spremni spremiti svoje odgovore, odaberite opciju U redu i zatim opciju Sljedeće.",
        "AFFIDAVIT_HELP": "Hvala vam. Unijeli ste sve potrebne odgovore. Odgovore možete provjeriti i promijeniti tako da odaberete opciju Natrag.",
        "ALL_QUESTIONNAIRES_COMPLETED": "Svi su obrasci ispunjeni",
        "APP_NAME": "ERT",
        "APPLICATION_HEADER": "{{{ appHeader }}}",
        "APP_NAME_LBL": "Naziv aplikacije",
        "APP_VERSION": "Verzija aplikacije:",
        "ASSIGNED_TO": "Dodijeljeno korisniku",
        "AVAILABLE": "Dostupno",
        "BACK": "Natrag",
        "BACK_OUT_CONFIRM": "Jeste li sigurni da želite izaći? Odgovori za ovaj obrazac bit će izgubljeni.",
        "BLUETOOTH_REG_REFRESH_BUTTON": "Osvježi popis",
        "CANCEL": "Odustani",
        "CHECK_FOR_UPDATES": "Potraži ažuriranja",
        "CHOOSE_A_SITE": "Dodijeli ovaj uređaj određenom centru.",
        "COMPLETED": "Dovršeno",
        "CONFIRM_PASSWORD": "Potvrdite lozinku:",
        "CONFIRM_TEMP_PASS": "Potvrdite privremenu lozinku:",
        "CONTINUE": "Nastavak",
        "COUNTRY": "Država",
        "CUSTOM_ENVIRONMENT": "Prilagođeno okruženje",
        "DEACTIVATE_PATIENT": "Deaktiviraj pacijenta",
        "DEACTIVATE_USER": "Deaktiviraj korisnika",
        "DEACTIVATED": "Deaktivirano",
        "DEVICE_ID": "ID uređaja",
        "DEVICE_REGISTRATION_FAILURE": "Neuspjela registracija uređaja.",
        "DEVICE_UUIID": "UUID uređaja",
        "BATTERY_LEVEL": "Razina napunjenosti baterije",
        "DEVICE_INFO": "Informacije o uređaju",
        "EDIT_MY_INFO": "Uredi moje podatke",
        "EDIT_PATIENT": "Uredi pacijenta",
        "EDIT_SERVICE_URL": "Uredi URL usluge",
        "EDIT_SERVICE_URL_SUCCESS": "URL usluge je ažuriran.",
        "EDIT_USER": "Uredi korisnika",
        "EMAIL": "Adresa e-pošte",
        "ENTER_PATIENT_INFO": "Unesite podatke o pacijentu",
        "ENTER_UNLOCK_CODE": "Unesite šifru za otključavanje",
        "ENTER_USER_INFO": "Unesite podatke o novom korisniku centra",
        "ENVIRONMENT": "Okruženje",
        "FIRST_NAME": "Ime",
        "FORGOT_PASSWORD": "Zaboravili ste lozinku?",
        "FORM": "Obrazac",
        "FORM_GATEWAY": "Pristupnik obrasca",
        "FORM_NAME": "Naziv obrasca",
        "FULL_NAME": "Puno ime:",
        "GO_TO_VISITS": "Posjeti pacijenta",
        "HAND_DEVICE_SITE_TITLE": "Predaja uređaja korisniku centra",
        "HAND_DEVICE_SITE_BODY": "Predajte uređaj korisniku centra.",
        "HELP": "Pomoć",
        "HOME": "Početna",
        "IN_PROGRESS": "U tijeku",
        "INITIALS": "Inicijali",
        "INVALID_URL": "Unesite važeći URL.",
        "INVALID_PERMISSION": "Nevažeće dopuštenje.",
        "INVALID_PASSWORD": "Nevažeća lozinka.",
        "LANGUAGE": "Jezik:",
        "LAST_LOGIN": "Posljednja prijava",
        "LAST_NAME": "Prezime",
        "LAST_REFRESH_TIME": "Vrijeme posljednjeg osvježavanja",
        "LOCATION": "Lokacija",
        "LOGIN": "Prijava",
        "LOGIN_SCREEN": "Prijava",
        "LOGOUT": "Odjava",
        "MANAGE_USERS": "Upravljanje korisnicima centra",
        "MARK_AS_COMPLETED": "Označi kao ispunjeno",
        "SITE_SIGNATURE": "Potpis: ",
        "SITE_REPORT_AFF": "Unio sam, provjerio i ovim potvrđujem prethodne podatke.<br /><br /><strong>Potpis:</strong> {{{ getActiveUserName }}}",
        "PATIENT_REPORT_AFF": "Unio sam, provjerio i ovim potvrđujem prethodne podatke.<br /><br /><strong>Inicijali:</strong> {{{ getActiveUserName }}}",
        "CLEAR_SIGNATURE": "Izbriši potpis",
        "MENU": "Izbornik",
        "MODE": "Način",
        "NAME": "Naziv",
        "NEW_USER": "Dodaj novi dnevnik korisnika",
        "NEW_USER_CREATED": "Stvoren je korisnik centra.",
        "NEXT": "Sljedeće",
        "NO_RESULTS_FOUND": "Nisu pronađeni rezultati.",
        "NOT_AVAILABLE": "Nije dostupno",
        "OK": "U redu",
        "ORDER": "Narudžba",
        "PASSWORD": "Lozinka:",
        "PATIENT": "Pacijent",
        "PATIENT_ID": "ID pacijenta:",
        "PENDING_TRANSMISSIONS": "Prijenosi na čekanju",
        "PLEASE_WAIT": "Pričekajte",
        "PLEASE_CONFIRM": "Potvrdite",
        "REPORTS_AND_FORMS": "Izvješća i obrasci",
        "REPORTS_COMPLETED_MESSAGE": "Ispunili ste sve obrasce. Vratite uređaj zaduženom osoblju u centru.",
        "REQUIRED_ANSWER": "Unesite zatražene podatke.",
        "RESET_PIN": "Ponovno postavi PIN pacijenta",
        "RESET_USER_PASSWORD": "Ponovno postavi lozinku korisnika",
        "ROLES": "Uloga:",
        "SAVE": "Spremi",
        "SEARCH": "Traži",
        "SECURITY_QUESTION_0": "Koje je djevojačko prezime vaše majke?",
        "SECURITY_QUESTION_1": "U kojem ste gradu rođeni?",
        "SECURITY_QUESTION_2": "Koje je ime vašeg prvog kućnog ljubimca?",
        "SECURITY_QUESTION_3": "Koji je vaš omiljeni sport?",
        "SECURITY_QUESTION_4": "Koje ste godine diplomirali?",
        "SECURITY_QUESTION_5": "Koje je srednje ime vašeg najstarijeg djeteta?",
        "SECURITY_QUESTION_6": "Koje je ime vašeg najdražeg prijatelja iz djetinjstva?",
        "SECURITY_QUESTION_7": "Koje je prezime vaše učiteljice iz trećeg razreda?",
        "SECURITY_QUESTION_8": "U kojem je gradu bio vaš prvi posao?",
        "SECRET_ANSWER": "Odgovor na sigurnosno pitanje:",
        "SECRET_QUESTION": "Sigurnosno pitanje:",
        "SECRET_QUESTION_HELP_TEXT": "Odaberite sigurnosno pitanje s donjeg popisa. Odgovor se upotrebljava za omogućavanje prijave ako zaboravite svoju lozinku.",
        "SECRET_QUESTION_ANSWER": "Sigurnosno pitanje i odgovor",
        "SELECT_LANGUAGE": "Odaberite željeni jezik za centar.",
        "SELECT_SITE_NUMBER": "Odaberite broj centra",
        "SERVICE_URL": "URL usluge",
        "SETTINGS": "Postavke",
        "SETUP_COMPLETE": "Postavljanje je dovršeno",
        "SETUP_COMPLETE_DESC": "Uređaj je postavljen i spreman za predaju korisniku.  Pritisnite U redu pa isključite uređaj na sljedećem zaslonu.",
        "SETUP_SITE_USER": "Postavljanje korisnika centra",
        "SETUP_SITE_USER_LEGEND": "Postavite korisnika centra za ovaj uređaj.",
        "SITE": "Centar",
        "SITE_ASSESSMENTS": "Procjene centra",
        "SIGNATURE_DATA_LIMIT_EXCEEDED": "Okvir za potpis ne može prikazati potpis točno kako je napisan. Umjesto toga, potpišite se svojim inicijalima.",
        "SITE_NUMBER": "Broj centra",
        "SITE_ROLE": "Korisnik centra",
        "SITE_SELECTION": "Odabir centra",
        "SKIP_FORM": "Preskoči obrazac",
        "SKIP_QUESTION": "Jeste li sigurni da želite preskočiti odgovore na ovom zaslonu?",
        "SKIP_TO_VISIT": "Preskoči na posjet",
        "SKIP_VISIT": "Preskoči posjet",
        "SKIPPED" : "Preskočeno",
        "START_FORM": "Započni obrazac",
        "START_VISIT": "Započni posjet",
        "STATUS": "Status",
        "STATUS_DATE": "Datum statusa",
        "STUDY": "Studija",
        "STUDYWORKS_LOGIN": "StudyWorks prijava",
        "SUBJECT_ID": "ID pacijenta",
        "SUBJECT_ROLE": "Pacijent",
        "SUBMIT": "Pošalji",
        "SUPPORT_TOOLS": "Alati podrške",
        "SYNC": "Sinkroniziraj",
        "SYNC_USERS": "Sinkroniziraj korisnike",
        "SYNC_TO_DEVICE": "Sinkroniziraj studiju na uređaju",
        "TEMPORARY_PASSWORD_MESSAGE": "Dajte privremenu lozinku novom korisniku. Od njih će se zatražiti da stvore novu lozinku nakon što se prijave.",
        "TEMP_PASSWORD": "Privremena lozinka: ",
        "UNABLE_TO_GET_SITE_LIST": "Nije moguće dobiti popis centra",
        "UNLOCK_CODE": "Šifra za otključavanje",
        "UNLOCK_CODE_HELP": "Šifru za otključavanje aplikacije ERT Tablet možete dobiti putem značajke StudyWorks iz izvješća SmartReport „Šifre za otključavanje aplikacije ERT” Za dodatnu pomoć obratite se ERT-ovu centru za podršku.",
        "USER": "Korisnik",
        "USER_ALREADY_EXISTS": "Korisnik već postoji",
        "SUBJECT_ALREADY_EXISTS": "Pacijent s ID-om {{{ getPatientIDForDuplicate }}} već postoji",
        "USER_ROLE": "Uloga korisnika",
        "USERNAME": "Korisničko ime",
        "USER_NAME": "Korisničko ime:",
        "VISIT": "Posjet",
        "VISIT_COMPLETED_MESSAGE": "Nema drugih obrazaca za ovaj posjet.  Ovaj posjet je dovršen",
        "VISITS": "Posjeti",
        "VISITS_SKIPPED": "Preskočeni posjet:",
        "VISIT_NAME": "Naziv posjeta",
        "WELCOME": "Dobro došli",
        "AF-ZA": "afrikaans",
        "AR-EG": "arapski",
        "BE-BY": "bjeloruski",
        "BG-BG": "bugarski",
        "BN-IN": "bengalski",
        "BS-BA": "bosanski",
        "CA-ES": "katalonski",
        "CS-CZ": "češki",
        "DA-DK": "danski",
        "DE-DE": "njemački (Njemačka)",
        "DE-AT": "njemački (Austrija)",
        "EL-GR": "grčki",
        "EN-GB": "engleski (UK)",
        "EN-US": "engleski (SAD)",
        "ES-ES": "španjolski (Španjolska)",
        "ES-US": "španjolski (SAD)",
        "ES-PY": "španjolski (univerzalni)",
        "ET-EE": "estonski",
        "FI-FI": "finski",
        "FR-CA": "francuski (Kanada)",
        "FR-FR": "francuski (Francuska)",
        "GD-IE": "gaelski",
        "GU-IN": "gudžaratski",
        "HE-IL": "hebrejski",
        "HI-IN": "hindski",
        "HR-HR": "hrvatski",
        "HU-HU": "mađarski",
        "IT-IT": "talijanski",
        "JA-JP": "japanski",
        "KA-GE": "gruzijski",
        "KN-IN": "karnatački",
        "KO-KR": "korejski",
        "LV-LV": "latvijski",
        "LT-LT": "litavski",
        "ML-IN": "malajalamski",
        "MR-IN": "marathski",
        "MS-MY": "malajski",
        "NB-NO": "norveški",
        "NL-BE": "nizozemski (Belgija)",
        "NL-NL": "nizozemski (Nizozemska)",
        "PA-IN": "pandžapski",
        "PL-PL": "poljski",
        "PT-BR": "portugalski (Brazil)",
        "PT-PT": "portugalski (Portugal)",
        "RO-RO": "rumunjski",
        "RU-RU": "ruski",
        "SL-SL": "slovenski",
        "SK-SK": "slovački",
        "SR-RS": "srpski (latinica)",
        "SR-SP": "srpski (ćirilica)",
        "ST-ZA": "sotski",
        "SV-SE": "švedski",
        "TA-IN": "tamilski",
        "TE-IN": "teluški",
        "TH-TH": "tajski",
        "TL-PH": "tagaloški",
        "TN-ZA": "tswana",
        "TR-TR": "turski",
        "UK-UA": "ukrajinski",
        "UR-IN": "urdski",
        "VI-VN": "vijetnamski",
        "XH-ZA": "xhosa",
        "ZH-CN": "kineski (Kina)",
        "ZH-TW": "kineski (Tajvan)",
        "ZU-ZU": "zulu",
        "HAND_DEVICE_SUBJECT_BODY": "Sljedeći obrazac mora ispuniti korisnik {{{ patientOrRole }}}. Odjavite se pa predajte uređaj korisniku {{{ patientOrRole }}}.",
        "HAND_DEVICE_SUBJECT_TITLE": "Pokretanje obrasca {{{ formTitle }}}",
        "SKIP_VISIT_TITLE": "Preskočiti posjet(e)?",
        "SKIP_VISIT_TEXT": "Ako nastavite, sljedeće će se posjete preskočiti:<br/> {{{ skippedVisits }}} Nastaviti i sada preskočiti ove posjete?",
        "YES":"Da",
        "NO":"Ne",
        "TIME_LBL": "Vrijeme:",
        "SET_TIME": "Postavi vrijeme",
        "DATE_LBL": "Datum:",
        "CREATE_PERMANENT_PASSWORD_TITLE": "Stvori trajnu lozinku",
        "USER_ID": "Korisnički ID:",
        "PHASE": "Faza",
        "LAST_VISIT": "Posljednji dovršeni posjet",
        "CONNECTION_REQUIRED": "Potrebna je internetska veza.",
        "RETRY": "Pokušajte ponovno",
        "UPDATE_FAILURE": "Ažuriranje nije dovršeno",
        "UPDATE_SUCCESS": "Ažuriranje uspješno",
        "CANCEL_PERMANENT_PASSWORD_TITLE": "Poništiti stvaranje trajne lozinke?",
        "CANCEL_PERMANENT_PASSWORD_TEXT": "Ako odustanete sada, vaša se trajna lozinka neće stvoriti. Za početak upotrebe aplikacije ERT trebat će vam trajna lozinka. Jeste li sigurni da želite odustati?",
        "ACCOUNT_CONFIGURED_TITLE": "Postavljanje računa je dovršeno",
        "ACCOUNT_CONFIGURED_TEXT": "Dovršili ste postavljanje računa i možete nastaviti upotrebljavati sustav eCOA.",
        "LOGGED_IN_AS": "Prijavljen kao",
        "EDIT_PATIENT_AFFIDAVIT_HEADER": "<p class='question-title-large'>Potpis</p><br />",
        "EDIT_PATIENT_AFF": "Donjim potpisom potvrđujem da sam ovlašten za uređivanje ovog pacijenta.<br /><br />ID pacijenta: {{{ getPatientIdNumber }}}<br /><br /><strong>Potpis:</strong> {{{ getActiveUserName }}}",
        "PASSWORD_MISMATCH": "Potvrda lozinke ne odgovara lozinci",
        "FIRST_USER_AFFIDAVIT": "Donjim potpisom izjavljujem da sam glavni istraživač ili ovlašteni izaslanik za stvaranje računa u ovom sustavu.<br /><br /><strong>Potpis:</strong> {{{ getFirstUsername }}}",
		"INCOMPLETE": "Nedovršeno",
        "INVALID_ENTRY": "Nevažeći unos",
        "PLEASE_ANSWER_SQ": "Odgovorite na sigurnosno pitanje:",
        "FORGOT_SECRET_ANSWER": "Zaboravili ste odgovor na sigurnosno pitanje?",
        "CONTACT_STUDY_COORDINATOR": "Kontaktirajte Koordinatora studije",
        "ENTER_NEW_PASSWORD": "Nova lozinka:",
        "CONTACT_UNLOCK_CODE": "Obratite se Koordinatoru studije kako biste dobili današnju šifru za otključavanje:",
        "CURRENT_DATE": "{{{ currentDate }}}",
        "TEMPORARY_UNLOCK_CODE": "Unesite šifru za otključavanje koju ste dobili od Koordinatora studije.",
        "RESET_SECRET_QUESTION": "Ponovno postavi sigurnosno pitanje",
        "SECRET_QUESTION_CHANGE_SUCCESS": "Uspješno ste ažurirali svoju lozinku i sigurnosno pitanje.",
        "RESET_PASSWORD": "Ponovno postavi lozinku",
        "ANSWER_ATTEMPT_EXCEEDED": "Previše ste puta unijeli neispravan odgovor ili ste kliknuli poveznicu za zaboravljeni sigurnosni odgovor.",
        "PASSWORD_ATTEMPT_EXCEEDED": "Previše ste puta unijeli neispravnu lozinku ili ste kliknuli poveznicu za zaboravljenu lozinku.",
        "PASSWORD_CHANGE_SUCCESS": "Uspješno ste ažurirali svoju lozinku.",
        "CHANGE_PASSWORD": "Promijeni lozinku",
        "CHANGE_SECRET_QUESTION": "Promijeni sigurnosno pitanje",
        "SYNC_COMPLETE": "Sinkronizacija je dovršena",
        "INCORRECT_ANSWER": "Netočan odgovor",
        "INCORRECT_UNLOCK_CODE": "Netočna šifra za otključavanje",
        "PASSWORD_INVALID": "Neispravna lozinka",
        "SUBJECT": "Pacijent",
        "PATIENT_ADDED": "Pacijent je dodan",
        "TIME_ZONE": "Vremenska zona:",
        "ACTIVATE_USER_CANCEL_CONFIRM": "Poništiti aktivaciju?",
        "ACTIVATE_USER_CANCEL_BODY": "Ako odustanete sada, korisnik centra neće se aktivirati. Jeste li sigurni da želite odustati?",
        "ACTIVATE_USER_AFF": "Potpisom u nastavku potvrđujem da sam ovlašten za aktivaciju ovog korisnika centra.",
        "ACTIVATE_USER_CONFIRM_INFORMATION": "Potvrdite da sljedeće informacije pripadaju korisniku centra kojeg želite aktivirati.",
        "DEACTIVATE_USER_CANCEL_CONFIRM": "Poništiti deaktivaciju?",
        "DEACTIVATE_USER_CANCEL_BODY": "Ako odustanete sada, korisnik centra neće se deaktivirati. Jeste li sigurni da želite odustati?",
        "DEACTIVATE_USER_AFF": "Potpisom u nastavku potvrđujem da sam ovlašten za deaktivaciju ovog korisnika centra.",
        "DEACTIVATE_USER_SIG": "<strong>Korisnik za deaktivaciju:</strong> <br />{{{ getSelectedUsername }}}<br /><br /><strong>Potpis:</strong> {{{ getActiveUserName }}}",
        "DEACTIVATE_USER_CONFIRM_INFORMATION": "Potvrdite da se sljedeći podaci odnose na korisnika centra kojeg želite deaktivirati.",
        "DIARY_TIMEOUT": "Ovaj je obrazac istekao.",
        "EDIT_PATIENT_QUESTION_1_MAIN_TITLE": "<div class='question-title-large'>Identifikacija pacijenta </div><div>Raspon ID-ova za ovaj centar:<br /><strong> {{{ patientIDRange }}}</strong></div><div class='edit-patient-id'>ID pacijenta:<br /><strong>{{{ getPatientIdNumber }}} ({{{getPatientInitials}}})</strong</div><br /><br />",
        "EDIT_PATIENT_QUESTION_1": "ID pacijenta:",
        "EDIT_PATIENT_QUESTION_1_EMPTY": "Unesite ID pacijenta.",
        "EDIT_PATIENT_QUESTION_1_EMPTY_HEADER": "ID pacijenta",
        "EDIT_PATIENT_QUESTION_1_RANGE": "Uneseni ID pacijenta nije unutar raspona dopuštenih ID-ova: {{{ patientIDRange }}}.  Unesite važeći ID pacijenta.",
        "EDIT_PATIENT_QUESTION_1_RANGE_HEADER": "ID pacijenta je izvan raspona",
        "EDIT_PATIENT_QUESTION_1_UNIQUE": "Pacijent već postoji.  Unesite drugi ID pacijenta.",
        "EDIT_PATIENT_QUESTION_1_UNIQUE_HEADER": "ID pacijenta je duplikat",
        "EDIT_PATIENT_QUESTION_2": "Inicijali pacijenta:",
        "EDIT_PATIENT_QUESTION_2_EMPTY": "Unesite inicijale pacijenta, minimalno 2 znaka.",
        "EDIT_PATIENT_QUESTION_2_EMPTY_HEADER": "Inicijali pacijenta",
        "EDIT_PATIENT_QUESTION_3_TITLE": "<div class='question-title-large'>Odaberite jezik</div><div>ID pacijenta:<br /><strong>{{{ getPatientIdNumber }}} ({{{getPatientInitials}}})</strong</div><br /><br />",
        "EDIT_PATIENT_QUESTION_3": "Odaberite jezik za pacijenta",
        "EDIT_PATIENT_QUESTION_4_TITLE": "<div class='question-title-large'>Uredite razlog</div><br /><br />",
        "EDIT_PATIENT_QUESTION_4": "Odaberite razlog za uređivanje pacijenta",
        "EDIT_PATIENT_CANCEL_CONFIRM": "Poništiti promjene pacijenta?",
        "EDIT_PATIENT_CANCEL_BODY": "Ako odustanete sada, postavke pacijenta neće se ažurirati.  Jeste li sigurni da želite odustati?",
        "EDIT_PATIENT_NO_CHANGES_CONFIRM": "Nema promjena pacijenta",
        "EDIT_PATIENT_NO_CHANGES_BODY": "Nisu obavljene promjene ovog pacijenta. Svejedno izaći?",
        "EDIT_PATIENT_REASON_0": "Pogreška koju je ispravio liječnik koji provodi studiju",
        "EDIT_REASON": "Uredite razlog:",
        "EDIT_USER_AFF": "Potpisom u nastavku potvrđujem da sam ovlašten za uređivanje ovog korisnika centra. <br /><br /><strong>Potpis:</strong> {{{ getActiveUserName }}}",
        "EDIT_USER_CANCEL_CONFIRM": "Poništiti uređivanje korisnika?",
        "EDIT_USER_CANCEL_BODY": "Ako odustanete sada, izmjene korisnika centra neće se izvršiti. Jeste li sigurni da želite odustati?",
        "EDIT_USER_NO_CHANGES_HEADER": "Nisu obavljene izmjene korisnika centra",
        "EDIT_USER_NO_CHANGES_BODY": "Nisu obavljene izmjene ovog korisnika centra. Svejedno izaći?",
        "ERROR_CODE": "Šifra pogreške:",
        "ERROR_TITLE": "Pogreška",
        "FIRST_SITE_USER": "Dodajte prvog korisnika centra",
        "NEW_PATIENT_QUESTION_1_MAIN_TITLE": "<div class='question-title-large'>Unesite identifikacijske podatke pacijenta</div><div>Raspon ID-ova za ovaj centar:<br /><strong> {{{ patientIDRange }}}</strong></div><div><strong>Centar: {{{ getSiteCode }}}</strong></div><div><strong>Korisnik: {{{ getUserName }}}</strong</div><br /><br />",
        "NEW_PATIENT_HELP_TEXT_1": "",
        "NEW_PATIENT_HELP_TEXT_2": "",
        "NEW_PATIENT_HELP_TEXT_3": "",
        "NEW_PATIENT_QUESTION_1_TITLE": "ID pacijenta",
        "NEW_PATIENT_QUESTION_1": "ID pacijenta:",
        "NEW_PATIENT_QUESTION_1_EMPTY": "Unesite ID pacijenta.",
        "NEW_PATIENT_QUESTION_1_EMPTY_HEADER": "ID pacijenta",
        "NEW_PATIENT_QUESTION_1_RANGE": "Uneseni ID pacijenta nije unutar raspona dopuštenih ID-ova: {{{ patientIDRange }}}.  Unesite važeći ID pacijenta.",
        "NEW_PATIENT_QUESTION_1_RANGE_HEADER": "ID pacijenta je izvan raspona",
        "NEW_PATIENT_QUESTION_1_UNIQUE": "Pacijent već postoji.  Unesite drugi ID pacijenta.",
        "NEW_PATIENT_QUESTION_1_UNIQUE_HEADER": "ID pacijenta je duplikat",
        "NEW_PATIENT_QUESTION_2": "Inicijali pacijenta:",
        "NEW_PATIENT_QUESTION_2_EMPTY": "Unesite inicijale pacijenta, minimalno 2 znaka.",
        "NEW_PATIENT_QUESTION_2_EMPTY_HEADER": "Inicijali pacijenta",
        "NEW_PATIENT_QUESTION_3_TITLE": "<div class='question-title-large'>Odaberite jezik</div><div><strong>Centar: {{{ getSiteCode }}}</strong></div><div><strong>Korisnik: {{{ getUserName }}}</strong</div><div><strong>ID pacijenta: {{{ getPatientID }}}</strong></div><br /><br />",
        "NEW_PATIENT_QUESTION_3": "Odaberite jezik za pacijenta",
        "NEW_PATIENT_CANCEL_CONFIRM": "Poništiti dodavanje pacijenta?",
        "NEW_PATIENT_CANCEL_BODY": "Ako odustanete, pacijent se neće registrirati.  Jeste li sigurni da želite odustati?",
        "NEW_PATIENT_AFFIDAVIT_HEADER": "<div><strong>Centar: {{{ getSiteCode }}}</strong><br /><strong>Korisnik: {{{ getUserName }}}</strong><br /><strong>ID pacijenta: {{{ getPatientID }}}</strong></div>",
        "PATIENT_INITIALS": "Inicijali pacijenta:",
        "PATIENT_DELETED": "Nepoznati pacijent",
        "PATIENT_DELETED_MSG": "Pacijenta nije moguće pronaći.",
        "PATIENT_DELETED_SUBJECT_MSG": "Pacijenta nije moguće pronaći. Vratite uređaj zaduženom osoblju u centru.",
        "PLEASE_CONTACT": "Obratite se ERT-ovu centru za podršku.",
        "PLEASE_TRY_OR_CONTACT_SUPPORT": "Pokušajte ponovno ili se obratite ERT-ovu centru za podršku.",
        "REASON": "Razlog:",
        "SET_TIMEZONE_MESSAGE": "Odaberite svoju vremensku zonu:",
        "SKIP_VISITS": "Preskoči posjete",
        "SKIP_VISITS_QUESTION_1": "<div class='question-title-large'><strong>Razlog</strong></div><br /><br /><div>Odaberite razlog za preskakanje posjeta:</div>",
        "SKIP_VISITS_REASON_0": "Posjet je istekao",
        "SKIP_VISITS_REASON_1": "Administracijska pogreška centra",
        "SKIP_VISITS_REASON_2": "Ispitanik je propustio termin na klinici.",
        "SKIP_VISITS_REASON_3": "Nije primjenjivo.",
        "SKIP_VISITS_REASON_4": "Posjet nije obavezan i nije obavljen.",
        "SKIP_VISITS_CANCEL_CONFIRM": "Poništiti preskakanje posjeta?",
        "SKIP_VISITS_CANCEL_BODY": "Ako odustanete sada, posjeti se neće preskočiti. Jeste li sigurni da želite odustati?",
        "SKIPPED_VISITS": "{{{ skippedVisits }}}",
		"USER_EDITED": "Korisnik je ažuriran.",
        "USER_TO_ACTIVATE": "<strong>Korisnik za aktivaciju:</strong> <br />{{{ getSelectedUsername }}}<br /><br /><strong>Potpis:</strong> {{{ getActiveUserName }}}",
        "TIME_CONFIRMATION_INSTRUCTIONS": "Uređaj treba potvrditi vaše lokalno vrijeme. Unesite datum i vrijeme iz pouzdanog izvora.",
        "TIME_ZONE_ERROR_HEADER": "Pogreška vremenske zone",
        "TIME_ZONE_ERROR_MSG": "Došlo je do pogreške tijekom dohvaćanja popisa vremenskih zona. Za dodatnu pomoć obratite se ERT-ovu centru za podršku.",
        "TIME_ZONE_SET_ERROR_MSG": "Došlo je do pogreške tijekom postavljanja vremenske zone. Za dodatnu pomoć obratite se ERT-ovu centru za podršku.",
        "TIME_ZONE_SET_CONFIRM": "Jeste li sigurni da vremensku zonu želite postaviti na {{{selectedTimeZone}}}? <br/> Aplikacija se može ponovno pokrenuti kako bi se promjena primijenila.",
        "TIME_ZONE_SET_CONFIRM_NOCHANGE": "Jeste li sigurni da vremensku zonu želite postaviti na {{{selectedTimeZone}}}?",
        "TIME_ZONE_SET_HEADER": "Potvrda postavljanja vremenske zone",
        "TRAINER": "Trenerski način",
        "TRAINER_EXIT": "Napusti trenerski način",
        "TRAINER_EXIT_NOTIFICATION": "Napuštate trenerski način",
        "TRAINER_HEADER": "(trener)",
		"VISIT_INACTIVE_HEADER": "Neaktivan posjet.",
        "VISIT_INACTIVE_MESSAGE": "Ovaj posjet više nije aktivan.",
        "VISIT_INACTIVE_MESSAGE_SUBJECT": "Ovaj posjet više nije aktivan. Vratite uređaj zaduženom osoblju u centru.",
        "SITE_ADMINISTRATOR": "Administrator centra",
        "LOW_BATTERY": "Upozorenje: Razina napunjenosti baterije je niska. Stavite uređaj na punjenje.",
        "CRITICAL_BATTERY": "Upozorenje: Razina napunjenosti baterije iznimno je niska. Stavite uređaj na punjenje ili će se isključiti.",
        "TIME_CONFIRMATION_HEADER": "Potvrdite datum/vrijeme",
        "TIMESLIP_ERROR": "Vrijeme ili datum na uređaju nisu točni. Premjestite se na lokaciju s internetskom vezom i pokušajte ponovno. Ako se problemi nastave, obratite se ERT službi za korisnike.",
        "SUPPORT": "Korisnička podrška",
        "SUPPORT_MESSAGE": "Korisnicima u Sjedinjenim Američkim Državama ERT-ov centar za podršku dostupan je na 800-748-5669. Ako ste međunarodni korisnik, odaberite najbližu državu među ponuđenima:",
        "SUPPORT_DROPDOWN": "Odaberite svoju državu",
        "SUPPORT_NAME_ARGENTINA": "Argentina",
        "SUPPORT_NUMBER_ARGENTINA": "<bdi>0800 444 0962</bdi>",
        "SUPPORT_NAME_ARMENIA": "Armenija",
        "SUPPORT_NUMBER_ARMENIA": "<bdi>+1 617 681 6306</bdi>",
        "SUPPORT_NAME_AUSTRALIA": "Australija",
        "SUPPORT_NUMBER_AUSTRALIA": "<bdi>1 800 800 051</bdi>",
        "SUPPORT_NAME_AUSTRIA": "Austrija",
        "SUPPORT_NUMBER_AUSTRIA": "<bdi>0800 100 405</bdi>",
        "SUPPORT_NAME_BELARUS": "Bjelorusija",
        "SUPPORT_NUMBER_BELARUS": "<bdi>8 820 0321 0036</bdi>",
        "SUPPORT_NAME_BELGIUM": "Belgija",
        "SUPPORT_NUMBER_BELGIUM_1": "(engleski): <bdi>0800 58 016</bdi>",
        "SUPPORT_NUMBER_BELGIUM_2": "(francuski): <bdi>0800 71 076</bdi>",
        "SUPPORT_NUMBER_BELGIUM_3": "(njemački): <bdi>0800 71 113</bdi>",
        "SUPPORT_NAME_BRAZIL": "Brazil",
        "SUPPORT_NUMBER_BRAZIL": "<bdi>0800 891 5909</bdi>",
        "SUPPORT_NAME_BOSNIA": "Bosna i Hercegovina",
        "SUPPORT_NUMBER_BOSNIA": "<bdi>+1 617 681 6306</bdi>",
        "SUPPORT_NAME_BULGARIA": "Bugarska",
        "SUPPORT_NUMBER_BULGARIA": "<bdi>00800 0010</bdi>, a zatim <bdi>866 245 4931</bdi>",
        "SUPPORT_NAME_CANADA": "Kanada",
        "SUPPORT_NUMBER_CANADA": "<bdi>1 800 748 5669</bdi>",
        "SUPPORT_NAME_CHILE": "Čile",
        "SUPPORT_NUMBER_CHILE": "<bdi>123 0020 3408</bdi>",
        "SUPPORT_NAME_CHINA": "Kina",
        "SUPPORT_NUMBER_CHINA_1": "NetCom (sjever): <bdi>1 0800 74 40 164</bdi>",
        "SUPPORT_NUMBER_CHINA_2": "Telecom (jug): <bdi>1 0800 44 00 158</bdi>",
        "SUPPORT_NAME_COLOMBIA": "Kolumbija",
        "SUPPORT_NUMBER_COLOMBIA": "<bdi>01 800 911 0010</bdi>, a zatim <bdi>866 310 3707</bdi>",
        "SUPPORT_NAME_COSTA_RICA": "Kostarika",
        "SUPPORT_NUMBER_COSTA_RICA": "<bdi>0800 013 1210</bdi>",
        "SUPPORT_NAME_CROATIA": "Hrvatska",
        "SUPPORT_NUMBER_CROATIA": "<bdi>0800 222 953</bdi>",
        "SUPPORT_NAME_CZECH_REPUBLIC": "Češka",
        "SUPPORT_NUMBER_CZECH_REPUBLIC": "<bdi>800 142 150</bdi>",
        "SUPPORT_NAME_DENMARK": "Danska",
        "SUPPORT_NUMBER_DENMARK": "<bdi>80 60 00 09</bdi>",
        "SUPPORT_NAME_EGYPT": "Egipat",
        "SUPPORT_NUMBER_EGYPT": "<bdi>02 510 0200</bdi>, a zatim <bdi>866 310 3707</bdi>",
        "SUPPORT_NAME_EL_SALVADOR": "Salvador",
        "SUPPORT_NUMBER_EL_SALVADOR": "<bdi>+1 617 681 6306</bdi>",
        "SUPPORT_NAME_ESTONIA": "Estonija",
        "SUPPORT_NUMBER_ESTONIA": "<bdi>800 00 44 154</bdi>",
        "SUPPORT_NAME_FINLAND": "Finska",
        "SUPPORT_NUMBER_FINLAND": "<bdi>0800 11 6366</bdi>",
        "SUPPORT_NAME_FRANCE": "Francuska",
        "SUPPORT_NUMBER_FRANCE": "<bdi>0800 10 19 79</bdi>",
        "SUPPORT_NAME_GERMANY": "Njemačka",
        "SUPPORT_NUMBER_GERMANY": "<bdi>0800 101 28 21</bdi>",
        "SUPPORT_NAME_GREECE": "Grčka",
        "SUPPORT_NUMBER_GREECE": "<bdi>00 800 1311</bdi>, a zatim <bdi>866 310 3707</bdi>",
        "SUPPORT_NAME_GUATEMALA": "Gvatemala",
        "SUPPORT_NUMBER_GUATEMALA": "<bdi>1 800 624 0079</bdi>",
        "SUPPORT_NAME_HONG_KONG": "Hong Kong",
        "SUPPORT_NUMBER_HONG_KONG": "<bdi>3002 1665</bdi>",
        "SUPPORT_NAME_HUNGARY": "Mađarska",
        "SUPPORT_NUMBER_HUNGARY": "<bdi>06 800 14 571</bdi>",
        "SUPPORT_NAME_ICELAND": "Island",
        "SUPPORT_NUMBER_ICELAND": "<bdi>800 8544</bdi>",
        "SUPPORT_NAME_INDIA": "Indija",
        "SUPPORT_NUMBER_INDIA": "<bdi>000 800 440 1125</bdi>",
        "SUPPORT_NAME_INDONESIA": "Indonezija",
        "SUPPORT_NUMBER_INDONESIA": "<bdi>008 800 330 334</bdi>",
        "SUPPORT_NAME_IRELAND": "Irska",
        "SUPPORT_NUMBER_IRELAND": "<bdi>1 800 946 700</bdi>",
        "SUPPORT_NAME_ISRAEL": "Izrael",
        "SUPPORT_NUMBER_ISRAEL": "<bdi>1 809 470 062</bdi>",
        "SUPPORT_NAME_ITALY": "Italija",
        "SUPPORT_NUMBER_ITALY": "<bdi>800 90 56 37</bdi>",
        "SUPPORT_NAME_JAPAN": "Japan",
        "SUPPORT_NUMBER_JAPAN": "Besplatni broj telefona za upite o studiji potražite u informativnom vodiču za studije ePRO",
        "SUPPORT_NAME_LATVIA": "Latvija",
        "SUPPORT_NUMBER_LATVIA": "<bdi>8000 2151</bdi>",
        "SUPPORT_NAME_LEBANON": "Libanon",
        "SUPPORT_NUMBER_LEBANON": "<bdi>01-426-801</bdi> i zatim <bdi>866 310 3707</bdi>",
        "SUPPORT_NAME_LITHUANIA": "Litva",
        "SUPPORT_NUMBER_LITHUANIA": "<bdi>8800 30207</bdi>",
        "SUPPORT_NAME_MALAYSIA": "Malezija",
        "SUPPORT_NUMBER_MALAYSIA": "<bdi>1800 80 59 71</bdi>",
        "SUPPORT_NAME_MEXICO": "Meksiko",
        "SUPPORT_NUMBER_MEXICO_1": "(engleski): <bdi>001 800 748 5669</bdi> ",
        "SUPPORT_NUMBER_MEXICO_2": "(španjolski): <bdi>001 855 631 6952</bdi>",
        "SUPPORT_NAME_MOLDOVA": "Moldavija",
        "SUPPORT_NUMBER_MOLDOVA": "<bdi>617 681 6306</bdi>",
        "SUPPORT_NAME_NETHERLANDS": "Nizozemska",
        "SUPPORT_NUMBER_NETHERLANDS": "<bdi>0800 023 1389</bdi>",
        "SUPPORT_NAME_NEW_ZEALAND": "Novi Zeland",
        "SUPPORT_NUMBER_NEW_ZEALAND": "<bdi>0800 110 178</bdi>",
        "SUPPORT_NAME_NORWAY": "Norveška",
        "SUPPORT_NUMBER_NORWAY": "<bdi>800 62 051</bdi>",
        "SUPPORT_NAME_PAKISTAN": "Pakistan",
        "SUPPORT_NUMBER_PAKISTAN": "<bdi>00 800 0100</bdi>, a zatim <bdi>866 237 9767</bdi>",
        "SUPPORT_NAME_PANAMA": "Panama",
        "SUPPORT_NUMBER_PANAMA": "<bdi>001 800 201 3095</bdi>",
        "SUPPORT_NAME_PERU": "Peru",
        "SUPPORT_NUMBER_PERU": "<bdi>0800 5 0974</bdi>",
        "SUPPORT_NAME_PHILIPPINES": "Filipini",
        "SUPPORT_NUMBER_PHILIPPINES": "<bdi>1 800 1116 0651</bdi>",
        "SUPPORT_NAME_POLAND": "Poljska",
        "SUPPORT_NUMBER_POLAND": "<bdi>00800 331 1262</bdi>",
        "SUPPORT_NAME_PORTUGAL": "Portugal",
        "SUPPORT_NUMBER_PORTUGAL": "<bdi>800 206 172</bdi>",
        "SUPPORT_NAME_PUERTO_RICO": "Portoriko (teritorij SAD-a)",
        "SUPPORT_NUMBER_PUERTO_RICO": "<bdi>1 800 748 5669</bdi>",
        "SUPPORT_NAME_ROMANIA": "Rumunjska",
        "SUPPORT_NUMBER_ROMANIA": "<bdi>0800 894492</bdi>",
        "SUPPORT_NAME_RUSSIA": "Rusija",
        "SUPPORT_NUMBER_RUSSIA_1": "(primarno – besplatni broj): <bdi>8 10 800 249 13011</bdi>",
        "SUPPORT_NUMBER_RUSSIA_2": "(u Moskvi): <bdi>363-2400</bdi> <br>, zatim <bdi>866 310 3707</bdi>",
        "SUPPORT_NUMBER_RUSSIA_3": "(izvan Moskve): <bdi>8^(495) 363-2400</bdi> <br>, a zatim <bdi>866 310 3707</bdi>",
        "SUPPORT_NUMBER_RUSSIA_4": "(u Sankt Peterburgu): <bdi>363-2400</bdi> <br>, a zatim <bdi>866 310 3707</bdi>",
        "SUPPORT_NUMBER_RUSSIA_5": "(izvan Sankt Peterburga): <bdi>8^(495) 363-2400</bdi> <br>, a zatim <bdi>866 310 3707</bdi>",
        "SUPPORT_NAME_SAUDI_ARABIA": "Saudijska Arabija",
        "SUPPORT_NUMBER_SAUDI_ARABIA": "<bdi>+1 617 681 6306</bdi>",
        "SUPPORT_NAME_SERBIA": "Srbija",
        "SUPPORT_NUMBER_SERBIA": "<bdi>+1 617 973 1739</bdi>",
        "SUPPORT_NAME_SINGAPORE": "Singapur",
        "SUPPORT_NUMBER_SINGAPORE": "<bdi>800 616 30 03</bdi>",
        "SUPPORT_NAME_SLOVAKIA": "Slovačka",
        "SUPPORT_NUMBER_SLOVAKIA": "<bdi>0800 0044 65</bdi>",
        "SUPPORT_NAME_SLOVENIA": "Slovenija",
        "SUPPORT_NUMBER_SLOVENIA": "<bdi>+1 617 681 6306</bdi>",
        "SUPPORT_NAME_SOUTH_AFRICA": "Južna Afrika",
        "SUPPORT_NUMBER_SOUTH_AFRICA": "<bdi>0800 99 5853</bdi>",
        "SUPPORT_NAME_SOUTH_KOREA": "Južna Koreja",
        "SUPPORT_NUMBER_SOUTH_KOREA": "<bdi>00308 33 00 08</bdi>",
        "SUPPORT_NAME_SPAIN": "Španjolska",
        "SUPPORT_NUMBER_SPAIN": "<bdi>900 90 2541</bdi>",
        "SUPPORT_NAME_SWEDEN": "Švedska",
        "SUPPORT_NUMBER_SWEDEN": "<bdi>020 120 99 69</bdi>",
        "SUPPORT_NAME_SWITZERLAND": "Švicarska",
        "SUPPORT_NUMBER_SWITZERLAND_1": "(engleski): <bdi>0800 199 325</bdi>",
        "SUPPORT_NUMBER_SWITZERLAND_2": "(francuski): <bdi>0800 891 183</bdi>",
        "SUPPORT_NUMBER_SWITZERLAND_3": "(njemački): <bdi>0800 891 025</bdi>",
        "SUPPORT_NAME_TAIWAN": "Tajvan",
        "SUPPORT_NUMBER_TAIWAN": "<bdi>00801 33 33 42</bdi>",
        "SUPPORT_NAME_THAILAND": "Tajland",
        "SUPPORT_NUMBER_THAILAND": "<bdi>1 800 33 140 353</bdi>",
        "SUPPORT_NAME_TUNISIA": "Tunis",
        "SUPPORT_NUMBER_TUNISIA": "<bdi>+1 617 681 6306</bdi>",
        "SUPPORT_NAME_TURKEY": "Turska",
        "SUPPORT_NUMBER_TURKEY": "<bdi>00 800 151 1335</bdi>",
        "SUPPORT_NAME_UKRAINE": "Ukrajina",
        "SUPPORT_NUMBER_UKRAINE": "<bdi>0^00 11</bdi>, a zatim <bdi>866 245 4931</bdi>",
        "SUPPORT_NAME_UAE": "Ujedinjeni Arapski Emirati",
        "SUPPORT_NUMBER_UAE": "<bdi>8000-021</bdi>, a zatim <bdi>866 310 3707</bdi>",
        "SUPPORT_NAME_UK": "Ujedinjeno Kraljevstvo",
        "SUPPORT_NUMBER_UK": "<bdi>0800 015 0408</bdi>",
        "SUPPORT_NAME_US": "Sjedinjene Američke Države",
        "SUPPORT_NUMBER_US_1": "(glavni broj): <bdi>1 800 748 5669</bdi>",
        "SUPPORT_NUMBER_US_2": "(rezervni broj): <bdi>1 877 748 5669</bdi>",
        "SUPPORT_NAME_VENEZUELA": "Venezuela",
        "SUPPORT_NUMBER_VENEZUELA_1": "(engleski): <bdi>0 800 552 6288</bdi> <br>, a zatim <bdi>866 310 3707</bdi> ",
        "SUPPORT_NUMBER_VENEZUELA_2": "(španjolski): <bdi>0 800 100 3063</bdi> ",
        "ABOUT": "O aplikaciji",
        "CORE_PRODUCT_VERSION_LABEL": "Verzija proizvoda:",
        "PROTOCOL": "Protokol:",
        "SPONSOR": "Sponzor:",
        "STORED_REPORTS": "Pohranjeni obrasci:",
        "STUDY_VERSION": "Verzija studije: ",
        "STUDY_URL": "URL studije:",
        "P_AFFIDAVIT_HEADER": "<div><strong>Centar: {{{ getSiteCode }}}</strong><br /><strong>ID pacijenta: {{{ getPatientIdNumber }}}</strong></div>",
		"SET_TIMEZONE": "Postavi vremensku zonu",
		"DEVICE_SERIAL_NUMBER": "Serijski broj uređaja",
		"NONEXISTENT_USER": "Pokušali ste ažurirati nepostojećeg korisnika.",
		"SCREENING" : "Probir",
		"TREATMENT" : "Terapija",
		"RANDOMIZATION" : "Randomizacija",
		"FOLLOWUP" : "Kontrola",
		"TERMINATION" : "Završetak",
        "ACCEPT": "Prihvaćam",
        "DECLINE": "Odbijam",
		"EULA": "LICENCA ZA KRAJNJEG KORISNIKA",
        "EULA_TEXT": "<p><strong><span class=\"text-underline\">VAŽNO</span>:  NEMOJTE KLIKNUTI NA GUMB ZA PRIHVAĆANJE DOK NISTE PROČITALI OVAJ UGOVOR.  KLIKOM NA GUMB ZA PRIHVAĆANJE PRIHVAĆATE SVE ODREDBE OVOG UGOVORA.  AKO NE PRIHVAĆATE SVE ODREDBE OVOG UGOVORA (1) NEMOJTE KLIKNUTI NA GUMB „PRIHVAĆAM”, (2) INSTALACIJU I LICENCIRANJE PREKINITE KLIKOM NA GUMB „ODBIJAM”.</strong></p><p>Tvrtka eResearchTechnology, Inc. („davatelj licence”) dodjeljuje vam neisključivo i neprenosivo pravo upotrebe softvera eResearchTechnology, Inc. ugrađenog na ovaj uređaj („softver”) u skladu s vašim sudjelovanjem u ugovoru o kliničkom ispitivanju: <strong>{{{ clinicalTrial }}}</strong>.  Softver eResearchTechnology, Inc. pokriven je objavljenim patentima i drugim patentima koji čekaju odobrenje.  Ovim se ugovorom ne prenose prava vlasništva na bilo koji softver (ili bilo koje kopije), već on samo predstavlja licencu za upotrebu softvera u skladu sa svim odredbama ovog ugovora.  Naziv softvera i svi njegovi dijelovi te sva prava vlasništva i intelektualna prava koja sadrži neotuđiva su od davatelja licence.</p><p>Suglasni ste da nećete, izravno ili neizravno, (i) vršiti obrnuti inženjering, rastavljati ili dekompilirati softver; (ii) kopirati, distribuirati, prerađivati, prilagođavati, stvarati sadržaje koji se na njemu temelje, prevoditi, lokalizirati, prenositi ili na bilo koji drugi način izmijeniti softver; ili (iii) ukloniti ili izmijeniti niti jedno autorsko pravo, poslovnu tajnu ili neku drugu pravnu napomenu koja se nalazi na softveru ili u njemu.  POTVRĐUJETE I PRIHVAĆATE DA SOFTVER MOŽE SADRŽAVATI KOD KOJI SPRJEČAVA NJEGOVU NEOVLAŠTENU UPOTREBU.</p><br><p>AKO PRIHVAĆATE SVE GORE NAVEDENO, odaberite <strong>„Prihvaćam”</strong> – klikom na „Prihvaćam” prihvaćate odredbe licence.</p><p>AKO NE PRIHVAĆATE SVE GORE NAVEDENO ili ako nemate ovlasti za prihvaćanje, odaberite <strong>„Odbijam”</strong> – u tom će vam se slučaju blokirati budući pristup softveru.  Ako imate ovlasti, odredbe možete prihvatiti neki drugi put.</p>",
        "VISIT_EXPIRED_HEADER": "Posjet je istekao.",
        "VISIT_EXPIRED_MESSAGE": "Posjet više nije dostupan jer je istekao.",
        "VISIT_EXPIRED_MESSAGE_SUBJECT": "Posjet više nije dostupan jer je istekao. Vratite uređaj zaduženom osoblju u centru.",
        "SQ-AL": "albanski",
        "IMAGE_FOLDER": "{{{ imageFolder }}}",
		"MODAL_OK_TEXT": "U redu",
        "BROWSER_LOAD_ERROR": "Stranica nije pronađena. Provjerite internetsku vezu i pokušajte ponovno.",
		"NO_USER_OF_ROLE" : "Nije pronađen ni jedan korisnik s tom ulogom.",
        "EDIT_PATIENT_REASON_1": "Ispravak podataka atributa",
        "EDIT_PATIENT_REASON_2": "Promjena ID-a",
        "EDIT_PATIENT_REASON_3": "Odabrani jezik nije ispravan",
		"START_VISIT_OUTSIDE_WINDOW_MSG": "Unijeti {{{ getVisitName }}} izvan konfiguriranog vremenskog okvira: {{{ startDate }}} - {{{ endDate }}}",
		"START_VISIT_HARD_STOP_MSG" : "Ne možete unijeti {{{ getVisitName }}} izvan konfiguriranog vremenskog okvira: {{{ startDate }}} - {{{ endDate }}}",
		"USER_NAME_INVALID_CHARACTERS" : "Nemojte upotrebljavati posebne znakove",
		"ERROR_PATIENT_SAVE" : "Došlo je do pogreške pri dodavanju novog pacijenta",
		"PASSWORD_CHANGE_FAILED" : "Za prikupljanje podataka studije aktiviran je drugi uređaj. Promijenite lozinku na tom uređaju.",
		"ERROR" : "Pogreška.  Obratite se ERT-ovu centru za podršku.",
		"ERROR_AFTER_ACTIVATION_SUCCESSFUL" : "Došlo je do pogreške. Morat ćete unijeti šifru za postavljanje i lozinku.",
		"CONNECTION_TIMEOUT" : "Veza je istekla.",
		"UPDATE_FAILED" : "ERT-ovo ažuriranje nije dovršeno. Provjerite je li uređaj spojen na internet i pokušajte ponovno.",
        "QR_CODE_UNAVAILABLE": "Kliknite pacijenta kako biste osvježili QR.",
        "QR_MODAL_TITLE": "QR kod za: ",
        "TRANSMIT_FAILED_403_14": "jedan ili više prijenosa nije uspjelo zbog toga što nije dovršena izrada pacijenta. Pričekajte i pokušajte ponovno.",
        "CONSOLE_LOG": "Zapisnik konzole",
		"USER_SELECT_ROLE_VALIDATION": "Potrebno je odabrati ulogu.",
        "USER_SELECT_LANGUAGE_VALIDATION": "Potrebno je odabrati jezik."
    },
    "dates": {
        "setDateButtonLabel": "Postavi datum",
        "setTimeButtonLabel": "U redu",
        "setDurationButtonLabel": "Postavi trajanje",
        "calTodayButtonLabel": "Idi na Danas",
        "titleDateDialogLabel": "Postavi datum",
        "titleTimeDialogLabel": "Postavi vrijeme",
        "daysOfWeek": [
            "nedjelja",
            "ponedjeljak",
            "utorak",
            "srijeda",
            "četvrtak",
            "petak",
            "subota"
        ],
        "daysOfWeekShort": [
            "ne",
            "po",
            "ut",
            "sr",
            "če",
            "pe",
            "su"
        ],
        "monthsOfYear": [
            "siječanj",
            "veljača",
            "ožujak",
            "travanj",
            "svibanj",
            "lipanj",
            "srpanj",
            "kolovoz",
            "rujan",
            "listopad",
            "studeni",
            "prosinac"
        ],
        "monthsOfYearShort": [
            "sij",
            "velj",
            "ožu",
            "tra",
            "svi",
            "lip",
            "srp",
            "kol",
            "ruj",
            "lis",
            "nov",
            "pro"
        ],
        "durationLabel": [
            "dani",
            "sati",
            "minute",
            "sekunde"
        ],
        "durationDays": [
            "dan",
            "dani"
        ],
        "tooltip": "Otvori birač datuma",
        "nextMonth": "Sljedeći mjesec",
        "prevMonth": "Prethodni mjesec",
        "clearButton": "Obriši",
        "meridiem": [
            "ujutro",
            "popodne"
        ]
    }
}
