{
    "namespace": "CORE",
    "language": "lv",
    "locale": "LV",
    "localized": "Latviešu",
    "direction": "ltr",
    "resources": {
        "ABOUT": "Par",
        "ACTIVATED_ELSEWHERE": "Jūsu pētījuma datu apkopošanai ir aktivizēta cita ierīce. Ja uzskatāt, ka tas noticis kļūdas dēļ, sazinieties ar sava pētījuma koordinatoru.",
        "ACTIVATION_CODE": "Iestatīšanas kods:",
        "AFFIDAVIT": "Kad esat gatavs saglabāt savas atbildes, atlasiet Labi un Tālāk.",
        "AFFIDAVIT_HELP": "Paldies! Jūs esat sniedzis visas nepieciešamās atbildes. Varat pārbaudīt un mainīt savas atbildes, atlasot Atpakaļ.",
        "ANSWER_ATTEMPT_EXCEEDED": "Jūs esat pārāk bieži ievadījis nepareizu atbildi vai noklikšķinājis uz saites “Vai esat aizmirsis drošības atbildi?”.",
        "APPLICATION_HEADER": "{{{ appHeader }}}",
        "BACK": "Atpakaļ",
        "BACK_OUT_CONFIRM": "Vai tiešām vēlaties iziet? Šīs veidlapas atbildes tiks zaudētas.",
        "CANCEL": "Atcelt",
        "CANCEL_UPDATE": "Atcelt atjaunināšanu",
        "CHANGE_PASSWORD": "Mainīt paroli",
        "CHANGE_SECRET_QUESTION": "Mainīt drošības jautājumu",
        "CODE_ENTRY_NO_SERVER": "Serveris nav pieejams",
        "CONNECTION_REQUIRED": "Nepieciešams interneta savienojums.",
        "CONNECTION_TIMEOUT": "Iestājies savienojuma taimauts.",
        "CONFIRM_PASSWORD": "Apstiprināt paroli:",
        "CONTACT_STUDY_COORDINATOR": "Sazināties ar pētījuma koordinatoru",
        "CONTACT_UNLOCK_CODE": "Sazinieties ar pētījuma koordinatoru, lai saņemtu atbloķēšanas kodu šodienai:",
        "CORE_PRODUCT_VERSION_LABEL": "Produkta versija:",
        "CURRENT_DATE": "{{{ currentDate }}}",
        "CURRENT_PASSWORD": "Pašreizējā parole:",
        "DATE_LBL": "Datums:",
        "DEACTIVATED_LABEL": "Jūsu ERT lietošanas laiks šim pētījumam ir beidzies. Ja šī informācija nav pareiza, sazinieties ar sava pētījuma koordinatoru.",
        "DEVICE_ACTIVATION": "Iestatīšana",
        "DEVICE_NOT_SUPPORTED": "Šī ierīce netiek atbalstīta. Sazinieties ar sava pētījuma koordinatoru, lai saņemtu informāciju par ierīcēm, kas apstiprinātas lietošanai šajā pētījumā.",
        "DEVICE_REACTIVATION": "Ierīces iestatīšana",
        "DIARY_TIMEOUT": "Šai veidlapai ir iestājies taimauts.",
        "DOWNLOAD_FAILED": "Programmas lejupielāde tika pārtraukta. Mēģiniet vēlreiz, kad pieejams interneta savienojums, vai sazinieties ar ERT atbalsta centru.",
        "DOWNLOAD_FAILURE": "Lejupielāde pārtraukta",
        "ENTER_NEW_PASSWORD": "Jaunā parole:",
        "ERROR": "Kļūda.  Lūdzu, sazinieties ar ERT atbalsta centru.",
        "ERROR_AFTER_ACTIVATION_SUCCESSFUL": "Radusies kļūda. Jums būs jāievada iestatīšanas kods un parole.",
        "ERROR_CODE": "Kļūdas kods:",
        "ERROR_TITLE": "Kļūda",
        "FORGOT_PASSWORD": "Vai esat aizmirsis paroli?",
        "FORGOT_SECRET_ANSWER": "Vai esat aizmirsis drošības atbildi?",
        "INCORRECT_ANSWER": "Nepareiza atbilde",
        "INCORRECT_UNLOCK_CODE": "Nepareizs atbloķēšanas kods",
        "INSTALLING": "Programmas instalēšana",
        "INVALID_CODE": "Nederīgs iestatīšanas kods",
        "LOCAL_STORAGE_FAILURE": "Lokālās krātuves kļūme",
        "LOG_IN": "Pieteikties",
        "LOG_LEVEL": "Reģistrācijas līmenis:",
        "LOGOUT": "Atteikties",
        "LOGOUT_CONFIRM": "Vai tiešām vēlaties atteikties?",
        "NEXT": "Tālāk",
        "NEXT_ACTION": " Ir laiks veikt nākamo darbību ERT ",
        "NO_DIARIES_TITLE": "Nav ziņojumu, ko atvērt",
        "OK": "Labi",
        "PASSWORD": "Parole:",
        "PASSWORD_ATTEMPT_EXCEEDED": "Jūs esat pārāk bieži ievadījis nepareizu paroli vai noklikšķinājis uz saites “Vai esat aizmirsis paroli?”.",
        "PASSWORD_CHANGE_FAILED": "Jūsu pētījuma datu apkopošanai ir aktivizēta cita ierīce. Lūdzu, nomainiet paroli tajā ierīcē.",
        "PASSWORD_CHANGE_SUCCESS": "Jūs veiksmīgi atjauninājāt savu paroli.",
        "PASSWORD_INVALID": "Nepareiza parole",
        "PLEASE_ANSWER_SQ": "Lūdzu, atbildiet uz drošības jautājumu:",
        "PLEASE_CONFIRM": "Lūdzu, apstipriniet",
        "PLEASE_CONTACT": "Lūdzu, sazinieties ar ERT atbalsta centru.",
        "PLEASE_TRY_OR_CONTACT_SUPPORT": "Lūdzu, mēģiniet vēlreiz vai sazinieties ar ERT atbalsta centru.",
        "PLEASE_WAIT": "Lūdzu, uzgaidiet...",
        "PORTRAIT_ONLY": "Turiet ierīci vertikālā stāvoklī.",
        "PRIVATE_BROWSING_ON": "Izslēdziet privātās pārlūkošanas režīmu. Ja joprojām pastāv problēmas, sazinieties ar sava pētījuma koordinatoru.",
        "PRIVACY_POLICY": "Konfidencialitātes politika",
        "PRIVACY_POLICY_APPLICATION_UNAVAILABILITY": "ERT konfidencialitātes politika īslaicīgi nav pieejama.",
        "PRIVACY_POLICY_ACTIVATION_UNAVAILABILITY": "ERT konfidencialitātes politika īslaicīgi nav pieejama. ERT konfidencialitātes politika pēc aktivizācijas ir pieejama iestatījumu lapā.",
        "PROTOCOL": "Protokols:",
        "REQUIRED_ANSWER": "Lūdzu, atbildiet",
        "RETRY": "Mēģināt vēlreiz",
        "RESET_PASSWORD": "Paroles atiestatīšana",
        "RESET_SECRET_QUESTION": "Drošības jautājuma atiestatīšana",
        "SECRET_ANSWER": "Drošības atbilde:",
        "SECRET_QUESTION": "Drošības jautājums:",
        "SECRET_QUESTION_CHANGE_FAILED": "Jūsu pētījuma datu apkopošanai ir aktivizēta cita ierīce. Lūdzu, nomainiet drošības jautājumu tajā ierīcē.",
        "SECRET_QUESTION_CHANGE_SUCCESS": "Jūs veiksmīgi atjauninājāt savu paroli un drošības jautājumu.",
        "SETTINGS": "Iestatījumi",
        "SITE": "Centrs:",
        "SKIP_QUESTION": "Vai tiešām vēlaties izlaist atbildes šajā ekrānā?",
        "SPONSOR": "Sponsors:",
        "STORED_REPORTS": "Saglabātās veidlapas:",
        "STUDY_VERSION": "Pētījuma versija: ",
        "STUDY_URL": "Pētījuma URL:",
        "SUBJECT_ID": "Pacienta kods:",
        "TEMPORARY_UNLOCK_CODE": "Ievadiet pētījuma koordinatora nodrošināto atbloķēšanas kodu.",
        "TIME_LBL": "Laiks:",
        "TRANSMIT_REPORTS": "Atjaunināšana",
        "UPDATE_CACHED_DELETED": "ERT atjaunināšana netika pabeigta. Lai izmantotu ERT, ir nepieciešams interneta savienojums. Lūdzu, sazinieties ar vietējo ERT atbalsta centru.",
        "UPDATE_FAILED": "ERT atjaunināšana netika pabeigta. Lūdzu, pārliecinieties, ka šī ierīce ir savienota ar internetu, un mēģiniet vēlreiz.",
        "UPDATE_FAILURE": "Atjaunināšana nav pabeigta",
        "UPDATE_SUCCESS": "Atjaunināšana veiksmīga",
        "WELCOME": "Esiet sveicināti!",
        "ALARM_OFF_LBL": "Izslēgts",
        "ALARM_TURN_OFF": "Izslēgt",
        "SET_ALARMS": "Signālu iestatīšana",
        "SCHED_NO_DIARIES_AVAILABLE": "Šobrīd nav sagaidāms neviens ziņojums",
        "TRAINER": "Treniņu režīms",
        "TRAINER_EXIT": "Iziet no treniņu režīma",
        "TRAINER_EXIT_NOTIFICATION": "Jūs izejat no treniņu režīma",
        "TRAINER_HEADER": "(Treniņi)",
        "ELPU_FAILURE": "Šīs ERT ierīces lietošanas laiks ir beidzies, tomēr ir radusies kļūda. Lūdzu, mēģiniet vēlreiz.",
        "ELPU_ON_REPLACED_DEVICE": "Šīs ERT ierīces lietošanas laiks ir beidzies. Tās vietā, lūdzu, izmantojiet rezerves ierīci.",
        "SECURITY_QUESTION_0": "Kāds ir jūsu mātes pirmslaulību uzvārds?",
        "SECURITY_QUESTION_1": "Kurā pilsētā esat dzimis?",
        "SECURITY_QUESTION_2": "Kāds ir jūsu pirmā mājdzīvnieka vārds?",
        "SECURITY_QUESTION_3": "Kāds ir jūsu iecienītākais sporta veids?",
        "SECURITY_QUESTION_4": "Kurā gadā jūs absolvējāt augstskolu?",
        "SECURITY_QUESTION_5": "Kāds ir jūsu vecākā bērna otrais vārds?",
        "SECURITY_QUESTION_6": "Kāds ir jūsu labākā bērnības drauga vārds?",
        "SECURITY_QUESTION_7": "Kāds ir jūsu trešās klases audzinātājas uzvārds?",
        "SECURITY_QUESTION_8": "Kurā pilsētā atradās jūsu pirmā darbavieta?",
        "SELECT_SITE_USER": "Atlasīt centra lietotājvārdu",
        "SITE_USER_NAME": "Centra lietotājvārds:",
        "ADD_SITE_USER": "Pievienot centra lietotāju",
        "INVALID_ENTRY": "Nederīgs ieraksts",
        "HANDOFF_MESSAGE": "<strong>Pacientam ir jāaizpilda nākamajos ekrānos prasītie dati, lai iestatītu veidlapas piekļuves kodu.</strong>",
        "REVERSE_HANDOFF_CONFIRM": "Ja atlasīsiet Labi, aktivizācijas process tiks sākts no jauna. Vai tiešām vēlaties no jauna sākt aktivizācijas procesu?",
        "SITE_GATEWAY_TITLE": "Centra vārteja",
        "USER_ALREADY_EXISTS": "Lietotājs jau pastāv",
        "SITE_SIGNATURE": "Paraksts: ",
        "SITE_REPORT_AFF": "Esmu ievadījis, pārbaudījis un ar šo apstiprinu iepriekšējos datus.<br /><br /><strong>Paraksts:</strong> {{{ getActiveUserName }}}",
        "PATIENT_REPORT_AFF": "Esmu ievadījis, pārbaudījis un ar šo apstiprinu iepriekšējos datus.<br /><br /><strong>Iniciāļi:</strong> {{{ getActiveUserName }}}",
        "CLEAR_SIGNATURE": "Dzēst parakstu",
        "STUDY_ALIAS": "{{{ studyAlias }}}",
        "SITE_ACTIVATED_ELSEWHERE": "Pacienta pētījuma datu apkopošanai ir aktivizēta cita ierīce. Ja uzskatāt, ka tas noticis kļūdas dēļ, sazinieties ar pētījuma koordinatoru.",
        "SITE_DEACTIVATED_LABEL": "Pacienta ERT lietošanas laiks šim pētījumam ir beidzies. Ja šī informācija nav pareiza, lūdzu, sazinieties ar sava pētījuma koordinatoru.",
        "SIGNATURE_DATA_LIMIT_EXCEEDED": "Jūsu parakstu nevarēja precīzi parādīt paraksta lodziņā. Tādēļ, lūdzu, parakstieties ar saviem iniciāļiem.",
        "PAIRED": "Savienots pārī",
        "BLUETOOTH_REG_TITLE": "eSense ierīces savienošana pārī",
        "BLUETOOTH_REG_REFRESH_BUTTON": "Atjaunot sarakstu",
        "BLUETOOTH_PAIR_DEVICE": "Savienot pārī atlasīto ierīci",
        "BLUETOOTH_PAIRING_FAILED": "Atlasītās ierīces savienošana pārī bija neveiksmīga. Lūdzu, mēģiniet vēlreiz.",
        "BLUETOOTH_PAIRING_SUCCESS": "Atlasītās ierīces savienošana pārī bija veiksmīga.",
        "BLUETOOTH_REG_NO_DEVICES_FOUND": "Netika atrasta neviena ierīce. Lūdzu, pārliecinieties, ka ierīce atrodas netālu no ERT un tai ir ieslēgts pārsūtīšanas režīms.",
        "SYNC_FAILED": "Sinhronizēšana ar serveri neizdevās.",
        "DIARY_REQUIRES_E_SENSE_SUPPORT": "eSense ierīce netiek atbalstīta. Lai lietotu šo veidlapu, ir nepieciešams eSense atbalsts.",
        "ERROR_E_SENSE_ENABLE": "eSense nevarēja iespējot.",
        "E_SENSE_NOT_PAIRED": "Neviena eSense ierīce nav savienota pārī. Lai lietotu šo veidlapu, ir nepieciešama pārī savienota eSense ierīce.",
        "BLUETOOTH_SYNC_FAILURE_TOP": "ERT nevarēja izveidot savienojumu ar {{{ eSenseDeviceName }}} ierīci.",
        "BLUETOOTH_SYNC_FAILURE_MIDDLE": "Lūdzu, pārliecinieties, ka {{{ eSenseDeviceName }}} ierīce, kuras numurs ir {{{ eSenseSerialNumber }}}, atrodas netālu no ERT un tai ir ieslēgts pārsūtīšanas režīms.",
        "PLUGIN_MISSING": "Nevarēja ielādēt nepieciešamo spraudni.",
        "WRAPPER_VERSION": "Apvalka versija:",
        "SUPPORT": "Klientu atbalsta centrs",
        "SUPPORT_MESSAGE": "Lietotāji Amerikas Savienotajās Valstīs ar ERT atbalsta centra darbiniekiem var sazināties pa tālruni 800-748-5669. Lietotājiem citās valstīs jāatlasa tuvākā esošā valsts:",
        "SUPPORT_DROPDOWN": "Atlasiet valsti",
        "SUPPORT_NAME_ARGENTINA": "Argentīna",
        "SUPPORT_NUMBER_ARGENTINA": "<bdi>0800 444 0962</bdi>",
        "SUPPORT_NAME_ARMENIA": "Armēnija",
        "SUPPORT_NUMBER_ARMENIA": "<bdi>+1 617 681 6306</bdi>",
        "SUPPORT_NAME_AUSTRALIA": "Austrālija",
        "SUPPORT_NUMBER_AUSTRALIA": "<bdi>1 800 800 051</bdi>",
        "SUPPORT_NAME_AUSTRIA": "Austrija",
        "SUPPORT_NUMBER_AUSTRIA": "<bdi>0800 100 405</bdi>",
        "SUPPORT_NAME_BELARUS": "Baltkrievija",
        "SUPPORT_NUMBER_BELARUS": "<bdi>8 820 0321 0036</bdi>",
        "SUPPORT_NAME_BELGIUM": "Beļģija",
        "SUPPORT_NUMBER_BELGIUM_1": "(Angļu valodā): <bdi>0800 58 016</bdi>",
        "SUPPORT_NUMBER_BELGIUM_2": "(Franču valodā): <bdi>0800 71 076</bdi>",
        "SUPPORT_NUMBER_BELGIUM_3": "(Vācu valodā): <bdi>0800 71 113</bdi>",
        "SUPPORT_NAME_BRAZIL": "Brazīlija",
        "SUPPORT_NUMBER_BRAZIL": "<bdi>0800 891 5909</bdi>",
        "SUPPORT_NAME_BOSNIA": "Bosnija",
        "SUPPORT_NUMBER_BOSNIA": "<bdi>+1 617 681 6306</bdi>",
        "SUPPORT_NAME_BULGARIA": "Bulgārija",
        "SUPPORT_NUMBER_BULGARIA": "<bdi>00800 0010</bdi>, pēc tam <bdi>866 245 4931</bdi>",
        "SUPPORT_NAME_CANADA": "Kanāda",
        "SUPPORT_NUMBER_CANADA": "<bdi>1 800 748 5669</bdi>",
        "SUPPORT_NAME_CHILE": "Čīle",
        "SUPPORT_NUMBER_CHILE": "<bdi>123 0020 3408</bdi>",
        "SUPPORT_NAME_CHINA": "Ķīna",
        "SUPPORT_NUMBER_CHINA_1": "NetCom (ziemeļi): <bdi>1 0800 74 40 164</bdi>",
        "SUPPORT_NUMBER_CHINA_2": "Telecom (dienvidi): <bdi>1 0800 44 00 158</bdi>",
        "SUPPORT_NAME_COLOMBIA": "Kolumbija",
        "SUPPORT_NUMBER_COLOMBIA": "<bdi>01 800 911 0010</bdi>, pēc tam <bdi>866 310 3707</bdi>",
        "SUPPORT_NAME_COSTA_RICA": "Kostarika",
        "SUPPORT_NUMBER_COSTA_RICA": "<bdi>0800 013 1210</bdi>",
        "SUPPORT_NAME_CROATIA": "Horvātija",
        "SUPPORT_NUMBER_CROATIA": "<bdi>0800 222 953</bdi>",
        "SUPPORT_NAME_CZECH_REPUBLIC": "Čehijas Republika",
        "SUPPORT_NUMBER_CZECH_REPUBLIC": "<bdi>800 142 150</bdi>",
        "SUPPORT_NAME_DENMARK": "Dānija",
        "SUPPORT_NUMBER_DENMARK": "<bdi>80 60 00 09</bdi>",
        "SUPPORT_NAME_EGYPT": "Ēģipte",
        "SUPPORT_NUMBER_EGYPT": "<bdi>02 510 0200</bdi>, pēc tam <bdi>866 310 3707</bdi>",
        "SUPPORT_NAME_EL_SALVADOR": "Salvadora",
        "SUPPORT_NUMBER_EL_SALVADOR": "<bdi>+1 617 681 6306</bdi>",
        "SUPPORT_NAME_ESTONIA": "Igaunija",
        "SUPPORT_NUMBER_ESTONIA": "<bdi>800 00 44 154</bdi>",
        "SUPPORT_NAME_FINLAND": "Somija",
        "SUPPORT_NUMBER_FINLAND": "<bdi>0800 11 6366</bdi>",
        "SUPPORT_NAME_FRANCE": "Francija",
        "SUPPORT_NUMBER_FRANCE": "<bdi>0800 10 19 79</bdi>",
        "SUPPORT_NAME_GERMANY": "Vācija",
        "SUPPORT_NUMBER_GERMANY": "<bdi>0800 101 28 21</bdi>",
        "SUPPORT_NAME_GREECE": "Grieķija",
        "SUPPORT_NUMBER_GREECE": "<bdi>00 800 1311</bdi>, pēc tam <bdi>866 310 3707</bdi>",
        "SUPPORT_NAME_GUATEMALA": "Gvatemala",
        "SUPPORT_NUMBER_GUATEMALA": "<bdi>1 800 624 0079</bdi>",
        "SUPPORT_NAME_HONG_KONG": "Honkonga",
        "SUPPORT_NUMBER_HONG_KONG": "<bdi>3002 1665</bdi>",
        "SUPPORT_NAME_HUNGARY": "Ungārija",
        "SUPPORT_NUMBER_HUNGARY": "<bdi>06 800 14 571</bdi>",
        "SUPPORT_NAME_ICELAND": "Islande",
        "SUPPORT_NUMBER_ICELAND": "<bdi>800 8544</bdi>",
        "SUPPORT_NAME_INDIA": "Indija",
        "SUPPORT_NUMBER_INDIA": "<bdi>000 800 440 1125</bdi>",
        "SUPPORT_NAME_INDONESIA": "Indonēzija",
        "SUPPORT_NUMBER_INDONESIA": "<bdi>008 800 330 334</bdi>",
        "SUPPORT_NAME_IRELAND": "Īrija",
        "SUPPORT_NUMBER_IRELAND": "<bdi>1 800 946 700</bdi>",
        "SUPPORT_NAME_ISRAEL": "Izraēla",
        "SUPPORT_NUMBER_ISRAEL": "<bdi>1 809 470 062</bdi>",
        "SUPPORT_NAME_ITALY": "Itālija",
        "SUPPORT_NUMBER_ITALY": "<bdi>800 90 56 37</bdi>",
        "SUPPORT_NAME_JAPAN": "Japāna",
        "SUPPORT_NUMBER_JAPAN": "Pētījumam paredzēto bezmaksas tālruņa numuru, lūdzu, skatiet ePRO pētījuma dalības informācijā.",
        "SUPPORT_NAME_LATVIA": "Latvija",
        "SUPPORT_NUMBER_LATVIA": "<bdi>8000 2151</bdi>",
        "SUPPORT_NAME_LEBANON": "Libāna",
        "SUPPORT_NUMBER_LEBANON": "<bdi>01-426-801</bdi>, pēc tam <bdi>866 310 3707</bdi>",
        "SUPPORT_NAME_LITHUANIA": "Lietuva",
        "SUPPORT_NUMBER_LITHUANIA": "<bdi>8800 30207</bdi>",
        "SUPPORT_NAME_MALAYSIA": "Malaizija",
        "SUPPORT_NUMBER_MALAYSIA": "<bdi>1800 80 59 71</bdi>",
        "SUPPORT_NAME_MEXICO": "Meksika",
        "SUPPORT_NUMBER_MEXICO_1": "(Angļu valodā): <bdi>001 800 748 5669</bdi> ",
        "SUPPORT_NUMBER_MEXICO_2": "(Spāņu valodā): <bdi>001 855 631 6952</bdi>",
        "SUPPORT_NAME_MOLDOVA": "Moldova",
        "SUPPORT_NUMBER_MOLDOVA": "<bdi>617 681 6306</bdi>",
        "SUPPORT_NAME_NETHERLANDS": "Nīderlande",
        "SUPPORT_NUMBER_NETHERLANDS": "<bdi>0800 023 1389</bdi>",
        "SUPPORT_NAME_NEW_ZEALAND": "Jaunzēlande",
        "SUPPORT_NUMBER_NEW_ZEALAND": "<bdi>0800 110 178</bdi>",
        "SUPPORT_NAME_NORWAY": "Norvēģija",
        "SUPPORT_NUMBER_NORWAY": "<bdi>800 62 051</bdi>",
        "SUPPORT_NAME_PAKISTAN": "Pakistāna",
        "SUPPORT_NUMBER_PAKISTAN": "<bdi>00 800 0100</bdi>, pēc tam <bdi>866 237 9767</bdi>",
        "SUPPORT_NAME_PANAMA": "Panama",
        "SUPPORT_NUMBER_PANAMA": "<bdi>001 800 201 3095</bdi>",
        "SUPPORT_NAME_PERU": "Peru",
        "SUPPORT_NUMBER_PERU": "<bdi>0800 5 0974</bdi>",
        "SUPPORT_NAME_PHILIPPINES": "Filipīnas",
        "SUPPORT_NUMBER_PHILIPPINES": "<bdi>1 800 1116 0651</bdi>",
        "SUPPORT_NAME_POLAND": "Polija",
        "SUPPORT_NUMBER_POLAND": "<bdi>00800 331 1262</bdi>",
        "SUPPORT_NAME_PORTUGAL": "Portugāle",
        "SUPPORT_NUMBER_PORTUGAL": "<bdi>800 206 172</bdi>",
        "SUPPORT_NAME_PUERTO_RICO": "Puertoriko (ASV teritorija)",
        "SUPPORT_NUMBER_PUERTO_RICO": "<bdi>1 800 748 5669</bdi>",
        "SUPPORT_NAME_ROMANIA": "Rumānija",
        "SUPPORT_NUMBER_ROMANIA": "<bdi>0800 894492</bdi>",
        "SUPPORT_NAME_RUSSIA": "Krievija",
        "SUPPORT_NUMBER_RUSSIA_1": "(Galvenais — bezmaksas): <bdi>8 10 800 249 13011</bdi>",
        "SUPPORT_NUMBER_RUSSIA_2": "(Maskavā): <bdi>363-2400</bdi> <br>, pēc tam <bdi>866 310 3707</bdi>",
        "SUPPORT_NUMBER_RUSSIA_3": "(Ārpus Maskavas): <bdi>8^(495) 363-2400</bdi> <br>, pēc tam <bdi>866 310 3707</bdi>",
        "SUPPORT_NUMBER_RUSSIA_4": "(Sanktpēterburgā): <bdi>363-2400</bdi> <br>, pēc tam <bdi>866 310 3707</bdi>",
        "SUPPORT_NUMBER_RUSSIA_5": "(Ārpus Sanktpēterburgas): <bdi>8^(495) 363-2400</bdi> <br>, pēc tam <bdi>866 310 3707</bdi>",
        "SUPPORT_NAME_SAUDI_ARABIA": "Saūda Arābija",
        "SUPPORT_NUMBER_SAUDI_ARABIA": "<bdi>+1 617 681 6306</bdi>",
        "SUPPORT_NAME_SERBIA": "Serbija",
        "SUPPORT_NUMBER_SERBIA": "<bdi>+1 617 973 1739</bdi>",
        "SUPPORT_NAME_SINGAPORE": "Singapūra",
        "SUPPORT_NUMBER_SINGAPORE": "<bdi>800 616 30 03</bdi>",
        "SUPPORT_NAME_SLOVAKIA": "Slovākija",
        "SUPPORT_NUMBER_SLOVAKIA": "<bdi>0800 0044 65</bdi>",
        "SUPPORT_NAME_SLOVENIA": "Slovēnija",
        "SUPPORT_NUMBER_SLOVENIA": "<bdi>+1 617 681 6306</bdi>",
        "SUPPORT_NAME_SOUTH_AFRICA": "Dienvidāfrika",
        "SUPPORT_NUMBER_SOUTH_AFRICA": "<bdi>0800 99 5853</bdi>",
        "SUPPORT_NAME_SOUTH_KOREA": "Dienvidkoreja",
        "SUPPORT_NUMBER_SOUTH_KOREA": "<bdi>00308 33 00 08</bdi>",
        "SUPPORT_NAME_SPAIN": "Spānija",
        "SUPPORT_NUMBER_SPAIN": "<bdi>900 90 2541</bdi>",
        "SUPPORT_NAME_SWEDEN": "Zviedrija",
        "SUPPORT_NUMBER_SWEDEN": "<bdi>020 120 99 69</bdi>",
        "SUPPORT_NAME_SWITZERLAND": "Šveice",
        "SUPPORT_NUMBER_SWITZERLAND_1": "(Angļu valodā): <bdi>0800 199 325</bdi>",
        "SUPPORT_NUMBER_SWITZERLAND_2": "(Franču valodā): <bdi>0800 891 183</bdi>",
        "SUPPORT_NUMBER_SWITZERLAND_3": "(Vācu valodā): <bdi>0800 891 025</bdi>",
        "SUPPORT_NAME_TAIWAN": "Taivāna",
        "SUPPORT_NUMBER_TAIWAN": "<bdi>00801 33 33 42</bdi>",
        "SUPPORT_NAME_THAILAND": "Taizeme",
        "SUPPORT_NUMBER_THAILAND": "<bdi>1 800 33 140 353</bdi>",
        "SUPPORT_NAME_TUNISIA": "Tunisija",
        "SUPPORT_NUMBER_TUNISIA": "<bdi>+1 617 681 6306</bdi>",
        "SUPPORT_NAME_TURKEY": "Turcija",
        "SUPPORT_NUMBER_TURKEY": "<bdi>00 800 151 1335</bdi>",
        "SUPPORT_NAME_UKRAINE": "Ukraina",
        "SUPPORT_NUMBER_UKRAINE": "<bdi>0^00 11</bdi>, pēc tam <bdi>866 245 4931</bdi>",
        "SUPPORT_NAME_UAE": "Apvienotie Arābu Emirāti",
        "SUPPORT_NUMBER_UAE": "<bdi>8000-021</bdi>, pēc tam <bdi>866 310 3707</bdi>",
        "SUPPORT_NAME_UK": "Apvienotā Karaliste",
        "SUPPORT_NUMBER_UK": "<bdi>0800 015 0408</bdi>",
        "SUPPORT_NAME_US": "Amerikas Savienotās Valstis",
        "SUPPORT_NUMBER_US_1": "(Galvenais): <bdi>1 800 748 5669</bdi>",
        "SUPPORT_NUMBER_US_2": "(Papildu): <bdi>1 877 748 5669</bdi>",
        "SUPPORT_NAME_VENEZUELA": "Venecuēla",
        "SUPPORT_NUMBER_VENEZUELA_1": "(Angļu valodā): <bdi>0 800 552 6288</bdi><br>, pēc tam <bdi>866 310 3707</bdi> ",
        "SUPPORT_NUMBER_VENEZUELA_2": "(Spāņu valodā): <bdi>0 800 100 3063</bdi> ",
        "USER_NAME": "Lietotājvārds:",
        "SUBJECT_ROLE": "Pacienta kods: {{{ getParticipantCode }}}",
        "SITE_ROLE": "Centra lietotājs",
        "TEMPORARY_PASSWORD_MESSAGE": "Lūdzu, piešķiriet jaunajam lietotājam pagaidu paroli. Pēc pierakstīšanās tam būs jāizveido jauna parole.",
        "SHARED_PASSWORD_MESSAGE": "Parole jaunajam lietotājam jāiegūst no Study Works vietnes.",
        "TEMP_PASSWORD": "Pagaidu parole: ",
        "ROLES": "Loma:",
        "LANGUAGE": "Valoda:",
        "FULL_NAME": "Vārds un uzvārds:",
        "CONFIRM_TEMP_PASS": "Apstiprināt pagaidu paroli:",
        "PASSWORD_MISMATCH": "Apstiprinājuma parole neatbilst.",
        "PASSWORD_INVALID_CHARACTERS": "Lūdzu, lietojiet tikai ciparus",
        "USER_NAME_INVALID_CHARACTERS": "Lūdzu, neizmantojiet speciālās rakstzīmes",
        "USER_NAME_MORE_THAN_25": "Lūdzu, neievadiet vairāk par 25 rakstzīmēm",
        "PRIVACY_POLICY_VERSION_LABEL": "Versija: ",
        "PRIVACY_POLICY_VERSION": "1.6.0",
        "PRIVACY_POLICY_LAST_UPDATED_LABEL": "Pēdējoreiz atjaunināta: ",
        "PRIVACY_POLICY_LAST_UPDATED": "2014. gada 21. janv.",
        "PRIVACY_POLICY_TEXT_LABEL": "Par konfidencialitāti: ",
        "PRIVACY_POLICY_TEXT": "Programmatūru, kuru instalēsit, nodrošina ERT. ERT sadarbojas ar jūsu klīniskā pētījuma centru, lai neviens nevarētu iegūt informāciju par jūsu identitāti bez centra atļaujas. Jums ir tiesības skatīt savus ierakstus, vienojoties ar centru.",
        "SUBJECT_REPORT_AFF": "Ar šo es apliecinu, ka esmu atbildējis uz visiem jautājumiem, cik vien labi varēju.",
        "SUBJECT_INITIALS_LABEL": "Pacienta iniciāļi:",
        "SUBJECT": "Pacients",
        "SET_TIMEZONE": "Iestatīt laika joslu",
        "SET_TIMEZONE_MESSAGE": "Atlasiet savu laika joslu:",
        "SET_TIMEZONE_BUTTON": "Iestatīt",
        "TIME_ZONE_CONFIRM_HEADER": "Laika joslas maiņas apstiprinājums",
        "TIME_ZONE_CONFIRM": "Vai tiešām vēlaties mainīt laika joslu? Lai lietotu izmaiņas, programma tiks restartēta.",
        "TIME_ZONE_EUROPE_KALININGRAD": "Eiropa/Kaļiņingrada",
        "TIME_ZONE_EUROPE_MOSCOW": "Eiropa/Maskava",
        "TIME_ZONE_ASIA_KARACHI": "Āzija/Karači",
        "TIME_ZONE_ASIA_YEKATERINBURG": "Āzija/Jekaterinburga",
        "TIME_ZONE_ASIA_NOVOSIBIRSK": "Āzija/Novosibirska",
        "TIME_ZONE_ASIA_KRASNOYARSK": "Āzija/Krasnojarska",
        "TIME_ZONE_ASIA_IRKUTSK": "Āzija/Irkutska",
        "TIME_ZONE_ASIA_YAKUTSK": "Āzija/Jakutska",
        "TIME_ZONE_ASIA_VLADIVOSTOK": "Āzija/Vladivostoka",
        "TIME_ZONE_ASIA_KAMCHATKA": "Āzija/Kamčatka",
        "AF-ZA": "Afrikandu",
        "AR-EG": "Arābu",
        "BE-BY": "Baltkrievu",
        "BG-BG": "Bulgāru",
        "BN-IN": "Bengāļu",
        "BS-BA": "Bosniešu",
        "CA-ES": "Kataloniešu",
        "CS-CZ": "Čehu",
        "DA-DK": "Dāņu",
        "DE-DE": "Vācu (Vācija)",
        "DE-AT": "Vācu (Austrija)",
        "EL-GR": "Grieķu",
        "EN-GB": "Angļu (Apvienotā Karaliste)",
        "EN-US": "Angļu (ASV)",
        "ES-ES": "Spāņu (Spānija)",
        "ES-US": "Spāņu (ASV)",
        "ES-PY": "Spāņu (universālā)",
        "ET-EE": "Igauņu",
        "FI-FI": "Somu",
        "FR-CA": "Franču (Kanāda)",
        "FR-FR": "Franču (Francija)",
        "GD-IE": "Gēļu",
        "GU-IN": "Gudžaratu",
        "HE-IL": "Ivrits",
        "HI-IN": "Hindi",
        "HR-HR": "Horvātu",
        "HU-HU": "Ungāru",
        "IT-IT": "Itāliešu",
        "JA-JP": "Japāņu",
        "KA-GE": "Gruzīnu",
        "KN-IN": "Kannaru",
        "KO-KR": "Korejiešu",
        "LV-LV": "Latviešu",
        "LT-LT": "Lietuviešu",
        "ML-IN": "Malajalu",
        "MR-IN": "Marathu",
        "MS-MY": "Malajiešu",
        "NB-NO": "Norvēģu",
        "NL-BE": "Holandiešu (Beļģija)",
        "NL-NL": "Holandiešu (Nīderlande)",
        "PA-IN": "Pandžabu",
        "PL-PL": "Poļu",
        "PT-BR": "Portugāļu (Brazīlija)",
        "PT-PT": "Portugāļu (Portugāle)",
        "RO-RO": "Rumāņu",
        "RU-RU": "Krievu",
        "SL-SL": "Slovēņu",
        "SK-SK": "Slovāku",
        "SR-RS": "Serbu (latīņu)",
        "SR-SP": "Serbu (kirilica)",
        "ST-ZA": "Sotu",
        "SV-SE": "Zviedru",
        "TA-IN": "Tamilu",
        "TE-IN": "Telugu",
        "TH-TH": "Taju",
        "TL-PH": "Tagalu",
        "TN-ZA": "Cvanu",
        "TR-TR": "Turku",
        "UK-UA": "Ukraiņu",
        "UR-IN": "Urdu",
        "VI-VN": "Vjetnamiešu",
        "XH-ZA": "Kosu",
        "ZH-CN": "Ķīniešu (Ķīna)",
        "ZH-TW": "Ķīniešu (Taivāna)",
        "ZU-ZU": "Zulu",
        "NO_RESULTS_FOUND": "Nav atrasts neviens rezultāts.",
        "USER": "Lietotājs",
        "SYNC": "Sinhronizēt",
        "SET_TIME": "Laika iestatīšana",
		"NEW_USER": "Jaunas lietotāja dienasgrāmatas pievienošana",
        "NEW_USER_CREATED": "Jaunais lietotājs ir izveidots.",
        "TIME_ZONE_SET_CONFIRM": "Vai tiešām vēlaties iestatīt laika joslu {{{selectedTimeZone}}}? <br/> Lai lietotu izmaiņas, programma var tikt restartēta.",
        "TIME_ZONE_SET_CONFIRM_NOCHANGE": "Vai tiešām vēlaties iestatīt laika joslu {{{selectedTimeZone}}}?",
        "TIME_ZONE_SET_HEADER": "Laika joslas iestatījuma apstiprinājums",
        "TIME_ZONE_ERROR_HEADER": "Laika joslas kļūda",
        "TIME_ZONE_ERROR_MSG": "Iegūstot laika joslu sarakstu, radās kļūda. Lai saņemtu palīdzību, lūdzu, sazinieties ar ERT atbalsta centru.",
        "TIME_ZONE_SET_ERROR_MSG": "Iestatot laika joslu, radās kļūda. Lai saņemtu palīdzību, lūdzu, sazinieties ar ERT atbalsta centru.",
        "TIME_CONFIRMATION_INSTRUCTIONS": "Ierīcei jāapstiprina jūsu vietējais laiks. Ievadiet datumu un laiku no uzticama avota.",
        "LOW_BATTERY": "Brīdinājums: akumulatora uzlādes līmenis ir zems. Pieslēdziet ierīci strāvas avotam, lai uzlādētu to.",
        "CRITICAL_BATTERY": "Brīdinājums: akumulatora uzlādes līmenis ir kritiski zems. Pieslēdziet ierīci strāvas avotam, lai uzlādētu to, vai pretējā gadījumā tā tiks izslēgta.",
        "SITE_ADMINISTRATOR": "Centra administrators",
        "TIME_CONFIRMATION_HEADER": "Datuma/laika apstiprināšana",
        "TIMESLIP_ERROR": "Ierīcē ir nepareizs laiks vai datums. Pārvietojieties uz vietu, kur ir pieejams interneta savienojums, un mēģiniet vēlreiz. Ja joprojām pastāv problēmas, sazinieties ar ERT klientu apkalpošanas dienestu.",
        "P_AFFIDAVIT_HEADER": "<div><strong>Centrs: {{{ getSiteCodeForSubject }}}</strong><br /><strong>Pacienta ID: {{{ getParticipantCodeForSubject }}}</strong></div>",
        "RESTART_NOTIFICATION_HEADER": "Nepieciešama pārstartēšana",
        "RESTART_NOTIFICATION_MSG": "Laika josla ir nomainīta. Lietojumprogramma tiks pārstartēta pēc {{{ timeZoneChangeRestartCountdown }}}.",
        "RESTART_NOW": "Pārstartēt tagad",
        "SECONDS": "sekundēm",
        "MINUTES": "minūtēm",
        "SELECT_LANGUAGE": "Lūdzu, atlasiet vēlamo valodu pētījuma dalībniekam.",
        "ACCEPT": "Piekrītu",
        "DECLINE": "Nepiekrītu",
        "EULA": "GALALIETOTĀJA LICENCE",
        "EULA_TEXT": "<p><strong><span class=\"text-underline\">SVARĪGI</span>!  NEKLIKŠĶINIET UZ POGAS PIEKRĪTU, KAMĒR NEESAT IZLASĪJIS ŠO LĪGUMU.  NOKLIKŠĶINOT UZ POGAS PIEKRĪTU, JŪS PIEKRĪTAT VISIEM ŠĀ LĪGUMA NOTEIKUMIEM.  JA NEPIEKRĪTAT VISIEM ŠĀ LĪGUMA NOTEIKUMIEM, 1) NEKLIKŠĶINIET UZ POGAS \"PIEKRĪTU\", 2) PĀRTRAUCIET INSTALĒŠANAS UN LICENCĒŠANAS PROCESU, NOKLIKŠĶINOT UZ POGAS \"NEPIEKRĪTU\".</strong></p><p>eResearchTechnology, Inc. (\"Licences devējs\") piešķir jums neekskluzīvas, nenododamas tiesības izmantot šajā ierīcē ietverto eResearchTechnology, Inc. programmatūru (\"programmatūra\") saistībā ar jūsu dalību klīniskā pētījuma līgumā: <strong>{{{ clinicalTrial }}}</strong>.  eResearchTechnology, Inc. programmatūrai ir izsniegti patenti, kā arī iesniegti vairāki patentu pieteikumi.  Šis līgums nepiešķir jums programmatūras (vai tās kopiju) īpašumtiesības; tas tikai nodrošina jums atļauju izmantot programmatūru saskaņā ar visiem šā līguma noteikumiem.  Programmatūras un visu tās daļu īpašumtiesības, kā arī visas tajā ietvertās īpašuma un intelektuālā īpašuma tiesības vienmēr paliek licences devējam.</p><p>Jūs piekrītat neveikt turpmāk minētās darbības tiešā vai netiešā veidā: i) pārkonstruēt, izjaukt vai dekompilēt programmatūru; ii) kopēt, izplatīt, ražot, pielāgot, radīt atvasinātus darbus, tulkot, lokalizēt, pārnest vai citādi mainīt programmatūru vai iii) dzēst vai mainīt programmatūrā ietvertos autortiesību, tirdzniecības noslēpumu vai citus juridiskos paziņojumus.  JŪS APSTIPRINĀT UN PIEKRĪTAT, KA PROGRAMMATŪRĀ VAR BŪT IETVERTS KODS, KAS NOVĒRŠ NESANKCIONĒTU TĀS IZMANTOŠANU.</p><br><p>JA PIEKRĪTAT VISAM IEPRIEKŠMINĒTAJAM, izvēlieties <strong>Piekrītu</strong>. Noklikšķinot uz \"Piekrītu\", jūs apliecināt, ka piekrītat licences noteikumiem.</p><p>JA NEPIEKRĪTAT VISAM IEPRIEKŠMINĒTAJAM vai jums nav tiesību tam piekrist, izvēlieties <strong>Nepiekrītu</strong>. Šādā gadījumā turpmāka piekļuve programmatūrai būs liegta.  Ja jums ir šādas tiesības, varat piekrist noteikumiem citreiz.</p>",
        "HAND_DEVICE_SITE_TITLE": "Izsniegt ierīci centra lietotājam",
        "HAND_DEVICE_SITE_BODY": "Lūdzu, izsniedziet centra lietotājam ierīci.",
        "SQ-AL": "Albāņu",
        "IMAGE_FOLDER": "{{{ imageFolder }}}",
        "MODAL_OK_TEXT": "Labi",
        "BROWSER_LOAD_ERROR": "Lapa nav atrasta. Lūdzu, pārbaudiet interneta savienojumu un mēģiniet vēlreiz.",
		"NONEXISTENT_USER" : "Lietotājs nav atrasts.",
		"NO_USER_OF_ROLE" : "Lietotājs ar šo lomu nav atrasts.",
		"START_VISIT_OUTSIDE_WINDOW_MSG": "Ievadiet {{{ getVisitName }}}, kas ir ārpus konfigurētā laika intervāla: {{{ startDate }}} - {{{ endDate }}}",
		"START_VISIT_HARD_STOP_MSG" : "Nevar ievadīt {{{ getVisitName }}}, kas ir ārpus konfigurētā laika intervāla: {{{ startDate }}} - {{{ endDate }}}",
		"YES" : "Jā",
		"NO" : "NĒ"
    },
    "dates": {
        "setDateButtonLabel": "Labi",
        "setTimeButtonLabel": "Labi",
        "setDurationButtonLabel": "Iestatīt ilgumu",
        "calTodayButtonLabel": "Pāriet uz šodienu",
        "titleDateDialogLabel": "Iestatīt datumu",
        "titleTimeDialogLabel": "Laika iestatīšana",
        "daysOfWeek": [
            "Svētdiena",
            "Pirmdiena",
            "Otrdiena",
            "Trešdiena",
            "Ceturtdiena",
            "Piektdiena",
            "Sestdiena"
        ],
        "daysOfWeekShort": [
            "Sv.",
            "Pr",
            "Ot",
            "Tr",
            "Ce",
            "Pk",
            "Se"
        ],
        "monthsOfYear": [
            "Janvāris",
            "Februāris",
            "Marts",
            "Aprīlis",
            "Maijs",
            "Jūnijs",
            "Jūlijs",
            "Augusts",
            "Septembris",
            "Oktobris",
            "Novembris",
            "Decembris"
        ],
        "monthsOfYearShort": [
            "Janv.",
            "Febr.",
            "Mar.",
            "Apr.",
            "Maijs",
            "Jūn.",
            "Jūl.",
            "Aug.",
            "Sept.",
            "Okt.",
            "Nov.",
            "Dec."
        ],
        "durationLabel": [
            "Dienas",
            "Stundas",
            "Minūtes",
            "Sekundes"
        ],
        "durationDays": [
            "Diena",
            "Dienas"
        ],
        "tooltip": "Atvērt datumu atlasītāju",
        "nextMonth": "Nākamais mēnesis",
        "prevMonth": "Iepriekšējais mēnesis",
        "clearButton": "Nodzēst",
        "meridiem": [
            "Priekšpusd.",
            "Pēcpusd."
        ]
    }
}
