{
    "namespace": "CORE",
    "language": "nl",
    "locale": "NL",
    "localized": "Nederlands (NL)",
    "direction": "ltr",
    "resources": {
        "ACTIVE": "Actief",
        "ACTIVATE_USER": "Gebruiker activeren",
        "ADD_PATIENT": "Nieuwe patiënt toevoegen",
        "ADD_USER": "Gebruiker toevoegen",
        "AFFIDAVIT": "Kies OK en vervolgens Volgende wanneer u klaar bent om uw antwoorden op te slaan.",
        "AFFIDAVIT_HELP": "Hartelijk dank. U hebt alle vereiste antwoorden gegeven. Kies Vorige om uw antwoorden te controleren en te wijzigen.",
        "ALL_QUESTIONNAIRES_COMPLETED": "Alle formulieren voltooid",
        "APP_NAME": "ERT",
        "APPLICATION_HEADER": "{{{ appHeader }}}",
        "APP_NAME_LBL": "Appnaam",
        "APP_VERSION": "Appversie",
        "ASSIGNED_TO": "Toegewezen aan",
        "AVAILABLE": "Beschikbaar",
        "BACK": "Vorige",
        "BACK_OUT_CONFIRM": "Weet u zeker dat u wilt afsluiten? Antwoorden voor dit formulier gaan verloren.",
        "BLUETOOTH_REG_REFRESH_BUTTON": "Lijst vernieuwen",
        "CANCEL": "Annuleren",
        "CHECK_FOR_UPDATES": "Controleren op updates",
        "CHOOSE_A_SITE": "Dit apparaat toewijzen aan een specifieke locatie.",
        "COMPLETED": "Voltooid",
        "CONFIRM_PASSWORD": "Wachtwoord bevestigen:",
        "CONFIRM_TEMP_PASS": "Bevestig tijdelijk wachtwoord:",
        "CONTINUE": "Doorgaan",
        "COUNTRY": "Land",
        "CUSTOM_ENVIRONMENT": "Aangepaste omgeving",
        "DEACTIVATE_PATIENT": "Patiënt deactiveren",
        "DEACTIVATE_USER": "Gebruiker deactiveren",
        "DEACTIVATED": "Gedeactiveerd",
        "DEVICE_ID": "Apparaat-id",
        "DEVICE_REGISTRATION_FAILURE": "Registreren van apparaat mislukt.",
        "DEVICE_UUIID": "Device-UUid",
        "BATTERY_LEVEL": "Energieniveau batterij",
        "DEVICE_INFO": "Apparaatinformatie",
        "EDIT_MY_INFO": "Mijn info bewerken",
        "EDIT_PATIENT": "Patiënt bewerken",
        "EDIT_SERVICE_URL": "Service-URL bewerken",
        "EDIT_SERVICE_URL_SUCCESS": "De service-URL is bijgewerkt.",
        "EDIT_USER": "Gebruiker bewerken",
        "EMAIL": "E-mailadres",
        "ENTER_PATIENT_INFO": "Patiëntgegevens invoeren",
        "ENTER_UNLOCK_CODE": "Voer de ontgrendelingscode in",
        "ENTER_USER_INFO": "Gegevens nieuwe gebruiker van de locatie invoeren",
        "ENVIRONMENT": "Omgeving",
        "FIRST_NAME": "Voornaam",
        "FORGOT_PASSWORD": "Wachtwoord vergeten?",
        "FORM": "Formulier",
        "FORM_GATEWAY": "Formuliergateway",
        "FORM_NAME": "Formuliernaam",
        "FULL_NAME": "Volledige naam:",
        "GO_TO_VISITS": "Patiëntbezoeken",
        "HAND_DEVICE_SITE_TITLE": "Dit apparaat aan gebruiker van locatie geven",
        "HAND_DEVICE_SITE_BODY": "Geef apparaat aan de gebruiker van de locatie.",
        "HELP": "Help",
        "HOME": "Startpagina",
        "IN_PROGRESS": "Wordt verwerkt",
        "INITIALS": "Initialen",
        "INVALID_URL": "Geef een geldige URL op.",
        "INVALID_PERMISSION": "Ongeldige toestemming.",
        "INVALID_PASSWORD": "Ongeldig wachtwoord.",
        "LANGUAGE": "Taal:",
        "LAST_LOGIN": "Laatste aanmelding",
        "LAST_NAME": "Achternaam",
        "LAST_REFRESH_TIME": "Tijdstip laatste vernieuwing",
        "LOCATION": "Locatie",
        "LOGIN": "Aanmelden",
        "LOGIN_SCREEN": "Aanmelden",
        "LOGOUT": "Afmelden",
        "MANAGE_USERS": "Gebruikers van de locatie beheren",
        "MARK_AS_COMPLETED": "Als voltooid markeren",
        "SITE_SIGNATURE": "Handtekening van: ",
        "SITE_REPORT_AFF": "Voorgaande gegevens zijn ingevoerd, gecontroleerd en hierbij bevestigd.<br /><br /><strong>Handtekening van:</strong> {{{ getActiveUserName }}}",
        "PATIENT_REPORT_AFF": "Voorgaande gegevens zijn ingevoerd, gecontroleerd en hierbij bevestigd.<br /><br /><strong>Initialen van:</strong> {{{ getActiveUserName }}}",
        "CLEAR_SIGNATURE": "Handtekening wissen",
        "MENU": "Menu",
        "MODE": "Modus",
        "NAME": "Naam",
        "NEW_USER": "Nieuw gebruikersdagboek toevoegen",
        "NEW_USER_CREATED": "De locatiegebruiker is aangemaakt.",
        "NEXT": "Volgende",
        "NO_RESULTS_FOUND": "Geen resultaten gevonden.",
        "NOT_AVAILABLE": "Niet beschikbaar",
        "OK": "OK",
        "ORDER": "Volgorde",
        "PASSWORD": "Wachtwoord:",
        "PATIENT": "Patiënt",
        "PATIENT_ID": "Patiënt-id:",
        "PENDING_TRANSMISSIONS": "Verzendingen in wachtrij",
        "PLEASE_WAIT": "Een ogenblik geduld",
        "PLEASE_CONFIRM": "Bevestigen",
        "REPORTS_AND_FORMS": "Verslagen en formulieren",
        "REPORTS_COMPLETED_MESSAGE": "U hebt al uw formulieren voltooid. Geef het apparaat terug aan het betreffende locatiepersoneelslid.",
        "REQUIRED_ANSWER": "Voer de gevraagde informatie in.",
        "RESET_PIN": "Patiëntpincode opnieuw instellen",
        "RESET_USER_PASSWORD": "Gebruikerswachtwoord opnieuw instellen",
        "ROLES": "Functie:",
        "SAVE": "Opslaan",
        "SEARCH": "Zoeken",
        "SECURITY_QUESTION_0": "Wat is de meisjesnaam van uw moeder?",
        "SECURITY_QUESTION_1": "In welke plaats bent u geboren?",
        "SECURITY_QUESTION_2": "Wat is de naam van uw eerste huisdier?",
        "SECURITY_QUESTION_3": "Wat is uw favoriete sport?",
        "SECURITY_QUESTION_4": "In welk jaar bent u afgestudeerd?",
        "SECURITY_QUESTION_5": "Wat is de tweede voornaam van uw oudste kind?",
        "SECURITY_QUESTION_6": "Wat is de naam van uw favoriete jeugdvriend?",
        "SECURITY_QUESTION_7": "Wat is de achternaam van uw leraar uit de derde klas van de basisschool?",
        "SECURITY_QUESTION_8": "In welke stad of plaats vond u uw eerste baan?",
        "SECRET_ANSWER": "Beveiligingsantwoord:",
        "SECRET_QUESTION": "Beveiligingsvraag:",
        "SECRET_QUESTION_HELP_TEXT": "Selecteer een beveiligingsvraag in de onderstaande lijst. Met dit antwoord kunt u zich toch aanmelden als u uw toegangscode bent vergeten.",
        "SECRET_QUESTION_ANSWER": "Beveiligingsvraag en antwoord",
        "SELECT_LANGUAGE": "Selecteer een voorkeurstaal voor de locatie.",
        "SELECT_SITE_NUMBER": "Selecteer locatienummer",
        "SERVICE_URL": "Service-URL",
        "SETTINGS": "Instellingen",
        "SETUP_COMPLETE": "Instellen voltooid",
        "SETUP_COMPLETE_DESC": "Het apparaat is nu ingesteld en klaar voor verzending.  Druk op OK en schakel het apparaat uit in het volgende scherm.",
        "SETUP_SITE_USER": "Gebruiker van de locatie instellen",
        "SETUP_SITE_USER_LEGEND": "Stel de gebruiker van de locatie in voor dit apparaat.",
        "SITE": "Locatie",
        "SITE_ASSESSMENTS": "Locatiebeoordelingen",
        "SIGNATURE_DATA_LIMIT_EXCEEDED": "In het handtekeningvak kan uw handtekening niet precies worden weergegeven. Onderteken met uw initialen.",
        "SITE_NUMBER": "Locatienummer",
        "SITE_ROLE": "Locatiegebruiker",
        "SITE_SELECTION": "Locatieselectie",
        "SKIP_FORM": "Formulier overslaan",
        "SKIP_QUESTION": "Weet u zeker dat u de antwoorden op dit scherm wilt overslaan?",
        "SKIP_TO_VISIT": "Naar bezoek gaan",
        "SKIP_VISIT": "Bezoek overslaan",
        "SKIPPED": "Overgeslagen",
        "START_FORM": "Formulier beginnen",
        "START_VISIT": "Bezoek beginnen",
        "STATUS": "Status",
        "STATUS_DATE": "Datum status",
        "STUDY": "Onderzoek",
        "STUDYWORKS_LOGIN": "StudyWorks-aanmeldgegevens",
        "SUBJECT_ID": "Patiënt-id",
        "SUBJECT_ROLE": "Patiënt",
        "SUBMIT": "Verzenden",
        "SUPPORT_TOOLS": "Ondersteuningshulpmiddelen",
        "SYNC": "Synchroniseren",
        "SYNC_USERS": "Gebruikers synchroniseren",
        "SYNC_TO_DEVICE": "Onderzoek synchroniseren naar apparaat",
        "TEMPORARY_PASSWORD_MESSAGE": "Geef het tijdelijke wachtwoord aan de nieuwe gebruiker. Hen wordt gevraagd na aanmelden een nieuw wachtwoord te maken.",
        "TEMP_PASSWORD": "Tijdelijk wachtwoord: ",
        "UNABLE_TO_GET_SITE_LIST": "Kan geen locatielijst ophalen",
        "UNLOCK_CODE": "Ontgrendelingscode",
        "UNLOCK_CODE_HELP": "De ontgrendelingscode voor uw ERT Tablet kan worden verkregen in het ERT-SmartReport 'ontgrendelingscodes' in StudyWorks. Neem contact op met het ERT-ondersteuningscentrum als u aanvullende hulp nodig hebt.",
        "USER": "Gebruiker",
        "USER_ALREADY_EXISTS": "Gebruiker bestaat al",
        "SUBJECT_ALREADY_EXISTS": "Een patiënt met id {{{ getPatientIDForDuplicate }}} bestaat al",
        "USER_ROLE": "Rol gebruiker",
        "USERNAME": "Gebruikersnaam",
        "USER_NAME": "Gebruikersnaam:",
        "VISIT": "Bezoek",
        "VISIT_COMPLETED_MESSAGE": "Er zijn geen andere formulieren voor dit bezoek.  Dit bezoek is nu voltooid.",
        "VISITS": "Bezoeken",
        "VISITS_SKIPPED": "Overgeslagen bezoeken:",
        "VISIT_NAME": "Naam bezoek",
        "WELCOME": "Welkom",
        "AF-ZA": "Afrikaans",
        "AR-EG": "Arabisch",
        "BE-BY": "Wit-Russisch",
        "BG-BG": "Bulgaars",
        "BN-IN": "Bengaals",
        "BS-BA": "Bosnisch",
        "CA-ES": "Catalaans",
        "CS-CZ": "Tsjechisch",
        "DA-DK": "Deens",
        "DE-DE": "Duits (Duitsland)",
        "DE-AT": "Duits (Oostenrijk)",
        "EL-GR": "Grieks",
        "EN-GB": "Engels (VK)",
        "EN-US": "Engels (VS)",
        "ES-ES": "Spaans (Spanje)",
        "ES-US": "Spaans (VS)",
        "ES-PY": "Spaans (internationaal)",
        "ET-EE": "Estisch",
        "FI-FI": "Fins",
        "FR-CA": "Frans (Canada)",
        "FR-FR": "Frans (Frankrijk)",
        "GD-IE": "Gaelisch",
        "GU-IN": "Gujarati",
        "HE-IL": "Hebreeuws",
        "HI-IN": "Hindi",
        "HR-HR": "Kroatisch",
        "HU-HU": "Hongaars",
        "IT-IT": "Italiaans",
        "JA-JP": "Japans",
        "KA-GE": "Georgisch",
        "KN-IN": "Kannada",
        "KO-KR": "Koreaans",
        "LV-LV": "Lets",
        "LT-LT": "Litouws",
        "ML-IN": "Malayalam",
        "MR-IN": "Marathi",
        "MS-MY": "Maleis",
        "NB-NO": "Noors",
        "NL-BE": "Nederlands (België)",
        "NL-NL": "Nederlands (Nederland)",
        "PA-IN": "Punjabi",
        "PL-PL": "Pools",
        "PT-BR": "Portuguees (Brazilië)",
        "PT-PT": "Portuguees (Portugal)",
        "RO-RO": "Roemeens",
        "RU-RU": "Russisch",
        "SL-SL": "Sloveens",
        "SK-SK": "Slowaaks",
        "SR-RS": "Servisch (Latijns)",
        "SR-SP": "Servisch (Cyrillisch)",
        "ST-ZA": "Sotho",
        "SV-SE": "Zweeds",
        "TA-IN": "Tamil",
        "TE-IN": "Telugu",
        "TH-TH": "Thai",
        "TL-PH": "Tagalog",
        "TN-ZA": "Tswana",
        "TR-TR": "Turks",
        "UK-UA": "Oekraïens",
        "UR-IN": "Urdu",
        "VI-VN": "Vietnamees",
        "XH-ZA": "Xhosa",
        "ZH-CN": "Chinees (China)",
        "ZH-TW": "Chinees (Taiwan)",
        "ZU-ZU": "Zoeloe",
        "HAND_DEVICE_SUBJECT_BODY": "Het volgende formulier moet worden voltooid door de {{{ patientOrRole }}}. Meld u af en geef het apparaat vervolgens aan de {{{ patientOrRole }}}.",
        "HAND_DEVICE_SUBJECT_TITLE": "Beginnen met formulier {{{ formTitle }}}",
        "SKIP_VISIT_TITLE": "Bezoek(en) overslaan?",
        "SKIP_VISIT_TEXT": "Als u doorgaat, worden de volgende bezoeken overgeslagen:<br/> {{{ skippedVisits }}} Doorgaan en deze bezoeken overslaan?",
        "YES": "Ja",
        "NO": "Nee",
        "TIME_LBL": "Tijd:",
        "SET_TIME": "Tijd instellen",
        "DATE_LBL": "Datum:",
        "CREATE_PERMANENT_PASSWORD_TITLE": "Wachtwoord aanmaken",
        "USER_ID": "Gebruikers-id:",
        "PHASE": "Fase",
        "LAST_VISIT": "Laatst voltooide bezoek",
        "CONNECTION_REQUIRED": "U hebt een internetverbinding nodig.",
        "RETRY": "Opnieuw proberen",
        "UPDATE_FAILURE": "Update niet voltooid",
        "UPDATE_SUCCESS": "Update geslaagd",
        "CANCEL_PERMANENT_PASSWORD_TITLE": "Wachtwoord aanmaken annuleren?",
        "CANCEL_PERMANENT_PASSWORD_TEXT": "Als u nu annuleert, wordt uw wachtwoord niet aangemaakt. U hebt een wachtwoord nodig om ERT te gebruiken. Weet u zeker dat u wilt annuleren?",
        "ACCOUNT_CONFIGURED_TITLE": "Accountsetup voltooid",
        "ACCOUNT_CONFIGURED_TEXT": "U bent nu klaar met het instellen van uw account, u kunt nu doorgaan met het eCOA-systeem.",
        "LOGGED_IN_AS": "Aangemeld als",
        "EDIT_PATIENT_AFFIDAVIT_HEADER": "<p class='question-title-large'>Handtekening</p><br />",
        "EDIT_PATIENT_AFF": "Door hieronder te tekenen, verklaar ik bevoegd te zijn voor het bewerken van deze patiënt.<br /><br />Patiënt-id: {{{ getPatientIdNumber }}}<br /><br /><strong>Handtekening van:</strong> {{{ getActiveUserName }}}",
        "PASSWORD_MISMATCH": "Het bevestigde wachtwoord komt niet overeen met het wachtwoord",
        "FIRST_USER_AFFIDAVIT": "Door hieronder te tekenen, verklaar ik de hoofdonderzoeker of geautoriseerde afgevaardigde te zijn voor het aanmaken van accounts op dit systeem.<br /><br /><strong>Handtekening van:</strong> {{{ getFirstUsername }}}",
        "INCOMPLETE": "Niet voltooid",
        "INVALID_ENTRY": "Ongeldige invoer",
        "PLEASE_ANSWER_SQ": "Beantwoord uw beveiligingsvraag:",
        "FORGOT_SECRET_ANSWER": "Beveiligingsantwoord vergeten?",
        "CONTACT_STUDY_COORDINATOR": "Vraag uw onderzoekscoördinator",
        "ENTER_NEW_PASSWORD": "Nieuw wachtwoord:",
        "CONTACT_UNLOCK_CODE": "Neem contact op met uw onderzoekscoördinator voor de ontgrendelingscode voor vandaag:",
        "CURRENT_DATE": "{{{ currentDate }}}",
        "TEMPORARY_UNLOCK_CODE": "Geef de ontgrendelingscode op die u van de onderzoekscoördinator hebt ontvangen.",
        "RESET_SECRET_QUESTION": "Beveiligingsvraag opnieuw instellen",
        "SECRET_QUESTION_CHANGE_SUCCESS": "Uw wachtwoord en beveiligingsvraag zijn bijgewerkt.",
        "RESET_PASSWORD": "Wachtwoord opnieuw instellen",
        "ANSWER_ATTEMPT_EXCEEDED": "U hebt te vaak een onjuist antwoord opgegeven of op de koppeling voor een vergeten beveiligingsantwoord geklikt.",
        "PASSWORD_ATTEMPT_EXCEEDED": "U hebt te vaak een onjuist wachtwoord opgegeven of op de koppeling voor een vergeten wachtwoord geklikt.",
        "PASSWORD_CHANGE_SUCCESS": "Uw wachtwoord is bijgewerkt.",
        "CHANGE_PASSWORD": "Wachtwoord wijzigen",
        "CHANGE_SECRET_QUESTION": "Beveiligingsvraag wijzigen",
        "SYNC_COMPLETE": "Synchronisatie voltooid",
        "INCORRECT_ANSWER": "Onjuist antwoord",
        "INCORRECT_UNLOCK_CODE": "Onjuiste ontgrendelingscode",
        "PASSWORD_INVALID": "Onjuist wachtwoord",
        "SUBJECT": "Patiënt",
        "PATIENT_ADDED": "Patiënt toegevoegd",
        "TIME_ZONE": "Tijdzone:",
        "ACTIVATE_USER_CANCEL_CONFIRM": "Activering annuleren?",
        "ACTIVATE_USER_CANCEL_BODY": "Als u nu annuleert, wordt de locatiegebruiker niet geactiveerd. Weet u zeker dat u wilt annuleren?",
        "ACTIVATE_USER_AFF": "Door hieronder te tekenen, verklaar ik bevoegd te zijn voor het activeren van deze locatiegebruiker.",
        "ACTIVATE_USER_CONFIRM_INFORMATION": "Bevestig dat onderstaande gegevens behoren bij de locatiegebruiker die u wilt activeren.",
        "DEACTIVATE_USER_CANCEL_CONFIRM": "Deactivering annuleren?",
        "DEACTIVATE_USER_CANCEL_BODY": "Als u nu annuleert, wordt de locatiegebruiker niet gedeactiveerd. Weet u zeker dat u wilt annuleren?",
        "DEACTIVATE_USER_AFF": "Door hieronder te tekenen, verklaar ik bevoegd te zijn voor het deactiveren van deze locatiegebruiker.",
        "DEACTIVATE_USER_SIG": "<strong>Gebruiker om te deactiveren:</strong> <br />{{{ getSelectedUsername }}}<br /><br /><strong>Handtekening van:</strong> {{{ getActiveUserName }}}",
        "DEACTIVATE_USER_CONFIRM_INFORMATION": "Bevestig dat onderstaande gegevens behoren bij de locatiegebruiker die u wilt deactiveren.",
        "DIARY_TIMEOUT": "Er is een time-out van dit formulier opgetreden.",
        "EDIT_PATIENT_QUESTION_1_MAIN_TITLE": "<div class='question-title-large'>Patiëntidentificatie </div><div>Id-bereik voor deze locatie:<br /><strong> {{{ patientIDRange }}}</strong></div><div class='edit-patient-id'>Patiënt-id:<br /><strong>{{{ getPatientIdNumber }}} ({{{getPatientInitials}}})</strong</div><br /><br />",
        "EDIT_PATIENT_QUESTION_1": "Patiënt-id:",
        "EDIT_PATIENT_QUESTION_1_EMPTY": "Vul de patiënt-id in.",
        "EDIT_PATIENT_QUESTION_1_EMPTY_HEADER": "Patiënt-id",
        "EDIT_PATIENT_QUESTION_1_RANGE": "De patiënt-id die u hebt opgegeven, ligt niet binnen het bereik van toegestane id's: {{{ patientIDRange }}}.  Geef een geldige patiënt-id op.",
        "EDIT_PATIENT_QUESTION_1_RANGE_HEADER": "Patiënt-id ligt buiten het bereik",
        "EDIT_PATIENT_QUESTION_1_UNIQUE": "Patiënt bestaat al.  Geef een andere patiënt-id op.",
        "EDIT_PATIENT_QUESTION_1_UNIQUE_HEADER": "Dubbele patiënt-id",
        "EDIT_PATIENT_QUESTION_2": "Initialen patiënt:",
        "EDIT_PATIENT_QUESTION_2_EMPTY": "Vul de initialen van de patiënt in, minimaal 2 tekens.",
        "EDIT_PATIENT_QUESTION_2_EMPTY_HEADER": "Initialen patiënt",
        "EDIT_PATIENT_QUESTION_3_TITLE": "<div class='question-title-large'>Taal selecteren</div><div>Patiënt-id:<br /><strong>{{{ getPatientIdNumber }}} ({{{getPatientInitials}}})</strong</div><br /><br />",
        "EDIT_PATIENT_QUESTION_3": "Selecteer de taal voor de patiënt",
        "EDIT_PATIENT_QUESTION_4_TITLE": "<div class='question-title-large'>Reden bewerken</div><br /><br />",
        "EDIT_PATIENT_QUESTION_4": "Selecteer de reden voor het bewerken van een patiënt",
        "EDIT_PATIENT_CANCEL_CONFIRM": "Wijzigingen aan patiënt annuleren?",
        "EDIT_PATIENT_CANCEL_BODY": "Als u nu annuleert, worden de patiëntinstellingen niet bijgewerkt.  Weet u zeker dat u wilt annuleren?",
        "EDIT_PATIENT_NO_CHANGES_CONFIRM": "Geen wijzigingen aan patiënt aangebracht",
        "EDIT_PATIENT_NO_CHANGES_BODY": "Er zijn geen wijzigingen aangebracht aan deze patiënt. Toch afsluiten?",
        "EDIT_PATIENT_REASON_0": "Fout door clinicus herstellen",
        "EDIT_REASON": "Reden bewerken:",
        "EDIT_USER_AFF": "Door hieronder te tekenen, verklaar ik bevoegd te zijn voor het bewerken van deze locatiegebruiker. <br /><br /><strong>Handtekening van:</strong> {{{ getActiveUserName }}}",
        "EDIT_USER_CANCEL_CONFIRM": "Bewerken van gebruiker annuleren?",
        "EDIT_USER_CANCEL_BODY": "Als u nu annuleert, worden de wijzigingen aan de locatiegebruiker niet doorgevoerd. Weet u zeker dat u wilt annuleren?",
        "EDIT_USER_NO_CHANGES_HEADER": "Geen wijzigingen aan locatiegebruiker aangebracht",
        "EDIT_USER_NO_CHANGES_BODY": "Er zijn geen wijzigingen aangebracht aan deze locatiegebruiker. Toch afsluiten?",
        "ERROR_CODE": "Foutcode:",
        "ERROR_TITLE": "Fout",
        "FIRST_SITE_USER": "Eerste gebruiker van de locatie toevoegen",
        "NEW_PATIENT_QUESTION_1_MAIN_TITLE": "<div class='question-title-large'>Voer de patiënt-id-gegevens in</div><div>Id-bereik voor deze locatie:<br /><strong> {{{ patientIDRange }}}</strong></div><div><strong>Locatie: {{{ getSiteCode }}}</strong></div><div><strong>Gebruiker: {{{ getUserName }}}</strong</div><br /><br />",
        "NEW_PATIENT_HELP_TEXT_1": "",
        "NEW_PATIENT_HELP_TEXT_2": "",
        "NEW_PATIENT_HELP_TEXT_3": "",
        "NEW_PATIENT_QUESTION_1_TITLE": "Patiënt-id",
        "NEW_PATIENT_QUESTION_1": "Patiënt-id:",
        "NEW_PATIENT_QUESTION_1_EMPTY": "Vul de patiënt-id in.",
        "NEW_PATIENT_QUESTION_1_EMPTY_HEADER": "Patiënt-id",
        "NEW_PATIENT_QUESTION_1_RANGE": "De patiënt-id die u hebt opgegeven, ligt niet binnen het bereik van toegestane id's: {{{ patientIDRange }}}.  Geef een geldige patiënt-id op.",
        "NEW_PATIENT_QUESTION_1_RANGE_HEADER": "Patiënt-id ligt buiten het bereik",
        "NEW_PATIENT_QUESTION_1_UNIQUE": "Patiënt bestaat al.  Geef een andere patiënt-id op.",
        "NEW_PATIENT_QUESTION_1_UNIQUE_HEADER": "Dubbele patiënt-id",
        "NEW_PATIENT_QUESTION_2": "Initialen patiënt:",
        "NEW_PATIENT_QUESTION_2_EMPTY": "Vul de initialen van de patiënt in, minimaal 2 tekens.",
        "NEW_PATIENT_QUESTION_2_EMPTY_HEADER": "Initialen patiënt",
        "NEW_PATIENT_QUESTION_3_TITLE": "<div class='question-title-large'>Taal selecteren</div><div><strong>Locatie: {{{ getSiteCode }}}</strong></div><div><strong>Gebruiker: {{{ getUserName }}}</strong</div><div><strong>Patiënt-id: {{{ getPatientID }}}</strong></div><br /><br />",
        "NEW_PATIENT_QUESTION_3": "Selecteer de taal voor de patiënt",
        "NEW_PATIENT_CANCEL_CONFIRM": "Toevoegen van patiënt annuleren?",
        "NEW_PATIENT_CANCEL_BODY": "Als u annuleert, wordt de patiënt niet geregistreerd.  Weet u zeker dat u wilt annuleren?",
        "NEW_PATIENT_AFFIDAVIT_HEADER": "<div><strong>Locatie: {{{ getSiteCode }}}</strong><br /><strong>Gebruiker: {{{ getUserName }}}</strong><br /><strong>Patiënt-id: {{{ getPatientID }}}</strong></div>",
        "PATIENT_INITIALS": "Initialen patiënt:",
        "PATIENT_DELETED": "Onbekende patiënt",
        "PATIENT_DELETED_MSG": "Patiënt kan niet worden gevonden.",
        "PATIENT_DELETED_SUBJECT_MSG": "Patiënt kan niet worden gevonden. Geef het apparaat terug aan het betreffende locatiepersoneelslid.",
        "PLEASE_CONTACT": "Neem contact op met het ERT-ondersteuningscentrum.",
        "PLEASE_TRY_OR_CONTACT_SUPPORT": "Probeer het opnieuw of neem contact op met het ERT-ondersteuningscentrum.",
        "REASON": "Reden:",
        "SET_TIMEZONE_MESSAGE": "Selecteer uw tijdzone:",
        "SKIP_VISITS": "Bezoeken overslaan",
        "SKIP_VISITS_QUESTION_1": "<div class='question-title-large'><strong>Reden</strong></div><br /><br /><div>Selecteer een reden om de bezoeken over te slaan:</div>",
        "SKIP_VISITS_REASON_0": "Bezoek verlopen",
        "SKIP_VISITS_REASON_1": "Locatiefout in administratie",
        "SKIP_VISITS_REASON_2": "Patiënt heeft klinische afspraak gemist",
        "SKIP_VISITS_REASON_3": "Niet van toepassing",
        "SKIP_VISITS_REASON_4": "Bezoek is optioneel, niet gedaan",
        "SKIP_VISITS_CANCEL_CONFIRM": "Bezoeken overslaan annuleren?",
        "SKIP_VISITS_CANCEL_BODY": "Als u nu annuleert, worden de bezoeken niet overgeslagen. Weet u zeker dat u wilt annuleren?",
        "SKIPPED_VISITS": "{{{ skippedVisits }}}",
        "USER_EDITED": "De gebruiker is bijgewerkt.",
        "USER_TO_ACTIVATE": "<strong>Gebruiker om te activeren:</strong> <br />{{{ getSelectedUsername }}}<br /><br /><strong>Handtekening van:</strong> {{{ getActiveUserName }}}",
        "TIME_CONFIRMATION_INSTRUCTIONS": "Het apparaat moet uw lokale tijd bevestigen. Voer uw datum en tijd in. Gebruik hiervoor een betrouwbare bron.",
        "TIME_ZONE_ERROR_HEADER": "Tijdzonefout",
        "TIME_ZONE_ERROR_MSG": "Er is een fout opgetreden bij het verkrijgen van de tijdzonelijst. Neem contact op met het ERT-ondersteuningscentrum als u aanvullende hulp nodig hebt.",
        "TIME_ZONE_SET_ERROR_MSG": "Er is een fout opgetreden bij het instellen tijdzone. Neem contact op met het ERT-ondersteuningscentrum als u aanvullende hulp nodig hebt.",
        "TIME_ZONE_SET_CONFIRM": "Weet u zeker dat u de tijdzone wilt instellen op {{{selectedTimeZone}}}? <br/> De toepassing kan opnieuw opstarten om de wijziging toe te passen.",
        "TIME_ZONE_SET_CONFIRM_NOCHANGE": "Weet u zeker dat u de tijdzone wilt instellen op {{{selectedTimeZone}}}?",
        "TIME_ZONE_SET_HEADER": "Bevestiging instelling tijdzone",
        "TRAINER": "Trainermodus",
        "TRAINER_EXIT": "Trainermodus afsluiten",
        "TRAINER_EXIT_NOTIFICATION": "U verlaat de trainermodus",
        "TRAINER_HEADER": "(Trainer)",
        "VISIT_INACTIVE_HEADER": "Inactief bezoek.",
        "VISIT_INACTIVE_MESSAGE": "Dit bezoek is niet langer actief.",
        "VISIT_INACTIVE_MESSAGE_SUBJECT": "Dit bezoek is niet langer actief. Geef het apparaat terug aan het betreffende locatiepersoneelslid.",
        "SITE_ADMINISTRATOR": "Locatiebeheerder",
        "LOW_BATTERY": "Waarschuwing: de batterij is bijna leeg. Sluit het apparaat aan om het op te laden.",
        "CRITICAL_BATTERY": "Waarschuwing: de batterij is zo goed als leeg. Sluit het apparaat aan om het op te laden als u dit nog niet hebt gedaan, anders wordt het uitgeschakeld.",
        "TIME_CONFIRMATION_HEADER": "Datum/tijd bevestigen",
        "TIMESLIP_ERROR": "De tijd of datum op uw apparaat is onjuist. Ga naar een plaats met internetverbinding en probeer het opnieuw. Als u problemen blijft ondervinden, neemt u contact op met ERT-klantenservice.",
        "SUPPORT": "Klantenondersteuning",
        "SUPPORT_MESSAGE": "Gebruikers in de Verenigde Staten kunnen het ERT-ondersteuningscentrum bereiken op nummer 800-748-5669. Internationale gebruikers kiezen het dichtstbijzijnde land hieronder:",
        "SUPPORT_DROPDOWN": "Selecteer uw land",
        "SUPPORT_NAME_ARGENTINA": "Argentinië",
        "SUPPORT_NUMBER_ARGENTINA": "<bdi>0800 444 0962</bdi>",
        "SUPPORT_NAME_ARMENIA": "Armenië",
        "SUPPORT_NUMBER_ARMENIA": "<bdi>+1 617 681 6306</bdi>",
        "SUPPORT_NAME_AUSTRALIA": "Australië",
        "SUPPORT_NUMBER_AUSTRALIA": "<bdi>1 800 800 051</bdi>",
        "SUPPORT_NAME_AUSTRIA": "Oostenrijk",
        "SUPPORT_NUMBER_AUSTRIA": "<bdi>0800 100 405</bdi>",
        "SUPPORT_NAME_BELARUS": "Wit-Rusland",
        "SUPPORT_NUMBER_BELARUS": "<bdi>8 820 0321 0036</bdi>",
        "SUPPORT_NAME_BELGIUM": "België",
        "SUPPORT_NUMBER_BELGIUM_1": "(Engels): <bdi>0800 58 016</bdi>",
        "SUPPORT_NUMBER_BELGIUM_2": "(Frans): <bdi>0800 71 076</bdi>",
        "SUPPORT_NUMBER_BELGIUM_3": "(Duits): <bdi>0800 71 113</bdi>",
        "SUPPORT_NAME_BRAZIL": "Brazilië",
        "SUPPORT_NUMBER_BRAZIL": "<bdi>0800 891 5909</bdi>",
        "SUPPORT_NAME_BOSNIA": "Bosnië",
        "SUPPORT_NUMBER_BOSNIA": "<bdi>+1 617 681 6306</bdi>",
        "SUPPORT_NAME_BULGARIA": "Bulgarije",
        "SUPPORT_NUMBER_BULGARIA": "<bdi>00800 0010</bdi>, daarna <bdi>866 245 4931</bdi>",
        "SUPPORT_NAME_CANADA": "Canada",
        "SUPPORT_NUMBER_CANADA": "<bdi>1 800 748 5669</bdi>",
        "SUPPORT_NAME_CHILE": "Chili",
        "SUPPORT_NUMBER_CHILE": "<bdi>123 0020 3408</bdi>",
        "SUPPORT_NAME_CHINA": "China",
        "SUPPORT_NUMBER_CHINA_1": "NetCom (noord): <bdi>1 0800 74 40 164</bdi>",
        "SUPPORT_NUMBER_CHINA_2": "Telecom (zuid): <bdi>1 0800 44 00 158</bdi>",
        "SUPPORT_NAME_COLOMBIA": "Colombia",
        "SUPPORT_NUMBER_COLOMBIA": "<bdi>01 800 911 0010</bdi>, daarna <bdi>866 310 3707</bdi>",
        "SUPPORT_NAME_COSTA_RICA": "Costa Rica",
        "SUPPORT_NUMBER_COSTA_RICA": "<bdi>0800 013 1210</bdi>",
        "SUPPORT_NAME_CROATIA": "Kroatië",
        "SUPPORT_NUMBER_CROATIA": "<bdi>0800 222 953</bdi>",
        "SUPPORT_NAME_CZECH_REPUBLIC": "Republiek Tsjechië",
        "SUPPORT_NUMBER_CZECH_REPUBLIC": "<bdi>800 142 150</bdi>",
        "SUPPORT_NAME_DENMARK": "Denemarken",
        "SUPPORT_NUMBER_DENMARK": "<bdi>80 60 00 09</bdi>",
        "SUPPORT_NAME_EGYPT": "Egypte",
        "SUPPORT_NUMBER_EGYPT": "<bdi>02 510 0200</bdi>, daarna <bdi>866 310 3707</bdi>",
        "SUPPORT_NAME_EL_SALVADOR": "El Salvador",
        "SUPPORT_NUMBER_EL_SALVADOR": "<bdi>+1 617 681 6306</bdi>",
        "SUPPORT_NAME_ESTONIA": "Estland",
        "SUPPORT_NUMBER_ESTONIA": "<bdi>800 00 44 154</bdi>",
        "SUPPORT_NAME_FINLAND": "Finland",
        "SUPPORT_NUMBER_FINLAND": "<bdi>0800 11 6366</bdi>",
        "SUPPORT_NAME_FRANCE": "Frankrijk",
        "SUPPORT_NUMBER_FRANCE": "<bdi>0800 10 19 79</bdi>",
        "SUPPORT_NAME_GERMANY": "Duitsland",
        "SUPPORT_NUMBER_GERMANY": "<bdi>0800 101 28 21</bdi>",
        "SUPPORT_NAME_GREECE": "Griekenland",
        "SUPPORT_NUMBER_GREECE": "<bdi>00 800 1311</bdi>, daarna <bdi>866 310 3707</bdi>",
        "SUPPORT_NAME_GUATEMALA": "Guatemala",
        "SUPPORT_NUMBER_GUATEMALA": "<bdi>1 800 624 0079</bdi>",
        "SUPPORT_NAME_HONG_KONG": "Hongkong",
        "SUPPORT_NUMBER_HONG_KONG": "<bdi>3002 1665</bdi>",
        "SUPPORT_NAME_HUNGARY": "Hongarije",
        "SUPPORT_NUMBER_HUNGARY": "<bdi>06 800 14 571</bdi>",
        "SUPPORT_NAME_ICELAND": "IJsland",
        "SUPPORT_NUMBER_ICELAND": "<bdi>800 8544</bdi>",
        "SUPPORT_NAME_INDIA": "India",
        "SUPPORT_NUMBER_INDIA": "<bdi>000 800 440 1125</bdi>",
        "SUPPORT_NAME_INDONESIA": "Indonesië",
        "SUPPORT_NUMBER_INDONESIA": "<bdi>008 800 330 334</bdi>",
        "SUPPORT_NAME_IRELAND": "Ierland",
        "SUPPORT_NUMBER_IRELAND": "<bdi>1 800 946 700</bdi>",
        "SUPPORT_NAME_ISRAEL": "Israël",
        "SUPPORT_NUMBER_ISRAEL": "<bdi>1 809 470 062</bdi>",
        "SUPPORT_NAME_ITALY": "Italië",
        "SUPPORT_NUMBER_ITALY": "<bdi>800 90 56 37</bdi>",
        "SUPPORT_NAME_JAPAN": "Japan",
        "SUPPORT_NUMBER_JAPAN": "Raadpleeg uw ePRO-studie-informatiegids voor het gratis telefoonnummer voor uw onderzoeken",
        "SUPPORT_NAME_LATVIA": "Letland",
        "SUPPORT_NUMBER_LATVIA": "<bdi>8000 2151</bdi>",
        "SUPPORT_NAME_LEBANON": "Libanon",
        "SUPPORT_NUMBER_LEBANON": "<bdi>01-426-801</bdi>, daarna <bdi>866 310 3707</bdi>",
        "SUPPORT_NAME_LITHUANIA": "Litouwen",
        "SUPPORT_NUMBER_LITHUANIA": "<bdi>8800 30207</bdi>",
        "SUPPORT_NAME_MALAYSIA": "Maleisië",
        "SUPPORT_NUMBER_MALAYSIA": "<bdi>1800 80 59 71</bdi>",
        "SUPPORT_NAME_MEXICO": "Mexico",
        "SUPPORT_NUMBER_MEXICO_1": "(Engels): <bdi>001 800 748 5669</bdi> ",
        "SUPPORT_NUMBER_MEXICO_2": "(Spaans): <bdi>001 855 631 6952</bdi>",
        "SUPPORT_NAME_MOLDOVA": "Moldavië",
        "SUPPORT_NUMBER_MOLDOVA": "<bdi>617 681 6306</bdi>",
        "SUPPORT_NAME_NETHERLANDS": "Nederland",
        "SUPPORT_NUMBER_NETHERLANDS": "<bdi>0800 023 1389</bdi>",
        "SUPPORT_NAME_NEW_ZEALAND": "Nieuw-Zeeland",
        "SUPPORT_NUMBER_NEW_ZEALAND": "<bdi>0800 110 178</bdi>",
        "SUPPORT_NAME_NORWAY": "Noorwegen",
        "SUPPORT_NUMBER_NORWAY": "<bdi>800 62 051</bdi>",
        "SUPPORT_NAME_PAKISTAN": "Pakistan",
        "SUPPORT_NUMBER_PAKISTAN": "<bdi>00 800 0100</bdi>, daarna <bdi>866 237 9767</bdi>",
        "SUPPORT_NAME_PANAMA": "Panama",
        "SUPPORT_NUMBER_PANAMA": "<bdi>001 800 201 3095</bdi>",
        "SUPPORT_NAME_PERU": "Peru",
        "SUPPORT_NUMBER_PERU": "<bdi>0800 5 0974</bdi>",
        "SUPPORT_NAME_PHILIPPINES": "Filippijnen",
        "SUPPORT_NUMBER_PHILIPPINES": "<bdi>1 800 1116 0651</bdi>",
        "SUPPORT_NAME_POLAND": "Polen",
        "SUPPORT_NUMBER_POLAND": "<bdi>00800 331 1262</bdi>",
        "SUPPORT_NAME_PORTUGAL": "Portugal",
        "SUPPORT_NUMBER_PORTUGAL": "<bdi>800 206 172</bdi>",
        "SUPPORT_NAME_PUERTO_RICO": "Puerto Rico (Amerikaans gebied)",
        "SUPPORT_NUMBER_PUERTO_RICO": "<bdi>1 800 748 5669</bdi>",
        "SUPPORT_NAME_ROMANIA": "Roemenië",
        "SUPPORT_NUMBER_ROMANIA": "<bdi>0800 894492</bdi>",
        "SUPPORT_NAME_RUSSIA": "Rusland",
        "SUPPORT_NUMBER_RUSSIA_1": "(Primair nummer - gratis): <bdi>8 10 800 249 13011</bdi>",
        "SUPPORT_NUMBER_RUSSIA_2": "(Binnen Moskou): <bdi>363-2400,</bdi> <br> daarna <bdi>866 310 3707</bdi>",
        "SUPPORT_NUMBER_RUSSIA_3": "(Buiten Moskou): <bdi>8^(495) 363-2400,</bdi> <br> daarna <bdi>866 310 3707</bdi>",
        "SUPPORT_NUMBER_RUSSIA_4": "(Binnen St. Petersburg): <bdi>363-2400,</bdi> <br> daarna <bdi>866 310 3707</bdi>",
        "SUPPORT_NUMBER_RUSSIA_5": "(Buiten St. Petersburg): <bdi>8^(495) 363-2400,</bdi> <br> daarna <bdi>866 310 3707</bdi>",
        "SUPPORT_NAME_SAUDI_ARABIA": "Saoedi-Arabië",
        "SUPPORT_NUMBER_SAUDI_ARABIA": "<bdi>+1 617 681 6306</bdi>",
        "SUPPORT_NAME_SERBIA": "Servië",
        "SUPPORT_NUMBER_SERBIA": "<bdi>+1 617 973 1739</bdi>",
        "SUPPORT_NAME_SINGAPORE": "Singapore",
        "SUPPORT_NUMBER_SINGAPORE": "<bdi>800 616 30 03</bdi>",
        "SUPPORT_NAME_SLOVAKIA": "Slowakije",
        "SUPPORT_NUMBER_SLOVAKIA": "<bdi>0800 0044 65</bdi>",
        "SUPPORT_NAME_SLOVENIA": "Slovenië",
        "SUPPORT_NUMBER_SLOVENIA": "<bdi>+1 617 681 6306</bdi>",
        "SUPPORT_NAME_SOUTH_AFRICA": "Zuid-Afrika",
        "SUPPORT_NUMBER_SOUTH_AFRICA": "<bdi>0800 99 5853</bdi>",
        "SUPPORT_NAME_SOUTH_KOREA": "Zuid-Korea",
        "SUPPORT_NUMBER_SOUTH_KOREA": "<bdi>00308 33 00 08</bdi>",
        "SUPPORT_NAME_SPAIN": "Spanje",
        "SUPPORT_NUMBER_SPAIN": "<bdi>900 90 2541</bdi>",
        "SUPPORT_NAME_SWEDEN": "Zweden",
        "SUPPORT_NUMBER_SWEDEN": "<bdi>020 120 99 69</bdi>",
        "SUPPORT_NAME_SWITZERLAND": "Zwitserland",
        "SUPPORT_NUMBER_SWITZERLAND_1": "(Engels): <bdi>0800 199 325</bdi>",
        "SUPPORT_NUMBER_SWITZERLAND_2": "(Frans): <bdi>0800 891 183</bdi>",
        "SUPPORT_NUMBER_SWITZERLAND_3": "(Duits): <bdi>0800 891 025</bdi>",
        "SUPPORT_NAME_TAIWAN": "Taiwan",
        "SUPPORT_NUMBER_TAIWAN": "<bdi>00801 33 33 42</bdi>",
        "SUPPORT_NAME_THAILAND": "Thailand",
        "SUPPORT_NUMBER_THAILAND": "<bdi>1 800 33 140 353</bdi>",
        "SUPPORT_NAME_TUNISIA": "Tunesië",
        "SUPPORT_NUMBER_TUNISIA": "<bdi>+1 617 681 6306</bdi>",
        "SUPPORT_NAME_TURKEY": "Turkije",
        "SUPPORT_NUMBER_TURKEY": "<bdi>00 800 151 1335</bdi>",
        "SUPPORT_NAME_UKRAINE": "Oekraïne",
        "SUPPORT_NUMBER_UKRAINE": "<bdi>0^00 11</bdi>, daarna <bdi>866 245 4931</bdi>",
        "SUPPORT_NAME_UAE": "Verenigde Arabische Emiraten",
        "SUPPORT_NUMBER_UAE": "<bdi>8000-021</bdi>, daarna <bdi>866 310 3707</bdi>",
        "SUPPORT_NAME_UK": "Verenigd Koninkrijk",
        "SUPPORT_NUMBER_UK": "<bdi>0800 015 0408</bdi>",
        "SUPPORT_NAME_US": "Verenigde Staten",
        "SUPPORT_NUMBER_US_1": "(Primair nummer): <bdi>1 800 748 5669</bdi>",
        "SUPPORT_NUMBER_US_2": "(Back-up): <bdi>1 877 748 5669</bdi>",
        "SUPPORT_NAME_VENEZUELA": "Venezuela",
        "SUPPORT_NUMBER_VENEZUELA_1": "(Engels): <bdi>0 800 552 6288,</bdi> <br> daarna <bdi>866 310 3707</bdi> ",
        "SUPPORT_NUMBER_VENEZUELA_2": "(Spaans): <bdi>0 800 100 3063</bdi> ",
        "ABOUT": "Info",
        "CORE_PRODUCT_VERSION_LABEL": "Productversie:",
        "PROTOCOL": "Protocol:",
        "SPONSOR": "Sponsor:",
        "STORED_REPORTS": "Opgeslagen formulieren:",
        "STUDY_VERSION": "Onderzoeksversie: ",
        "STUDY_URL": "Onderzoeks-URL:",
        "P_AFFIDAVIT_HEADER": "<div><strong>Locatie: {{{ getSiteCode }}}</strong><br /><strong>Patiënt-ID: {{{ getPatientIdNumber }}}</strong></div>",
		"SET_TIMEZONE": "Tijdzone instellen",
		"DEVICE_SERIAL_NUMBER": "Serienummer van apparaat",
		"NONEXISTENT_USER": "Er is geprobeerd een niet-bestaande gebruiker bij te werken.",
		"SCREENING" : "Screening",
		"TREATMENT" : "Behandeling",
		"RANDOMIZATION" : "Randomisatie",
		"FOLLOWUP" : "Follow-up",
		"TERMINATION" : "Beëindiging",
        "ACCEPT": "Ik ga akkoord",
        "DECLINE": "Ik ga niet akkoord",
		"EULA": "EINDGEBRUIKERSLICENTIE",
        "EULA_TEXT": "<p><strong><span class=\"text-underline\">BELANGRIJK</span>: KLIK PAS OP DE KNOP IK GA AKKOORD WANNEER U DEZE OVEREENKOMST HEBT GELEZEN. ALS U OP DE KNOP IK GA AKKOORD KLIKT, GAAT U AKKOORD MET ALLE VOORWAARDEN VAN DEZE OVEREENKOMST. ALS U NIET AKKOORD GAAT MET ALLE VOORWAARDEN VAN DEZE OVEREENKOMST (1) MOET U NIET OP DE KNOP \"IK GA AKKOORD KLIKKEN\", (2) EN BEËINDIGT U HET INSTALLATIE- EN LICENTIEVERLENINGSPROCES DOOR OP DE KNOP \"IK GA NIET AKKOORD\" TE KLIKKEN.</strong></p><p>eResearchTechnology, Inc. (\"Licentieverlener\") verleent u een niet-exclusief, niet-overdraagbaar recht op het gebruik van de software van eResearchTechnology, Inc. op dit apparaat (\"Software\") in verband met uw deelname aan de overeenkomst inzake het klinische onderzoek: <strong>{{{ clinicalTrial }}}</strong>. De software van eResearchTechnology, Inc. valt onder toegekende octrooien en andere aangevraagde octrooien. Deze Overeenkomst verleent u geen eigendomsrechten op de Software (of eventuele kopieën daarvan), maar is slechts een licentie om de Software te gebruiken overeenkomstig alle voorwaarden van deze Overeenkomst. Het eigendomsrecht op de Software en alle delen daarvan, en alle eigendomsrechten en intellectuele-eigendomsrechten die deze omvatten, berusten te allen tijde bij de Licentieverlener.</p><p>U gaat ermee akkoord om, direct of indirect, (i) de Software niet te demonteren, decompileren of te onderwerpen aan reverse-engineering; (ii) de Software niet te kopiëren, distribueren, vervaardigen, aanpassen, vertalen, lokaliseren, porteren of op andere manieren te wijzigen of afgeleide werken van de Software te maken; of (iii) auteursrechten, handelsgeheimen of andere juridische kennisgevingen die zich op of in de Software bevinden te verwijderen of te wijzigen. U BENT ERMEE BEKEND EN GAAT ERMEE AKKOORD DAT DE SOFTWARE CODE KAN BEVATTEN DIE HET ONGEAUTORISEERDE GEBRUIK VAN DE SOFTWARE VERHINDERT.</p><br><p>ALS U AKKOORD GAAT MET AL HET BOVENSTAANDE, selecteert u – <strong>Ik ga akkoord</strong> – Door op \"Ik ga akkoord\" te klikken, geeft u aan dat u akkoord gaat met de licentievoorwaarden.</p><p>ALS U NIET AKKOORD GAAT MET AL HET BOVENSTAANDE, of niet geautoriseerd bent om akkoord te gaan, selecteert u – <strong>Ik ga niet akkoord</strong> – en, in dat geval, wordt verdere toegang tot de Software geblokkeerd. Als u geautoriseerd bent, kunt u op een ander moment akkoord gaan.</p>",
        "VISIT_EXPIRED_HEADER": "Verlopen bezoek.",
        "VISIT_EXPIRED_MESSAGE": "Dit bezoek is niet meer beschikbaar omdat het is verlopen.",
        "VISIT_EXPIRED_MESSAGE_SUBJECT": "Dit bezoek is niet meer beschikbaar omdat het is verlopen. Geef het apparaat terug aan het betreffende locatiepersoneelslid.",
        "SQ-AL": "Albanees",
        "IMAGE_FOLDER": "{{{ imageFolder }}}",
		"MODAL_OK_TEXT": "OK",
        "BROWSER_LOAD_ERROR": "Pagina niet gevonden. Controleer uw internetverbinding en probeer het opnieuw.",
		"NO_USER_OF_ROLE" : "Geen gebruiker met die rol gevonden.",
        "EDIT_PATIENT_REASON_1": "Correctie gegevens kenmerk",
        "EDIT_PATIENT_REASON_2": "Wijziging ID",
        "EDIT_PATIENT_REASON_3": "Onjuiste taal geselecteerd",
		"START_VISIT_OUTSIDE_WINDOW_MSG": "Voer {{{ getVisitName }}} in buiten de geconfigureerde tijdsperiode: {{{ startDate }}} - {{{ endDate }}}",
		"START_VISIT_HARD_STOP_MSG" : "U kunt geen {{{ getVisitName }}} buiten de geconfigureerde tijdsperiode invoeren: {{{ startDate }}} - {{{ endDate }}}",
		"USER_NAME_INVALID_CHARACTERS" : "Gebruik geen speciale tekens",
		"ERROR_PATIENT_SAVE" : "Er is een fout opgetreden bij het toevoegen van een nieuwe patiënt",
		"PASSWORD_CHANGE_FAILED" : "Er is een ander apparaat geactiveerd voor het verzamelen van uw onderzoeksgegevens. Wijzig uw wachtwoord op dat apparaat.",
		"ERROR" : "Fout. Neem contact op met het ERT-ondersteuningscentrum.",
		"ERROR_AFTER_ACTIVATION_SUCCESSFUL" : "Er is een fout opgetreden. U moet uw set-upcode en een wachtwoord opgeven.",
		"CONNECTION_TIMEOUT" : "Er is een time-out van de verbinding opgetreden.",
		"UPDATE_FAILED" : "De ERT-update is niet voltooid. Controleer of dit apparaat met internet is verbonden en probeer het opnieuw.",
        "QR_CODE_UNAVAILABLE": "Klik op patiënt om QR te vernieuwen.",
        "QR_MODAL_TITLE": "QR-code voor: ",
        "TRANSMIT_FAILED_403_14": "Een of meer verzendingen zijn mislukt omdat de aanmaak van een patiënt nog niet is afgerond. Wacht en probeer het nogmaals.",
        "CONSOLE_LOG": "Consolelogboek",
		"USER_SELECT_ROLE_VALIDATION": "Een rolselectie is verplicht.",
        "USER_SELECT_LANGUAGE_VALIDATION": "Een taalselectie is verplicht."
    },
    "dates": {
        "setDateButtonLabel": "Datum instellen",
        "setTimeButtonLabel": "OK",
        "setDurationButtonLabel": "Duur instellen",
        "calTodayButtonLabel": "Naar vandaag gaan",
        "titleDateDialogLabel": "Datum instellen",
        "titleTimeDialogLabel": "Tijd instellen",
        "daysOfWeek": [
            "zondag",
            "maandag",
            "dinsdag",
            "woensdag",
            "donderdag",
            "vrijdag",
            "zaterdag"
        ],
        "daysOfWeekShort": [
            "zo",
            "ma",
            "di",
            "wo",
            "do",
            "vr",
            "za"
        ],
        "monthsOfYear": [
            "januari",
            "februari",
            "maart",
            "april",
            "mei",
            "juni",
            "juli",
            "augustus",
            "september",
            "oktober",
            "november",
            "december"
        ],
        "monthsOfYearShort": [
            "jan",
            "feb",
            "mrt",
            "apr",
            "mei",
            "jun",
            "jul",
            "aug",
            "sep",
            "okt",
            "nov",
            "dec"
        ],
        "durationLabel": [
            "Dagen",
            "Uren",
            "Minuten",
            "Seconden"
        ],
        "durationDays": [
            "Dag",
            "Dagen"
        ],
        "tooltip": "Datumkiezer openen",
        "nextMonth": "Volgende maand",
        "prevMonth": "Vorige maand",
        "clearButton": "Wissen",
        "meridiem": [
            "am",
            "pm"
        ]
    }
}
