{
    "namespace": "CORE",
    "language": "tn",
    "locale": "ZA",
    "localized": "Setswana",
    "direction": "ltr",
    "resources": {
        "ABOUT": "Ka ga",
        "ACCEPT": "Ke a Amogela",
        "ACTIVATED_ELSEWHERE": "Go tsentswe sedirisiwa se sengwe go kgobokanya tshedimosetso ya gago ya go ithuta. Tsweetswee ikgolaganye le Motsamaisi wa gago wa Patlisiso fa o akanya gore seno se dirilwe ka phoso.",
        "ACTIVATION_CODE": "Khouto ya go Simolola:",
        "AFFIDAVIT": "Tlhopha Siame go tswa foo Latela fa o siametse go boloka karabo tsa gago.",
        "AFFIDAVIT_HELP": "Re a leboga. O neelane ka dikarabo tsotlhe tse di tlhokegang tsa gago. O ka tlhola le go fetola dikarabo tsa gago ka go tlhopha Morago.",
        "P_AFFIDAVIT_HEADER": "<div><strong>Lefelo: {{{ getSiteCodeForSubject }}}</strong><br /><strong>ID ya Molwetse: {{{ getParticipantCodeForSubject }}}</strong></div>",
        "ANSWER_ATTEMPT_EXCEEDED": "O tsentse karabo e e fosagetseng makgetlo a le mantsi thata kgotsa o tobeditse linki ya lebetse karabo ya tshireletso.",
        "APPLICATION_HEADER": "{{{ appHeader }}}",
        "BACK": "Morago",
        "BACK_OUT_CONFIRM": "A o tlhomamisegile o batla go tswa? Dikarabo tsa foromo eno di tla latlhega.",
        "CANCEL": "Khansela",
        "CANCEL_UPDATE": "Khansela Tlhabololo",
        "CHANGE_PASSWORD": "Fetola Lefoko la go Tsena",
        "CHANGE_SECRET_QUESTION": "Fetola Potso ya Tshireletso",
        "CODE_ENTRY_NO_SERVER": "Sefara ga e Teng",
        "CONNECTION_REQUIRED": "Go tlhokega kgolagano ya Inthanete.",
        "CONNECTION_TIMEOUT": "Nako ya Kgolaganyo e Fedile.",
        "CONFIRM_PASSWORD": "Tlhomamisa Lefoko la go Tsena:",
        "CONSOLE_LOG": "Sedirisiwa sa Eleketeroniki",
        "CONTACT_STUDY_COORDINATOR": "Ikgolaganye le Motsamaisi wa Patlisiso",
        "CONTACT_UNLOCK_CODE": "Tsweetswee ikgolaganye le Motsamaisi wa Patlisiso mabapi le Khouto ya go Lotlolola gompieno:",
        "CORE_PRODUCT_VERSION_LABEL": "Mofuta wa Sedirisiwa:",
        "CURRENT_DATE": "{{{ currentDate }}}",
        "CURRENT_PASSWORD": "Lefoko la go Tsena la ga Jaana:",
        "DATE_LBL": "Letlha:",
        "DEACTIVATED_LABEL": "Go dirisa ga gago ERT mo patlisisong eno go fedile. Tsweetswee ikgolaganye le Motsamaisi wa Patlisiso fa seno se sa nepagala.",
        "DECLINE": "Ke a Gana",
        "DEVICE_ACTIVATION": "Tshimololo",
        "DEVICE_NOT_SUPPORTED": "Sedirisiwa seno ga se a dumelelwa. Tsweetswee ikgolaganye le Motsamaisi wa Patlisiso mabapi le tshedimosetso kaga didirisiwa tse di dumeletsweng go dirisiwa mo patlisisong eno.",
        "DEVICE_REACTIVATION": "Tshimololo ya Tiriso ya Sedirisiwa",
        "DIARY_TIMEOUT": "Foromo eno e feletswe ke nako.",
        "DOWNLOAD_FAILED": "Go kopololwa ga App go kgoreleditswe. Tsweetswee leka gape fa o golagane le Inthanete kgotsa ikgolaganye le Lefelo la Thuso la ERT.",
        "DOWNLOAD_FAILURE": "Go Kopolola go Kgoreleditswe",
        "ENTER_NEW_PASSWORD": "Lefoko la go tsena le lentšha:",
        "ERROR": "Phoso.  Tsweetswee ikgolaganye le Lefelo la go Thusa la ERT.",
        "ERROR_AFTER_ACTIVATION_SUCCESSFUL": "Go nnile le phoso. O tla tlhoka go tsenya khouto ya gago ya go simolola le lefoko la go tsena.",
        "ERROR_CODE": "Khouto e e Phoso:",
        "ERROR_TITLE": "Phoso",
        "EULA": "LAESENSE YA GO FELA GA TIRISO",
        "EULA_TEXT": "<p><strong><span class=\"text-underline\">BOTLHOKWA</span>:  O SEKA WA TOBETSA KONOPO YA AMOGELA PELE O BALA TUMELANO.  KA GO TOBETSA KONOPO YA AMOGELA, O AMOGELA MELAWANA YOTLHE YA TUMELANO ENO.  FA O SA AMOGELE MELAWANA YOTLHE YA TUMELANO ENO (1) O SEKA WA TOBETSA GO \"KONOPO YA\" \"KE A AMOGELA\", (2) KGAOTSA GO TSENYA MMOGO LE THULAGANYO YA GO DIRA LAESENSE KA GO TOBETSA GO \"KONOPO YA \" \"KE A GANA\".</strong></p><p>eResearchTechnology, Inc. (\"Licensor\") e go naya tshwanelo e e seng ya botlhe, e e sa feteleng go ba bangwe ya go dirisa software ya eResearchTechnology, Inc. e e mo sedirisiweng seno (\"Software\") ka ntlha ya go tsaya karolo ga gago mo tumelanong ya tekeletso ya kalafi: <strong>{{{ clinicalTrial }}}</strong>.  Software ya eResearchTechnology, Inc. e duelwa ke batlami ba ba e dirileng le batlhami ba bangwe ba ba letileng.  Tumelano eno ga e go bolelele ka gope o na le ditshwanelo dipe mo Software (kgotsa dikhopi dipe tsa yone), mme e dira fela laesense ya go dirisa Software go dumalana le melawana yotlhe ya tumelano eno.  Thaetlele ya Software le dikarolo tsotlhe tsa yone, le ditshwanelo tsa beng le ditshwanelo tsa dithoto tse di mo go yone, di tla nna kafa molaong go mong wa laesense ka dinako tsotlhe.</p><p>O dumela go se, ka tlhamalalo kgotsa e se ka tlhamalalo, (i) busetsa morago boenjeniri, go tlhatlhamolola kgotsa go kopanya gape Software; (ii) kopolola, anamisa, dira, fetola, tlhama ditiro tse di theilweng tsa, ranola, go e dira ya lefelo, tshwaraganya kgotsa go fetola Software; kgotsa (iii) ntsha kgotsa go fetola ka tsela epe mong, rekisa mo sephiring kgotsa ditlhagiso tsa semolao tse di mo kgotsa mo teng ga Software.  O ITSE LE GO DUMELA GORE SOFTWARE E KA NNA LE KHOUTO E E THIBELANG TIRISO E E SENG KAFA MOLAONG YA SOFTWARE.</p><br><p>FA O DUMALANA LE DILO TSENO TSOTLHE TSE DI FETILENG, tsweetswee tlhopha – <strong>Ke Amogela</strong> –Tobetsa\"Ke Amogela\" go bontsha go amogela ga gago melawana ya laesense.</p><p>FA O SA DUMALANE LE DILO TSOTLHE TSE DI FETILENG, kgotsa o sena tetla ya go dumela, tlhopha – <strong>Ke a Gana</strong> – mme go tswelela o tsena mo Software go tla thibelwang.  Fa o neilwe tetla, o ka amogela ka nako nngwe le nngwe.</p>",
        "FORGOT_PASSWORD": "O Lebetse Lefoko la go Tsena?",
        "FORGOT_SECRET_ANSWER": "O lebetse karabo ya tshireletso?",
        "HAND_DEVICE_SITE_TITLE": "Naya Modirisi wa Lefelo Sedirisiwa",
        "HAND_DEVICE_SITE_BODY": "Tsweetswee naya modirisi wa lefelo sedirisiwa.",
        "INCORRECT_ANSWER": "Karabo e e fosagetseng",
        "INCORRECT_UNLOCK_CODE": "Khouto e e Fosagetseng ya go Lotlolola",
        "INSTALLING": "App ya Tsenngwa",
        "INVALID_CODE": "Khoutu ya go Tsena e e Phoso",
        "LOCAL_STORAGE_FAILURE": "Go Palelwa ga Polokelo ya Moo",
        "LOG_IN": "Tsena",
        "LOG_LEVEL": "Selekanyo sa go Tsena:",
        "LOGOUT": "Tswaa",
        "LOGOUT_CONFIRM": "A o tlhomamisegile o batla go tswa?",
        "NEXT": "E e latelang",
        "NEXT_ACTION": " Ke nako ya kgato ya gago e e latelang mo ERT ",
        "NO_DIARIES_TITLE": "Ga go Dipegelo Tse di ka Tsenngwang",
        "OK": "GO SIAME",
        "PASSWORD": "Lefoko la go Tsena:",
        "PASSWORD_ATTEMPT_EXCEEDED": "O tsentse lefoko la go tsena le le fosagetseng makgetlo a le mantsi thata kgotsa o tobeditse linki ya lebetse lefoko la go tsena.",
        "PASSWORD_CHANGE_FAILED": "Go tsentswe sedirisiwa se sengwe go kgobokanya tshedimosetso ya gago ya go ithuta. Tsweetswee fetola lefoko la gago la go tsena mo sedirisiweng seo.",
        "PASSWORD_CHANGE_SUCCESS": "O atlegile go ntšhafatsa lefoko la gago la go tsena.",
        "PASSWORD_INVALID": "Lefoko la go Tsena le le Fosagetseng",
        "PLEASE_ANSWER_SQ": "Tsweetswee araba potso ya gago ya tshireletso:",
        "PLEASE_CONFIRM": "Tsweetswee tlhomamisa",
        "PLEASE_CONTACT": "Tsweetswee ikgolaganye le Lefelo la go Thusa la ERT.",
        "PLEASE_TRY_OR_CONTACT_SUPPORT": "Tsweetswee leka gape kgotsa ikgolaganye le Lefelo la go Thusa la ERT.",
        "PLEASE_WAIT": "Tsweetswee leta...",
        "PORTRAIT_ONLY": "Tsweetswee tshwara sedirisiwa sa gago o se emisitse.",
        "PRIVATE_BROWSING_ON": "Tsweetswee tima go senka tshedimosetso mo Inthaneteng ga Poraefete. Fa o tswelela go nna le mathata, tsweetswee ikgolaganye le Motsamaisi wa Patlisiso.",
        "PRIVACY_POLICY": "Pholisi ya Dilo tsa Poraefete",
        "PRIVACY_POLICY_APPLICATION_UNAVAILABILITY": "Pholisi ya dilo tsa poraefete ya ERT ga e yo ka nakwana.",
        "PRIVACY_POLICY_ACTIVATION_UNAVAILABILITY": "Pholisi ya dilo tsa poraefete ya ERT ga e yo ka nakwana. Pholisi ya dilo tsa poraefete ya ERT e gone mo tsebeng ya diseting morago ga go tlhopha tiriso.",
        "PROTOCOL": "Porothokholo:",
        "REQUIRED_ANSWER": "Tsweetswee araba",
        "RETRY": "Leka gape",
        "RESET_PASSWORD": "Dira Gape Lefoko la go Tsena",
        "RESET_SECRET_QUESTION": "Dira Gape Potso ya Tshireletso",
        "SECRET_ANSWER": "Karabo ya Tshireletso:",
        "SECRET_QUESTION": "Potso ya Tshireletso:",
        "SECRET_QUESTION_CHANGE_FAILED": "Go tsentswe sedirisiwa se sengwe go kgobokanya tshedimosetso ya gago ya go ithuta. Tsweetswee fetola potso ya gago ya tshireletso mo sedirisiweng seo.",
        "SECRET_QUESTION_CHANGE_SUCCESS": "O atlegile go ntšhafatsa lefoko la gago la go tsena le potso ya tshireletso.",
        "SETTINGS": "Diseting",
        "SITE": "Lefelo:",
        "SKIP_QUESTION": "A o tlhomamisegile gore o batla go tlola dikarabo mo sekerining seno?",
        "SPONSOR": "Moetleletsi:",
        "STORED_REPORTS": "Diforomo Tse di Bolokilweng:",
        "STUDY_VERSION": "Mofuta wa Thutopatlisiso: ",
        "STUDY_URL": "URL ya Thutopatlisiso:",
        "SUBJECT_ID": "Khouto ya Molwetse:",
        "TEMPORARY_UNLOCK_CODE": "Tsenya Khouto ya go Lotlolola e e Ntshitsweng ke Motsamaisi wa Thutopatlisiso.",
        "TRANSMIT_REPORTS": "Ntšhafatsa",
        "UPDATE_CACHED_DELETED": "Go ntšhafatsa ERT ga go a wediwa. O tla tlhoka kgolagano ya Inthanete go dirisa ERT. Tsweetswee ikgolaganye le Lefelo la gago la go Thusa la ERT.",
        "UPDATE_FAILED": "Go ntšhafatsa ERT ga go a wediwa. Tsweetswee tlhomamisa gore sedirisiwa seno se golagane le Inthanete o bo o leka gape.",
        "UPDATE_FAILURE": "Go ntšhafatsa ga go a wediwa",
        "UPDATE_SUCCESS": "Go Ntšhafatsa go Atlegile",
        "WELCOME": "Re a lo amogela",
        "ALARM_OFF_LBL": "E timilwe",
        "ALARM_TURN_OFF": "Tima",
        "SET_ALARMS": "Tšhuba Alamo",
        "SCHED_NO_DIARIES_AVAILABLE": "Ga go na dipego dipe tse di tshwanetseng go romelwa ka nako e",
        "TRAINER": "Mokgwa wa Mokatisi",
        "TRAINER_EXIT": "Tswaya go Mokgwa wa Mokatisi",
        "TRAINER_EXIT_NOTIFICATION": "O tswa go Mokgwa wa Mokatisi",
        "TRAINER_HEADER": "(Mokatisi)",
        "ELPU_FAILURE": "Go dirisa ga gago sedirisiwa sa ERT go fedile, le fa go ntse jalo go nnile le phoso. Tsweetswee leka gape.",
        "ELPU_ON_REPLACED_DEVICE": "Go dirisa ga gago sedirisiwa seno sa ERT go fedile. Tsweetswee dirisa sedirisiwa sa gago se se emisetsang.",
        "SECURITY_QUESTION_0": "Leina la ga Mme wa gago pele a nyalwa ke mang?",
        "SECURITY_QUESTION_1": "O belegetswe mo toropokgolo efe?",
        "SECURITY_QUESTION_2": "Ke mang leina la seotlwana sa gago sa ntlha?",
        "SECURITY_QUESTION_3": "Motshameko wa gago wa mmamoratwa ke ofe?",
        "SECURITY_QUESTION_4": "A alogile ngwaga mang?",
        "SECURITY_QUESTION_5": "Leina la bobedi la ngwana wa gago yo mogolo ke mang?",
        "SECURITY_QUESTION_6": "Leina la tsala ya gago e o neng o e rata thata fa o le ngwana ke mang?",
        "SECURITY_QUESTION_7": "Sefane sa morutabana wa gago wa mophato wa boraro ke mang?",
        "SECURITY_QUESTION_8": "Tiro ya gago ya ntlha e ne e le kwa toropokgolong kgotsa toropo efe?",
        "SELECT_SITE_USER": "Tlhopha Leina le Tiriso ya Lefelo la Inthanete",
        "SITE_USER_NAME": "Leina le Tiriso ya Lefelo la Inthanete:",
        "ADD_SITE_USER": "Tsenya Modirisi wa Lefelo la Inthanete",
        "INVALID_ENTRY": "Tsenyo e e sa Direng",
        "HANDOFF_MESSAGE": "<strong>Molwetse o tshwanetse go wetsa disekirini tse di latelang go dira khouto ya go tsena.</strong>",
        "REVERSE_HANDOFF_CONFIRM": "Fa o tlhopha SIAME, thulaganyo ya go tlhopha tiriso e tla simolola gape. A o tlhomamisegile o batla go simolola tiriso gape?",
        "SITE_GATEWAY_TITLE": "Lefelo la Kgolaganyo ya Mafaratlhatlha",
        "USER_ALREADY_EXISTS": "Modirisi o Setse a le Teng",
        "SITE_SIGNATURE": "Tshaeno ya: ",
        "SITE_REPORT_AFF": "Ke tsentse, tlhatlhoba ka botlalo, mme fano ke tlhomamisa tshedimosetso e e fetileng.<br /><br /><strong>Tshaeno ya:</strong> {{{ getActiveUserName }}}",
        "PATIENT_REPORT_AFF": "Ke tsentse, tlhatlhoba ka botlalo, mme fano ke tlhomamisa tshedimosetso e e fetileng.<br /><br /><strong>Ditlhakaina tsa:</strong> {{{ getActiveUserName }}}",
        "CLEAR_SIGNATURE": "Phimola Tshaeno",
        "STUDY_ALIAS": "{{{ studyAlias }}}",
        "SITE_ACTIVATED_ELSEWHERE": "Go tsentswe sedirisiwa se sengwe go kgobokanya tshedimosetso ya molwetse ya patlisiso. Tsweetswee ikgolaganye le Motsamaisi wa Patlisiso fa o akanya gore seno se dirilwe ka phoso.",
        "SITE_DEACTIVATED_LABEL": "Go dirisa ga molwetse ERT mo patlisisong eno go fedile. Tsweetswee ikgolaganye le Motsamaisi wa Patlisiso fa seno se sa nepagala.",
        "SIGNATURE_DATA_LIMIT_EXCEEDED": "Lebokoso la Tshaeno ga le a emela tshaeno ya gago ka nepo jaaka go thadilwe. Go na le moo tsweetswee saena ka ditlhakaina tsa gago.",
        "PAIRED": "Golagantswe",
        "BLUETOOTH_REG_TITLE": "Go dira Sediriswa Sebedi le eSense",
        "BLUETOOTH_REG_REFRESH_BUTTON": "Ntšhwafatsa Lenane",
        "BLUETOOTH_PAIR_DEVICE": "Golaganya sedirisiwa se se tlhophilweng",
        "BLUETOOTH_PAIRING_FAILED": "Go golagana le sedirisiwa se se tlhophilweng go atlegile. Tsweetswee leka gape.",
        "BLUETOOTH_PAIRING_SUCCESS": "Go golagana le sedirisiwa se se tlhophilweng go atlegile.",
        "BLUETOOTH_REG_NO_DEVICES_FOUND": "Ga go a bonwa sedirisiwa sepe. Tsweetswee tlhomamisa gore sedirisiwa se gaufi le ERT le gore se mo maemong a sone a thomelo.",
        "SYNC_FAILED": "Go tsamaisana le sefara go retetse.",
        "DIARY_REQUIRES_E_SENSE_SUPPORT": "eSense ga e tsamaisane. Foromo eno e tlhoka thuso ya eSense.",
        "ERROR_E_SENSE_ENABLE": "eSense ga e a kgona go dirwa gore e dire.",
        "E_SENSE_NOT_PAIRED": "Go gona sediriswa sepe sa eSense se se golagantsweng. Foromo eno e tlhoka sedirisiwa sa eSense se se golagantsweng.",
        "BLUETOOTH_SYNC_FAILURE_TOP": "ERT ga e a kgona go buisana le sedirisiwa {{{ eSenseDeviceName }}}.",
        "BLUETOOTH_SYNC_FAILURE_MIDDLE": "Tsweetswee tlhomamisa gore sedirisiwa {{{ eSenseDeviceName }}} le nomoro {{{ eSenseSerialNumber }}} se gaufi le ERT le gore se mo maemong a sone a thomelo.",
        "PLUGIN_MISSING": "Ga go a kgonega go tsenya dipolaka tse di tlhokegang.",
        "WRAPPER_VERSION": "Mofuta wa Sephuthelwana:",
        "SUPPORT": "Lefelo la go Thusa",
        "SUPPORT_MESSAGE": "Badirisi kwa United States ba fitlhelela Lefelo la go Thusa la ERT go 800-748-5669. Badirisi ba boditšhabatšhaba, tsweetswee tlhopha naga e e gaufi thata le wena fa tlase:",
        "SUPPORT_DROPDOWN": "Tlhopha naga ya gago",
        "SUPPORT_NAME_ARGENTINA": "Argentina",
        "SUPPORT_NUMBER_ARGENTINA": "<bdi>0800 444 0962</bdi>",
        "SUPPORT_NAME_ARMENIA": "Armenia",
        "SUPPORT_NUMBER_ARMENIA": "<bdi>+1 617 681 6306</bdi>",
        "SUPPORT_NAME_AUSTRALIA": "Australia",
        "SUPPORT_NUMBER_AUSTRALIA": "<bdi>1 800 800 051</bdi>",
        "SUPPORT_NAME_AUSTRIA": "Austria",
        "SUPPORT_NUMBER_AUSTRIA": "<bdi>0800 100 405</bdi>",
        "SUPPORT_NAME_BELARUS": "Belarus",
        "SUPPORT_NUMBER_BELARUS": "<bdi>8 820 0321 0036</bdi>",
        "SUPPORT_NAME_BELGIUM": "Belgium",
        "SUPPORT_NUMBER_BELGIUM_1": "(English): <bdi>0800 58 016</bdi>",
        "SUPPORT_NUMBER_BELGIUM_2": "(French) : <bdi>0800 71 076</bdi>",
        "SUPPORT_NUMBER_BELGIUM_3": "(German) : <bdi>0800 71 113</bdi>",
        "SUPPORT_NAME_BRAZIL": "Brazil",
        "SUPPORT_NUMBER_BRAZIL": "<bdi>0800 891 5909</bdi>",
        "SUPPORT_NAME_BOSNIA": "Bosnia",
        "SUPPORT_NUMBER_BOSNIA": "<bdi>+1 617 681 6306</bdi>",
        "SUPPORT_NAME_BULGARIA": "Bulgaria",
        "SUPPORT_NUMBER_BULGARIA": "<bdi>00800 0010</bdi>, go tswa foo <bdi>866 245 4931</bdi>",
        "SUPPORT_NAME_CANADA": "Canada",
        "SUPPORT_NUMBER_CANADA": "<bdi>1 800 748 5669</bdi>",
        "SUPPORT_NAME_CHILE": "Chile",
        "SUPPORT_NUMBER_CHILE": "<bdi>123 0020 3408</bdi>",
        "SUPPORT_NAME_CHINA": "China",
        "SUPPORT_NUMBER_CHINA_1": "NetCom (North) : <bdi>1 0800 74 40 164</bdi>",
        "SUPPORT_NUMBER_CHINA_2": "Telecom (South) : <bdi>1 0800 44 00 158</bdi>",
        "SUPPORT_NAME_COLOMBIA": "Colombia",
        "SUPPORT_NUMBER_COLOMBIA": "<bdi>01 800 911 0010</bdi>, go tswa foo <bdi>866 310 3707</bdi>",
        "SUPPORT_NAME_COSTA_RICA": "Costa Rica",
        "SUPPORT_NUMBER_COSTA_RICA": "<bdi>0800 013 1210</bdi>",
        "SUPPORT_NAME_CROATIA": "Croatia",
        "SUPPORT_NUMBER_CROATIA": "<bdi>0800 222 953</bdi>",
        "SUPPORT_NAME_CZECH_REPUBLIC": "Czech Republic",
        "SUPPORT_NUMBER_CZECH_REPUBLIC": "<bdi>800 142 150</bdi>",
        "SUPPORT_NAME_DENMARK": "Denmark",
        "SUPPORT_NUMBER_DENMARK": "<bdi>80 60 00 09</bdi>",
        "SUPPORT_NAME_EGYPT": "Egepeto",
        "SUPPORT_NUMBER_EGYPT": "<bdi>02 510 0200</bdi>, go tswa foo <bdi>866 310 3707</bdi>",
        "SUPPORT_NAME_EL_SALVADOR": "El Salvador",
        "SUPPORT_NUMBER_EL_SALVADOR": "<bdi>+1 617 681 6306</bdi>",
        "SUPPORT_NAME_ESTONIA": "Estonia",
        "SUPPORT_NUMBER_ESTONIA": "<bdi>800 00 44 154</bdi>",
        "SUPPORT_NAME_FINLAND": "Finland",
        "SUPPORT_NUMBER_FINLAND": "<bdi>0800 11 6366</bdi>",
        "SUPPORT_NAME_FRANCE": "France",
        "SUPPORT_NUMBER_FRANCE": "<bdi>0800 10 19 79</bdi>",
        "SUPPORT_NAME_GERMANY": "Germany",
        "SUPPORT_NUMBER_GERMANY": "<bdi>0800 101 28 21</bdi>",
        "SUPPORT_NAME_GREECE": "Greece",
        "SUPPORT_NUMBER_GREECE": "<bdi>00 800 1311</bdi>, go tswa foo <bdi>866 310 3707</bdi>",
        "SUPPORT_NAME_GUATEMALA": "Guatemala",
        "SUPPORT_NUMBER_GUATEMALA": "<bdi>1 800 624 0079</bdi>",
        "SUPPORT_NAME_HONG_KONG": "Hong Kong",
        "SUPPORT_NUMBER_HONG_KONG": "<bdi>3002 1665</bdi>",
        "SUPPORT_NAME_HUNGARY": "Hungary",
        "SUPPORT_NUMBER_HUNGARY": "<bdi>06 800 14 571</bdi>",
        "SUPPORT_NAME_ICELAND": "Iceland",
        "SUPPORT_NUMBER_ICELAND": "<bdi>800 8544</bdi>",
        "SUPPORT_NAME_INDIA": "India",
        "SUPPORT_NUMBER_INDIA": "<bdi>000 800 440 1125</bdi>",
        "SUPPORT_NAME_INDONESIA": "Indonesia",
        "SUPPORT_NUMBER_INDONESIA": "<bdi>008 800 330 334</bdi>",
        "SUPPORT_NAME_IRELAND": "Ireland",
        "SUPPORT_NUMBER_IRELAND": "<bdi>1 800 946 700</bdi>",
        "SUPPORT_NAME_ISRAEL": "Israel",
        "SUPPORT_NUMBER_ISRAEL": "<bdi>1 809 470 062</bdi>",
        "SUPPORT_NAME_ITALY": "Italy",
        "SUPPORT_NUMBER_ITALY": "<bdi>800 90 56 37</bdi>",
        "SUPPORT_NAME_JAPAN": "Japan",
        "SUPPORT_NUMBER_JAPAN": "Tsweetswee leba ePRO Kaedi ya Tshedimosetso ya Patlisiso go bona dinommoro tsa gago tsa mogala wa mahala wa patlisiso",
        "SUPPORT_NAME_LATVIA": "Latvia",
        "SUPPORT_NUMBER_LATVIA": "<bdi>8000 2151</bdi>",
        "SUPPORT_NAME_LEBANON": "Lebanon",
        "SUPPORT_NUMBER_LEBANON": "<bdi>01 -426 -801</bdi>, go tswa foo <bdi>866 310 3707</bdi>",
        "SUPPORT_NAME_LITHUANIA": "Lithuania",
        "SUPPORT_NUMBER_LITHUANIA": "<bdi>8800 30207</bdi>",
        "SUPPORT_NAME_MALAYSIA": "Malaysia",
        "SUPPORT_NUMBER_MALAYSIA": "<bdi>1800 80 59 71</bdi>",
        "SUPPORT_NAME_MEXICO": "Mexico",
        "SUPPORT_NUMBER_MEXICO_1": "(English) : <bdi>001 800 748 5669</bdi> ",
        "SUPPORT_NUMBER_MEXICO_2": "(Spanish) : <bdi>001 855 631 6952</bdi>",
        "SUPPORT_NAME_MOLDOVA": "Moldova",
        "SUPPORT_NUMBER_MOLDOVA": "<bdi>617 681 6306</bdi>",
        "SUPPORT_NAME_NETHERLANDS": "Netherlands",
        "SUPPORT_NUMBER_NETHERLANDS": "<bdi>0800 023 1389</bdi>",
        "SUPPORT_NAME_NEW_ZEALAND": "New Zealand",
        "SUPPORT_NUMBER_NEW_ZEALAND": "<bdi>0800 110 178</bdi>",
        "SUPPORT_NAME_NORWAY": "Norway",
        "SUPPORT_NUMBER_NORWAY": "<bdi>800 62 051</bdi>",
        "SUPPORT_NAME_PAKISTAN": "Pakistan",
        "SUPPORT_NUMBER_PAKISTAN": "<bdi>00 800 0100</bdi>, go tswa foo <bdi>866 237 9767</bdi>",
        "SUPPORT_NAME_PANAMA": "Panama",
        "SUPPORT_NUMBER_PANAMA": "<bdi>001 800 201 3095</bdi>",
        "SUPPORT_NAME_PERU": "Peru",
        "SUPPORT_NUMBER_PERU": "<bdi>0800 5 0974</bdi>",
        "SUPPORT_NAME_PHILIPPINES": "Philippines",
        "SUPPORT_NUMBER_PHILIPPINES": "<bdi>1 800 1116 0651</bdi>",
        "SUPPORT_NAME_POLAND": "Poland",
        "SUPPORT_NUMBER_POLAND": "<bdi>00800 331 1262</bdi>",
        "SUPPORT_NAME_PORTUGAL": "Portugal",
        "SUPPORT_NUMBER_PORTUGAL": "<bdi>800 206 172</bdi>",
        "SUPPORT_NAME_PUERTO_RICO": "Puerto Rico (Molelwane wa US)",
        "SUPPORT_NUMBER_PUERTO_RICO": "<bdi>1 800 748 5669</bdi>",
        "SUPPORT_NAME_ROMANIA": "Romania",
        "SUPPORT_NUMBER_ROMANIA": "<bdi>0800 894492</bdi>",
        "SUPPORT_NAME_RUSSIA": "Russia",
        "SUPPORT_NUMBER_RUSSIA_1": "(Mogala wa Mahala - Wa Konokono) : <bdi>8 10 800 249 13011</bdi>",
        "SUPPORT_NUMBER_RUSSIA_2": "(Mo teng ga Moscow) : <bdi>363-2400</bdi> <br> go tswa foo <bdi>866 310 3707</bdi>",
        "SUPPORT_NUMBER_RUSSIA_3": "(Kwantle ga Moscow) : <bdi>8^(495) 363-2400</bdi> <br> go tswa foo <bdi>866 310 3707</bdi>",
        "SUPPORT_NUMBER_RUSSIA_4": "(Mo St. Petersburg) : <bdi>363-2400</bdi> <br> go tswa foo <bdi>866 310 3707</bdi>",
        "SUPPORT_NUMBER_RUSSIA_5": "(Kwa ntle ga St. Petersburg) : <bdi>8^(495) 363-2400</bdi> <br> go tswa foo <bdi>866 310 3707</bdi>",
        "SUPPORT_NAME_SAUDI_ARABIA": "Saudi Arabia",
        "SUPPORT_NUMBER_SAUDI_ARABIA": "<bdi>+1 617 681 6306</bdi>",
        "SUPPORT_NAME_SERBIA": "Serbia",
        "SUPPORT_NUMBER_SERBIA": "<bdi>+1 617 973 1739</bdi>",
        "SUPPORT_NAME_SINGAPORE": "Singapore",
        "SUPPORT_NUMBER_SINGAPORE": "<bdi>800 616 30 03</bdi>",
        "SUPPORT_NAME_SLOVAKIA": "Slovakia",
        "SUPPORT_NUMBER_SLOVAKIA": "<bdi>0800 0044 65</bdi>",
        "SUPPORT_NAME_SLOVENIA": "Slovenia",
        "SUPPORT_NUMBER_SLOVENIA": "<bdi>+1 617 681 6306</bdi>",
        "SUPPORT_NAME_SOUTH_AFRICA": "Aforika Borwa",
        "SUPPORT_NUMBER_SOUTH_AFRICA": "<bdi>0800 99 5853</bdi>",
        "SUPPORT_NAME_SOUTH_KOREA": "South Korea",
        "SUPPORT_NUMBER_SOUTH_KOREA": "<bdi>00308 33 00 08</bdi>",
        "SUPPORT_NAME_SPAIN": "Spain",
        "SUPPORT_NUMBER_SPAIN": "<bdi>900 90 2541</bdi>",
        "SUPPORT_NAME_SWEDEN": "Sweden",
        "SUPPORT_NUMBER_SWEDEN": "<bdi>020 120 99 69</bdi>",
        "SUPPORT_NAME_SWITZERLAND": "Switzerland",
        "SUPPORT_NUMBER_SWITZERLAND_1": "(English) : <bdi>0800 199 325</bdi>",
        "SUPPORT_NUMBER_SWITZERLAND_2": "(French) : <bdi>0800 891 183</bdi>",
        "SUPPORT_NUMBER_SWITZERLAND_3": "(German) : <bdi>0800 891 025</bdi>",
        "SUPPORT_NAME_TAIWAN": "Taiwan",
        "SUPPORT_NUMBER_TAIWAN": "<bdi>00801 33 33 42</bdi>",
        "SUPPORT_NAME_THAILAND": "Thailand",
        "SUPPORT_NUMBER_THAILAND": "<bdi>1 800 33 140 353</bdi>",
        "SUPPORT_NAME_TUNISIA": "Tunisia",
        "SUPPORT_NUMBER_TUNISIA": "<bdi>+1 617 681 6306</bdi>",
        "SUPPORT_NAME_TURKEY": "Turkey",
        "SUPPORT_NUMBER_TURKEY": "<bdi>00 800 151 1335</bdi>",
        "SUPPORT_NAME_UKRAINE": "Ukraine",
        "SUPPORT_NUMBER_UKRAINE": "<bdi>0^00 11</bdi>, go tswa foo <bdi>866 245 4931</bdi>",
        "SUPPORT_NAME_UAE": "United Arab Emirates",
        "SUPPORT_NUMBER_UAE": "<bdi>8000 -021</bdi>, go tswa foo <bdi>866 310 3707</bdi>",
        "SUPPORT_NAME_UK": "United Kingdom",
        "SUPPORT_NUMBER_UK": "<bdi>0800 015 0408</bdi>",
        "SUPPORT_NAME_US": "United States",
        "SUPPORT_NUMBER_US_1": "(Konokono) : <bdi>1 800 748 5669</bdi>",
        "SUPPORT_NUMBER_US_2": "(Bolokela tshedimosetso) : <bdi>1 877 748 5669</bdi>",
        "SUPPORT_NAME_VENEZUELA": "Venezuela",
        "SUPPORT_NUMBER_VENEZUELA_1": "(English) : <bdi>0 800 552 6288</bdi> <br> go tswa foo <bdi>866 310 3707</bdi> ",
        "SUPPORT_NUMBER_VENEZUELA_2": "(Spanish) : <bdi>0 800 100 3063</bdi> ",
        "USER_NAME": "Leina la Modirisi:",
        "SUBJECT_ROLE": "Khouto ya Molwetse: {{{ getParticipantCode }}}",
        "SITE_ROLE": "Modirisi wa Saete",
        "TEMPORARY_PASSWORD_MESSAGE": "Tsweetswee naya lefoko la go tsena la nakwana go modirisi yo mosha. Ba tla kopiwa go tlhama lefoko la go tsena le lentšhwa fa ba sena go tsena.",
        "SHARED_PASSWORD_MESSAGE": "Lefoko la go tsena le modirisi yo montšha le tshwanetse go tsewa mo Ditirong tsa Patlisiso.",
        "TEMP_PASSWORD": "Lefoko la go Tsena la Nakwana: ",
        "ROLES": "Seabe:",
        "LANGUAGE": "Puo:",
        "FULL_NAME": "Leina le le Tletseng:",
        "CONFIRM_TEMP_PASS": "Tlhomamisa Lefoko la go Tsena la Nakwana:",
        "PASSWORD_MISMATCH": "Tlhomamiso ya lefoko la go tsena ga e nyalane",
        "PASSWORD_INVALID_CHARACTERS": "Tsweetswee dirisa dinommoro fela.",
        "USER_NAME_INVALID_CHARACTERS": "Tsweetswee o seka wa dirisa ditlhaka tse di kgethegileng",
        "USER_NAME_MORE_THAN_25": "Tsweetswee dirisa ditlhaka di le 25 kgotsa kwa tlase",
        "PRIVACY_POLICY_TEXT_LABEL": "Kaga Poraefete: ",
        "PRIVACY_POLICY_TEXT": "ERT e tlamela software e o tlogang o e tsenya. ERT e dirisana le saete ya tekeletso ya kalafi go tlhomamisa gore ga go ope yo o tla itseng gore o mang kwantle ga tetla ya saete ya gago. O na le tshwanelo ya go bona direkoto tsa gago ka go rulaganya go di sekaseka mo saeteng ya gago.",
        "SUBJECT_REPORT_AFF": "Fano ke bolela fa ke dirile bojotlhe jwa me go araba dipotso tsotlhe.",
        "SUBJECT_INITIALS_LABEL": "Ditlhakaina tsa Molwetsi:",
        "SUBJECT": "Molwetsi",
        "SET_TIMEZONE": "Tlhoma Nako ya Kgaolo",
        "SET_TIMEZONE_MESSAGE": "Tlhopha Nako ya Kgaolo ya Gago:",
        "SET_TIMEZONE_BUTTON": "Tlhoma",
        "TIME_ZONE_CONFIRM_HEADER": "Tlhomamisa go Fetola Nako ya Kgaolo",
        "TIME_ZONE_CONFIRM": "A o tlhomamisegile gore o batla go fetola Nako ya Kgaolo? Kopo eno e tla simolola sesha go tsenya tirisong phetolo.",
        "TIME_ZONE_EUROPE_KALININGRAD": "Europe/Kaliningrad",
        "TIME_ZONE_EUROPE_MOSCOW": "Europe/Moscow",
        "TIME_ZONE_ASIA_KARACHI": "Asia/Karachi",
        "TIME_ZONE_ASIA_YEKATERINBURG": "Asia/Yekaterinburg",
        "TIME_ZONE_ASIA_NOVOSIBIRSK": "Asia/Novosibirsk",
        "TIME_ZONE_ASIA_KRASNOYARSK": "Asia/Krasnoyarsk",
        "TIME_ZONE_ASIA_IRKUTSK": "Asia/Irkutsk",
        "TIME_ZONE_ASIA_YAKUTSK": "Asia/Yakutsk",
        "TIME_ZONE_ASIA_VLADIVOSTOK": "Asia/Vladivostok",
        "TIME_ZONE_ASIA_KAMCHATKA": "Asia/Kamchatka",
        "AF-ZA": "Afrikaans",
        "SQ-AL": "Albanian",
        "AR-EG": "Arabic",
		"AS-IN": "Se-Assamese",
        "BE-BY": "Belarusian",
        "BG-BG": "Bulgarian",
        "BN-IN": "Bengali",
        "BS-BA": "Bosnian",
        "CA-ES": "Catalan",
		"CE-PH": "Se-Cebu",
        "CS-CZ": "Czech",
		"CY-GB": "Se-Wales",
        "DA-DK": "Danish",
        "DE-DE": "German (Germany)",
        "DE-AT": "German (Austria)",
		"DH-KE": "Se-Doluo",
        "EL-GR": "Greek",
        "EN-GB": "English (UK)",
        "EN-US": "English (US)",
        "ES-ES": "Spanish (Spain)",
        "ES-US": "Spanish (US)",
        "ES-PY": "Spanish (Lefatshe lotlhe)",
        "ET-EE": "Estonian",
        "FI-FI": "Finnish",
        "FR-CA": "French (Canada)",
        "FR-FR": "French (France)",
        "GD-IE": "Gaelic",
        "GU-IN": "Gujarati",
        "HE-IL": "Hebrew",
        "HI-IN": "Hindi",
        "HR-HR": "Croatian",
        "HU-HU": "Hungarian",
        "IT-IT": "Italian",
        "JA-JP": "Japanese",
        "KA-GE": "Georgian",
        "KN-IN": "Kannada",
        "KO-KR": "Korean",
		"LG-UG": "Se-Luganda",
        "LV-LV": "Latvian",
        "LT-LT": "Lithuanian",
		"MK-MK": "Semakedonai",
        "ML-IN": "Malayalam",
        "MR-IN": "Marathi",
        "MS-MY": "Malay",
        "NB-NO": "Norwegian",
        "NL-BE": "Dutch (Belgium)",
        "NL-NL": "Dutch (Netherlands)",
        "PA-IN": "Punjabi",
        "PL-PL": "Polish",
        "PT-BR": "Portuguese (Brazil)",
        "PT-PT": "Portuguese (Portugal)",
        "RO-RO": "Romanian",
        "RU-RU": "Russian",
        "SL-SL": "Slovenian",
        "SK-SK": "Slovak",
        "SR-RS": "Serbian (Latin)",
        "SR-SP": "Serbian (Cyrillic)",
        "ST-ZA": "Sesotho",
        "SV-SE": "Swedish",
		"SW-KE": "Seswahili",
        "TA-IN": "Tamil",
        "TE-IN": "Telugu",
        "TH-TH": "Thai",
        "TL-PH": "Tagalog",
        "TN-ZA": "Setswana",
        "TR-TR": "Turkish",
		"TW-GH": "Se-Twi",
        "UK-UA": "Ukrainian",
        "UR-IN": "Urdu",
        "VI-VN": "Vietnamese",
        "XH-ZA": "Sexhosa",
        "ZH-CN": "Chinese (China)",
        "ZH-TW": "Chinese (Taiwan)",
        "ZU-ZU": "Sezulu",
        "NO_RESULTS_FOUND": "Ga go a bonwa Dipholo.",
        "USER": "Modirisi",
        "SYNC": "Tsamaisana",
        "TIME_LBL": "Nako:",
        "SET_TIME": "Tlhoma Nako",
        "NEW_USER": "Tsenya Tayari ya Modirisi yo Mosha",
        "NEW_USER_CREATED": "Go tlhamilwe modirisi yo mosha.",
        "TIME_ZONE_SET_CONFIRM": "A o tlhomamisegile gore o batla go tlhoma Nako ya Kgaolo go: <bdi>{{{ selectedTimeZone }}}</bdi>? <br/> Kopo e ka simolola sesha go tsenya tirisong phetolo.",
        "TIME_ZONE_SET_CONFIRM_NOCHANGE": "A o tlhomamisegile gore o batla go tlhoma Nako ya Kgaolo go: <bdi>{{{ selectedTimeZone }}}</bdi>?",
        "TIME_ZONE_SET_HEADER": "Tlhomamisa go Tlhoma Nako ya Kgaolo",
        "TIME_ZONE_ERROR_HEADER": "Phoso ya Nako ya Kgaolo",
        "TIME_ZONE_ERROR_MSG": "Go nnile le phoso fa o batla lenaane le Nako ya Kgaolo. Tsweetswee ikgolaganye le Lefelo la go Thusa la ERT go bona thuso e e oketsegileng.",
        "TIME_ZONE_SET_ERROR_MSG": "Go nnile le phoso fa o tlhoma lenaane le Nako ya Kgaolo. Tsweetswee ikgolaganye le Lefelo la go Thusa la ERT go bona thuso e e oketsegileng.",
        "TIME_CONFIRMATION_INSTRUCTIONS": "Sedirisiwa se tlhoka go tlhomamisa nako ya lefelo la lona. Tsweetswee tsenya letlha la gago le nako go tswa mo motsweding o o ikanyegang.",
        "LOW_BATTERY": "Tlhagiso: Selekanyo sa beteri se kwa tlase. Tsweetswee polaka sedirisiwa go se tlatsa.",
        "CRITICAL_BATTERY": "Tlhagiso: Selekanyo sa beteri se kwa tlase fela thata. Tsweetswee polaka sedirisiwa go se tlatsa, kgotsa se tla tima.",
        "SITE_ADMINISTRATOR": "Motsamaisi wa Saete",
        "TIME_CONFIRMATION_HEADER": "Tlhomamisa Letlha/Nako",
        "TIMESLIP_ERROR": "Nako kgotsa letlha mo sedirisweng sa gago e fosagetse. Tsweetswee fudugela kwa lefelong le le nang le kgokagano ya inthanete mme o leke gape. Fa o tswelela o na le mathata, ikgolaganye le Lefelo la Thuso la ERT.",
        "RESTART_NOTIFICATION_HEADER": "Go tlhokega go simolola sesha",
        "RESTART_NOTIFICATION_MSG": "Nako ya kgaolo e fetotswe. Kopo e tla simolola sesha ka {{{ timeZoneChangeRestartCountdown }}}.",
        "RESTART_NOW": "Simolola sesha jaanong",
        "SECONDS": "metsotswana",
        "MINUTES": "metsotso",
        "SELECT_LANGUAGE": "Tsweetswee tlhopha puo e o e batlang mo kgannyeng eno.",
        "IMAGE_FOLDER": "{{{ imageFolder }}}",
        "MODAL_OK_TEXT": "GO SIAME",
        "BROWSER_LOAD_ERROR": "Tsebe ga e a bonwa. Tsweetswee leba kgolagano ya gago ya Inthanete mme o leke gape.",
        "CUSTOM_ENVIRONMENT_USAGE_ERROR": "Patlisiso e e tsentsweng e ka se dirisiwe mo sedirisiweng seno",
        "NONEXISTENT_USER": "Lekile go tlhabolola modirisi yo a seng gone.",
        "NO_USER_OF_ROLE": "Ga go modirisi wa seabe seo yo o bonweng.",
        "START_VISIT_OUTSIDE_WINDOW_MSG" : "Tsenya {{{ getVisitName }}} kwantle ga nako e e rulagantsweng: {{{ startDate }}} - {{{ endDate }}}",
        "START_VISIT_HARD_STOP_MSG" : "Ga o kgone go tsenya {{{ getVisitName }}} kwantle ga nako e e rulagantsweng: {{{ startDate }}} - {{{ endDate }}}",
        "YES" : "Ee",
        "NO" : "NNYAA",
        "NO_INTERNET_CONNECTION": "Ga go na kgolagano ya Inthanete"
    },
    "dates": {
        "setDateButtonLabel": "GO SIAME",
        "setTimeButtonLabel": "GO SIAME",
        "setDurationButtonLabel": "Tlhoma Lobaka",
        "calTodayButtonLabel": "Tlolela go Gompieno",
        "titleDateDialogLabel": "Tlhoma Letlha",
        "titleTimeDialogLabel": "Tlhoma Nako",
        "daysOfWeek": [
            "Sontaga",
            "Mantaga",
            "Labobedi",
            "Laboraro",
            "Labone",
            "Labotlhano",
            "Matlhatso"
        ],
        "daysOfWeekShort": [
            "So",
            "Ma",
            "Labob",
            "Labor",
            "Labon",
            "Labotl",
            "Matlh"
        ],
        "monthsOfYear": [
            "Firikgong",
            "Tlhakole",
            "Mopitlwe",
            "Moranang",
            "Mots",
            "Seetebosigo",
            "Phukwi",
            "Phatwe",
            "Lwetse",
            "Diphalane",
            "Ngwanatsele",
            "Sedimonthole"
        ],
        "monthsOfYearShort": [
            "Fir",
            "Tlh",
            "Mop",
            "Mor",
            "Mots",
            "See",
            "Phu",
            "Pha",
            "Lwe",
            "Dip",
            "Ngw",
            "Sed"
        ],
        "durationLabel": [
            "Malatsi",
            "Diura",
            "Metsotso",
            "Metsotswana"
        ],
        "durationDays": [
            "Letsatsi",
            "Malatsi"
        ],
        "tooltip": "Bula Sekgetha Letlha",
        "nextMonth": "Kgweding e e Latelang",
        "prevMonth": "Kgwedi e e Fetileng",
        "clearButton": "Phimola",
        "meridiem": [
            "AM",
            "PM"
        ]
    }
}
