{
    "namespace": "CORE",
    "language": "bg",
    "locale": "BG",
    "localized": "Български език (България)",
    "direction": "ltr",
    "resources": {
        "ABOUT": "Относно",
        "ACTIVATED_ELSEWHERE": "Активирано е различно устройство за събиране на Вашите данни за проучването. Моля, свържете се с Вашия координатор на проучването, ако смятате че това е направено по погрешка.",
        "ACTIVATION_CODE": "Код за настройка:",
        "AFFIDAVIT": "Когато сте готови да запазите отговорите си, изберете OK и след това Напред.",
        "AFFIDAVIT_HELP": "Благодарим Ви. Дали сте всички искани отговори. Можете да проверите и да промените отговорите си, като изберете Назад.",
        "ANSWER_ATTEMPT_EXCEEDED": "Твърде много пъти сте въвели неправилен отговор или сте щракнали върху връзката за забравен отговор на въпроса за защита.",
        "APPLICATION_HEADER": "{{{ appHeader }}}",
        "BACK": "Назад",
        "BACK_OUT_CONFIRM": "Наистина ли искате да излезете? Отговорите за тази анкета ще бъдат загубени.",
        "CANCEL": "Отказ",
        "CANCEL_UPDATE": "Отказ на актуализацията",
        "CHANGE_PASSWORD": "Промяна на паролата",
        "CHANGE_SECRET_QUESTION": "Промяна на въпроса за защита",
        "CODE_ENTRY_NO_SERVER": "Сървърът е недостъпен",
        "CONNECTION_REQUIRED": "Необходима е интернет връзка.",
        "CONNECTION_TIMEOUT": "Времето за изчакване на свързване изтече.",
        "CONFIRM_PASSWORD": "Потвърждаване на паролата:",
        "CONTACT_STUDY_COORDINATOR": "Свързване с координатора на проучването",
        "CONTACT_UNLOCK_CODE": "Моля, свържете се с Вашия координатор на проучването за кода за отключване за днес:",
        "CORE_PRODUCT_VERSION_LABEL": "Версия на продукта:",
        "CURRENT_DATE": "{{{ currentDate }}}",
        "CURRENT_PASSWORD": "Настояща парола:",
        "DATE_LBL": "Дата:",
        "DEACTIVATED_LABEL": "Вашето използване на ERT за това проучване приключи. Моля, свържете се с Вашия координатор на проучването, ако това не е вярно.",
        "DEVICE_ACTIVATION": "Настройка",
        "DEVICE_NOT_SUPPORTED": "Това устройство не се поддържа. Моля, свържете се с Вашия координатор на проучването за информация относно одобрените за използване в това проучване устройства.",
        "DEVICE_REACTIVATION": "Настройка на устройството",
        "DIARY_TIMEOUT": "Времето за свързване с тази анкета изтече.",
        "DOWNLOAD_FAILED": "Изтеглянето на приложението е прекъснато. Моля, опитайте отново, когато имате интернет връзка, или се свържете с центъра за поддръжка на ERT.",
        "DOWNLOAD_FAILURE": "Изтеглянето е прекъснато",
        "ENTER_NEW_PASSWORD": "Нова парола:",
        "ERROR": "Грешка.  Моля, свържете се с центъра за поддръжка на ERT.",
        "ERROR_AFTER_ACTIVATION_SUCCESSFUL": "Възникна грешка. Ще трябва да въведете Вашите код за настройка и парола.",
        "ERROR_CODE": "Код на грешка:",
        "ERROR_TITLE": "Грешка",
        "FORGOT_PASSWORD": "Забравена парола?",
        "FORGOT_SECRET_ANSWER": "Забравен отговор на въпроса за защита?",
        "INCORRECT_ANSWER": "Грешен отговор",
        "INCORRECT_UNLOCK_CODE": "Грешен код за отключване",
        "INSTALLING": "Инсталиране на приложението",
        "INVALID_CODE": "Невалиден код за настройка",
        "LOCAL_STORAGE_FAILURE": "Неуспешно локално запаметяване",
        "LOG_IN": "Регистриране",
        "LOG_LEVEL": "Ниво на регистриране:",
        "LOGOUT": "Излизане",
        "LOGOUT_CONFIRM": "Наистина ли искате да излезете?",
        "NEXT": "Напред",
        "NEXT_ACTION": " Време е за следващото Ви действие в ERT ",
        "NO_DIARIES_TITLE": "Няма отчети за влизане",
        "OK": "OK",
        "PASSWORD": "Парола:",
        "PASSWORD_ATTEMPT_EXCEEDED": "Твърде много пъти сте въвели неправилна парола или сте щракнали върху връзката за забравена парола.",
        "PASSWORD_CHANGE_FAILED": "Активирано е различно устройство за събиране на Вашите данни за проучването. Моля, променете паролата си на това устройство.",
        "PASSWORD_CHANGE_SUCCESS": "Успешно актуализирахте паролата си.",
        "PASSWORD_INVALID": "Грешна парола",
        "PLEASE_ANSWER_SQ": "Моля, отговорете на Вашия въпрос за защита:",
        "PLEASE_CONFIRM": "Моля, потвърдете",
        "PLEASE_CONTACT": "Моля, свържете се с центъра за поддръжка на ERT.",
        "PLEASE_TRY_OR_CONTACT_SUPPORT": "Моля, опитайте отново или се свържете с центъра за поддръжка на ERT.",
        "PLEASE_WAIT": "Моля, изчакайте...",
        "PORTRAIT_ONLY": "Моля, дръжте устройството си изправено.",
        "PRIVATE_BROWSING_ON": "Моля, изключете личното преглеждане. Ако все още имате проблеми, моля, свържете се с Вашия координатор на проучването.",
        "PRIVACY_POLICY": "Политика за поверителност",
        "PRIVACY_POLICY_APPLICATION_UNAVAILABILITY": "Политиката за поверителност на ERT временно е недостъпна.",
        "PRIVACY_POLICY_ACTIVATION_UNAVAILABILITY": "Политиката за поверителност на ERT временно е недостъпна. Политиката за поверителност на ERT е достъпна от страницата за настройки след активиране.",
        "PROTOCOL": "Протокол:",
        "REQUIRED_ANSWER": "Моля, отговорете",
        "RETRY": "Опитайте отново",
        "RESET_PASSWORD": "Възстановяване на паролата",
        "RESET_SECRET_QUESTION": "Възстановяване на въпроса за защита",
        "SECRET_ANSWER": "Отговор на въпроса за защита:",
        "SECRET_QUESTION": "Въпрос за защита:",
        "SECRET_QUESTION_CHANGE_FAILED": "Активирано е различно устройство за събиране на Вашите данни за проучването. Моля, променете въпроса си за защита на това устройство.",
        "SECRET_QUESTION_CHANGE_SUCCESS": "Успешно актуализирахте Вашите парола и въпрос за защита.",
        "SETTINGS": "Настройки",
        "SITE": "Обект:",
        "SKIP_QUESTION": "Наистина ли искате да пропуснете отговорите на този екран?",
        "SPONSOR": "Възложител:",
        "STORED_REPORTS": "Запазени анкети:",
        "STUDY_VERSION": "Версия на проучването: ",
        "STUDY_URL": "URL на проучването:",
        "SUBJECT_ID": "Код на пациента:",
        "TEMPORARY_UNLOCK_CODE": "Въведете кода за отключване, даден от координатора на проучването.",
        "TRANSMIT_REPORTS": "Актуализация",
        "UPDATE_CACHED_DELETED": "Актуализацията на ERT не е завършена. За да използвате ERT, ще Ви трябва интернет връзка. Моля, свържете се с Вашия център за поддръжка на ERT.",
        "UPDATE_FAILED": "Актуализацията на ERT не е завършена. Моля, уверете се, че устройството е свързано към интернет и опитайте отново.",
        "UPDATE_FAILURE": "Актуализацията не е завършена",
        "UPDATE_SUCCESS": "Актуализацията е успешна",
        "WELCOME": "Добре дошли",
        "ALARM_OFF_LBL": "Изключено",
        "ALARM_TURN_OFF": "Изключване",
        "SET_ALARMS": "Настройка на алармите",
        "SCHED_NO_DIARIES_AVAILABLE": "Към момента няма дължими отчети",
        "TRAINER": "Режим „Обучител”",
        "TRAINER_EXIT": "Изход от режим „Обучител”",
        "TRAINER_EXIT_NOTIFICATION": "Излизате от режима „Обучител”",
        "TRAINER_HEADER": "(„Обучител”)",
        "ELPU_FAILURE": "Вашето използване на това устройство ERT приключи, но е възникнала грешка. Моля, опитайте отново.",
        "ELPU_ON_REPLACED_DEVICE": "Вашето използване на това устройство ERT приключи. Моля, използвайте Вашето заместващо устройство.",
        "SECURITY_QUESTION_0": "Кое е моминското име на майка Ви?",
        "SECURITY_QUESTION_1": "В кое населено място сте роден/а?",
        "SECURITY_QUESTION_2": "Как се казваше първият Ви домашен любимец?",
        "SECURITY_QUESTION_3": "Кой е любимият Ви спорт?",
        "SECURITY_QUESTION_4": "През коя година се дипломирахте?",
        "SECURITY_QUESTION_5": "Как е малкото име на най-голямото Ви дете?",
        "SECURITY_QUESTION_6": "Как е името на най-добрия Ви приятел от детството?",
        "SECURITY_QUESTION_7": "Каква беше фамилията на класния Ви ръководител в гимназията?",
        "SECURITY_QUESTION_8": "В кой град или село започнахте първата си работа?",
        "SELECT_SITE_USER": "Избор на име на потребител на обекта",
        "SITE_USER_NAME": "Име на потребител на обекта:",
        "ADD_SITE_USER": "Добавяне на потребител на обекта",
        "INVALID_ENTRY": "Невалидно въвеждане",
        "HANDOFF_MESSAGE": "<strong>Пациентът трябва да попълни следващия набор от екрани, за да настрои своя код за достъп до анкетата.</strong>",
        "REVERSE_HANDOFF_CONFIRM": "Ако изберете ОК, процесът на активиране ще се рестартира. Наистина ли искате да рестартирате активирането?",
        "SITE_GATEWAY_TITLE": "Вход за обекта",
        "USER_ALREADY_EXISTS": "Потребителят вече съществува",
        "SITE_SIGNATURE": "Подпис на: ",
        "SITE_REPORT_AFF": "Въведох, проверих и с настоящото потвърждавам горните данни.<br /><br /><strong>Подпис на:</strong> {{{ getActiveUserName }}}",
        "PATIENT_REPORT_AFF": "Въведох, проверих и с настоящото потвърждавам горните данни.<br /><br /><strong>Инициали на:</strong> {{{ getActiveUserName }}}",
        "CLEAR_SIGNATURE": "Изчистване на подписа",
        "STUDY_ALIAS": "{{{ studyAlias }}}",
        "SITE_ACTIVATED_ELSEWHERE": "Активирано е различно устройство за събиране на данните за проучването на пациента. Моля, свържете се с координатора на проучването, ако смятате че това е направено по погрешка.",
        "SITE_DEACTIVATED_LABEL": "Използването на ERT от пациента за това проучване приключи. Моля, свържете се с координатора на проучването, ако това не е вярно.",
        "SIGNATURE_DATA_LIMIT_EXCEEDED": "Подписът Ви не може да се представи в полето за подписване точно както се изписва. Вместо това, моля, подпишете с Вашите инициали.",
        "PAIRED": "Сдвоено",
        "BLUETOOTH_REG_TITLE": "Сдвояване на устройството eSense",
        "BLUETOOTH_REG_REFRESH_BUTTON": "Обновяване на списъка",
        "BLUETOOTH_PAIR_DEVICE": "Сдвояване на избраното устройство",
        "BLUETOOTH_PAIRING_FAILED": "Неуспешно сдвояване с избраното устройство. Моля, опитайте отново.",
        "BLUETOOTH_PAIRING_SUCCESS": "Успешно сдвояване с избраното устройство.",
        "BLUETOOTH_REG_NO_DEVICES_FOUND": "Не са намерени устройства. Моля, уверете се, че устройството е в близост до ERT и е в режим на предаване.",
        "SYNC_FAILED": "Неуспешна синхронизация със сървъра.",
        "DIARY_REQUIRES_E_SENSE_SUPPORT": "eSense не се поддържа. Тази анкета изисква поддържане на eSense.",
        "ERROR_E_SENSE_ENABLE": "eSense не може да бъде активирано.",
        "E_SENSE_NOT_PAIRED": "Няма сдвоено eSense устройство. Тази анкета изисква сдвоено eSense устройство.",
        "BLUETOOTH_SYNC_FAILURE_TOP": "ERT не може да комуникира с устройството {{{ eSenseDeviceName }}}.",
        "BLUETOOTH_SYNC_FAILURE_MIDDLE": "Моля, уверете се, че устройството {{{ eSenseDeviceName }}} с номер {{{ eSenseSerialNumber }}} е в близост до ERT и е в режим на предаване.",
        "PLUGIN_MISSING": "Не може да зареди исканата допълнителна програма.",
        "WRAPPER_VERSION": "Версия на Wrapper:",
        "SUPPORT": "Поддръжка за клиенти",
        "SUPPORT_MESSAGE": "Потребителите в Съединените американски щати могат да се свържат с центъра за поддръжка на ERT на тел. 800-748-5669. За международни потребители, моля, изберете най-близката държава от изброените по-долу:",
        "SUPPORT_DROPDOWN": "Изберете Вашата държава",
        "SUPPORT_NAME_ARGENTINA": "Аржентина",
        "SUPPORT_NUMBER_ARGENTINA": "<bdi>0800 444 0962</bdi>",
        "SUPPORT_NAME_ARMENIA": "Армения",
        "SUPPORT_NUMBER_ARMENIA": "<bdi>+1 617 681 6306</bdi>",
        "SUPPORT_NAME_AUSTRALIA": "Австралия",
        "SUPPORT_NUMBER_AUSTRALIA": "<bdi>1 800 800 051</bdi>",
        "SUPPORT_NAME_AUSTRIA": "Австрия",
        "SUPPORT_NUMBER_AUSTRIA": "<bdi>0800 100 405</bdi>",
        "SUPPORT_NAME_BELARUS": "Беларус",
        "SUPPORT_NUMBER_BELARUS": "<bdi>8 820 0321 0036</bdi>",
        "SUPPORT_NAME_BELGIUM": "Белгия",
        "SUPPORT_NUMBER_BELGIUM_1": "(Английски език): <bdi>0800 58 016</bdi>",
        "SUPPORT_NUMBER_BELGIUM_2": "(Френски език) : <bdi>0800 71 076</bdi>",
        "SUPPORT_NUMBER_BELGIUM_3": "(Немски език) : <bdi>0800 71 113</bdi>",
        "SUPPORT_NAME_BRAZIL": "Бразилия",
        "SUPPORT_NUMBER_BRAZIL": "<bdi>0800 891 5909</bdi>",
        "SUPPORT_NAME_BOSNIA": "Босна",
        "SUPPORT_NUMBER_BOSNIA": "<bdi>+1 617 681 6306</bdi>",
        "SUPPORT_NAME_BULGARIA": "България",
        "SUPPORT_NUMBER_BULGARIA": "<bdi>00800 0010</bdi>, след което <bdi>866 245 4931</bdi>",
        "SUPPORT_NAME_CANADA": "Канада",
        "SUPPORT_NUMBER_CANADA": "<bdi>1 800 748 5669</bdi>",
        "SUPPORT_NAME_CHILE": "Чили",
        "SUPPORT_NUMBER_CHILE": "<bdi>123 0020 3408</bdi>",
        "SUPPORT_NAME_CHINA": "Китай",
        "SUPPORT_NUMBER_CHINA_1": "NetCom (север) : <bdi>1 0800 74 40 164</bdi>",
        "SUPPORT_NUMBER_CHINA_2": "Telecom (юг) : <bdi>1 0800 44 00 158</bdi>",
        "SUPPORT_NAME_COLOMBIA": "Колумбия",
        "SUPPORT_NUMBER_COLOMBIA": "<bdi>01 800 911 0010</bdi>, след което <bdi>866 310 3707</bdi>",
        "SUPPORT_NAME_COSTA_RICA": "Коста Рика",
        "SUPPORT_NUMBER_COSTA_RICA": "<bdi>0800 013 1210</bdi>",
        "SUPPORT_NAME_CROATIA": "Хърватия",
        "SUPPORT_NUMBER_CROATIA": "<bdi>0800 222 953</bdi>",
        "SUPPORT_NAME_CZECH_REPUBLIC": "Чешка република",
        "SUPPORT_NUMBER_CZECH_REPUBLIC": "<bdi>800 142 150</bdi>",
        "SUPPORT_NAME_DENMARK": "Дания",
        "SUPPORT_NUMBER_DENMARK": "<bdi>80 60 00 09</bdi>",
        "SUPPORT_NAME_EGYPT": "Египет",
        "SUPPORT_NUMBER_EGYPT": "<bdi>02 510 0200</bdi>, след което <bdi>866 310 3707</bdi>",
        "SUPPORT_NAME_EL_SALVADOR": "Ел Салвадор",
        "SUPPORT_NUMBER_EL_SALVADOR": "<bdi>+1 617 681 6306</bdi>",
        "SUPPORT_NAME_ESTONIA": "Естония",
        "SUPPORT_NUMBER_ESTONIA": "<bdi>800 00 44 154</bdi>",
        "SUPPORT_NAME_FINLAND": "Финландия",
        "SUPPORT_NUMBER_FINLAND": "<bdi>0800 11 6366</bdi>",
        "SUPPORT_NAME_FRANCE": "Франция",
        "SUPPORT_NUMBER_FRANCE": "<bdi>0800 10 19 79</bdi>",
        "SUPPORT_NAME_GERMANY": "Германия",
        "SUPPORT_NUMBER_GERMANY": "<bdi>0800 101 28 21</bdi>",
        "SUPPORT_NAME_GREECE": "Гърция",
        "SUPPORT_NUMBER_GREECE": "<bdi>00 800 1311</bdi>, след което <bdi>866 310 3707</bdi>",
        "SUPPORT_NAME_GUATEMALA": "Гватемала",
        "SUPPORT_NUMBER_GUATEMALA": "<bdi>1 800 624 0079</bdi>",
        "SUPPORT_NAME_HONG_KONG": "Хонконг",
        "SUPPORT_NUMBER_HONG_KONG": "<bdi>3002 1665</bdi>",
        "SUPPORT_NAME_HUNGARY": "Унгария",
        "SUPPORT_NUMBER_HUNGARY": "<bdi>06 800 14 571</bdi>",
        "SUPPORT_NAME_ICELAND": "Исландия",
        "SUPPORT_NUMBER_ICELAND": "<bdi>800 8544</bdi>",
        "SUPPORT_NAME_INDIA": "Индия",
        "SUPPORT_NUMBER_INDIA": "<bdi>000 800 440 1125</bdi>",
        "SUPPORT_NAME_INDONESIA": "Индонезия",
        "SUPPORT_NUMBER_INDONESIA": "<bdi>008 800 330 334</bdi>",
        "SUPPORT_NAME_IRELAND": "Ирландия",
        "SUPPORT_NUMBER_IRELAND": "<bdi>1 800 946 700</bdi>",
        "SUPPORT_NAME_ISRAEL": "Израел",
        "SUPPORT_NUMBER_ISRAEL": "<bdi>1 809 470 062</bdi>",
        "SUPPORT_NAME_ITALY": "Италия",
        "SUPPORT_NUMBER_ITALY": "<bdi>800 90 56 37</bdi>",
        "SUPPORT_NAME_JAPAN": "Япония",
        "SUPPORT_NUMBER_JAPAN": "Моля, направете справка с Вашето ръководство с информация за проучването ePRO, за да откриете безплатния номер за Вашето проучване",
        "SUPPORT_NAME_LATVIA": "Латвия",
        "SUPPORT_NUMBER_LATVIA": "<bdi>8000 2151</bdi>",
        "SUPPORT_NAME_LEBANON": "Ливан",
        "SUPPORT_NUMBER_LEBANON": "<bdi>01-426-801</bdi> след което <bdi>866 310 3707</bdi>",
        "SUPPORT_NAME_LITHUANIA": "Литва",
        "SUPPORT_NUMBER_LITHUANIA": "<bdi>8800 30207</bdi>",
        "SUPPORT_NAME_MALAYSIA": "Малайзия",
        "SUPPORT_NUMBER_MALAYSIA": "<bdi>1800 80 59 71</bdi>",
        "SUPPORT_NAME_MEXICO": "Мексико",
        "SUPPORT_NUMBER_MEXICO_1": "(Английски език) : <bdi>001 800 748 5669</bdi> ",
        "SUPPORT_NUMBER_MEXICO_2": "(Испански език) : <bdi>001 855 631 6952</bdi>",
        "SUPPORT_NAME_MOLDOVA": "Молдова",
        "SUPPORT_NUMBER_MOLDOVA": "<bdi>617 681 6306</bdi>",
        "SUPPORT_NAME_NETHERLANDS": "Нидерландия",
        "SUPPORT_NUMBER_NETHERLANDS": "<bdi>0800 023 1389</bdi>",
        "SUPPORT_NAME_NEW_ZEALAND": "Нова Зеландия",
        "SUPPORT_NUMBER_NEW_ZEALAND": "<bdi>0800 110 178</bdi>",
        "SUPPORT_NAME_NORWAY": "Норвегия",
        "SUPPORT_NUMBER_NORWAY": "<bdi>800 62 051</bdi>",
        "SUPPORT_NAME_PAKISTAN": "Пакистан",
        "SUPPORT_NUMBER_PAKISTAN": "<bdi>00 800 0100</bdi>, след което <bdi>866 237 9767</bdi>",
        "SUPPORT_NAME_PANAMA": "Панама",
        "SUPPORT_NUMBER_PANAMA": "<bdi>001 800 201 3095</bdi>",
        "SUPPORT_NAME_PERU": "Перу",
        "SUPPORT_NUMBER_PERU": "<bdi>0800 5 0974</bdi>",
        "SUPPORT_NAME_PHILIPPINES": "Филипини",
        "SUPPORT_NUMBER_PHILIPPINES": "<bdi>1 800 1116 0651</bdi>",
        "SUPPORT_NAME_POLAND": "Полша",
        "SUPPORT_NUMBER_POLAND": "<bdi>00800 331 1262</bdi>",
        "SUPPORT_NAME_PORTUGAL": "Португалия",
        "SUPPORT_NUMBER_PORTUGAL": "<bdi>800 206 172</bdi>",
        "SUPPORT_NAME_PUERTO_RICO": "Пуерто Рико (американска територия)",
        "SUPPORT_NUMBER_PUERTO_RICO": "<bdi>1 800 748 5669</bdi>",
        "SUPPORT_NAME_ROMANIA": "Румъния",
        "SUPPORT_NUMBER_ROMANIA": "<bdi>0800 894492</bdi>",
        "SUPPORT_NAME_RUSSIA": "Русия",
        "SUPPORT_NUMBER_RUSSIA_1": "(Основен - безплатен) : <bdi>8 10 800 249 13011</bdi>",
        "SUPPORT_NUMBER_RUSSIA_2": "(В рамките на Москва) : <bdi>363-2400</bdi> <br> , след което <bdi>866 310 3707</bdi>",
        "SUPPORT_NUMBER_RUSSIA_3": "(Извън Москва) : <bdi>8^(495) 363-2400</bdi> <br> , след което <bdi>866 310 3707</bdi>",
        "SUPPORT_NUMBER_RUSSIA_4": "(В рамките на Санкт Петербург) : <bdi>363-2400</bdi> <br> , след което <bdi>866 310 3707</bdi>",
        "SUPPORT_NUMBER_RUSSIA_5": "(Извън Санкт Петербург) : <bdi>8^(495) 363-2400</bdi> <br> , след което <bdi>866 310 3707</bdi>",
        "SUPPORT_NAME_SAUDI_ARABIA": "Саудитска Арабия",
        "SUPPORT_NUMBER_SAUDI_ARABIA": "<bdi>+1 617 681 6306</bdi>",
        "SUPPORT_NAME_SERBIA": "Сърбия",
        "SUPPORT_NUMBER_SERBIA": "<bdi>+1 617 973 1739</bdi>",
        "SUPPORT_NAME_SINGAPORE": "Сингапур",
        "SUPPORT_NUMBER_SINGAPORE": "<bdi>800 616 30 03</bdi>",
        "SUPPORT_NAME_SLOVAKIA": "Словакия",
        "SUPPORT_NUMBER_SLOVAKIA": "<bdi>0800 0044 65</bdi>",
        "SUPPORT_NAME_SLOVENIA": "Словения",
        "SUPPORT_NUMBER_SLOVENIA": "<bdi>+1 617 681 6306</bdi>",
        "SUPPORT_NAME_SOUTH_AFRICA": "Южна Африка",
        "SUPPORT_NUMBER_SOUTH_AFRICA": "<bdi>0800 99 5853</bdi>",
        "SUPPORT_NAME_SOUTH_KOREA": "Южна Корея",
        "SUPPORT_NUMBER_SOUTH_KOREA": "<bdi>00308 33 00 08</bdi>",
        "SUPPORT_NAME_SPAIN": "Испания",
        "SUPPORT_NUMBER_SPAIN": "<bdi>900 90 2541</bdi>",
        "SUPPORT_NAME_SWEDEN": "Швеция",
        "SUPPORT_NUMBER_SWEDEN": "<bdi>020 120 99 69</bdi>",
        "SUPPORT_NAME_SWITZERLAND": "Швейцария",
        "SUPPORT_NUMBER_SWITZERLAND_1": "(Английски език) : <bdi>0800 199 325</bdi>",
        "SUPPORT_NUMBER_SWITZERLAND_2": "(Френски език) : <bdi>0800 891 183</bdi>",
        "SUPPORT_NUMBER_SWITZERLAND_3": "(Немски език) : <bdi>0800 891 025</bdi>",
        "SUPPORT_NAME_TAIWAN": "Тайван",
        "SUPPORT_NUMBER_TAIWAN": "<bdi>00801 33 33 42</bdi>",
        "SUPPORT_NAME_THAILAND": "Тайланд",
        "SUPPORT_NUMBER_THAILAND": "<bdi>1 800 33 140 353</bdi>",
        "SUPPORT_NAME_TUNISIA": "Тунис",
        "SUPPORT_NUMBER_TUNISIA": "<bdi>+1 617 681 6306</bdi>",
        "SUPPORT_NAME_TURKEY": "Турция",
        "SUPPORT_NUMBER_TURKEY": "<bdi>00 800 151 1335</bdi>",
        "SUPPORT_NAME_UKRAINE": "Украйна",
        "SUPPORT_NUMBER_UKRAINE": "<bdi>0^00 11</bdi>, след което <bdi>866 245 4931</bdi>",
        "SUPPORT_NAME_UAE": "Обединени арабски емирства",
        "SUPPORT_NUMBER_UAE": "<bdi>8000-021</bdi>, след което <bdi>866 310 3707</bdi>",
        "SUPPORT_NAME_UK": "Обединено кралство",
        "SUPPORT_NUMBER_UK": "<bdi>0800 015 0408</bdi>",
        "SUPPORT_NAME_US": "Съединени американски щати",
        "SUPPORT_NUMBER_US_1": "(Главен) : <bdi>1 800 748 5669</bdi>",
        "SUPPORT_NUMBER_US_2": "(Като резервен вариант) : <bdi>1 877 748 5669</bdi>",
        "SUPPORT_NAME_VENEZUELA": "Венецуела",
        "SUPPORT_NUMBER_VENEZUELA_1": "(Английски език) : <bdi>0 800 552 6288</bdi> <br> , след което <bdi>866 310 3707</bdi> ",
        "SUPPORT_NUMBER_VENEZUELA_2": "(Испански език) : <bdi>0 800 100 3063</bdi> ",
        "USER_NAME": "Потребителско име:",
        "SUBJECT_ROLE": "Код на пациента: {{{ getParticipantCode }}}",
        "SITE_ROLE": "Потребител на обекта",
        "TEMPORARY_PASSWORD_MESSAGE": "Моля, дайте временната парола на новия потребител. След като се регистрира, той/тя ще бъде помолен(а) да създаде нова парола.",
        "SHARED_PASSWORD_MESSAGE": "Паролата за новия потребител трябва да се извлече от StudyWorks.",
        "TEMP_PASSWORD": "Временна парола: ",
        "ROLES": "Роля:",
        "LANGUAGE": "Език:",
        "FULL_NAME": "Пълно име:",
        "CONFIRM_TEMP_PASS": "Потвърждаване на временната парола:",
        "PASSWORD_MISMATCH": "Потвърждението на паролата не съвпада с паролата",
        "PASSWORD_INVALID_CHARACTERS": "Моля, използвайте само числа",
        "USER_NAME_INVALID_CHARACTERS": "Моля, не използвайте специални знаци",
        "USER_NAME_MORE_THAN_25": "Моля, използвайте 25 или по-малко знака",
        "PRIVACY_POLICY_VERSION_LABEL": "Версия: ",
        "PRIVACY_POLICY_VERSION": "1.6.0",
        "PRIVACY_POLICY_LAST_UPDATED_LABEL": "Последна актуализация: ",
        "PRIVACY_POLICY_LAST_UPDATED": "21 яну. 2014 г.",
        "PRIVACY_POLICY_TEXT_LABEL": "За поверителността: ",
        "PRIVACY_POLICY_TEXT": "Софтуерът, който предстои да инсталирате, се предоставя от компанията ERT. ERT работи с обекта, който осъществява Вашето клинично проучване, за да гарантира, че никой няма да разбере самоличността Ви без разрешението на Вашия обект. Имате право да видите Вашите записи, като уговорите да ги прегледате чрез Вашия обект.",
        "SUBJECT_REPORT_AFF": "С настоящото потвърждавам, че отговорих на всички въпроси по най-добрия начин, на който съм способен(на).",
        "SUBJECT_INITIALS_LABEL": "Инициали на пациента:",
        "SUBJECT": "Пациент",
        "SET_TIMEZONE": "Задаване на часова зона",
        "SET_TIMEZONE_MESSAGE": "Изберете Вашата часова зона",
        "SET_TIMEZONE_BUTTON": "Задаване",
        "TIME_ZONE_CONFIRM_HEADER": "Потвърждение на промяната на часовата зона",
        "TIME_ZONE_CONFIRM": "Наистина ли искате да промените часовата зона? Приложението ще се рестартира, за да се приложи промяната.",
        "TIME_ZONE_EUROPE_KALININGRAD": "Европа/Калининград",
        "TIME_ZONE_EUROPE_MOSCOW": "Европа/ Москва",
        "TIME_ZONE_ASIA_KARACHI": "Азия/Карачи",
        "TIME_ZONE_ASIA_YEKATERINBURG": "Азия/Екатеринбург",
        "TIME_ZONE_ASIA_NOVOSIBIRSK": "Азия/Новосибирск",
        "TIME_ZONE_ASIA_KRASNOYARSK": "Азия/Красноярск",
        "TIME_ZONE_ASIA_IRKUTSK": "Азия/Иркутск",
        "TIME_ZONE_ASIA_YAKUTSK": "Азия/Якутск",
        "TIME_ZONE_ASIA_VLADIVOSTOK": "Азия/Владивосток",
        "TIME_ZONE_ASIA_KAMCHATKA": "Азия/Камчатка",
        "AF-ZA": "Африкаанс",
        "AR-EG": "Арабски език",
        "BE-BY": "Беларуски език",
        "BG-BG": "Български език",
        "BN-IN": "Бенгалски език",
        "BS-BA": "Босненски език",
        "CA-ES": "Каталански език",
        "CS-CZ": "Чешки език",
        "DA-DK": "Датски език",
        "DE-DE": "Немски език (Германия)",
        "DE-AT": "Немски език (Австрия)",
        "EL-GR": "Гръцки език",
        "EN-GB": "Английски език (Обединено кралство)",
        "EN-US": "Английски език (САЩ)",
        "ES-ES": "Испански език (Испания)",
        "ES-US": "Испански език (САЩ)",
        "ES-PY": "Испански език (универсален)",
        "ET-EE": "Естонски език",
        "FI-FI": "Финландски език",
        "FR-CA": "Френски език (Канада)",
        "FR-FR": "Френски език (Франция)",
        "GD-IE": "Галски език",
        "GU-IN": "Гуджарати",
        "HE-IL": "Иврит",
        "HI-IN": "Хинди",
        "HR-HR": "Хърватски език",
        "HU-HU": "Унгарски език",
        "IT-IT": "Италиански език",
        "JA-JP": "Японски език",
        "KA-GE": "Грузински език",
        "KN-IN": "Каннада",
        "KO-KR": "Корейски език",
        "LV-LV": "Латвийски език",
        "LT-LT": "Литовски език",
        "ML-IN": "Малаялам",
        "MR-IN": "Марати",
        "MS-MY": "Малайски език",
        "NB-NO": "Норвежки език",
        "NL-BE": "Холандски език (Белгия)",
        "NL-NL": "Холандски език (Нидерландия)",
        "PA-IN": "Панджабски език",
        "PL-PL": "Полски език",
        "PT-BR": "Португалски език",
        "PT-PT": "Португалски език (Португалия)",
        "RO-RO": "Румънски език",
        "RU-RU": "Руски език",
        "SL-SL": "Словенски език",
        "SK-SK": "Словашки език",
        "SR-RS": "Сръбски език (латиница)",
        "SR-SP": "Сръбски език (кирилица)",
        "ST-ZA": "Сото",
        "SV-SE": "Шведски език",
        "TA-IN": "Тамилски език",
        "TE-IN": "Телугу",
        "TH-TH": "Тайски език",
        "TL-PH": "Тагалски език",
        "TN-ZA": "Тсвана",
        "TR-TR": "Турски език",
        "UK-UA": "Украински език",
        "UR-IN": "Урду",
        "VI-VN": "Виетнамски език",
        "XH-ZA": "Коса",
        "ZH-CN": "Китайски език (Китай)",
        "ZH-TW": "Китайски език (Тайван)",
        "ZU-ZU": "Зулу",
        "NO_RESULTS_FOUND": "Няма намерени резултати.",
        "USER": "Потребител",
        "SYNC": "Синхр.",
        "TIME_LBL": "Час:",
        "SET_TIME": "Задаване на час",
        "NEW_USER": "Добавяне на дневник за нов потребител",
        "NEW_USER_CREATED": "Новият потребител е създаден.",
        "TIME_ZONE_SET_CONFIRM": "Наистина ли искате да настроите часовата зона на {{{selectedTimeZone}}}? <br/> Приложението може да се рестартира, за да се приложи промяната.",
        "TIME_ZONE_SET_CONFIRM_NOCHANGE": "Наистина ли искате да настроите часовата зона на {{{selectedTimeZone}}}?",
        "TIME_ZONE_SET_HEADER": "Потвърждение на настройката на часовата зона",
        "TIME_ZONE_ERROR_HEADER": "Грешка на часова зона",
        "TIME_ZONE_ERROR_MSG": "Възникна грешка при получаването на списък на часовите зони. Моля, свържете се с центъра за поддръжка на ERT за допълнително съдействие.",
        "TIME_ZONE_SET_ERROR_MSG": "Възникна грешка при настройката на часовата зона. Моля, свържете се с центъра за поддръжка на ERT за допълнително съдействие.",
        "TIME_CONFIRMATION_INSTRUCTIONS": "Устройството трябва да потвърди Вашето местно време. Моля, въведете Вашите дата и час от надежден източник.",
        "LOW_BATTERY": "Предупреждение: Нивото на батерията е ниско. Моля, включете устройството да се зарежда.",
        "CRITICAL_BATTERY": "Предупреждение: Нивото на батерията е критично ниско. Моля, включете устройството да се зарежда или то ще се изключи.",
        "SITE_ADMINISTRATOR": "Администратор на обекта",
        "TIME_CONFIRMATION_HEADER": "Потвърждаване на дата/час",
        "TIMESLIP_ERROR": "Часът и датата на Вашето устройство са грешни. Моля, прехвърлете се на място, където има връзка с интернет, и опитайте отново. Ако все още имате проблеми, моля, свържете се отдела за обслужване на клиенти на ERT.",
        "P_AFFIDAVIT_HEADER": "<div><strong>Обект: {{{ getSiteCodeForSubject }}}</strong><br /><strong>ИД на пациент: {{{ getParticipantCodeForSubject }}}</strong></div>",
        "RESTART_NOTIFICATION_HEADER": "Изисква се рестартиране",
        "RESTART_NOTIFICATION_MSG": "Часовата зона е променена. Приложението ще се рестартира след {{{ timeZoneChangeRestartCountdown }}}.",
        "RESTART_NOW": "Рестартиране сега",
        "SECONDS": "секунди",
        "MINUTES": "минути",
        "SELECT_LANGUAGE": "Моля, изберете предпочитан език за участника.",
        "ACCEPT": "Приемам",
        "DECLINE": "Отхвърлям",
        "EULA": "ЛИЦЕНЗ ЗА КРАЙНИЯ ПОТРЕБИТЕЛ",
        "EULA_TEXT": "<p><strong><span class=\"text-underline\">ВАЖНО</span>:  НЕ ЩРАКВАЙТЕ ВЪРХУ БУТОНА „ПРИЕМАМ“, ДОКАТО НЕ ПРОЧЕТЕТЕ ТОВА СПОРАЗУМЕНИЕ.  С ЩРАКВАНЕ ВЪРХУ БУТОНА „ПРИЕМАМ“ ВИЕ ПРИЕМАТЕ ВСИЧКИ УСЛОВИЯ НА ТОВА СПОРАЗУМЕНИЕ.  АКО НЕ ПРИЕМАТЕ ВСИЧКИ УСЛОВИЯ НА ТОВА СПОРАЗУМЕНИЕ, (1) НЕ ЩРАКВАЙТЕ ВЪРХУ БУТОНА \"ПРИЕМАМ\", (2) ПРЕКРАТЕТЕ ПРОЦЕСА НА ИНСТАЛИРАНЕ И ЛИЦЕНЗИРАНЕ ЧРЕЗ ЩРАКВАНЕ ВЪРХУ БУТОНА \"ОТХВЪРЛЯМ\".</strong></p><p>eResearchTechnology, Inc. (\"Лицензиар\") Ви предоставя неизключително, непрехвърляемо право за използване на софтуера на eResearchTechnology, Inc., вграден в това устройство (\"Софтуер\"), във връзка с участието Ви в споразумението за клинично изпитване: <strong>{{{ clinicalTrial }}}</strong>.  Софтуерът на eResearchTechnology, Inc. е защитен от издадени патенти и други изчакващи патенти.  Това споразумение не Ви прехвърля някакви права на собственост за който и да е софтуер (или каквито и да било копия във връзка с това), а представлява само лиценз за използване на софтуера в съответствие с всички условия на това споразумение.   Правото на собственост върху софтуера и всички части от него, както и правата за интелектуална собственост и собственост, включени тук, ще са на Лицензора във всеки един момент.</p><p>Вие се съгласявате да не, директно или индиректно, (i) променяте проекта, разглобявате или декомпилирате софтуера; (ii) копирате, разпространявате, произвеждате, адаптирате, създавате негови производни, превеждате, локализирате, прехвърляте програми или по друг начин да променяте софтуера; или (iii) премахвате или променяте всички авторски права, търговски тайни или други юридически уведомления, съдържащи се в софтуера.  ВИЕ ПРИЕМАТЕ И СЕ СЪГЛАСЯВАТЕ, ЧЕ СОФТУЕРЪТ МОЖЕ ДА СЪДЪРЖА КОД, КОЙТО ПРЕДОТВРАТЯВА НЕУПЪЛНОМОЩЕНО ИЗПОЛЗВАНЕ НА СОФТУЕРА.</p><br><p>АКО СТЕ СЪГЛАСНИ С ВСИЧКО ИЗЛОЖЕНО ПО-ГОРЕ, моля, изберете – <strong>Приемам</strong> –Щракването върху \"Приемам\" означава, че приемате условията на лиценза.</p><p>АКО НЕ СТЕ СЪГЛАСНИ С ВСИЧКО ИЗЛОЖЕНО ПО-ГОРЕ или не сте упълномощени да изразявате съгласие, изберете – <strong>Отхвърлям</strong> – в този случай по-нататъшният достъп до софтуера ще бъде блокиран.  При упълномощаване може да го приемете по-късно.</p>",
        "HAND_DEVICE_SITE_TITLE": "Предаване на устройство на потребител на обект",
        "HAND_DEVICE_SITE_BODY": "Моля, предайте устройството на потребителя на обекта.",
        "SQ-AL": "Албански език",
        "IMAGE_FOLDER": "{{{ imageFolder }}}",
        "MODAL_OK_TEXT": "OK",
        "BROWSER_LOAD_ERROR": "Страницата не е намерена. Моля, проверете Вашата интернет връзка и опитайте отново.",
		"NONEXISTENT_USER" : "Потребителят не е намерен.",
		"NO_USER_OF_ROLE" : "Не е намерен потребител с тази роля.",
		"START_VISIT_OUTSIDE_WINDOW_MSG": "Влезте в {{{ getVisitName }}} извън конфигурирания времеви прозорец: {{{ startDate }}} - {{{ endDate }}}",
		"START_VISIT_HARD_STOP_MSG" : "Не сте в състояние да влезете в {{{ getVisitName }}} извън конфигурирания времеви прозорец: {{{ startDate }}} - {{{ endDate }}}",
		"YES" : "Да",
		"NO" : "НЕ"
    },
    "dates": {
        "setDateButtonLabel": "OK",
        "setTimeButtonLabel": "OK",
        "setDurationButtonLabel": "Задаване на продължителността",
        "calTodayButtonLabel": "Прескачане на днешна дата",
        "titleDateDialogLabel": "Задаване на дата",
        "titleTimeDialogLabel": "Задаване на час",
        "daysOfWeek": [
            "неделя",
            "понеделник",
            "вторник",
            "сряда",
            "четвъртък",
            "петък",
            "събота"
        ],
        "daysOfWeekShort": [
            "не",
            "по",
            "вт",
            "ср",
            "че",
            "пе",
            "съ"
        ],
        "monthsOfYear": [
            "януари",
            "февруари",
            "март",
            "април",
            "май",
            "юни",
            "юли",
            "август",
            "септември",
            "октомври",
            "ноември",
            "декември"
        ],
        "monthsOfYearShort": [
            "яну",
            "фев",
            "мар",
            "апр",
            "май",
            "юни",
            "юли",
            "авг",
            "сеп",
            "окт",
            "ное",
            "дек"
        ],
        "durationLabel": [
            "Дни",
            "Часове",
            "Минути",
            "Секунди"
        ],
        "durationDays": [
            "Ден",
            "Дни"
        ],
        "tooltip": "Отваряне на избирач на дата",
        "nextMonth": "Следващ месец",
        "prevMonth": "Предходен месец",
        "clearButton": "Изчистване",
        "meridiem": [
            "преди обед",
            "следобед"
        ]
    }
}
