{
    "namespace" : "STUDY",
    "language"  : "sr",
    "locale"    : "RS",
    "direction" : "ltr",
    "dateConfigs" : {
        "headerFormat": "%A, %d-%b-%Y",
        "dateFormat": "%d-%b-%Y",
        "shortDateFormat": "%d-%b-%Y",
        "timeOutput": "%k:%M",
        "durationFormat": "%Dd %DA, %Dl:%DM:%DS",
        "durationOrder": [
            "d",
            "h",
            "i",
            "s"
        ],
        "dateFieldOrder": [
            "m",
            "d",
            "y"
        ],
        "timeFieldOrder": [
            "h",
            "i",
            "a"
        ],
        "slideFieldOrder": [
            "y",
            "m",
            "d"
        ],
        "timeFormat": 24,
        "calStartDay": 0,
        "useArabicIndic": false
    }
}
